,time,n,sum,min,max,mean,std,q0.05,q0.25,q0.50,q0.75,q0.95
0,1,17404733,5475955.280000004,0.0,0.91,0.31462449208499804,0.12719831276411694,0.12,0.12,0.34,0.41000000000000003,0.5
1,2,15852511,4916226.769999998,0.0,0.89,0.31012290545012067,0.1282718580807862,0.13,0.13,0.33,0.41000000000000003,0.5
2,3,17404733,4089597.490000005,0.0,0.9500000000000001,0.23497042384965083,0.12498242441269025,0.12,0.12,0.17,0.33,0.48
3,4,16843290,3168751.7199999983,0.0,0.88,0.18813139950686583,0.08612137276274438,0.12,0.12,0.16,0.19,0.41000000000000003
4,5,17404733,3152592.3700000057,0.0,0.87,0.18113419895611185,0.0505211966763454,0.13,0.13,0.18,0.19,0.23
5,6,16843290,2952108.579999999,0.0,0.84,0.17526911785049115,0.02975092520147918,0.13,0.13,0.18,0.19,0.21
6,7,17404733,2995224.4399999976,0.01,0.66,0.1720925244874482,0.02529015996465241,0.13,0.13,0.17,0.19,0.21
7,8,17404733,2892479.370000004,0.02,0.68,0.16618924116790554,0.02456695515984715,0.12,0.12,0.17,0.18,0.2
8,9,16843290,2647474.160000001,0.01,0.71,0.15718272142793963,0.02361475988017874,0.12,0.12,0.16,0.17,0.19
9,10,17404733,2580445.8600000013,0.0,0.88,0.14826115746791413,0.03123268519241711,0.11,0.11,0.15,0.16,0.18
10,11,16843290,3049811.160000002,0.0,0.87,0.18106980049622146,0.08820531938732307,0.11,0.11,0.15,0.18,0.39
11,12,17404751,4114568.86,0.0,0.88,0.23640492529884513,0.1227944701259842,0.11,0.11,0.17,0.34,0.46
