,time,n,sum,min,max,mean,std,q0.05,q0.25,q0.50,q0.75,q0.95
0,2002-01-01,1345844,241985.68,0.02,0.67,0.17980217618089467,0.0552447804421062,0.12,0.12,0.18,0.2,0.24
1,2003-01-01,1526149,338504.36999999976,0.02,0.84,0.22180296288239207,0.1149484821794624,0.12,0.12,0.19,0.22,0.51
2,2004-01-01,1423381,303429.91000000003,0.01,0.92,0.21317546742579818,0.11109181699019223,0.11,0.11,0.18,0.22,0.5
3,2005-01-01,1516492,356431.1600000002,0.02,0.96,0.2350366239980166,0.13101446069594894,0.12,0.12,0.19,0.23,0.54
4,2006-01-01,1548203,370564.8800000001,0.02,1.0,0.23935160957574692,0.13129394154465787,0.12,0.12,0.19,0.24,0.52
5,2007-01-01,1455806,269045.76999999996,0.01,0.85,0.18480880694268326,0.060173970480361376,0.12,0.12,0.18,0.21,0.25
6,2008-01-01,1456134,258917.6200000001,0.02,0.75,0.17781167117861413,0.046905200726036454,0.11,0.11,0.18,0.21,0.24
7,2009-01-01,1328259,258637.86999999997,0.02,0.89,0.19471945606993815,0.07527684489061218,0.12,0.12,0.18,0.21,0.37
8,2010-01-01,1437486,341764.76999999996,0.01,0.9400000000000001,0.23775172071241038,0.12350599972996597,0.13,0.13,0.2,0.23,0.52
9,2011-01-01,1467352,280838.76,0.02,0.98,0.1913915406800822,0.07299960338902416,0.12,0.12,0.18,0.21,0.27
10,2012-01-01,1394523,283129.4300000001,0.01,0.99,0.20302958789492903,0.09165793024726093,0.12,0.12,0.18,0.21,0.45
11,2013-01-01,1299895,263527.1600000001,0.02,0.9500000000000001,0.2027295743117714,0.09053144208386961,0.12,0.12,0.18,0.21,0.44
12,2014-01-01,1368123,245039.53000000006,0.01,0.88,0.1791063595890136,0.0473846502906436,0.11,0.11,0.18,0.2,0.24
13,2015-01-01,1504671,279504.67,0.02,0.85,0.1857579962662934,0.07183462534157434,0.11,0.11,0.18,0.2,0.32
14,2016-01-01,1421594,262077.95999999985,0.02,0.84,0.18435499868457508,0.061554253412600984,0.11,0.11,0.18,0.21,0.25
15,2017-01-01,1493547,312017.29000000015,0.01,0.89,0.20891025859916035,0.09232167807375373,0.12,0.12,0.19,0.22,0.45
16,2018-01-01,1487376,287270.28000000014,0.01,0.98,0.19313897763578283,0.0736712179149754,0.11,0.11,0.18,0.21,0.34
17,2019-01-01,1573354,293202.5200000001,0.01,0.91,0.1863550860137007,0.06500134310390898,0.12,0.12,0.18,0.21,0.26
