,time,n,sum,min,max,mean,std,q0.05,q0.25,q0.50,q0.75,q0.95
0,2003-01-01,52099005,7478734.940000023,0.0,0.67,0.14354851767322663,0.0503162328196127,0.08,0.08,0.13,0.16,0.25
1,2004-01-01,52241742,7553088.289999974,0.0,0.7000000000000001,0.14457956417303186,0.054819900324464925,0.08,0.08,0.13,0.16,0.26
2,2005-01-01,52099005,7499030.5299999975,0.0,0.74,0.14393807578474863,0.05559327886444851,0.08,0.08,0.13,0.16,0.26
3,2006-01-01,52099005,7509110.810000013,0.0,0.7000000000000001,0.1441315589424407,0.05320504698873124,0.08,0.08,0.13,0.16,0.26
4,2007-01-01,52099005,7274846.789999985,0.0,0.72,0.13963504274217878,0.04789486376157211,0.08,0.08,0.13,0.16,0.24
5,2008-01-01,52241742,7178489.249999993,0.0,0.7000000000000001,0.13740907127484364,0.04811990265688785,0.08,0.08,0.13,0.16,0.24
6,2009-01-01,52099005,7541059.760000008,0.0,0.64,0.1447447942623858,0.054063805554167815,0.08,0.08,0.13,0.16,0.26
7,2010-01-01,52099005,7835635.590000011,0.0,0.71,0.15039894888587624,0.056247819955093696,0.09,0.09,0.14,0.17,0.27
8,2011-01-01,52099005,7099723.930000007,0.0,0.6900000000000001,0.13627369524619534,0.04529618704466209,0.08,0.08,0.13,0.15,0.23
9,2012-01-01,52241742,7490851.600000012,0.0,0.62,0.1433882430643299,0.052005306908137816,0.08,0.08,0.13,0.16,0.26
10,2013-01-01,52099005,7788953.080000004,0.0,0.74,0.14950291430709672,0.057014667735598885,0.08,0.08,0.14,0.17,0.27
11,2014-01-01,52099005,7102115.759999999,0.0,0.66,0.1363196045682638,0.04643289150251463,0.08,0.08,0.13,0.15,0.23
12,2015-01-01,52099005,7172828.800000007,0.0,0.61,0.13767688653554913,0.04747035683400659,0.08,0.08,0.13,0.16,0.23
13,2016-01-01,52241742,7281187.460000005,0.0,0.66,0.13937489795037855,0.047245580266115875,0.08,0.08,0.13,0.16,0.24
14,2017-01-01,52099005,7353538.080000015,0.0,0.61,0.1411454610313578,0.048108664779187,0.08,0.08,0.13,0.16,0.24
15,2018-01-01,52099005,7442338.140000009,0.0,0.74,0.14284990932168493,0.05301310226211953,0.08,0.08,0.13,0.16,0.26
16,2019-01-01,52099005,7327496.489999993,0.0,0.62,0.140645612905659,0.04979341780368479,0.08,0.08,0.13,0.16,0.25
