,time,n,sum,min,max,mean,std,q0.05,q0.25,q0.50,q0.75,q0.95
0,2003-01-01,175441630,32167527.99000009,0.0,0.93,0.18335173920807787,0.10940898180280485,0.1,0.1,0.15,0.19,0.44
1,2004-01-01,175922292,31679960.269999776,0.0,0.98,0.18007928335767576,0.10879848024319941,0.09,0.09,0.15,0.19,0.43
2,2005-01-01,175441630,30937020.979999695,0.0,0.99,0.17633797052614988,0.10526991380556472,0.09,0.09,0.15,0.19,0.41000000000000003
3,2006-01-01,175441630,31912902.189999733,0.0,0.98,0.18190039724322973,0.10868564988858877,0.09,0.09,0.15,0.19,0.44
4,2007-01-01,175441630,31788716.62999991,0.0,0.9400000000000001,0.18119255179058646,0.10977326247857881,0.09,0.09,0.15,0.19,0.44
5,2008-01-01,175922292,31239256.619999934,0.0,0.9500000000000001,0.17757417928593117,0.1054477359163053,0.09,0.09,0.15,0.19,0.41000000000000003
6,2009-01-01,175441630,32168532.640000064,0.0,0.9500000000000001,0.18335746561406244,0.10986012951507125,0.1,0.1,0.15,0.19,0.44
7,2010-01-01,175441630,31229555.78999949,0.0,1.0,0.17800539011179667,0.10723435194888407,0.09,0.09,0.15,0.19,0.42
8,2011-01-01,175441630,31384878.289999712,0.0,0.9500000000000001,0.17889071305367896,0.10620535275530428,0.09,0.09,0.15,0.19,0.42
9,2012-01-01,175922292,32439477.099999603,0.0,0.9500000000000001,0.1843966260967064,0.1103976410290537,0.1,0.1,0.15,0.19,0.45
10,2013-01-01,175441630,32070570.900000043,0.0,0.9500000000000001,0.18279909335087713,0.11104511820833164,0.09,0.09,0.15,0.19,0.45
11,2014-01-01,175441630,31956691.189999904,0.0,0.93,0.18214999022751843,0.10920854518481314,0.09,0.09,0.15,0.19,0.44
12,2015-01-01,175441630,31870472.930000126,0.0,0.99,0.1816585546429324,0.10822361036798395,0.09,0.09,0.15,0.19,0.43
13,2016-01-01,175922292,31719937.93000025,0.0,0.9500000000000001,0.18030652948746398,0.10945898786539746,0.09,0.09,0.15,0.19,0.44
14,2017-01-01,175441630,30419941.680000078,0.0,0.93,0.1733906694779345,0.09693970568314982,0.09,0.09,0.15,0.19,0.38
15,2018-01-01,175441630,31319794.750000525,0.0,0.96,0.17851974329012177,0.10560753680124028,0.09,0.09,0.15,0.19,0.42
16,2019-01-01,175441630,31704773.120000206,0.0,1.0,0.18071408205680833,0.1085509759296082,0.09,0.09,0.15,0.19,0.43
