,time,n,sum,min,max,mean,std,q0.05,q0.25,q0.50,q0.75,q0.95
0,2020-01-01,52241742,6886319.399999975,0.0,0.6,0.13181641990422094,0.042138571851501855,0.07,0.07,0.13,0.15,0.21
1,2021-01-01,52099005,6871151.650000006,0.0,0.61,0.13188642758148655,0.039496844600903226,0.08,0.08,0.13,0.15,0.2
2,2022-01-01,52099005,6706042.77999998,0.0,0.58,0.1287172908580496,0.03723207651506645,0.08,0.08,0.13,0.15,0.19
3,2023-01-01,52099005,6819774.1799999755,0.0,0.61,0.13090027688628555,0.03981545844154536,0.08,0.08,0.13,0.15,0.2
4,2024-01-01,52241742,6614746.170000044,0.0,0.59,0.12661802452912163,0.038276507521367874,0.07,0.07,0.12,0.15,0.19
5,2025-01-01,52099005,6839821.820000014,0.0,0.61,0.13128507578983542,0.039149480399632335,0.08,0.08,0.13,0.15,0.2
6,2026-01-01,52099005,6905603.750000001,0.0,0.61,0.13254770892457546,0.04250281963183021,0.08,0.08,0.13,0.15,0.21
7,2027-01-01,52099005,6807572.840000026,0.0,0.6,0.13066608162670335,0.0380989625810595,0.08,0.08,0.13,0.15,0.2
8,2028-01-01,52241742,6763449.159999982,0.0,0.61,0.12946446464208605,0.03864268995336269,0.08,0.08,0.13,0.15,0.2
9,2029-01-01,52099005,6817299.080000028,0.0,0.61,0.13085276926114095,0.039312538292061015,0.08,0.08,0.13,0.15,0.2
10,2030-01-01,52099005,6805994.240000004,0.0,0.58,0.1306357816238526,0.03952901251399573,0.08,0.08,0.13,0.15,0.2
11,2031-01-01,52099005,6755856.079999989,0.0,0.62,0.12967341852305989,0.03974457328196686,0.07,0.07,0.13,0.15,0.2
12,2032-01-01,52241742,6709330.950000012,0.0,0.62,0.1284285457020176,0.036583140273288954,0.08,0.08,0.13,0.15,0.19
13,2033-01-01,52099005,6900220.009999988,0.0,0.62,0.1324443722101792,0.03838794872221166,0.08,0.08,0.13,0.15,0.2
14,2034-01-01,52099005,6683675.349999989,0.0,0.61,0.1282879653843675,0.036449535562193,0.08,0.08,0.12,0.15,0.19
15,2035-01-01,52099005,6786692.219999986,0.0,0.61,0.13026529431800063,0.03847652752002664,0.08,0.08,0.13,0.15,0.2
16,2036-01-01,52241742,6860554.450000009,0.0,0.61,0.13132323286616301,0.04159943361939667,0.07,0.07,0.13,0.15,0.21
17,2037-01-01,52099005,6816111.089999975,0.0,0.62,0.13082996671433503,0.040875223432696985,0.07,0.07,0.13,0.15,0.2
18,2038-01-01,52099005,6829000.54000002,0.0,0.61,0.1310773697117636,0.039284255292393176,0.08,0.08,0.13,0.15,0.2
19,2039-01-01,52099005,6808142.39,0.0,0.61,0.13067701369728654,0.03931555711611453,0.08,0.08,0.13,0.15,0.2
20,2040-01-01,52241742,6716895.340000008,0.0,0.59,0.12857334160105166,0.037386664427973164,0.08,0.08,0.12,0.15,0.19
21,2041-01-01,52099005,6874392.280000015,0.0,0.6,0.13194862896134035,0.039217002216633386,0.08,0.08,0.13,0.15,0.2
22,2042-01-01,52099005,7028884.679999997,0.0,0.62,0.13491399077583147,0.04074718043049638,0.08,0.08,0.13,0.15,0.21
23,2043-01-01,52099005,6917627.769999994,0.0,0.61,0.132778500664264,0.04265348936352565,0.08,0.08,0.13,0.15,0.21
24,2044-01-01,52241742,6704640.750000014,0.0,0.64,0.1283387669193729,0.03687978911735549,0.08,0.08,0.13,0.15,0.19
25,2045-01-01,52099005,6655921.439999977,0.0,0.6,0.12775525060411377,0.03728236971143046,0.07,0.07,0.12,0.15,0.19
26,2046-01-01,52099005,6620266.52,0.0,0.58,0.1270708820638705,0.035722854920547734,0.07,0.07,0.12,0.15,0.19
27,2047-01-01,52099005,6571603.19,0.0,0.58,0.12613682718124847,0.037006898013986565,0.07,0.07,0.12,0.14,0.19
28,2048-01-01,52241742,6884733.959999993,0.0,0.64,0.1317860717584799,0.04191765602071893,0.07,0.07,0.13,0.15,0.21
29,2049-01-01,52099005,6926797.099999987,0.0,0.61,0.13295449884311583,0.04090110640478287,0.08,0.08,0.13,0.15,0.21
30,2050-01-01,52099005,6628649.590000015,0.0,0.61,0.12723178859174017,0.037269681631508615,0.07,0.07,0.12,0.15,0.19
31,2051-01-01,52099005,6838152.630000001,0.0,0.62,0.1312530369821842,0.03999500958974794,0.08,0.08,0.13,0.15,0.2
32,2052-01-01,52241742,6631259.969999999,0.0,0.6,0.12693412807712268,0.03829130765356967,0.07,0.07,0.12,0.15,0.19
33,2053-01-01,52099005,6808637.430000002,0.0,0.67,0.13068651560620018,0.03851032365940588,0.08,0.08,0.13,0.15,0.2
34,2054-01-01,52099005,6550588.679999988,0.0,0.58,0.12573346995782334,0.03643264726745448,0.07,0.07,0.12,0.14,0.19
35,2055-01-01,52099005,6798683.8100000005,0.0,0.61,0.13049546358898795,0.03834441405832713,0.08,0.08,0.13,0.15,0.2
36,2056-01-01,52241742,6935104.139999998,0.0,0.61,0.13275024672799,0.04108589565889324,0.08,0.08,0.13,0.15,0.21
37,2057-01-01,52099005,6810282.009999989,0.0,0.62,0.13071808204398508,0.038896869098141246,0.08,0.08,0.13,0.15,0.2
38,2058-01-01,52099005,6709903.020000011,0.0,0.59,0.12879138517136768,0.035791741434806845,0.08,0.08,0.13,0.15,0.19
39,2059-01-01,52099005,6777141.909999978,0.0,0.61,0.1300819835234853,0.04033916219386941,0.07,0.07,0.13,0.15,0.2
40,2060-01-01,52241742,6849790.599999992,0.0,0.61,0.13111719360353627,0.0408985441974184,0.08,0.08,0.13,0.15,0.21
41,2061-01-01,52099005,6930538.48,0.0,0.6,0.13302631173090543,0.04204309777647149,0.08,0.08,0.13,0.15,0.21
42,2062-01-01,52099005,6684914.469999984,0.0,0.6,0.12831174933187273,0.035696480519182505,0.08,0.08,0.12,0.15,0.19
43,2063-01-01,52099005,6666268.119999998,0.0,0.62,0.127953847103222,0.03579150170175399,0.08,0.08,0.12,0.15,0.19
44,2064-01-01,52241742,6827442.010000015,0.0,0.6,0.13068940178143398,0.04011446684958977,0.08,0.08,0.13,0.15,0.2
45,2065-01-01,52099005,6739421.229999995,0.0,0.61,0.12935796432196728,0.038820895101213886,0.08,0.08,0.13,0.15,0.2
46,2066-01-01,52099005,6810688.830000016,0.0,0.62,0.13072589063841078,0.041297435818023503,0.07,0.07,0.13,0.15,0.21
47,2067-01-01,52099005,6707292.079999993,0.0,0.64,0.12874127020276094,0.036859108573758764,0.08,0.08,0.12,0.15,0.19
48,2068-01-01,52241742,6565038.10999999,0.0,0.61,0.12566652371584375,0.03687615788245929,0.07,0.07,0.12,0.14,0.19
49,2069-01-01,52099005,6839316.329999994,0.0,0.62,0.131275373301275,0.03903745945914426,0.08,0.08,0.13,0.15,0.2
50,2070-01-01,52099005,6845023.560000004,0.0,0.62,0.1313849191553659,0.040212019639646955,0.08,0.08,0.13,0.15,0.2
51,2071-01-01,52099005,6666861.679999972,0.0,0.61,0.12796524002713625,0.03677009142270732,0.07,0.07,0.13,0.15,0.19
52,2072-01-01,52241742,6872109.280000003,0.0,0.62,0.13154441289496058,0.03708330582478068,0.08,0.08,0.13,0.15,0.2
53,2073-01-01,52099005,6583769.26999999,0.0,0.59,0.12637034565247438,0.03611384686741719,0.07,0.07,0.12,0.15,0.19
54,2074-01-01,52099005,6660045.929999991,0.0,0.58,0.12783441699126483,0.03667010305793835,0.07,0.07,0.12,0.15,0.19
55,2075-01-01,52099005,6993709.990000012,0.0,0.65,0.1342388398780363,0.040510564414244214,0.08,0.08,0.13,0.15,0.21
56,2076-01-01,52241742,6947338.479999989,0.0,0.6,0.13298443378859742,0.04073743584038214,0.08,0.08,0.13,0.15,0.21
57,2077-01-01,52099005,6671460.500000007,0.0,0.61,0.1280535108108112,0.039691348203074246,0.07,0.07,0.12,0.15,0.2
58,2078-01-01,52099005,6590405.799999995,0.0,0.59,0.12649772869942516,0.03663290910918143,0.07,0.07,0.12,0.15,0.19
59,2079-01-01,52099005,6760805.470000021,0.0,0.61,0.12976841822602986,0.0387092016999518,0.08,0.08,0.13,0.15,0.2
60,2080-01-01,52241742,6941600.570000009,0.0,0.61,0.13287459997026915,0.03982453148442547,0.08,0.08,0.13,0.15,0.21
61,2081-01-01,52099005,6769008.519999996,0.0,0.62,0.12992586940959805,0.04019090003809215,0.07,0.07,0.13,0.15,0.2
62,2082-01-01,52099005,6419576.890000012,0.0,0.62,0.12321880024388204,0.03728031886842134,0.07,0.07,0.12,0.14,0.18
63,2083-01-01,52099005,6647413.17000003,0.0,0.61,0.12759194095933368,0.037166284126337795,0.07,0.07,0.12,0.15,0.19
64,2084-01-01,52241742,6664548.890000029,0.0,0.59,0.12757133730341588,0.03604825366737123,0.07,0.07,0.13,0.15,0.19
65,2085-01-01,52099005,7096260.770000015,0.0,0.62,0.1362072225755562,0.04158497121894351,0.08,0.08,0.13,0.15,0.22
66,2086-01-01,52099005,6829652.619999995,0.0,0.61,0.13108988588169765,0.03851001550778438,0.08,0.08,0.13,0.15,0.2
67,2087-01-01,52099005,6516511.950000013,0.0,0.53,0.1250793935507984,0.037532581259756566,0.07,0.07,0.12,0.14,0.19
68,2088-01-01,52241742,6732407.6799999885,0.0,0.6,0.12887027542075433,0.036728351887904034,0.08,0.08,0.13,0.15,0.19
69,2089-01-01,52099005,6779380.4099999955,0.0,0.61,0.13012494979510636,0.03793620500303783,0.08,0.08,0.13,0.15,0.2
70,2090-01-01,52099005,6720097.370000008,0.0,0.7000000000000001,0.12898705781425207,0.039623776405806,0.07,0.07,0.12,0.15,0.2
71,2091-01-01,52099005,6842630.6199999945,0.0,0.61,0.13133898852770787,0.03921722177442674,0.08,0.08,0.13,0.15,0.2
72,2092-01-01,52241742,6810036.960000017,0.0,0.63,0.13035623812085012,0.03887100987389675,0.08,0.08,0.13,0.15,0.2
73,2093-01-01,52099005,6546197.610000001,0.0,0.55,0.12564918677429637,0.03686024897365254,0.07,0.07,0.12,0.14,0.19
74,2094-01-01,52099005,6632128.459999987,0.0,0.54,0.12729856280364638,0.03525586521602209,0.08,0.08,0.12,0.15,0.19
75,2095-01-01,52099005,6732114.249999988,0.0,0.6,0.1292177125071772,0.03605238187732818,0.08,0.08,0.13,0.15,0.19
76,2096-01-01,52241742,6529952.439999999,0.0,0.58,0.12499492149400375,0.03678171295282912,0.07,0.07,0.12,0.14,0.18
77,2097-01-01,52099005,6845099.179999966,0.0,0.59,0.13138637062262448,0.037020057182332554,0.08,0.08,0.13,0.15,0.2
78,2098-01-01,52099005,6820452.429999987,0.0,0.62,0.13091329536907637,0.039697270117604565,0.08,0.08,0.13,0.15,0.2
79,2099-01-01,51956268,6738556.729999991,0.0,0.61,0.12969670435143632,0.03871663696226506,0.08,0.08,0.13,0.15,0.2
