,time,n,sum,min,max,mean,std,q0.05,q0.25,q0.50,q0.75,q0.95
0,2020-01-01,27262242,8232413.389999988,0.0,0.93,0.30197125350145404,0.18586160951530833,0.13,0.13,0.2,0.46,0.67
1,2021-01-01,27187755,8114794.750000014,0.0,0.92,0.2984724097300426,0.1840063715563382,0.13,0.13,0.19,0.44,0.67
2,2022-01-01,27187755,8239301.220000016,0.0,0.9400000000000001,0.30305191509927965,0.18586198575609542,0.13,0.13,0.2,0.46,0.67
3,2023-01-01,27187755,8046307.029999996,0.0,0.9500000000000001,0.29595334480540947,0.18667537300005294,0.13,0.13,0.19,0.44,0.67
4,2024-01-01,27262242,8220420.769999982,0.0,0.98,0.30153135497806755,0.18849550437543297,0.13,0.13,0.19,0.46,0.67
5,2025-01-01,27187755,8063393.990000023,0.0,0.91,0.29658182479575906,0.18594590114254714,0.13,0.13,0.19,0.45,0.67
6,2026-01-01,27187755,7720734.419999998,0.0,0.9,0.283978372616643,0.1768712602347232,0.13,0.13,0.19,0.4,0.66
7,2027-01-01,27187755,7886114.099999989,0.0,0.9,0.29006124632210306,0.18068527041220217,0.13,0.13,0.19,0.42,0.66
8,2028-01-01,27262242,7961907.989999991,0.0,0.93,0.2920489074229475,0.18561294825873464,0.13,0.13,0.19,0.43,0.67
9,2029-01-01,27187755,8019879.669999988,0.0,0.91,0.29498131309481007,0.1858373492295727,0.13,0.13,0.19,0.44,0.67
10,2030-01-01,27187755,8071968.0699999835,0.0,0.91,0.29689719029761685,0.18484424718425282,0.13,0.13,0.19,0.45,0.67
11,2031-01-01,27187755,8135104.050000006,0.0,0.9400000000000001,0.29921941145931347,0.18434233386245485,0.13,0.13,0.19,0.45,0.67
12,2032-01-01,27262242,8182115.020000005,0.0,0.9400000000000001,0.3001262706126666,0.1867316229991336,0.13,0.13,0.19,0.45,0.67
13,2033-01-01,27187755,8187377.4399999995,0.0,0.91,0.30114209282818677,0.1859039759520518,0.13,0.13,0.19,0.45,0.67
14,2034-01-01,27187755,8167674.27,0.0,0.93,0.3004173853265928,0.18560654865682705,0.13,0.13,0.19,0.45,0.67
15,2035-01-01,27187755,7804871.660000002,0.0,0.92,0.2870730466711945,0.18090335387373155,0.13,0.13,0.19,0.42,0.66
16,2036-01-01,27262242,8173421.270000016,0.0,0.9,0.2998073771775636,0.18551970216158117,0.13,0.13,0.19,0.45,0.67
17,2037-01-01,27187755,7979027.949999992,0.0,0.9,0.2934787351879547,0.18470200747909776,0.13,0.13,0.19,0.44,0.67
18,2038-01-01,27187755,7792971.179999998,0.0,0.89,0.28663533197205865,0.1786634537791172,0.13,0.13,0.19,0.41000000000000003,0.66
19,2039-01-01,27187755,8001832.990000003,0.0,0.9400000000000001,0.294317533389572,0.18550213086213552,0.13,0.13,0.19,0.44,0.67
20,2040-01-01,27262242,8258879.270000006,0.0,0.91,0.3029420423309281,0.18658491825041812,0.13,0.13,0.2,0.46,0.67
21,2041-01-01,27187755,8020833.01999999,0.0,0.91,0.29501637851304713,0.18550397277943093,0.13,0.13,0.19,0.45,0.67
22,2042-01-01,27187755,7542119.050000001,0.0,0.9,0.2774086735002578,0.16667192627412963,0.13,0.13,0.19,0.39,0.63
23,2043-01-01,27187755,8071596.329999985,0.0,0.9,0.2968835172304585,0.18591784620950838,0.13,0.13,0.19,0.45,0.67
24,2044-01-01,27262242,7975957.149999995,0.0,0.93,0.2925642414149209,0.1810093118921152,0.13,0.13,0.19,0.43,0.67
25,2045-01-01,27187755,8091795.62000001,0.0,0.93,0.2976264726528546,0.1860823135822008,0.13,0.13,0.19,0.44,0.67
26,2046-01-01,27187755,8076896.1399999885,0.0,0.91,0.29707845094234475,0.1865407725698702,0.13,0.13,0.19,0.45,0.67
27,2047-01-01,27187755,8177431.860000014,0.0,0.9500000000000001,0.3007762818224607,0.18718946225567304,0.13,0.13,0.19,0.45,0.67
28,2048-01-01,27262242,7840910.270000009,0.0,0.91,0.28761061801153437,0.1843729551237289,0.13,0.13,0.18,0.43,0.67
29,2049-01-01,27187755,8028194.179999996,0.0,0.93,0.2952871312839179,0.18526486947274473,0.13,0.13,0.19,0.44,0.67
30,2050-01-01,27187755,7717686.640000015,0.0,0.91,0.283866271415202,0.17956590661775898,0.13,0.13,0.19,0.4,0.67
31,2051-01-01,27187755,7556903.490000009,0.0,0.88,0.2779524638941321,0.17142096454969497,0.13,0.13,0.19,0.39,0.64
32,2052-01-01,27262242,8173787.9899999965,0.0,0.9400000000000001,0.2998208287491541,0.18543477470699724,0.13,0.13,0.19,0.45,0.67
33,2053-01-01,27187755,7947934.199999997,0.0,0.92,0.29233506775384716,0.18504921106733155,0.13,0.13,0.19,0.44,0.67
34,2054-01-01,27187755,7955470.3799999915,0.0,0.9500000000000001,0.29261225798157997,0.18354331793503578,0.13,0.13,0.19,0.44,0.67
35,2055-01-01,27187755,7722774.710000007,0.0,0.89,0.28405341706220344,0.18045423780541292,0.13,0.13,0.19,0.41000000000000003,0.66
36,2056-01-01,27262242,7980943.0000000065,0.0,0.89,0.2927471262268161,0.18306969456446537,0.13,0.13,0.19,0.43,0.67
37,2057-01-01,27187755,8114684.8100000005,0.0,0.92,0.2984683659978546,0.1858170455676079,0.13,0.13,0.19,0.45,0.67
38,2058-01-01,27187755,7950629.999999991,0.0,0.91,0.292434222685911,0.18535825239681109,0.13,0.13,0.19,0.44,0.67
39,2059-01-01,27187755,7823361.8899999745,0.0,0.89,0.2877531407061736,0.18332944531902687,0.13,0.13,0.19,0.42,0.67
40,2060-01-01,27262242,7894649.490000013,0.0,0.9,0.28958181392418175,0.18569461871926146,0.13,0.13,0.19,0.43,0.67
41,2061-01-01,27187755,8133218.279999982,0.0,0.9400000000000001,0.2991500504546985,0.18622776744000624,0.13,0.13,0.19,0.45,0.67
42,2062-01-01,27187755,8306371.490000003,0.0,0.91,0.30551884442095356,0.18623741727366186,0.13,0.13,0.2,0.46,0.67
43,2063-01-01,27187755,8102012.420000006,0.0,0.9400000000000001,0.2980022594730608,0.187050377130803,0.13,0.13,0.19,0.45,0.67
44,2064-01-01,27262242,7993619.059999988,0.0,0.9,0.29321209385493635,0.1868703525679498,0.13,0.13,0.19,0.44,0.67
45,2065-01-01,27187755,7908846.830000015,0.0,0.88,0.29089738487050565,0.18515422882463037,0.13,0.13,0.19,0.43,0.67
46,2066-01-01,27187755,8054506.629999994,0.0,0.9,0.29625493645944634,0.18649493970390157,0.13,0.13,0.19,0.44,0.67
47,2067-01-01,27187755,8095116.110000013,0.0,0.9500000000000001,0.29774860447285967,0.1871001998289228,0.13,0.13,0.19,0.45,0.67
48,2068-01-01,27262242,8110112.89000004,0.0,0.91,0.2974851771178629,0.1874367395593935,0.13,0.13,0.19,0.45,0.67
49,2069-01-01,27187755,7916601.270000021,0.0,0.91,0.29118260297696597,0.18301805900870788,0.13,0.13,0.19,0.43,0.67
50,2070-01-01,27187755,8085699.380000002,0.0,0.93,0.2974022452387114,0.18627063146130104,0.13,0.13,0.19,0.45,0.67
51,2071-01-01,27187755,8043637.280000012,0.0,0.9500000000000001,0.29585514802527874,0.18445816418670186,0.13,0.13,0.19,0.44,0.67
52,2072-01-01,27262242,8036155.320000021,0.0,0.92,0.2947723565802116,0.18306535086999376,0.13,0.13,0.19,0.44,0.67
53,2073-01-01,27187755,8060714.250000013,0.0,0.93,0.2964832605707979,0.18693096654031724,0.13,0.13,0.19,0.45,0.67
54,2074-01-01,27187755,7935755.749999991,0.0,0.88,0.2918871289666981,0.18575578216748923,0.13,0.13,0.19,0.43,0.67
55,2075-01-01,27187755,8035119.29000002,0.0,0.9,0.2955418455845295,0.18556420942587973,0.13,0.13,0.19,0.44,0.67
56,2076-01-01,27262242,7644226.85,0.0,0.9,0.2803961189252153,0.17512476181477488,0.13,0.13,0.19,0.4,0.65
57,2077-01-01,27187755,7959720.890000022,0.0,0.91,0.292768597112929,0.1856940986726925,0.13,0.13,0.19,0.44,0.67
58,2078-01-01,27187755,8033621.999999999,0.0,0.93,0.295486773365436,0.18385787350810154,0.13,0.13,0.19,0.44,0.67
59,2079-01-01,27187755,7484982.720000016,0.0,0.91,0.2753071270503951,0.17638529521247154,0.12,0.12,0.18,0.38,0.66
60,2080-01-01,27262242,8028702.749999991,0.0,0.92,0.2944989905819188,0.18684960688819058,0.13,0.13,0.19,0.45,0.67
61,2081-01-01,27187755,8052159.509999998,0.0,0.91,0.296168606418588,0.18470399752407668,0.13,0.13,0.19,0.44,0.67
62,2082-01-01,27187755,8157773.669999995,0.0,0.89,0.30005322874213025,0.1846989094732214,0.13,0.13,0.19,0.45,0.66
63,2083-01-01,27187755,7668866.969999983,0.0,0.89,0.28207062223416324,0.17934407803508012,0.13,0.13,0.18,0.4,0.66
64,2084-01-01,27262242,7824442.980000016,0.0,0.91,0.28700658515172806,0.17986496258838866,0.13,0.13,0.19,0.42,0.66
65,2085-01-01,27187755,7703725.1999999825,0.0,0.9400000000000001,0.2833527520017737,0.17616221927121264,0.13,0.13,0.19,0.41000000000000003,0.65
66,2086-01-01,27187755,7811742.04000001,0.0,0.9,0.2873257479332152,0.1813023812161592,0.13,0.13,0.19,0.42,0.67
67,2087-01-01,27187755,7973130.420000005,0.0,0.92,0.293261816578824,0.18362391722478116,0.13,0.13,0.19,0.44,0.67
68,2088-01-01,27262242,7604578.099999988,0.0,0.93,0.2789417722871064,0.1787386204051882,0.12,0.12,0.18,0.39,0.66
69,2089-01-01,27187755,7712104.229999991,0.0,0.91,0.28366094331804853,0.17804695893739358,0.13,0.13,0.19,0.41000000000000003,0.66
70,2090-01-01,27187755,7935334.769999994,0.0,0.9500000000000001,0.29187164479009003,0.1816722281595861,0.13,0.13,0.19,0.43,0.66
71,2091-01-01,27187755,7920963.530000005,0.0,0.9500000000000001,0.291343052414589,0.18338907417879874,0.13,0.13,0.19,0.43,0.67
72,2092-01-01,27262242,7223282.369999993,0.0,0.89,0.2649555517114107,0.16500743970809204,0.12,0.12,0.18,0.35000000000000003,0.63
73,2093-01-01,27187755,7782759.220000007,0.0,0.93,0.28625972317317144,0.180649914879081,0.13,0.13,0.19,0.41000000000000003,0.66
74,2094-01-01,27187755,7960112.89000001,0.0,0.9,0.2927830153684999,0.18571462219245144,0.13,0.13,0.19,0.44,0.67
75,2095-01-01,27187755,8268175.0000000065,0.0,0.93,0.3041139292302732,0.1865339155564993,0.13,0.13,0.2,0.46,0.67
76,2096-01-01,27262242,8344202.559999991,0.0,0.91,0.3060717662179065,0.18761511583417464,0.13,0.13,0.2,0.47000000000000003,0.67
77,2097-01-01,27187755,7978454.270000011,0.0,0.93,0.293457634512302,0.18536832806138015,0.13,0.13,0.19,0.44,0.67
78,2098-01-01,27187755,8192260.070000027,0.0,0.91,0.30132168213226973,0.18666596092573653,0.13,0.13,0.19,0.45,0.67
79,2099-01-01,27187755,8017342.87,0.0,0.91,0.29488800638375623,0.18713299355726631,0.13,0.13,0.19,0.45,0.67
80,2100-01-01,27187755,7915881.900000017,0.0,0.91,0.2911561436389293,0.18414316501089287,0.13,0.13,0.19,0.43,0.67
