,time,n,sum,min,max,mean,std,q0.05,q0.25,q0.50,q0.75,q0.95
0,2003-01-01,14066370,1728140.7500000014,0.0,0.65,0.1228561988629619,0.034159874850907095,0.08,0.08,0.12,0.14,0.19
1,2004-01-01,14104908,1690690.879999999,0.0,0.56,0.11986543123854469,0.034525647925345675,0.07,0.07,0.12,0.13,0.18
2,2005-01-01,14066370,1632689.7400000005,0.0,0.56,0.11607043892631862,0.03251371179906568,0.07,0.07,0.11,0.13,0.17
3,2006-01-01,14066370,1705517.6800000018,0.0,0.54,0.12124788982516468,0.0331439831084192,0.08,0.08,0.12,0.13,0.18
4,2007-01-01,14066370,1694674.1799999967,0.0,0.58,0.1204770086383336,0.03265755536647511,0.08,0.08,0.12,0.13,0.18
5,2008-01-01,14104908,1648912.9199999978,0.0,0.53,0.11690348636091762,0.029865619872347933,0.08,0.08,0.11,0.13,0.17
6,2009-01-01,14066370,1729565.0199999989,0.0,0.64,0.12295745242020499,0.03328290708011519,0.08,0.08,0.12,0.14,0.18
7,2010-01-01,14066370,1648133.690000001,0.0,0.58,0.1171683732192457,0.03365575628618817,0.07,0.07,0.11,0.13,0.17
8,2011-01-01,14066370,1682401.6599999974,0.0,0.59,0.11960453620941276,0.033761041038410856,0.07,0.07,0.12,0.13,0.18
9,2012-01-01,14104908,1740553.4500000014,0.0,0.64,0.1234005531975112,0.03439023392063067,0.08,0.08,0.12,0.14,0.19
10,2013-01-01,14066370,1718664.8100000028,0.0,0.6900000000000001,0.1221825396317602,0.034567506311491664,0.08,0.08,0.12,0.14,0.19
11,2014-01-01,14066370,1716233.3099999975,0.0,0.59,0.12200968053591633,0.03460196596710668,0.08,0.08,0.12,0.14,0.19
12,2015-01-01,14066370,1702597.9399999983,0.0,0.56,0.12104032099255162,0.03252023653494129,0.08,0.08,0.12,0.13,0.18
13,2016-01-01,14104908,1692218.2500000054,0.0,0.58,0.11997371765913009,0.03663036844350723,0.07,0.07,0.12,0.13,0.19
14,2017-01-01,14066370,1624496.4099999988,0.0,0.58,0.11548796242385198,0.029770817815298826,0.07,0.07,0.11,0.13,0.16
15,2018-01-01,14066370,1657223.2800000038,0.0,0.55,0.11781456623137339,0.03176881701384741,0.07,0.07,0.11,0.13,0.17
16,2019-01-01,14066370,1694359.1699999997,0.0,0.56,0.12045461409020236,0.03424327832414516,0.07,0.07,0.12,0.13,0.18
