,time,n,sum,min,max,mean,std,q0.05,q0.25,q0.50,q0.75,q0.95
0,2020-01-01,732,360.19000000000005,0.15,0.9400000000000001,0.4920628415300547,0.24796269635407367,0.19,0.19,0.44,0.7625,0.8300000000000001
1,2021-01-01,730,347.5400000000001,0.14,0.9500000000000001,0.476082191780822,0.24699008650865376,0.18,0.18,0.465,0.72,0.84
2,2022-01-01,730,340.39000000000004,0.15,0.91,0.4662876712328768,0.2368886206957286,0.18,0.18,0.44,0.71,0.8300000000000001
3,2023-01-01,730,353.03000000000003,0.15,0.9,0.48360273972602746,0.24812619633477315,0.17,0.17,0.475,0.74,0.8354999999999996
4,2024-01-01,732,331.18999999999994,0.14,0.87,0.4524453551912567,0.242025612874276,0.18,0.18,0.41000000000000003,0.73,0.81
5,2025-01-01,730,342.59,0.13,0.93,0.4693013698630137,0.25631141081347114,0.18,0.18,0.44,0.75,0.84
6,2026-01-01,730,320.78000000000003,0.17,0.85,0.43942465753424664,0.21727376316327127,0.18,0.18,0.37,0.63,0.8
7,2027-01-01,730,342.72,0.15,0.9400000000000001,0.4694794520547946,0.24921026549301098,0.18,0.18,0.45,0.73,0.84
8,2028-01-01,732,340.08,0.13,0.96,0.4645901639344262,0.2528357667154199,0.18,0.18,0.36,0.73,0.8444999999999993
9,2029-01-01,730,345.6,0.16,0.91,0.4734246575342466,0.2364614665128986,0.18,0.18,0.45,0.73,0.8
10,2030-01-01,730,353.74,0.14,0.89,0.48457534246575346,0.25150483629480613,0.18,0.18,0.455,0.75,0.84
11,2031-01-01,730,337.15999999999997,0.14,0.89,0.4618630136986301,0.24537493341228236,0.18,0.18,0.46,0.7275,0.8300000000000001
12,2032-01-01,732,339.92999999999995,0.15,0.9500000000000001,0.46438524590163927,0.2421895324294222,0.18,0.18,0.425,0.7124999999999999,0.8344999999999994
13,2033-01-01,730,351.77,0.14,0.9500000000000001,0.4818767123287671,0.24127722049318548,0.18,0.18,0.47000000000000003,0.72,0.85
14,2034-01-01,730,354.01,0.15,0.91,0.484945205479452,0.24979347032994742,0.18,0.18,0.46,0.75,0.8200000000000001
15,2035-01-01,730,332.08000000000004,0.14,0.88,0.45490410958904115,0.23525224960032878,0.18,0.18,0.43,0.7000000000000001,0.8
16,2036-01-01,732,347.84000000000003,0.14,0.9400000000000001,0.47519125683060115,0.2427193200774457,0.18,0.18,0.48,0.72,0.8300000000000001
17,2037-01-01,730,331.71999999999997,0.16,0.96,0.45441095890410954,0.2471364680748375,0.18,0.18,0.43,0.7000000000000001,0.8354999999999996
18,2038-01-01,730,350.72,0.15,0.96,0.4804383561643836,0.2487449585805019,0.18,0.18,0.485,0.73,0.8200000000000001
19,2039-01-01,730,339.43,0.16,0.9500000000000001,0.464972602739726,0.24508664794887294,0.18,0.18,0.4,0.73,0.8300000000000001
20,2040-01-01,732,355.83,0.15,0.92,0.48610655737704916,0.2457552307770245,0.18,0.18,0.51,0.73,0.8300000000000001
21,2041-01-01,730,336.55,0.13,0.89,0.461027397260274,0.24922875406367112,0.19,0.19,0.39,0.74,0.8300000000000001
22,2042-01-01,730,303.24,0.15,0.85,0.4153972602739726,0.19520391443736979,0.17,0.17,0.42,0.59,0.71
23,2043-01-01,730,355.59000000000003,0.14,0.9500000000000001,0.4871095890410959,0.2607502380063709,0.18,0.18,0.435,0.76,0.85
24,2044-01-01,732,353.98,0.15,0.9400000000000001,0.48357923497267763,0.2416773760705225,0.18,0.18,0.5,0.73,0.8200000000000001
25,2045-01-01,730,336.83,0.15,0.9500000000000001,0.46141095890410955,0.23536577977875486,0.18,0.18,0.445,0.6900000000000001,0.8200000000000001
26,2046-01-01,730,349.89,0.16,0.91,0.4793013698630137,0.2515027266352649,0.18,0.18,0.45,0.74,0.85
27,2047-01-01,730,346.95,0.13,0.93,0.47527397260273974,0.24381049008604871,0.17,0.17,0.47000000000000003,0.73,0.8354999999999996
28,2048-01-01,732,315.52,0.14,0.91,0.4310382513661202,0.2487251949050374,0.18,0.18,0.31,0.7124999999999999,0.8200000000000001
29,2049-01-01,730,333.33000000000004,0.13,0.9,0.45661643835616444,0.24429418208588868,0.18,0.18,0.38,0.73,0.8200000000000001
30,2050-01-01,730,322.65999999999997,0.14,0.9500000000000001,0.44199999999999995,0.24319415548132314,0.17,0.17,0.36,0.7000000000000001,0.8
31,2051-01-01,730,350.35,0.15,0.9500000000000001,0.4799315068493151,0.24743366781063275,0.18,0.18,0.475,0.73,0.8
32,2052-01-01,732,333.89,0.12,0.91,0.4561338797814207,0.23975784368036593,0.18,0.18,0.42,0.7124999999999999,0.8200000000000001
33,2053-01-01,730,342.63,0.15,0.9400000000000001,0.46935616438356165,0.25365599992434007,0.18,0.18,0.4,0.74,0.85
34,2054-01-01,730,329.67,0.13,0.96,0.45160273972602744,0.2475812438801878,0.18,0.18,0.405,0.6900000000000001,0.8300000000000001
35,2055-01-01,730,338.11,0.14,0.93,0.46316438356164386,0.25271400878922134,0.18,0.18,0.42,0.72,0.86
36,2056-01-01,732,352.98,0.17,0.9,0.4822131147540984,0.2505900543659483,0.18,0.18,0.45,0.74,0.8300000000000001
37,2057-01-01,730,346.20000000000005,0.15,0.92,0.47424657534246584,0.2394183465819872,0.18,0.18,0.45,0.7000000000000001,0.84
38,2058-01-01,730,343.61,0.15,0.89,0.4706986301369863,0.24116254877080381,0.18,0.18,0.43,0.73,0.8200000000000001
39,2059-01-01,730,328.26,0.13,0.9500000000000001,0.4496712328767123,0.25040165295498673,0.17,0.17,0.35000000000000003,0.72,0.85
40,2060-01-01,732,336.5,0.14,0.93,0.45969945355191255,0.2405161057050578,0.17,0.17,0.42,0.73,0.8144999999999993
41,2061-01-01,730,337.15,0.14,0.91,0.46184931506849314,0.23628750604555776,0.18,0.18,0.44,0.6975,0.8254999999999996
42,2062-01-01,730,333.32000000000005,0.14,0.87,0.45660273972602744,0.22644717184440508,0.18,0.18,0.45,0.68,0.8
43,2063-01-01,730,333.46000000000004,0.15,0.92,0.4567945205479453,0.23943111566389572,0.18,0.18,0.4,0.7000000000000001,0.84
44,2064-01-01,732,324.24999999999994,0.16,0.9400000000000001,0.44296448087431683,0.24443496535950882,0.19,0.19,0.34,0.72,0.85
45,2065-01-01,730,330.59000000000003,0.13,0.96,0.4528630136986302,0.2528752908878259,0.18,0.18,0.36,0.72,0.84
46,2066-01-01,730,334.48,0.15,0.91,0.45819178082191786,0.24092121474305048,0.17,0.17,0.44,0.71,0.8200000000000001
47,2067-01-01,730,345.86,0.14,0.9500000000000001,0.47378082191780824,0.2403552306326516,0.18,0.18,0.49,0.72,0.84
48,2068-01-01,732,344.35999999999996,0.13,0.9500000000000001,0.47043715846994527,0.2487626760624708,0.18,0.18,0.4,0.74,0.84
49,2069-01-01,730,318.28999999999996,0.13,0.97,0.43601369863013695,0.25168010752674974,0.16,0.16,0.32,0.7000000000000001,0.85
50,2070-01-01,730,334.59,0.15,0.91,0.45834246575342463,0.23625588166502295,0.18,0.18,0.425,0.6775,0.84
51,2071-01-01,730,345.73999999999995,0.15,0.9,0.4736164383561643,0.24349018320832064,0.18,0.18,0.465,0.72,0.84
52,2072-01-01,732,343.94000000000005,0.13,0.9400000000000001,0.46986338797814214,0.24997646429869294,0.18,0.18,0.45,0.72,0.85
53,2073-01-01,730,355.88,0.16,0.9,0.4875068493150685,0.2516794614642798,0.18,0.18,0.47000000000000003,0.75,0.8254999999999996
54,2074-01-01,730,342.86,0.16,0.96,0.46967123287671236,0.2509290165848371,0.17,0.17,0.46,0.73,0.8300000000000001
55,2075-01-01,730,344.29,0.14,0.9500000000000001,0.4716301369863014,0.24866041137996306,0.18,0.18,0.46,0.72,0.84
56,2076-01-01,732,345.85,0.14,0.85,0.47247267759562844,0.24256322609248365,0.18,0.18,0.45,0.73,0.8
57,2077-01-01,730,342.35,0.16,0.96,0.4689726027397261,0.2571538888235241,0.17,0.17,0.435,0.74,0.8554999999999995
58,2078-01-01,730,338.96000000000004,0.15,0.9400000000000001,0.46432876712328774,0.23510044806274175,0.18,0.18,0.45,0.6900000000000001,0.8200000000000001
59,2079-01-01,730,327.45000000000005,0.13,0.9400000000000001,0.4485616438356165,0.2462290662154909,0.17,0.17,0.34,0.72,0.8200000000000001
60,2080-01-01,732,368.42,0.14,0.9400000000000001,0.5033060109289618,0.2588594135332878,0.18,0.18,0.48,0.77,0.84
61,2081-01-01,730,343.46999999999997,0.15,0.9500000000000001,0.4705068493150685,0.23531067329550848,0.18,0.18,0.47000000000000003,0.7000000000000001,0.8300000000000001
62,2082-01-01,730,367.89,0.14,0.9,0.503958904109589,0.2419964303119584,0.2,0.2,0.495,0.75,0.8200000000000001
63,2083-01-01,730,329.77,0.16,0.91,0.45173972602739726,0.24053391111118927,0.17450000000000004,0.17450000000000004,0.34500000000000003,0.7075,0.8
64,2084-01-01,732,339.84000000000003,0.14,0.91,0.46426229508196726,0.23165035610903556,0.18,0.18,0.46,0.6825000000000001,0.8200000000000001
65,2085-01-01,730,300.81000000000006,0.16,0.9400000000000001,0.412068493150685,0.2206515152884731,0.18,0.18,0.32,0.61,0.8
66,2086-01-01,730,351.67,0.16,0.89,0.4817397260273973,0.2466173636187872,0.18,0.18,0.465,0.73,0.84
67,2087-01-01,730,341.89000000000004,0.13,0.9400000000000001,0.4683424657534247,0.24340645972327019,0.18,0.18,0.47000000000000003,0.73,0.81
68,2088-01-01,732,318.91,0.14,0.85,0.4356693989071039,0.23351838483962806,0.17,0.17,0.35000000000000003,0.66,0.79
69,2089-01-01,730,348.89,0.16,0.92,0.47793150684931507,0.24327271065009423,0.17,0.17,0.47000000000000003,0.72,0.8154999999999996
70,2090-01-01,730,313.13,0.16,0.84,0.42894520547945203,0.2178848753708452,0.18,0.18,0.38,0.66,0.78
71,2091-01-01,730,338.08000000000004,0.14,0.91,0.46312328767123295,0.23726546863875767,0.18,0.18,0.455,0.6900000000000001,0.84
72,2092-01-01,732,274.81,0.14,0.8300000000000001,0.3754234972677596,0.20054150979983282,0.16,0.16,0.29,0.56,0.73
73,2093-01-01,730,346.55,0.16,0.92,0.4747260273972603,0.25944776760861743,0.18,0.18,0.39,0.76,0.84
74,2094-01-01,730,347.06,0.16,0.9400000000000001,0.47542465753424656,0.24243659912951562,0.17,0.17,0.46,0.72,0.84
75,2095-01-01,730,355.13,0.15,0.9400000000000001,0.48647945205479454,0.24355318451494531,0.18,0.18,0.48,0.74,0.84
76,2096-01-01,732,355.02,0.16,0.9400000000000001,0.485,0.24282799912380357,0.18550000000000005,0.18550000000000005,0.46,0.74,0.8200000000000001
77,2097-01-01,730,339.25,0.15,0.92,0.46472602739726027,0.25435977972500423,0.18,0.18,0.42,0.74,0.85
78,2098-01-01,730,354.85,0.15,0.92,0.4860958904109589,0.24969234024621548,0.17,0.17,0.48,0.74,0.8300000000000001
79,2099-01-01,730,349.83,0.15,0.9500000000000001,0.4792191780821918,0.25419616772680836,0.18,0.18,0.405,0.75,0.8354999999999996
80,2100-01-01,730,331.20000000000005,0.14,0.89,0.45369863013698636,0.2413648795218903,0.18,0.18,0.4,0.72,0.81
