,time,n,sum,min,max,mean,std,q0.05,q0.25,q0.50,q0.75,q0.95
0,2020-01-01,4784718,663344.8999999993,0.0,0.72,0.1386382436749667,0.03473094215901927,0.09,0.09,0.14,0.16,0.19
1,2021-01-01,4771645,661849.2600000002,0.0,0.7000000000000001,0.1387046312120873,0.035058596638353076,0.09,0.09,0.14,0.16,0.19
2,2022-01-01,4771645,657899.4200000002,0.0,0.84,0.13787685798084312,0.03851631779871063,0.08,0.08,0.14,0.17,0.19
3,2023-01-01,4771645,659979.6200000002,0.0,0.65,0.1383128082663317,0.03554677369052425,0.09,0.09,0.14,0.16,0.19
4,2024-01-01,4784718,661772.4999999992,0.0,0.6,0.13830961406711936,0.03705915240587758,0.08,0.08,0.14,0.17,0.19
5,2025-01-01,4771645,661130.52,0.0,0.6900000000000001,0.1385540039126968,0.03868841320841561,0.08,0.08,0.14,0.17,0.19
6,2026-01-01,4771645,659057.9899999996,0.0,0.59,0.13811966103932705,0.03606122716170912,0.09,0.09,0.14,0.17,0.19
7,2027-01-01,4771645,658877.3299999996,0.0,0.64,0.1380817998824304,0.03619700855845253,0.09,0.09,0.14,0.17,0.19
8,2028-01-01,4784718,660329.1900000002,0.0,0.66,0.13800796410572164,0.036106928724952275,0.09,0.09,0.14,0.17,0.19
9,2029-01-01,4771645,664761.0199999998,0.0,0.5700000000000001,0.13931485263467835,0.034379013418994,0.09,0.09,0.14,0.16,0.19
10,2030-01-01,4771645,663213.8,0.0,0.55,0.13899059967788888,0.033983105596341885,0.09,0.09,0.14,0.16,0.19
11,2031-01-01,4771645,661993.3499999996,0.0,0.65,0.1387348283453609,0.035374951134008105,0.09,0.09,0.14,0.17,0.19
12,2032-01-01,4784718,666056.8000000002,0.0,0.58,0.1392050273391243,0.03517311307585552,0.09,0.09,0.14,0.17,0.19
13,2033-01-01,4771645,664401.6900000001,0.0,0.67,0.13923954736783647,0.03453957793596438,0.09,0.09,0.14,0.17,0.19
14,2034-01-01,4771645,657038.6700000006,0.0,0.6,0.13769646945655023,0.03597134142754555,0.09,0.09,0.14,0.17,0.19
15,2035-01-01,4771645,661557.8999999998,0.0,0.64,0.13864357050870293,0.03537076396742151,0.09,0.09,0.14,0.17,0.19
16,2036-01-01,4784718,664550.53,0.0,0.5700000000000001,0.13889021881749353,0.035334590165336174,0.09,0.09,0.14,0.17,0.19
17,2037-01-01,4771645,666417.4699999995,0.0,0.56,0.13966199706809695,0.03450069521546094,0.09,0.09,0.14,0.17,0.19
18,2038-01-01,4771645,663556.0399999996,0.0,0.72,0.13906232337066138,0.03454629674388089,0.09,0.09,0.14,0.16,0.19
19,2039-01-01,4771645,660151.6900000006,0.0,0.65,0.13834886920548378,0.03582148335728064,0.09,0.09,0.14,0.16,0.19
20,2040-01-01,4784718,673415.6400000002,0.0,0.67,0.14074301557583963,0.03482955477619567,0.09,0.09,0.14,0.17,0.19
21,2041-01-01,4771645,660039.7100000004,0.0,0.76,0.13832540140769073,0.03433333021964187,0.09,0.09,0.14,0.16,0.19
22,2042-01-01,4771645,660746.2500000002,0.0,0.59,0.13847347193682685,0.034490792612569675,0.09,0.09,0.14,0.16,0.19
23,2043-01-01,4771645,660444.2700000004,0.0,0.7000000000000001,0.1384101855858934,0.03536038564224418,0.09,0.09,0.14,0.17,0.19
24,2044-01-01,4784718,669204.6099999993,0.0,0.61,0.13986291564100523,0.03504180116326932,0.09,0.09,0.14,0.17,0.19
25,2045-01-01,4771645,665662.9300000006,0.0,0.77,0.13950386711500973,0.03514207656645364,0.09,0.09,0.14,0.17,0.19
26,2046-01-01,4771645,661247.4900000005,0.0,0.63,0.13857851747143815,0.03427604743385719,0.09,0.09,0.14,0.16,0.19
27,2047-01-01,4771645,659144.9000000001,0.0,0.62,0.13813787488381893,0.035009895004150686,0.09,0.09,0.14,0.16,0.19
28,2048-01-01,4784718,668084.2200000001,0.0,0.6900000000000001,0.13962875555048387,0.03444309135097672,0.09,0.09,0.14,0.16,0.19
29,2049-01-01,4771645,660168.38,0.0,0.55,0.13835236695102004,0.0355053924497772,0.09,0.09,0.14,0.17,0.19
30,2050-01-01,4771645,657747.8200000005,0.0,0.59,0.13784508696686373,0.035371398836199,0.09,0.09,0.14,0.16,0.19
31,2051-01-01,4771645,663066.18,0.0,0.55,0.13895966275781205,0.03412125570412046,0.09,0.09,0.14,0.16,0.19
32,2052-01-01,4784718,664072.8500000002,0.0,0.71,0.1387903843026904,0.035148903254939114,0.09,0.09,0.14,0.16,0.19
33,2053-01-01,4771645,661371.9099999995,0.0,0.62,0.13860459233660496,0.03542677795276878,0.09,0.09,0.14,0.16,0.19
34,2054-01-01,4771645,659800.24,0.0,0.64,0.13827521536074036,0.0366296627729182,0.09,0.09,0.14,0.17,0.19
35,2055-01-01,4771645,674003.0700000008,0.0,0.71,0.141251721366531,0.03384193953100538,0.09,0.09,0.14,0.17,0.19
36,2056-01-01,4784718,652339.8900000004,0.0,0.6,0.13633821052776784,0.03459315020588204,0.08,0.08,0.14,0.16,0.19
37,2057-01-01,4771645,664185.4399999996,0.0,0.7000000000000001,0.13919422756722255,0.035579824545205495,0.09,0.09,0.14,0.17,0.19
38,2058-01-01,4771645,653960.1400000005,0.0,0.61,0.13705129782286832,0.03581147538394749,0.08,0.08,0.14,0.16,0.19
39,2059-01-01,4771645,662429.9200000003,0.0,0.63,0.13882632090191124,0.03481892790682369,0.09,0.09,0.14,0.16,0.19
40,2060-01-01,4784718,661114.1199999996,0.0,0.6,0.1381720134812542,0.03489243907859077,0.09,0.09,0.14,0.16,0.19
41,2061-01-01,4771645,661082.0099999991,0.0,0.66,0.13854383760736583,0.03545277977284844,0.09,0.09,0.14,0.16,0.19
42,2062-01-01,4771645,662608.4400000003,0.0,0.6,0.13886373357615672,0.03466250480801478,0.09,0.09,0.14,0.16,0.19
43,2063-01-01,4771645,659848.0500000004,0.0,0.64,0.1382852349661386,0.035632115438343125,0.09,0.09,0.14,0.16,0.19
44,2064-01-01,4784718,661078.1199999993,0.0,0.64,0.13816448952686433,0.035680111974695755,0.09,0.09,0.14,0.17,0.19
45,2065-01-01,4771645,663414.2199999997,0.0,0.6900000000000001,0.13903260196431205,0.03511043897151335,0.09,0.09,0.14,0.16,0.19
46,2066-01-01,4771645,664584.7700000004,0.0,0.78,0.13927791568735737,0.03620734427584599,0.09,0.09,0.14,0.17,0.19
47,2067-01-01,4771645,658484.9699999997,0.0,0.67,0.13799957247448202,0.03380961611267623,0.09,0.09,0.14,0.16,0.19
48,2068-01-01,4784718,669913.5899999999,0.0,0.66,0.14001109156276292,0.0333740712746784,0.09,0.09,0.14,0.16,0.19
49,2069-01-01,4771645,665216.5900000004,0.0,0.73,0.13941032704654274,0.035315121557658674,0.09,0.09,0.14,0.16,0.19
50,2070-01-01,4771645,664629.82,0.0,0.58,0.13928735687587823,0.03432381701372288,0.09,0.09,0.14,0.16,0.19
51,2071-01-01,4771645,655335.9500000004,0.0,0.64,0.13733962815758516,0.034908011077414154,0.09,0.09,0.14,0.16,0.19
52,2072-01-01,4784718,658888.1200000007,0.0,0.58,0.13770678230148584,0.03483611825299798,0.09,0.09,0.14,0.16,0.19
53,2073-01-01,4771645,657875.1599999995,0.0,0.56,0.13787177378032092,0.035487738707973546,0.09,0.09,0.14,0.16,0.19
54,2074-01-01,4771645,664930.3200000008,0.0,0.56,0.13935033306124003,0.03521036161266958,0.09,0.09,0.14,0.17,0.19
55,2075-01-01,4771645,661424.6200000006,0.0,0.6900000000000001,0.13861563884153172,0.034885107730454945,0.09,0.09,0.14,0.16,0.19
56,2076-01-01,4784718,663303.8800000002,0.0,0.79,0.1386296705469372,0.03564088872085281,0.09,0.09,0.14,0.17,0.19
57,2077-01-01,4771645,664055.1200000015,0.0,0.63,0.13916691623119523,0.033492712821370466,0.09,0.09,0.14,0.16,0.19
58,2078-01-01,4771645,660775.1999999998,0.0,0.64,0.13847953902689739,0.03474409814584677,0.09,0.09,0.14,0.16,0.19
59,2079-01-01,4771645,657984.8700000002,0.0,0.61,0.13789476585118973,0.03403312540518734,0.09,0.09,0.14,0.16,0.19
60,2080-01-01,4784718,667867.1399999997,0.0,0.6,0.13958338610551335,0.03322579490764608,0.09,0.09,0.14,0.16,0.19
61,2081-01-01,4771645,664217.9600000004,0.0,0.7000000000000001,0.1392010428269497,0.03545713447061763,0.09,0.09,0.14,0.17,0.19
62,2082-01-01,4771645,663505.7399999998,0.0,0.59,0.1390517819326458,0.03432883938533315,0.09,0.09,0.14,0.16,0.19
63,2083-01-01,4771645,659500.0800000001,0.0,0.71,0.13821231042963172,0.0350412979816077,0.09,0.09,0.14,0.16,0.19
64,2084-01-01,4784718,665038.2600000006,0.0,0.67,0.13899215376956398,0.03370532910220555,0.09,0.09,0.14,0.16,0.19
65,2085-01-01,4771645,662231.6100000001,0.0,0.75,0.13878476081099916,0.0357426738280721,0.09,0.09,0.14,0.17,0.19
66,2086-01-01,4771645,662993.6599999996,0.0,0.63,0.1389444646447922,0.034994152242004785,0.09,0.09,0.14,0.16,0.19
67,2087-01-01,4771645,665703.0999999999,0.0,0.59,0.1395122855954288,0.034693312287600836,0.09,0.09,0.14,0.17,0.19
68,2088-01-01,4784718,661060.9000000004,0.0,0.58,0.13816089056868144,0.03486820802486566,0.09,0.09,0.14,0.16,0.19
69,2089-01-01,4771645,663261.7500000001,0.0,0.68,0.13900064862327355,0.034313277461243075,0.09,0.09,0.14,0.16,0.19
70,2090-01-01,4771645,659841.4800000002,0.0,0.78,0.13828385808248522,0.03618463130603528,0.09,0.09,0.14,0.17,0.19
71,2091-01-01,4771645,659980.25,0.0,0.64,0.138312940296271,0.034994620968448034,0.09,0.09,0.14,0.16,0.19
72,2092-01-01,4784718,661450.77,0.0,0.55,0.13824237290473546,0.03506417586596877,0.09,0.09,0.14,0.16,0.19
73,2093-01-01,4771645,663714.2500000005,0.0,0.8,0.13909547965114766,0.03328313096486165,0.09,0.09,0.14,0.16,0.19
74,2094-01-01,4771645,653872.040000001,0.0,0.7000000000000001,0.13703283458849116,0.035684143800440826,0.08,0.08,0.14,0.16,0.19
75,2095-01-01,4771645,659290.6699999995,0.0,0.64,0.1381684240969308,0.03590113894036301,0.09,0.09,0.14,0.17,0.19
76,2096-01-01,4784718,659116.4700000007,0.0,0.6,0.13775450716217771,0.03604721750808215,0.09,0.09,0.14,0.17,0.19
77,2097-01-01,4771645,662001.3699999998,0.0,0.66,0.13873650910744612,0.03652770328752556,0.09,0.09,0.14,0.17,0.19
78,2098-01-01,4771645,659400.5900000001,0.0,0.62,0.1381914601777794,0.03527240359310948,0.09,0.09,0.14,0.16,0.19
79,2099-01-01,4771645,661042.54,0.0,0.67,0.13853556582687943,0.03584390925623996,0.09,0.09,0.14,0.17,0.19
80,2100-01-01,4758572,659188.7599999998,0.0,0.78,0.13852659159092262,0.035924298836001754,0.09,0.09,0.14,0.16,0.19
