,time,n,sum,min,max,mean,std,q0.05,q0.25,q0.50,q0.75,q0.95
0,2003-01-01,12055220,2166788.8899999987,0.0,0.84,0.17973864350878696,0.06752037704083282,0.12,0.12,0.16,0.19,0.33
1,2004-01-01,12088248,2218414.840000001,0.0,0.85,0.18351830968391786,0.07081359978414463,0.12,0.12,0.17,0.19,0.35000000000000003
2,2005-01-01,12055220,2178046.2899999977,0.0,0.84,0.18067246304920173,0.07018468494188629,0.12,0.12,0.16,0.19,0.34
3,2006-01-01,12055220,2166424.9900000016,0.01,0.84,0.1797084574151282,0.06849045045062742,0.12,0.12,0.16,0.19,0.34
4,2007-01-01,12055220,2155338.1300000027,0.0,0.84,0.17878878444358565,0.06745859619406025,0.12,0.12,0.16,0.19,0.33
5,2008-01-01,12088248,2160672.1700000013,0.0,0.8200000000000001,0.17874154881666898,0.06550370734242615,0.12,0.12,0.16,0.19,0.33
6,2009-01-01,12055220,2150340.5599999996,0.0,0.84,0.1783742279278188,0.06755220584463857,0.12,0.12,0.16,0.19,0.33
7,2010-01-01,12055220,2173366.8699999987,0.0,0.84,0.1802842975905872,0.06590582420946726,0.12,0.12,0.17,0.19,0.33
8,2011-01-01,12055220,2131642.5900000012,0.0,0.84,0.17682320106974417,0.06672837069104016,0.12,0.12,0.16,0.19,0.32
9,2012-01-01,12088248,2185395.9299999955,0.0,0.84,0.18078682121677148,0.06807200684999952,0.12,0.12,0.16,0.19,0.34
10,2013-01-01,12055220,2163424.6900000004,0.0,0.84,0.1794595776767243,0.06912798905529904,0.12,0.12,0.16,0.19,0.34
11,2014-01-01,12055220,2154793.5300000026,0.01,0.84,0.17874360899261918,0.06504371574211924,0.12,0.12,0.16,0.19,0.32
12,2015-01-01,12055220,2171988.5999999987,0.0,0.84,0.18016996786454323,0.06968600893401368,0.12,0.12,0.16,0.19,0.34
13,2016-01-01,12088248,2158946.250000004,0.01,0.84,0.1785987721297581,0.06549129711696165,0.12,0.12,0.16,0.19,0.33
14,2017-01-01,12055220,2178689.9100000006,0.0,0.84,0.1807258523693471,0.06893265601400193,0.12,0.12,0.16,0.19,0.34
15,2018-01-01,12055220,2145017.0100000026,0.0,0.84,0.17793263084373429,0.06478823395848485,0.12,0.12,0.16,0.19,0.32
16,2019-01-01,12055220,2155998.880000001,0.01,0.84,0.1788435947249408,0.06856938218638925,0.12,0.12,0.16,0.19,0.33
