,time,n,sum,min,max,mean,std,q0.05,q0.25,q0.50,q0.75,q0.95
0,2003-01-01,730,375.06999999999994,0.14,0.89,0.5137945205479452,0.2307895595383236,0.19,0.19,0.53,0.75,0.8200000000000001
1,2004-01-01,732,371.55,0.14,0.93,0.5075819672131148,0.24892232225404906,0.18,0.18,0.59,0.74,0.8300000000000001
2,2005-01-01,730,343.46999999999997,0.13,0.91,0.4705068493150685,0.23708478474707384,0.18,0.18,0.555,0.6900000000000001,0.79
3,2006-01-01,730,377.08000000000004,0.14,0.89,0.5165479452054795,0.2458596905295471,0.18,0.18,0.5700000000000001,0.74,0.8300000000000001
4,2007-01-01,730,354.38,0.13,0.93,0.4854520547945205,0.23330414279159944,0.19,0.19,0.42,0.73,0.8300000000000001
5,2008-01-01,732,378.01,0.15,0.9500000000000001,0.5164071038251365,0.26750632157144105,0.17,0.17,0.59,0.77,0.87
6,2009-01-01,730,380.06,0.13,0.89,0.5206301369863013,0.25470291621832336,0.18,0.18,0.555,0.77,0.84
7,2010-01-01,730,375.86,0.14,0.9,0.5148767123287672,0.24558914042774882,0.18,0.18,0.58,0.74,0.8300000000000001
8,2011-01-01,730,329.42,0.14,0.9400000000000001,0.45126027397260277,0.2549252927039585,0.17,0.17,0.355,0.74,0.8300000000000001
9,2012-01-01,732,381.69000000000005,0.14,0.9500000000000001,0.5214344262295083,0.2625349153268083,0.18,0.18,0.6,0.77,0.85
10,2013-01-01,730,407.11,0.16,0.9,0.5576849315068493,0.24789853076160503,0.18,0.18,0.63,0.79,0.84
11,2014-01-01,730,346.82000000000005,0.14,0.9,0.47509589041095895,0.24039705536816922,0.18,0.18,0.425,0.73,0.8300000000000001
12,2015-01-01,730,350.71000000000004,0.15,0.96,0.4804246575342466,0.2513627743392264,0.17,0.17,0.43,0.74,0.84
13,2016-01-01,732,377.34,0.12,0.93,0.5154918032786885,0.24786554104099667,0.19,0.19,0.505,0.76,0.84
14,2017-01-01,730,373.37,0.13,0.92,0.5114657534246575,0.26113118427816034,0.18,0.18,0.56,0.77,0.84
15,2018-01-01,730,332.86,0.14,0.9500000000000001,0.45597260273972606,0.26373699916553645,0.18,0.18,0.3,0.73,0.87
16,2019-01-01,730,381.28000000000003,0.13,0.9,0.5223013698630138,0.26464898877267123,0.18,0.18,0.59,0.78,0.86
