,time,n,sum,min,max,mean,std,q0.05,q0.25,q0.50,q0.75,q0.95
0,1,62760,39507.729999999996,0.13,0.97,0.6295049394518801,0.15599266411172213,0.34,0.34,0.65,0.75,0.85
1,2,137622,96831.61000000003,0.13,1.0,0.7036056008487017,0.13045490506037544,0.46,0.46,0.72,0.8,0.89
2,3,309527,226459.69,0.23,1.0,0.7316314570295968,0.09918921242827718,0.5700000000000001,0.5700000000000001,0.73,0.8,0.89
3,4,306635,217609.15000000002,0.19,1.0,0.709668335317234,0.09922181387688928,0.55,0.55,0.71,0.77,0.88
4,5,153898,103586.46999999997,0.23,1.0,0.6730852252790808,0.10894154773687861,0.5,0.5,0.67,0.74,0.86
5,6,119694,60104.279999999984,0.13,1.0,0.5021494811770012,0.12571216020912818,0.32,0.32,0.48,0.58,0.73
6,7,236948,92893.91000000003,0.08,0.99,0.3920434441312019,0.10754559271847416,0.23,0.23,0.39,0.45,0.58
7,8,294109,95658.67999999998,0.05,0.97,0.325249074322785,0.1087368022582755,0.18,0.18,0.31,0.39,0.52
8,9,232165,84165.98,0.05,1.0,0.36252656515840026,0.13335354785903772,0.18,0.18,0.34,0.44,0.61
9,10,184829,89940.53000000001,0.03,1.0,0.48661481693890035,0.1842382378980979,0.19,0.19,0.48,0.62,0.8
10,11,86390,49889.81000000001,0.03,0.98,0.5774951962032644,0.1837233108626978,0.21,0.21,0.6,0.72,0.8300000000000001
11,12,63756,36400.14,0.06,0.9400000000000001,0.5709288537549407,0.1737542934982492,0.26,0.26,0.59,0.71,0.8300000000000001
