,time,n,sum,min,max,mean,std,q0.05,q0.25,q0.50,q0.75,q0.95
0,2020-01-01,4784718,661136.0700000003,0.0,0.64,0.13817660100344478,0.03624490771178103,0.09,0.09,0.14,0.17,0.19
1,2021-01-01,4771645,669112.8800000002,0.0,0.6,0.1402268777329412,0.034762757752123986,0.09,0.09,0.14,0.17,0.19
2,2022-01-01,4771645,651942.0800000001,0.0,0.5700000000000001,0.13662837029996994,0.035378054013546316,0.08,0.08,0.14,0.16,0.19
3,2023-01-01,4771645,656992.0,0.0,0.6,0.1376866887624708,0.036053860456082186,0.09,0.09,0.14,0.17,0.19
4,2024-01-01,4784718,650504.3800000004,0.0,0.68,0.13595459126326784,0.03583366077346108,0.08,0.08,0.14,0.16,0.19
5,2025-01-01,4771645,651949.3100000003,0.0,0.58,0.13662988550070265,0.0361549420511089,0.08,0.08,0.14,0.16,0.19
6,2026-01-01,4771645,662457.2600000002,0.0,0.74,0.13883205058213682,0.0364123430749986,0.09,0.09,0.14,0.17,0.19
7,2027-01-01,4771645,662471.0399999989,0.0,0.62,0.13883493847509587,0.035023092516967974,0.09,0.09,0.14,0.17,0.19
8,2028-01-01,4784718,659044.3900000007,0.0,0.72,0.1377394425334995,0.03527607949162554,0.09,0.09,0.14,0.16,0.19
9,2029-01-01,4771645,648595.9399999991,0.0,0.68,0.13592711528204615,0.036487993437414865,0.08,0.08,0.14,0.16,0.19
10,2030-01-01,4771645,653305.7100000007,0.0,0.68,0.13691414805585927,0.035387369437418104,0.08,0.08,0.14,0.16,0.19
11,2031-01-01,4771645,657397.8400000008,0.0,0.72,0.13777174119197902,0.035474203069697736,0.09,0.09,0.14,0.16,0.19
12,2032-01-01,4784718,655712.4899999999,0.0,0.68,0.1370430796548511,0.033969688108482304,0.09,0.09,0.14,0.16,0.19
13,2033-01-01,4771645,664941.920000001,0.0,0.62,0.13935276408869499,0.034728520363905835,0.09,0.09,0.14,0.17,0.19
14,2034-01-01,4771645,660888.9400000005,0.0,0.64,0.13850337567023543,0.03461333409802634,0.09,0.09,0.14,0.17,0.19
15,2035-01-01,4771645,658064.0600000004,0.0,0.7000000000000001,0.13791136180499605,0.0344343206037851,0.09,0.09,0.14,0.16,0.19
16,2036-01-01,4784718,657145.54,0.0,0.64,0.13734258528924798,0.03631224354429286,0.08,0.08,0.14,0.16,0.19
17,2037-01-01,4771645,659902.0400000002,0.0,0.59,0.1382965497223704,0.03592766303445249,0.09,0.09,0.14,0.17,0.19
18,2038-01-01,4771645,662172.8499999995,0.0,0.74,0.13877244639951203,0.036897876446616726,0.08,0.08,0.14,0.17,0.19
19,2039-01-01,4771645,656819.8500000004,0.0,0.74,0.1376506110576123,0.03567684617940808,0.08,0.08,0.14,0.16,0.19
20,2040-01-01,4784718,655111.2,0.0,0.64,0.13691741080665568,0.03608897511190047,0.08,0.08,0.14,0.17,0.19
21,2041-01-01,4771645,664139.4800000004,0.0,0.71,0.13918459566878938,0.035821726512637694,0.09,0.09,0.14,0.17,0.19
22,2042-01-01,4771645,653988.4899999993,0.0,0.8200000000000001,0.1370572391701393,0.0408593889429468,0.07,0.07,0.14,0.17,0.19
23,2043-01-01,4771645,658903.2499999998,0.0,0.85,0.13808723197136413,0.03697516019358787,0.08,0.08,0.14,0.17,0.19
24,2044-01-01,4784718,655542.0199999994,0.0,0.6,0.13700745164082803,0.034989669896464314,0.08,0.08,0.14,0.16,0.19
25,2045-01-01,4771645,657919.4099999999,0.0,0.67,0.1378810473117761,0.03630565654886008,0.09,0.09,0.14,0.16,0.19
26,2046-01-01,4771645,655660.5999999993,0.0,0.64,0.13740766549062206,0.0349936550264836,0.09,0.09,0.14,0.16,0.19
27,2047-01-01,4771645,651340.3600000001,0.0,0.63,0.13650226703788737,0.03520099374086106,0.08,0.08,0.14,0.16,0.19
28,2048-01-01,4784718,659038.3199999993,0.0,0.7000000000000001,0.1377381739111896,0.03658718436836488,0.08,0.08,0.14,0.16,0.19
29,2049-01-01,4771645,670452.2200000001,0.0,0.58,0.14050756500116837,0.03636413342292683,0.09,0.09,0.14,0.17,0.19
30,2050-01-01,4771645,650825.5100000001,0.0,0.68,0.1363943692374433,0.03523634709701127,0.08,0.08,0.14,0.16,0.19
31,2051-01-01,4771645,657145.7400000007,0.0,0.61,0.13771890825910157,0.03627375431731162,0.09,0.09,0.14,0.17,0.19
32,2052-01-01,4784718,622772.1,0.0,0.6,0.13015857987868876,0.03724369810198189,0.08,0.08,0.13,0.16,0.18
33,2053-01-01,4771645,663162.0099999994,0.0,0.72,0.13897974597858798,0.03506065690860081,0.09,0.09,0.14,0.16,0.19
34,2054-01-01,4771645,651567.1899999994,0.0,0.71,0.13654980410319698,0.03422080278171714,0.08,0.08,0.14,0.16,0.19
35,2055-01-01,4771645,659036.5100000004,0.0,0.64,0.13811515944710898,0.03432826586160994,0.09,0.09,0.14,0.16,0.19
36,2056-01-01,4784718,662816.7300000004,0.0,0.73,0.1385278568141321,0.03580092079404323,0.09,0.09,0.14,0.17,0.19
37,2057-01-01,4771645,659084.1899999994,0.0,0.73,0.1381251518082337,0.036068149746147596,0.08,0.08,0.14,0.16,0.19
38,2058-01-01,4771645,658076.6100000003,0.0,0.67,0.13791399192521664,0.034213766937287254,0.09,0.09,0.14,0.16,0.19
39,2059-01-01,4771645,655106.040000001,0.0,0.66,0.13729144561257198,0.03601296611040524,0.08,0.08,0.14,0.16,0.19
40,2060-01-01,4784718,662439.7899999998,0.0,0.62,0.13844907683169622,0.036757568142662136,0.09,0.09,0.14,0.17,0.19
41,2061-01-01,4771645,660282.9099999996,0.0,0.78,0.13837636915571036,0.03795862303395923,0.08,0.08,0.14,0.17,0.19
42,2062-01-01,4771645,646352.9700000001,0.0,0.6,0.13545705307079636,0.034811384182877665,0.08,0.08,0.13,0.16,0.19
43,2063-01-01,4771645,639054.7999999986,0.0,0.68,0.13392756586041055,0.03426029581418324,0.08,0.08,0.13,0.16,0.18
44,2064-01-01,4784718,657947.3600000006,0.0,0.61,0.13751016465338198,0.035979188349594626,0.08,0.08,0.14,0.16,0.19
45,2065-01-01,4771645,657970.4300000003,0.0,0.63,0.13789173964115106,0.036093595589189176,0.09,0.09,0.14,0.17,0.19
46,2066-01-01,4771645,659942.6300000007,0.0,0.68,0.13830505622274933,0.03623989753227994,0.09,0.09,0.14,0.17,0.19
47,2067-01-01,4771645,656991.4099999999,0.0,0.71,0.1376865651153847,0.03468844302103414,0.09,0.09,0.14,0.17,0.19
48,2068-01-01,4784718,650155.2599999994,0.0,0.67,0.13588162562558534,0.03583573433146049,0.08,0.08,0.14,0.16,0.19
49,2069-01-01,4771645,664380.9,0.0,0.67,0.13923519037983756,0.035127249659262685,0.09,0.09,0.14,0.17,0.19
50,2070-01-01,4771645,658027.5300000007,0.0,0.64,0.13790370616422654,0.036215472786767365,0.08,0.08,0.14,0.16,0.19
51,2071-01-01,4771645,653613.3299999996,0.0,0.63,0.13697861638910683,0.03503016161766075,0.08,0.08,0.14,0.16,0.19
52,2072-01-01,4784718,663851.4500000007,0.0,0.61,0.1387441119831933,0.03438567418959765,0.09,0.09,0.14,0.16,0.19
53,2073-01-01,4771645,653228.6399999988,0.0,0.6,0.13689799639327713,0.03483590380114692,0.08,0.08,0.14,0.16,0.19
54,2074-01-01,4771645,654222.8600000002,0.0,0.64,0.13710635640329494,0.03513611496077941,0.08,0.08,0.14,0.16,0.19
55,2075-01-01,4771645,660671.8500000004,0.0,0.63,0.13845787982970242,0.035378616192903396,0.09,0.09,0.14,0.16,0.19
56,2076-01-01,4784718,662462.9499999997,0.0,0.63,0.13845391724235362,0.03571733624799416,0.09,0.09,0.14,0.16,0.19
57,2077-01-01,4771645,651427.2199999996,0.0,0.6900000000000001,0.13652047040381243,0.0363519486188117,0.08,0.08,0.14,0.16,0.19
58,2078-01-01,4771645,648116.4700000001,0.0,0.67,0.13582663211533968,0.035134405393164,0.08,0.08,0.14,0.16,0.19
59,2079-01-01,4771645,655148.4899999998,0.0,0.66,0.13730034191562862,0.03537269656178349,0.09,0.09,0.14,0.16,0.19
60,2080-01-01,4784718,662222.9599999997,0.0,0.67,0.13840375963640902,0.03650581217263939,0.08,0.08,0.14,0.17,0.19
61,2081-01-01,4771645,658811.8499999996,0.0,0.62,0.1380680771515902,0.036575589366821766,0.08,0.08,0.14,0.16,0.19
62,2082-01-01,4771645,614152.7700000001,0.0,0.7000000000000001,0.12870881425588035,0.038709444453030074,0.07,0.07,0.13,0.16,0.18
63,2083-01-01,4771645,655727.9899999998,0.0,0.59,0.1374217885027071,0.03477911423137742,0.09,0.09,0.14,0.16,0.19
64,2084-01-01,4784718,651403.4499999996,0.0,0.68,0.13614249575419066,0.03421599783867717,0.08,0.08,0.14,0.16,0.19
65,2085-01-01,4771645,666156.5700000003,0.0,0.75,0.13960731990749528,0.03618000545369751,0.09,0.09,0.14,0.17,0.19
66,2086-01-01,4771645,657309.9500000003,0.0,0.7000000000000001,0.13775332196758147,0.035121366097061645,0.09,0.09,0.14,0.16,0.19
67,2087-01-01,4771645,651829.5200000003,0.0,0.68,0.13660478095080422,0.0360893954179577,0.08,0.08,0.14,0.16,0.19
68,2088-01-01,4784718,654512.6400000002,0.0,0.72,0.1367923125250015,0.03497896974555633,0.08,0.08,0.14,0.16,0.19
69,2089-01-01,4771645,657598.3599999996,0.0,0.6,0.13781376443553525,0.0359099329179722,0.08,0.08,0.14,0.17,0.19
70,2090-01-01,4771645,656124.2799999996,0.0,0.72,0.13750483952599146,0.03603114061831008,0.08,0.08,0.14,0.16,0.19
71,2091-01-01,4771645,657996.8799999995,0.0,0.65,0.13789728280289074,0.035748559109161075,0.09,0.09,0.14,0.17,0.19
72,2092-01-01,4784718,660879.4600000003,0.0,0.62,0.1381229698385569,0.0356522368234605,0.09,0.09,0.14,0.17,0.19
73,2093-01-01,4771645,651326.64,0.0,0.7000000000000001,0.13649939171920794,0.03490664951237642,0.08,0.08,0.14,0.16,0.19
74,2094-01-01,4771645,654794.4599999993,0.0,0.65,0.13722614737684788,0.03367644583999117,0.09,0.09,0.14,0.16,0.19
75,2095-01-01,4771645,659921.0400000004,0.0,0.67,0.13830053157768452,0.03467917534771099,0.09,0.09,0.14,0.17,0.19
76,2096-01-01,4784718,648045.1000000003,0.0,0.64,0.1354406048590534,0.03650134594006394,0.08,0.08,0.14,0.16,0.19
77,2097-01-01,4771645,662993.0200000004,0.0,0.6,0.1389443305191397,0.035477800594193226,0.09,0.09,0.14,0.17,0.19
78,2098-01-01,4771645,656467.3400000005,0.0,0.64,0.1375767350672568,0.03603552566587875,0.08,0.08,0.14,0.16,0.19
79,2099-01-01,4758572,655001.6000000004,0.0,0.6,0.13764667215290646,0.0355939444607086,0.09,0.09,0.14,0.16,0.19
