,time,n,sum,min,max,mean,std,q0.05,q0.25,q0.50,q0.75,q0.95
0,2003-01-01,34308179,7467778.180000004,0.0,0.79,0.21766757658574665,0.10327896844841686,0.13,0.13,0.19,0.22,0.5
1,2004-01-01,34403634,7626689.749999994,0.0,0.8200000000000001,0.22168267892862697,0.11090390683163834,0.13,0.13,0.19,0.22,0.52
2,2005-01-01,34309635,8130418.920000002,0.0,0.81,0.23697188617716283,0.12294855075128168,0.13,0.13,0.2,0.22,0.55
3,2006-01-01,34309635,8241384.579999995,0.0,0.8200000000000001,0.2402061281036652,0.13110654582883502,0.13,0.13,0.2,0.22,0.55
4,2007-01-01,34309635,6712362.050000007,0.0,0.84,0.19564073036626614,0.07522231674098422,0.12,0.12,0.19,0.21,0.34
5,2008-01-01,34403634,6342901.860000002,0.0,0.78,0.18436720551090627,0.05776074890219051,0.12,0.12,0.18,0.21,0.24
6,2009-01-01,34309635,7252282.409999984,0.0,0.79,0.21137742823553746,0.09281563285689456,0.13,0.13,0.19,0.22,0.46
7,2010-01-01,34309635,8513019.200000014,0.0,0.8200000000000001,0.24812328082184534,0.13344305941847964,0.13,0.13,0.2,0.23,0.56
8,2011-01-01,34309635,6745201.71000001,0.0,0.77,0.19659788598742045,0.07849679407503526,0.12,0.12,0.18,0.21,0.36
9,2012-01-01,34403634,6718035.999999988,0.0,0.8200000000000001,0.195271115836193,0.07294467236909848,0.12,0.12,0.19,0.21,0.33
10,2013-01-01,34309635,7492253.659999991,0.0,0.79,0.21837170987100243,0.10823286770898002,0.13,0.13,0.19,0.22,0.51
11,2014-01-01,34309635,6529133.18,0.0,0.79,0.1903002809560638,0.0637288069923093,0.12,0.12,0.18,0.21,0.26
12,2015-01-01,34309635,6633997.520000013,0.0,0.8200000000000001,0.19335669178643294,0.07225762382654882,0.12,0.12,0.18,0.21,0.32
13,2016-01-01,34403634,6586238.780000009,0.0,0.79,0.1914402059968435,0.06263330850050207,0.13,0.13,0.18,0.21,0.27
14,2017-01-01,34309635,6961444.470000003,0.0,0.8,0.20290056918413743,0.0870216864356538,0.12,0.12,0.19,0.21,0.43
15,2018-01-01,34309635,6725040.769999991,0.0,0.79,0.19601026854409823,0.07463194384730107,0.12,0.12,0.18,0.21,0.35000000000000003
16,2019-01-01,34309635,6347590.340000006,0.0,0.93,0.1850089731353891,0.06198482220498675,0.12,0.12,0.18,0.21,0.24
