,time,n,sum,min,max,mean,std,q0.05,q0.25,q0.50,q0.75,q0.95
0,2003-01-01,1893255,868860.4700000001,0.0,0.96,0.4589241649962631,0.2005462358605289,0.15,0.15,0.5,0.64,0.73
1,2004-01-01,1898442,965620.4599999997,0.0,1.0,0.5086383782069717,0.19037363606606728,0.17,0.17,0.58,0.66,0.74
2,2005-01-01,1893255,875909.53,0.0,0.9400000000000001,0.46264741410956267,0.19902674535901763,0.15,0.15,0.51,0.64,0.73
3,2006-01-01,1893255,853521.03,0.0,0.9500000000000001,0.4508220128825753,0.20754083509398008,0.14,0.14,0.5,0.64,0.73
4,2007-01-01,1893255,855683.2,0.0,1.0,0.45196405132958845,0.19794700663233153,0.15,0.15,0.48,0.63,0.72
5,2008-01-01,1898442,876683.7899999998,0.0,0.97,0.46179118982829065,0.1995432216384538,0.15,0.15,0.51,0.64,0.73
6,2009-01-01,1893255,870330.3500000003,0.0,0.9400000000000001,0.4597005421879252,0.19976474608719483,0.15,0.15,0.5,0.64,0.72
7,2010-01-01,1893255,846706.919999999,0.0,1.0,0.44722286221348895,0.19666122400742395,0.14,0.14,0.48,0.62,0.72
8,2011-01-01,1893255,762610.2800000005,0.0,0.98,0.40280378501575353,0.19181073488688205,0.14,0.14,0.41000000000000003,0.5700000000000001,0.7000000000000001
9,2012-01-01,1898442,857378.9899999994,0.0,1.0,0.4516224303929219,0.20428450771282275,0.14,0.14,0.5,0.63,0.72
10,2013-01-01,1893255,822341.8699999998,0.0,1.0,0.4343534653282309,0.18836366541484195,0.14,0.14,0.45,0.59,0.71
11,2014-01-01,1893255,880968.3600000003,0.0,0.97,0.46531944191353003,0.20684073088345217,0.14,0.14,0.53,0.65,0.73
12,2015-01-01,1893255,855469.8099999999,0.0,0.99,0.4518513406804683,0.20668042141492415,0.14,0.14,0.5,0.64,0.72
13,2016-01-01,1898442,865140.0799999998,0.0,1.0,0.45571056687536404,0.2053606976642193,0.14,0.14,0.51,0.64,0.72
14,2017-01-01,1893255,843449.3200000004,0.0,1.0,0.445502227644982,0.20479641590366127,0.13,0.13,0.49,0.63,0.72
15,2018-01-01,1893255,801239.6500000001,0.0,0.9400000000000001,0.423207465449715,0.2091739469822232,0.14,0.14,0.44,0.62,0.72
16,2019-01-01,1893255,850738.5999999995,0.0,1.0,0.44935235876836427,0.2106545749877423,0.14,0.14,0.5,0.64,0.73
