,time,n,sum,min,max,mean,std,q0.05,q0.25,q0.50,q0.75,q0.95
0,2020-01-01,366,50.92999999999999,0.04,0.2,0.13915300546448087,0.03599625935689005,0.08,0.08,0.15,0.17,0.19
1,2021-01-01,365,51.3,0.04,0.21,0.14054794520547945,0.0390044047726437,0.08,0.08,0.15,0.17,0.19
2,2022-01-01,365,52.89999999999999,0.07,0.21,0.14493150684931505,0.03481942803898826,0.08,0.08,0.15,0.17,0.19
3,2023-01-01,365,51.44999999999999,0.03,0.24,0.140958904109589,0.044338807132997,0.04,0.04,0.15,0.17,0.2080000000000001
4,2024-01-01,366,51.599999999999994,0.04,0.21,0.14098360655737704,0.04014474840064655,0.08,0.08,0.16,0.17,0.19
5,2025-01-01,365,47.91999999999999,0.03,0.19,0.13128767123287668,0.04039852142013378,0.08,0.08,0.14,0.17,0.18
6,2026-01-01,365,51.21,0.03,0.24,0.1403013698630137,0.04344314026954819,0.04,0.04,0.15,0.17,0.19
7,2027-01-01,365,51.669999999999995,0.05,0.23,0.14156164383561642,0.037759508029274864,0.08,0.08,0.15,0.17,0.19
8,2028-01-01,366,52.63999999999999,0.07,0.24,0.14382513661202184,0.035545891554469446,0.09,0.09,0.15,0.17,0.19
9,2029-01-01,365,49.949999999999996,0.04,0.3,0.13684931506849313,0.0463363732485856,0.04,0.04,0.14,0.17,0.19
10,2030-01-01,365,47.11999999999999,0.03,0.22,0.12909589041095887,0.04376780714195523,0.04,0.04,0.13,0.17,0.18
11,2031-01-01,365,50.11,0.04,0.21,0.13728767123287672,0.03612060446863512,0.08,0.08,0.14,0.17,0.18
12,2032-01-01,366,49.91,0.04,0.19,0.13636612021857922,0.037007861367283616,0.07250000000000001,0.07250000000000001,0.14,0.17,0.18
13,2033-01-01,365,49.7,0.05,0.2,0.13616438356164384,0.039994182350440395,0.06,0.06,0.15,0.17,0.19
14,2034-01-01,365,52.35999999999999,0.03,0.29,0.14345205479452053,0.03834416642095047,0.06399999999999999,0.06399999999999999,0.15,0.17,0.19
15,2035-01-01,365,50.77999999999999,0.06,0.21,0.13912328767123283,0.03328249579249608,0.08199999999999999,0.08199999999999999,0.14,0.17,0.18
16,2036-01-01,366,51.489999999999995,0.04,0.22,0.1406830601092896,0.04146000887591466,0.08,0.08,0.15,0.17,0.19
17,2037-01-01,365,51.05,0.06,0.29,0.13986301369863013,0.03886376453275399,0.08,0.08,0.15,0.17,0.18
18,2038-01-01,365,50.349999999999994,0.03,0.24,0.13794520547945205,0.04482412829060452,0.04,0.04,0.15,0.17,0.2080000000000001
19,2039-01-01,365,52.91999999999999,0.07,0.29,0.14498630136986299,0.0369940732575253,0.09,0.09,0.15,0.17,0.19
20,2040-01-01,366,51.17999999999999,0.06,0.24,0.13983606557377048,0.03479801843859116,0.08,0.08,0.14,0.17,0.18
21,2041-01-01,365,52.589999999999996,0.04,0.29,0.1440821917808219,0.04337215615395057,0.08,0.08,0.15,0.17,0.2
22,2042-01-01,365,52.53,0.06,0.3,0.14391780821917807,0.04085716966462944,0.08,0.08,0.15,0.17,0.19
23,2043-01-01,365,49.489999999999995,0.04,0.3,0.1355890410958904,0.04646396029106664,0.06,0.06,0.14,0.17,0.19
24,2044-01-01,366,52.75,0.04,0.3,0.14412568306010928,0.03783304633551509,0.08,0.08,0.14,0.17,0.19
25,2045-01-01,365,51.339999999999996,0.04,0.3,0.14065753424657534,0.04562630194894715,0.07,0.07,0.15,0.17,0.19
26,2046-01-01,365,29.64,0.03,0.19,0.0812054794520548,0.02827795448227528,0.04,0.04,0.09,0.1,0.11
27,2047-01-01,365,52.18,0.04,0.3,0.14295890410958903,0.041014677745654,0.08,0.08,0.15,0.17,0.19
28,2048-01-01,366,52.489999999999995,0.04,0.29,0.14341530054644808,0.039284268543073535,0.0625,0.0625,0.15,0.17,0.19
29,2049-01-01,365,50.699999999999996,0.04,0.3,0.1389041095890411,0.04655124275773269,0.07,0.07,0.14,0.17,0.19
30,2050-01-01,365,29.689999999999998,0.03,0.18,0.08134246575342464,0.02892797819909271,0.04,0.04,0.09,0.1,0.11
31,2051-01-01,365,50.08999999999999,0.06,0.19,0.13723287671232873,0.03631314360632857,0.08,0.08,0.14,0.17,0.19
32,2052-01-01,366,52.76,0.04,0.3,0.14415300546448087,0.03836435303590246,0.08,0.08,0.14,0.17,0.19
33,2053-01-01,365,49.75999999999999,0.06,0.19,0.13632876712328765,0.03495125952402333,0.08,0.08,0.14,0.17,0.18
34,2054-01-01,365,50.58,0.06,0.19,0.13857534246575343,0.03344425654900395,0.08,0.08,0.14,0.17,0.18
35,2055-01-01,365,51.489999999999995,0.03,0.29,0.14106849315068493,0.04016688773519981,0.04,0.04,0.15,0.17,0.18
36,2056-01-01,366,49.86,0.03,0.24,0.1362295081967213,0.04742542956793839,0.04,0.04,0.15,0.17,0.1975
37,2057-01-01,365,28.009999999999998,0.03,0.11,0.07673972602739726,0.02467433217775285,0.04,0.04,0.08,0.1,0.11
38,2058-01-01,365,30.840000000000003,0.03,0.18,0.08449315068493152,0.028984229669343282,0.04,0.04,0.09,0.1,0.1280000000000001
39,2059-01-01,365,51.25,0.04,0.24,0.1404109589041096,0.04400617503880854,0.07,0.07,0.16,0.17,0.19
40,2060-01-01,366,29.08,0.03,0.12,0.0794535519125683,0.02460011941763818,0.04,0.04,0.09,0.1,0.11
41,2061-01-01,365,52.86,0.03,0.23,0.14482191780821918,0.040656038816053175,0.04,0.04,0.15,0.17,0.2080000000000001
42,2062-01-01,365,49.56999999999999,0.03,0.23,0.13580821917808217,0.046158944437922254,0.04,0.04,0.15,0.17,0.19800000000000012
43,2063-01-01,365,28.009999999999998,0.03,0.11,0.07673972602739726,0.02467433217775285,0.04,0.04,0.08,0.1,0.11
44,2064-01-01,366,50.55,0.04,0.3,0.13811475409836066,0.043795325633495454,0.08,0.08,0.14,0.17,0.19
45,2065-01-01,365,49.8,0.04,0.3,0.13643835616438355,0.045383294947717305,0.04,0.04,0.14,0.17,0.19
46,2066-01-01,365,31.009999999999998,0.03,0.21,0.08495890410958903,0.031532735048215244,0.04,0.04,0.09,0.1,0.13
47,2067-01-01,365,49.36,0.03,0.24,0.13523287671232875,0.044651012213885205,0.04,0.04,0.15,0.17,0.19
48,2068-01-01,366,52.44,0.03,0.23,0.14327868852459016,0.03958340346627638,0.04,0.04,0.15,0.17,0.1975
49,2069-01-01,365,50.72,0.03,0.24,0.13895890410958903,0.043238883552351566,0.04,0.04,0.15,0.17,0.19
50,2070-01-01,365,50.32999999999999,0.03,0.24,0.13789041095890409,0.04611705227776399,0.04,0.04,0.15,0.17,0.2
51,2071-01-01,365,49.56999999999999,0.03,0.23,0.13580821917808217,0.046158944437922254,0.04,0.04,0.15,0.17,0.19800000000000012
52,2072-01-01,366,28.09,0.03,0.11,0.07674863387978142,0.02464118871308413,0.04,0.04,0.08,0.1,0.11
53,2073-01-01,365,49.08999999999999,0.04,0.19,0.13449315068493148,0.03602249042057728,0.08,0.08,0.14,0.17,0.18
54,2074-01-01,365,49.989999999999995,0.04,0.3,0.13695890410958902,0.04452256265199021,0.04,0.04,0.14,0.17,0.19
55,2075-01-01,365,28.009999999999998,0.03,0.11,0.07673972602739726,0.02467433217775285,0.04,0.04,0.08,0.1,0.11
56,2076-01-01,366,48.73,0.07,0.19,0.13314207650273224,0.03525421387136772,0.08,0.08,0.13,0.17,0.18
57,2077-01-01,365,50.36999999999999,0.06,0.19,0.13799999999999998,0.0341005764624074,0.08,0.08,0.14,0.17,0.18
58,2078-01-01,365,49.80999999999999,0.03,0.24,0.1364657534246575,0.047436787698705705,0.04,0.04,0.15,0.17,0.19
59,2079-01-01,365,48.63999999999999,0.04,0.2,0.13326027397260273,0.041075282504222065,0.08,0.08,0.14,0.17,0.19
60,2080-01-01,366,28.979999999999997,0.03,0.18,0.07918032786885246,0.025933611034972878,0.04,0.04,0.09,0.1,0.11
61,2081-01-01,365,50.099999999999994,0.03,0.29,0.13726027397260274,0.04395702365597633,0.04,0.04,0.15,0.17,0.1880000000000001
62,2082-01-01,365,52.81,0.06,0.3,0.14468493150684933,0.04254534300363177,0.08,0.08,0.15,0.17,0.19800000000000012
63,2083-01-01,365,52.26,0.03,0.24,0.14317808219178083,0.042177492688313,0.05,0.05,0.15,0.17,0.2080000000000001
64,2084-01-01,366,51.17,0.04,0.24,0.13980874316939892,0.04180643046799166,0.08,0.08,0.15,0.17,0.19
65,2085-01-01,365,28.009999999999998,0.03,0.11,0.07673972602739726,0.02467433217775285,0.04,0.04,0.08,0.1,0.11
66,2086-01-01,365,28.009999999999998,0.03,0.11,0.07673972602739726,0.02467433217775285,0.04,0.04,0.08,0.1,0.11
67,2087-01-01,365,28.009999999999998,0.03,0.11,0.07673972602739726,0.02467433217775285,0.04,0.04,0.08,0.1,0.11
68,2088-01-01,366,49.56999999999999,0.07,0.21,0.13543715846994533,0.03691224472319371,0.08,0.08,0.14,0.17,0.18
69,2089-01-01,365,52.62,0.06,0.24,0.14416438356164382,0.0385870351208087,0.09,0.09,0.16,0.18,0.19
70,2090-01-01,365,52.3,0.04,0.22,0.1432876712328767,0.041262766211183195,0.06,0.06,0.16,0.17,0.19
71,2091-01-01,365,51.05,0.04,0.29,0.13986301369863013,0.04131048991744095,0.08,0.08,0.14,0.17,0.19
72,2092-01-01,366,49.11,0.07,0.19,0.13418032786885245,0.0352238779838389,0.08,0.08,0.13,0.17,0.18
73,2093-01-01,365,28.73,0.03,0.18,0.0787123287671233,0.028317901522387532,0.04,0.04,0.09,0.1,0.11
74,2094-01-01,365,30.009999999999998,0.03,0.21,0.08221917808219177,0.02840521203155026,0.04,0.04,0.09,0.1,0.1280000000000001
75,2095-01-01,365,50.80999999999999,0.03,0.24,0.13920547945205478,0.04515026931581553,0.04,0.04,0.15,0.17,0.2
76,2096-01-01,366,52.019999999999996,0.03,0.24,0.1421311475409836,0.04193860021866057,0.04,0.04,0.15,0.17,0.2075
77,2097-01-01,365,51.31999999999999,0.03,0.24,0.14060273972602738,0.044181053314129526,0.04,0.04,0.15,0.17,0.19800000000000012
78,2098-01-01,365,49.989999999999995,0.04,0.3,0.13695890410958902,0.04452256265199021,0.04,0.04,0.14,0.17,0.19
79,2099-01-01,334,46.61,0.07,0.2,0.13955089820359282,0.034702872007090935,0.08,0.08,0.15,0.17,0.18
