,time,n,sum,min,max,mean,std,q0.05,q0.25,q0.50,q0.75,q0.95
0,2020-01-01,4784718,662486.6799999998,0.0,0.63,0.1384588767822889,0.034845770403046136,0.09,0.09,0.14,0.16,0.19
1,2021-01-01,4771645,661555.2899999995,0.0,0.63,0.1386430235275255,0.03445710719846896,0.09,0.09,0.14,0.17,0.19
2,2022-01-01,4771645,664120.5000000002,0.0,0.64,0.13918061800490192,0.034818711915911155,0.09,0.09,0.14,0.17,0.19
3,2023-01-01,4771645,666489.8900000005,0.0,0.6,0.13967717422398365,0.034547642318902,0.09,0.09,0.14,0.17,0.19
4,2024-01-01,4784718,666393.2400000002,0.0,0.71,0.13927534287287155,0.03437489616278983,0.09,0.09,0.14,0.16,0.19
5,2025-01-01,4771645,660798.8899999998,0.0,0.68,0.13848450377176,0.03406693747022822,0.09,0.09,0.14,0.16,0.19
6,2026-01-01,4771645,657857.9900000005,0.0,0.65,0.13786817544054522,0.03538401353184284,0.09,0.09,0.14,0.17,0.19
7,2027-01-01,4771645,659605.3899999998,0.0,0.68,0.1382343803866381,0.03459551568684692,0.09,0.09,0.14,0.16,0.19
8,2028-01-01,4784718,658549.6399999999,0.0,0.62,0.137636040410323,0.03690065434934055,0.08,0.08,0.14,0.16,0.19
9,2029-01-01,4771645,660744.9400000003,0.0,0.72,0.13847319739838154,0.03641186111242226,0.09,0.09,0.14,0.17,0.19
10,2030-01-01,4771645,659446.5,0.0,0.55,0.1382010815976461,0.036431142234611004,0.09,0.09,0.14,0.17,0.19
11,2031-01-01,4771645,662076.0899999999,0.0,0.63,0.13875216827739698,0.03574652566627203,0.09,0.09,0.14,0.17,0.19
12,2032-01-01,4784718,668399.9600000004,0.0,0.78,0.13969474481045704,0.03478011382338762,0.09,0.09,0.14,0.17,0.19
13,2033-01-01,4771645,659772.18,0.0,0.67,0.13826933478915554,0.03488392725959722,0.09,0.09,0.14,0.16,0.19
14,2034-01-01,4771645,666323.3200000006,0.0,0.62,0.13964226592715942,0.03473340036727762,0.09,0.09,0.14,0.17,0.19
15,2035-01-01,4771645,662664.2599999993,0.0,0.6900000000000001,0.1388754318479265,0.034528139303089664,0.09,0.09,0.14,0.16,0.19
16,2036-01-01,4784718,661741.9700000006,0.0,0.59,0.13830323333579964,0.03573221216812214,0.09,0.09,0.14,0.17,0.19
17,2037-01-01,4771645,672968.7599999999,0.0,0.71,0.14103495964180066,0.03320696091559169,0.09,0.09,0.14,0.17,0.19
18,2038-01-01,4771645,661825.7900000004,0.0,0.56,0.1386997125729178,0.03493076378434559,0.09,0.09,0.14,0.16,0.19
19,2039-01-01,4771645,605225.1300000006,0.0,0.61,0.1268378368466222,0.03491088724134751,0.08,0.08,0.12,0.15,0.18
20,2040-01-01,4784718,664040.6799999998,0.0,0.64,0.13878366081344812,0.03510447108940996,0.09,0.09,0.14,0.17,0.19
21,2041-01-01,4771645,655031.2800000004,0.0,0.65,0.13727577805976773,0.034390148606747176,0.09,0.09,0.14,0.16,0.19
22,2042-01-01,4771645,662703.53,0.0,0.62,0.13888366171414682,0.035116413975105024,0.09,0.09,0.14,0.16,0.19
23,2043-01-01,4771645,668537.5400000002,0.0,0.68,0.14010630296260518,0.03363280105031015,0.09,0.09,0.14,0.17,0.19
24,2044-01-01,4784718,667897.3200000005,0.0,0.61,0.13958969368727697,0.03403925274807372,0.09,0.09,0.14,0.16,0.19
25,2045-01-01,4771645,660985.080000001,0.0,0.6,0.1385235238581246,0.03460744132178089,0.09,0.09,0.14,0.16,0.19
26,2046-01-01,4771645,663979.2000000005,0.0,0.61,0.13915100557564541,0.03414458593422547,0.09,0.09,0.14,0.16,0.19
27,2047-01-01,4771645,658804.9399999994,0.0,0.68,0.13806662901368383,0.03599812905174091,0.09,0.09,0.14,0.17,0.19
28,2048-01-01,4784718,665869.45,0.0,0.65,0.1391658714264874,0.03590238165919101,0.09,0.09,0.14,0.17,0.19
29,2049-01-01,4771645,658732.4800000002,0.0,0.56,0.13805144347494422,0.035129394298638844,0.09,0.09,0.14,0.16,0.19
30,2050-01-01,4771645,666032.9700000008,0.0,0.54,0.13958141689082085,0.03337546158769996,0.09,0.09,0.14,0.16,0.19
31,2051-01-01,4771645,659671.9099999998,0.0,0.6900000000000001,0.13824832107166393,0.0348210204116518,0.09,0.09,0.14,0.16,0.19
32,2052-01-01,4784718,659866.0099999997,0.0,0.56,0.13791116007254756,0.03357855814629076,0.09,0.09,0.14,0.16,0.19
33,2053-01-01,4771645,660596.3200000003,0.0,0.63,0.1384420509069724,0.035756108115529685,0.09,0.09,0.14,0.16,0.19
34,2054-01-01,4771645,658730.9199999993,0.0,0.5700000000000001,0.13805111654366561,0.03561624921060113,0.09,0.09,0.14,0.16,0.19
35,2055-01-01,4771645,665432.8599999996,0.0,0.59,0.13945565103858307,0.03436621823924303,0.09,0.09,0.14,0.16,0.19
36,2056-01-01,4784718,659288.1899999998,0.0,0.53,0.13779039642461685,0.03427289672506558,0.09,0.09,0.14,0.16,0.19
37,2057-01-01,4771645,661451.2100000004,0.0,0.64,0.13862121134325803,0.034564293264951154,0.09,0.09,0.14,0.16,0.19
38,2058-01-01,4771645,661596.7700000003,0.0,0.71,0.13865171654639025,0.035091064082838144,0.09,0.09,0.14,0.17,0.19
39,2059-01-01,4771645,658310.4000000001,0.0,0.52,0.1379629876069993,0.0347748263234284,0.09,0.09,0.14,0.16,0.19
40,2060-01-01,4784718,660490.460000001,0.0,0.63,0.13804166933140072,0.034595263146091314,0.09,0.09,0.14,0.16,0.19
41,2061-01-01,4771645,660358.4700000001,0.0,0.64,0.13839220436558045,0.03513708590422904,0.09,0.09,0.14,0.16,0.19
42,2062-01-01,4771645,657349.5600000008,0.0,0.63,0.1377616230880547,0.0360330783233402,0.09,0.09,0.14,0.17,0.19
43,2063-01-01,4771645,656487.5500000005,0.0,0.59,0.13758097050388293,0.03503597605215371,0.09,0.09,0.14,0.16,0.19
44,2064-01-01,4784718,665750.6699999993,0.0,0.71,0.13914104655697562,0.03496778438111645,0.09,0.09,0.14,0.17,0.19
45,2065-01-01,4771645,660678.6699999997,0.0,0.71,0.13845930910618867,0.035923436079928026,0.09,0.09,0.14,0.16,0.19
46,2066-01-01,4771645,658696.7100000008,0.0,0.6900000000000001,0.1380439471083873,0.03617369106261077,0.09,0.09,0.14,0.17,0.19
47,2067-01-01,4771645,660700.9099999998,0.0,0.77,0.13846396997261948,0.0335951838730186,0.09,0.09,0.14,0.16,0.19
48,2068-01-01,4784718,663045.4799999999,0.0,0.58,0.13857566527431708,0.03467436441059094,0.09,0.09,0.14,0.16,0.19
49,2069-01-01,4771645,662884.7200000001,0.0,0.66,0.13892163394384957,0.03375685988703246,0.09,0.09,0.14,0.17,0.19
50,2070-01-01,4771645,663555.4599999998,0.0,0.62,0.13906220181928872,0.034310840631271725,0.09,0.09,0.14,0.16,0.19
51,2071-01-01,4771645,660788.9399999998,0.0,0.6900000000000001,0.13848241853700344,0.03570012448118345,0.09,0.09,0.14,0.17,0.19
52,2072-01-01,4784718,664910.6600000001,0.0,0.66,0.13896548553122673,0.035149518833035,0.09,0.09,0.14,0.17,0.19
53,2073-01-01,4771645,659691.4299999995,0.0,0.6,0.1382524119040707,0.03455569472851284,0.09,0.09,0.14,0.16,0.19
54,2074-01-01,4771645,662830.0899999993,0.0,0.64,0.13891018506196484,0.03423456234377872,0.09,0.09,0.14,0.17,0.19
55,2075-01-01,4771645,663009.8199999994,0.0,0.64,0.13894785131752244,0.03351899087375698,0.09,0.09,0.14,0.16,0.19
56,2076-01-01,4784718,662674.1199999998,0.0,0.6900000000000001,0.13849805150481173,0.03489987791265008,0.09,0.09,0.14,0.16,0.19
57,2077-01-01,4771645,649623.5299999993,0.0,0.63,0.13614246868742316,0.0346307003311139,0.08,0.08,0.14,0.16,0.19
58,2078-01-01,4771645,657818.5199999999,0.0,0.62,0.1378599036600585,0.03463442912547469,0.09,0.09,0.14,0.16,0.19
59,2079-01-01,4771645,661476.3599999999,0.0,0.66,0.13862648206226572,0.03478517956396242,0.09,0.09,0.14,0.16,0.19
60,2080-01-01,4784718,660593.38,0.0,0.64,0.138063179481006,0.03493145373507123,0.09,0.09,0.14,0.16,0.19
61,2081-01-01,4771645,662721.0499999999,0.0,0.66,0.138887333403889,0.03340176806598271,0.09,0.09,0.14,0.16,0.19
62,2082-01-01,4771645,654208.8600000001,0.0,0.58,0.13710342240464243,0.03498175715547754,0.08,0.08,0.14,0.16,0.19
63,2083-01-01,4771645,663020.9500000004,0.0,0.6900000000000001,0.13895018384645136,0.035117224349440236,0.09,0.09,0.14,0.16,0.19
64,2084-01-01,4784718,648037.7199999992,0.0,0.56,0.13543906244840326,0.034845037965380625,0.08,0.08,0.14,0.16,0.18
65,2085-01-01,4771645,604781.0700000003,0.0,0.58,0.12674477460079286,0.03610467998637183,0.07,0.07,0.12,0.15,0.18
66,2086-01-01,4771645,661680.9999999998,0.0,0.67,0.1386693687397113,0.03388689608303572,0.09,0.09,0.14,0.16,0.19
67,2087-01-01,4771645,659066.8199999996,0.0,0.65,0.1381215115541914,0.03372155624321892,0.09,0.09,0.14,0.16,0.19
68,2088-01-01,4784718,658006.62,0.0,0.65,0.1375225499183024,0.034828233007782,0.09,0.09,0.14,0.16,0.19
69,2089-01-01,4771645,659571.9500000003,0.0,0.56,0.13822737232128549,0.03296799052119709,0.09,0.09,0.14,0.16,0.18
70,2090-01-01,4771645,651819.6699999999,0.0,0.52,0.13660271667318083,0.03502293537268908,0.09,0.09,0.14,0.16,0.19
71,2091-01-01,4771645,662455.4499999996,0.0,0.54,0.1388316712580252,0.03385769488034109,0.09,0.09,0.14,0.16,0.19
72,2092-01-01,4784718,663423.0100000004,0.0,0.62,0.13865456856600542,0.03366050178709415,0.09,0.09,0.14,0.16,0.19
73,2093-01-01,4771645,659851.0499999989,0.0,0.56,0.13828586368013523,0.033904621382162124,0.09,0.09,0.14,0.16,0.19
74,2094-01-01,4771645,659851.3200000008,0.0,0.68,0.13828592026439535,0.033799526484283214,0.09,0.09,0.14,0.16,0.19
75,2095-01-01,4771645,657187.4099999993,0.0,0.64,0.137727641096519,0.03501250270078257,0.09,0.09,0.14,0.16,0.19
76,2096-01-01,4784718,656938.6399999992,0.0,0.61,0.13729934345137984,0.03432280423602032,0.09,0.09,0.14,0.16,0.19
77,2097-01-01,4771645,661583.0599999994,0.0,0.61,0.13864884332342398,0.03484624361212698,0.09,0.09,0.14,0.16,0.19
78,2098-01-01,4771645,656961.07,0.0,0.7000000000000001,0.13768020672116218,0.03297225306039919,0.09,0.09,0.14,0.16,0.18
79,2099-01-01,4771645,656671.0099999998,0.0,0.58,0.1376194184605099,0.03443216682197905,0.09,0.09,0.14,0.16,0.19
80,2100-01-01,4771645,608622.7100000007,0.0,0.56,0.12754987221388026,0.034703669976682575,0.08,0.08,0.13,0.15,0.18
