,time,n,sum,min,max,mean,std,q0.05,q0.25,q0.50,q0.75,q0.95
0,2003-01-01,730,329.43,0.16,0.93,0.4512739726027397,0.2407281056076002,0.19,0.19,0.405,0.7000000000000001,0.8300000000000001
1,2004-01-01,732,354.21,0.16,0.87,0.4838934426229508,0.21798444475173478,0.2,0.2,0.5,0.67,0.81
2,2005-01-01,730,350.63,0.11,0.93,0.4803150684931507,0.23599926727958748,0.2,0.2,0.48,0.72,0.8300000000000001
3,2006-01-01,730,320.34,0.14,0.9,0.43882191780821916,0.2245750533521095,0.18,0.18,0.41000000000000003,0.6475,0.8
4,2007-01-01,730,313.38,0.16,0.92,0.4292876712328767,0.23499352829631756,0.18,0.18,0.37,0.65,0.8354999999999996
5,2008-01-01,732,313.73,0.13,0.93,0.4285928961748634,0.24943228075326598,0.17,0.17,0.34,0.68,0.84
6,2009-01-01,730,343.85,0.16,0.9400000000000001,0.471027397260274,0.24623668715019947,0.18,0.18,0.465,0.72,0.84
7,2010-01-01,730,327.56000000000006,0.15,0.9,0.44871232876712336,0.22674465026400065,0.18,0.18,0.455,0.65,0.81
8,2011-01-01,730,329.63,0.16,0.92,0.4515479452054795,0.23331661955705438,0.18,0.18,0.39,0.6775,0.8300000000000001
9,2012-01-01,732,350.56,0.13,0.9,0.4789071038251366,0.24771944977439742,0.18,0.18,0.47000000000000003,0.73,0.8344999999999994
10,2013-01-01,730,321.03,0.14,0.9,0.4397671232876712,0.24078257233093067,0.17,0.17,0.36,0.7000000000000001,0.8300000000000001
11,2014-01-01,730,322.14000000000004,0.14,0.92,0.44128767123287677,0.23337485159042054,0.18,0.18,0.39,0.67,0.8200000000000001
12,2015-01-01,730,338.40999999999997,0.15,0.93,0.4635753424657534,0.22943518604931865,0.18,0.18,0.42,0.6775,0.8300000000000001
13,2016-01-01,732,322.63,0.16,0.93,0.4407513661202186,0.24138513868034492,0.19,0.19,0.35000000000000003,0.7000000000000001,0.84
14,2017-01-01,730,349.46000000000004,0.14,0.96,0.47871232876712333,0.24613614004660633,0.19,0.19,0.47000000000000003,0.74,0.85
15,2018-01-01,730,331.57000000000005,0.16,0.92,0.45420547945205486,0.24109223261546575,0.18,0.18,0.425,0.68,0.8300000000000001
16,2019-01-01,730,348.62,0.13,0.92,0.47756164383561645,0.24323014561169037,0.18,0.18,0.485,0.7000000000000001,0.84
