,time,n,sum,min,max,mean,std,q0.05,q0.25,q0.50,q0.75,q0.95
0,2003-01-01,14066370,1703981.2700000035,0.0,0.66,0.12113866406187264,0.03516333804326192,0.07,0.07,0.12,0.14,0.18
1,2004-01-01,14104908,1762074.4000000032,0.0,0.66,0.12492633060775747,0.03632975659443655,0.08,0.08,0.12,0.14,0.19
2,2005-01-01,14066370,1739048.5300000007,0.0,0.8200000000000001,0.12363164981441557,0.0373561767312503,0.08,0.08,0.12,0.14,0.19
3,2006-01-01,14066370,1689913.9699999972,0.0,0.64,0.12013859794673375,0.034346890703362644,0.07,0.07,0.12,0.13,0.18
4,2007-01-01,14066370,1706450.2900000017,0.0,0.76,0.12131419051254884,0.03553560374335045,0.07,0.07,0.12,0.14,0.19
5,2008-01-01,14104908,1724043.2900000028,0.0,0.56,0.12223002730680717,0.03556456067371952,0.07,0.07,0.12,0.14,0.19
6,2009-01-01,14066370,1710157.2700000012,0.0,0.77,0.12157772545439947,0.036963927775348474,0.07,0.07,0.12,0.13,0.19
7,2010-01-01,14066370,1613331.370000002,0.0,0.53,0.11469422246108996,0.03147246539625718,0.07,0.07,0.11,0.13,0.17
8,2011-01-01,14066370,1698375.2399999986,0.0,0.73,0.12074012271822784,0.03329490650050015,0.08,0.08,0.12,0.13,0.18
9,2012-01-01,14104908,1703360.9200000004,0.0,0.53,0.12076370296069995,0.03309514003800721,0.08,0.08,0.12,0.13,0.18
10,2013-01-01,14066370,1676804.5400000014,0.0,0.58,0.11920662829144985,0.03274024903160391,0.07,0.07,0.12,0.13,0.18
11,2014-01-01,14066370,1666331.3499999952,0.0,0.55,0.11846207301528364,0.03425702550144079,0.07,0.07,0.12,0.13,0.18
12,2015-01-01,14066370,1676319.2500000005,0.0,0.56,0.11917212827474327,0.03382605160259661,0.07,0.07,0.12,0.13,0.18
13,2016-01-01,14104908,1684886.7199999967,0.0,0.6,0.11945393192213638,0.03512470250094235,0.07,0.07,0.12,0.13,0.18
14,2017-01-01,14066370,1632901.240000001,0.0,0.55,0.1160854747884494,0.02967104535349838,0.07,0.07,0.11,0.13,0.16
15,2018-01-01,14066370,1636811.499999999,0.0,0.55,0.11636346121991666,0.03446490826587802,0.07,0.07,0.11,0.13,0.17
16,2019-01-01,14066370,1604817.3199999982,0.0,0.53,0.11408894547775995,0.03224049187151845,0.06,0.06,0.11,0.13,0.17
