,time,n,sum,min,max,mean,std,q0.05,q0.25,q0.50,q0.75,q0.95
0,2003-01-01,1685205,301506.78,0.02,0.71,0.17891400749463718,0.040575595972801595,0.13,0.13,0.18,0.2,0.23
1,2004-01-01,1689822,302885.68,0.03,0.61,0.17924117451423877,0.04083760902721965,0.13,0.13,0.18,0.2,0.23
2,2005-01-01,1685205,298794.5799999999,0.02,0.62,0.17730458905593083,0.03857663926762336,0.13,0.13,0.18,0.2,0.23
3,2006-01-01,1685205,301066.22999999975,0.03,0.65,0.17865258529377717,0.04122487919745002,0.13,0.13,0.18,0.2,0.23
4,2007-01-01,1685205,299818.4300000002,0.0,0.64,0.17791214125284474,0.040544746405711804,0.12,0.12,0.18,0.2,0.23
5,2008-01-01,1689822,297838.10000000003,0.01,0.6900000000000001,0.17625412617423614,0.037341026644873834,0.13,0.13,0.17,0.2,0.22
6,2009-01-01,1685205,301572.69,0.04,0.61,0.17895311846333237,0.03793483382766692,0.13,0.13,0.18,0.2,0.23
7,2010-01-01,1685205,301284.54999999993,0.02,0.63,0.17878213629795778,0.040865854687769904,0.13,0.13,0.18,0.2,0.23
8,2011-01-01,1685205,300597.72999999975,0.0,0.6,0.17837457757364816,0.04285558032142192,0.13,0.13,0.18,0.2,0.23
9,2012-01-01,1689822,302579.9799999998,0.0,0.65,0.17906026788620327,0.0400326478398909,0.13,0.13,0.18,0.2,0.23
10,2013-01-01,1685205,301008.2999999999,0.02,0.62,0.17861820965401828,0.03960522854090032,0.13,0.13,0.18,0.2,0.23
11,2014-01-01,1685205,299655.16999999987,0.02,0.64,0.17781526283152488,0.03902614405177221,0.13,0.13,0.18,0.2,0.23
12,2015-01-01,1685205,298052.44,0.0,0.61,0.17686420346486037,0.037960807517573865,0.13,0.13,0.18,0.2,0.23
13,2016-01-01,1689822,300402.42999999993,0.03,0.61,0.17777164103674822,0.03832874032442529,0.13,0.13,0.18,0.2,0.23
14,2017-01-01,1685205,300577.8199999998,0.02,0.64,0.1783627629872922,0.040080078725981606,0.12,0.12,0.18,0.2,0.23
15,2018-01-01,1685205,299480.4999999998,0.0,0.65,0.17771161372058583,0.03907166447057376,0.13,0.13,0.18,0.2,0.23
16,2019-01-01,1685205,297220.17999999993,0.0,0.7000000000000001,0.17637034070038954,0.03941621391814749,0.12,0.12,0.17,0.2,0.23
