,time,n,sum,min,max,mean,std,q0.05,q0.25,q0.50,q0.75,q0.95
0,2020-01-01,142008,22432.34999999998,0.01,0.56,0.1579653963157004,0.03868420995819095,0.1,0.1,0.16,0.18,0.21
1,2021-01-01,141620,22651.500000000004,0.0,0.61,0.1599456291484254,0.03983681773612287,0.11,0.11,0.16,0.18,0.21
2,2022-01-01,141620,22248.260000000006,0.04,0.56,0.15709829120180768,0.03550467067166511,0.1,0.1,0.16,0.18,0.21
3,2023-01-01,141620,22294.689999999988,0.04,0.46,0.15742614037565306,0.03661153672022396,0.1,0.1,0.15,0.18,0.21
4,2024-01-01,142008,22054.89000000003,0.03,0.56,0.15530737704918052,0.036283939992648076,0.1,0.1,0.15,0.18,0.21
5,2025-01-01,141620,22214.309999999983,0.0,0.59,0.15685856517441027,0.0382793959286871,0.1,0.1,0.15,0.18,0.21
6,2026-01-01,141620,22213.039999999975,0.01,0.48,0.1568495975144752,0.0367791126054399,0.1,0.1,0.15,0.18,0.21
7,2027-01-01,141620,22452.51000000001,0.01,0.53,0.15854053099844662,0.038203869901013474,0.1,0.1,0.16,0.18,0.21
8,2028-01-01,142008,22326.800000000014,0.01,0.52,0.15722212833079835,0.03693426517632854,0.1,0.1,0.15,0.18,0.21
9,2029-01-01,141620,22095.330000000027,0.03,0.56,0.15601842960033913,0.035932688635083344,0.1,0.1,0.15,0.18,0.21
10,2030-01-01,141620,22202.20999999998,0.03,0.56,0.15677312526479298,0.03659673583948511,0.1,0.1,0.15,0.18,0.21
11,2031-01-01,141620,22344.659999999996,0.0,0.61,0.15777898601892384,0.03650291693741649,0.1,0.1,0.16,0.18,0.21
12,2032-01-01,142008,22304.090000000007,0.0,0.5,0.157062207762943,0.034649561275990996,0.1,0.1,0.16,0.18,0.21
13,2033-01-01,141620,22687.870000000003,0.0,0.56,0.1602024431577461,0.03820062174160504,0.11,0.11,0.16,0.18,0.21
14,2034-01-01,141620,22398.88000000001,0.02,0.55,0.15816184154780405,0.035420516407459905,0.11,0.11,0.16,0.18,0.21
15,2035-01-01,141620,22259.670000000006,0.04,0.51,0.15717885891823194,0.03600443741418863,0.1,0.1,0.16,0.18,0.21
16,2036-01-01,142008,22422.300000000007,0.0,0.56,0.15789462565489273,0.037878052770872486,0.1,0.1,0.16,0.18,0.21
17,2037-01-01,141620,22202.259999999984,0.04,0.5,0.15677347832227076,0.036024838163780576,0.1,0.1,0.15,0.18,0.21
18,2038-01-01,141620,22698.499999999996,0.01,0.54,0.16027750317751727,0.04557989071759002,0.1,0.1,0.16,0.18,0.21
19,2039-01-01,141620,22255.400000000005,0.04,0.56,0.15714870780963144,0.03636207632471397,0.1,0.1,0.15,0.18,0.21
20,2040-01-01,142008,22315.78000000004,0.04,0.47000000000000003,0.1571445270688978,0.035116710866883845,0.1,0.1,0.16,0.18,0.21
21,2041-01-01,141620,22375.35000000002,0.0,0.61,0.1579956926987715,0.037337245303152106,0.1,0.1,0.16,0.18,0.21
22,2042-01-01,141620,22961.560000000023,0.01,0.52,0.16213500917949458,0.04704867258829855,0.1,0.1,0.16,0.18,0.23
23,2043-01-01,141620,22295.320000000003,0.0,0.47000000000000003,0.15743058889987294,0.037189048090829534,0.1,0.1,0.15,0.18,0.21
24,2044-01-01,142008,22227.77000000001,0.03,0.56,0.15652477325221123,0.03565447159173046,0.1,0.1,0.15,0.18,0.21
25,2045-01-01,141620,22135.77,0.02,0.47000000000000003,0.15630398248834912,0.03627723726343509,0.1,0.1,0.15,0.18,0.21
26,2046-01-01,141620,22159.75000000001,0.0,0.61,0.1564733088546816,0.04185395132871582,0.1,0.1,0.15,0.18,0.21
27,2047-01-01,141620,21878.210000000003,0.02,0.48,0.1544853128089253,0.03606134682339456,0.1,0.1,0.15,0.18,0.21
28,2048-01-01,142008,22216.919999999995,0.01,0.5,0.15644836910596582,0.03715030929661385,0.1,0.1,0.15,0.18,0.21
29,2049-01-01,141620,22295.089999999997,0.01,0.56,0.1574289648354752,0.03679858885461177,0.1,0.1,0.16,0.18,0.21
30,2050-01-01,141620,22049.29999999997,0.0,0.61,0.15569340488631528,0.036267592738035856,0.1,0.1,0.15,0.18,0.21
31,2051-01-01,141620,22250.869999999984,0.04,0.61,0.15711672080214648,0.03722242471040042,0.1,0.1,0.15,0.18,0.21
32,2052-01-01,142008,21140.419999999995,0.0,0.52,0.14886781026421042,0.041034329153146656,0.09,0.09,0.14,0.17,0.21
33,2053-01-01,141620,22359.119999999988,0.03,0.61,0.15788109024149122,0.03761292441108933,0.1,0.1,0.16,0.18,0.21
34,2054-01-01,141620,22231.089999999942,0.0,0.56,0.15697705126394537,0.03518163026169213,0.1,0.1,0.16,0.18,0.21
35,2055-01-01,141620,22335.77000000002,0.01,0.61,0.15771621239937875,0.0361355283025964,0.11,0.11,0.16,0.18,0.21
36,2056-01-01,142008,22499.39,0.0,0.56,0.15843748239535801,0.03775252915145314,0.1,0.1,0.16,0.18,0.21
37,2057-01-01,141620,22156.050000000003,0.03,0.56,0.1564471826013275,0.03699239607108353,0.1,0.1,0.15,0.18,0.21
38,2058-01-01,141620,22350.070000000003,0.02,0.56,0.15781718683801726,0.03627959563202888,0.11,0.11,0.16,0.18,0.21
39,2059-01-01,141620,22279.440000000006,0.01,0.56,0.1573184578449372,0.03763425410431795,0.1,0.1,0.16,0.18,0.21
40,2060-01-01,142008,22448.790000000026,0.0,0.52,0.1580811644414401,0.03933020750482146,0.1,0.1,0.15,0.18,0.21
41,2061-01-01,141620,22534.110000000008,0.01,0.54,0.15911672080214664,0.043760641218449726,0.1,0.1,0.16,0.18,0.21
42,2062-01-01,141620,22323.95,0.03,0.52,0.15763274961163679,0.03707497254528818,0.1,0.1,0.16,0.18,0.21
43,2063-01-01,141620,21859.409999999985,0.0,0.56,0.1543525631972884,0.03740209046849326,0.1,0.1,0.15,0.18,0.21
44,2064-01-01,142008,22339.18999999999,0.02,0.48,0.15730937693651056,0.03619510502550568,0.1,0.1,0.16,0.18,0.21
45,2065-01-01,141620,22277.660000000018,0.03,0.48,0.15730588899872913,0.03599701545088285,0.1,0.1,0.16,0.18,0.21
46,2066-01-01,141620,22269.990000000016,0.01,0.48,0.15725172998164114,0.03731829733278391,0.1,0.1,0.15,0.18,0.21
47,2067-01-01,141620,22307.36,0.03,0.56,0.15751560514051688,0.03637301168125316,0.1,0.1,0.15,0.18,0.21
48,2068-01-01,142008,22194.500000000007,0.03,0.5,0.15629049067658166,0.036241404727780514,0.1,0.1,0.15,0.18,0.21
49,2069-01-01,141620,22459.44999999998,0.0,0.59,0.15858953537635911,0.03708429232525152,0.11,0.11,0.16,0.18,0.21
50,2070-01-01,141620,22207.570000000014,0.04,0.61,0.1568109730264088,0.03695165295023012,0.1,0.1,0.15,0.18,0.21
51,2071-01-01,141620,22267.789999999983,0.03,0.61,0.15723619545261958,0.036801559028705536,0.1,0.1,0.16,0.18,0.21
52,2072-01-01,142008,22426.34000000003,0.0,0.61,0.15792307475635195,0.03653886132671779,0.11,0.11,0.16,0.18,0.21
53,2073-01-01,141620,22113.239999999987,0.0,0.48,0.15614489478887153,0.035723172923715726,0.1,0.1,0.15,0.18,0.21
54,2074-01-01,141620,22409.37999999999,0.02,0.54,0.15823598361813296,0.04137346086390862,0.1,0.1,0.15,0.18,0.21
55,2075-01-01,141620,22327.07,0.0,0.56,0.15765478039824884,0.035774895064667134,0.11,0.11,0.16,0.18,0.21
56,2076-01-01,142008,22420.069999999992,0.0,0.61,0.15787892231423575,0.03687574602970421,0.11,0.11,0.16,0.18,0.21
57,2077-01-01,141620,22031.920000000006,0.01,0.56,0.15557068210704705,0.03755261595874041,0.1,0.1,0.15,0.18,0.21
58,2078-01-01,141620,22116.70000000001,0.0,0.61,0.15616932636633252,0.03772328989412143,0.1,0.1,0.15,0.18,0.21
59,2079-01-01,141620,22290.48999999998,0.02,0.56,0.1573964835475214,0.036692129499961715,0.1,0.1,0.15,0.18,0.21
60,2080-01-01,142008,22395.829999999994,0.01,0.61,0.15770822770548135,0.03734853763381912,0.1,0.1,0.16,0.18,0.21
61,2081-01-01,141620,22056.969999999998,0.01,0.51,0.15574756390340347,0.03651043647425166,0.1,0.1,0.15,0.18,0.21
62,2082-01-01,141620,20550.03999999998,0.02,0.54,0.14510690580426477,0.04022733041321899,0.09,0.09,0.14,0.17,0.21
63,2083-01-01,141620,22232.42999999999,0.01,0.51,0.1569865132043496,0.035720006961539666,0.1,0.1,0.16,0.18,0.21
64,2084-01-01,142008,22102.87999999998,0.01,0.55,0.1556453157568586,0.03617554947177086,0.1,0.1,0.15,0.18,0.21
65,2085-01-01,141620,22385.14999999998,0.0,0.49,0.15806489196441167,0.03687377213711882,0.11,0.11,0.16,0.18,0.21
66,2086-01-01,141620,22241.889999999985,0.01,0.61,0.15705331167914124,0.0365350541073179,0.1,0.1,0.15,0.18,0.21
67,2087-01-01,141620,22242.16,0.01,0.51,0.15705521818952126,0.037390947510769615,0.1,0.1,0.16,0.18,0.21
68,2088-01-01,142008,22257.830000000013,0.0,0.59,0.15673645146752305,0.036495991751102845,0.1,0.1,0.15,0.18,0.21
69,2089-01-01,141620,22388.65,0.04,0.61,0.15808960598785482,0.03667069329184859,0.1,0.1,0.16,0.18,0.21
70,2090-01-01,141620,22308.839999999975,0.02,0.61,0.15752605564185831,0.03737484683104196,0.1,0.1,0.16,0.18,0.21
71,2091-01-01,141620,22372.46,0.01,0.56,0.15797528597655697,0.03765597262590297,0.1,0.1,0.16,0.18,0.21
72,2092-01-01,142008,22319.289999999994,0.01,0.61,0.15716924398625426,0.03646989149527465,0.1,0.1,0.15,0.18,0.21
73,2093-01-01,141620,21852.36999999999,0.0,0.48,0.15430285270442023,0.037422147275061164,0.1,0.1,0.15,0.18,0.21
74,2094-01-01,141620,22052.91999999998,0.0,0.47000000000000003,0.15571896624770498,0.03460976338178931,0.1,0.1,0.15,0.18,0.21
75,2095-01-01,141620,22226.24000000002,0.03,0.54,0.15694280468860344,0.036063713323947796,0.1,0.1,0.15,0.18,0.21
76,2096-01-01,142008,21810.689999999988,0.0,0.54,0.15358775561940163,0.039607122047392106,0.1,0.1,0.15,0.18,0.21
77,2097-01-01,141620,22395.89999999999,0.02,0.56,0.15814079932212957,0.036711976089583896,0.1,0.1,0.16,0.18,0.21
78,2098-01-01,141620,22147.69999999999,0.03,0.56,0.15638822200254193,0.035859449576834575,0.1,0.1,0.15,0.18,0.21
79,2099-01-01,141232,22182.02999999996,0.0,0.51,0.1570609351988215,0.03587039442117495,0.1,0.1,0.16,0.18,0.21
