,time,n,sum,min,max,mean,std,q0.05,q0.25,q0.50,q0.75,q0.95
0,1,39254401,20056960.590000022,0.0,0.9500000000000001,0.5109480740770957,0.16773531688810275,0.16,0.16,0.55,0.64,0.72
1,2,35753536,18539758.350000065,0.0,0.96,0.5185433505094451,0.16632920679934687,0.16,0.16,0.55,0.65,0.72
2,3,39254401,19117651.819999978,0.0,0.98,0.48701932351483285,0.19555874263100687,0.14,0.14,0.55,0.64,0.72
3,4,37988130,16803112.199999977,0.0,0.9500000000000001,0.4423253316233249,0.2058186171250067,0.15,0.15,0.5,0.62,0.71
4,5,39254401,13829161.499999983,0.0,1.0,0.35229582283015815,0.18748473666549487,0.15,0.15,0.31,0.5,0.6900000000000001
5,6,37988130,8561992.670000007,0.0,0.93,0.2253860000479099,0.11583060862095261,0.13,0.13,0.18,0.23,0.48
6,7,39254401,6710582.249999987,0.0,0.84,0.17095108010946305,0.037541369225452204,0.13,0.13,0.17,0.18,0.22
7,8,39254401,6357949.349999991,0.0,0.86,0.16196780967311133,0.025744716718375953,0.13,0.13,0.16,0.17,0.2
8,9,37988130,6212432.949999999,0.0,0.88,0.16353616116402675,0.045802534091657604,0.12,0.12,0.16,0.17,0.21
9,10,39254401,7962020.759999991,0.0,0.9400000000000001,0.202831289159144,0.11046390746126263,0.12,0.12,0.16,0.2,0.47000000000000003
10,11,37988130,12330342.810000004,0.0,0.9400000000000001,0.32458409534767846,0.17994604924529192,0.13,0.13,0.27,0.47000000000000003,0.66
11,12,39254409,16826056.200000033,0.0,0.9400000000000001,0.42864118015380215,0.19227863993154126,0.13,0.13,0.45,0.59,0.71
