,time,n,sum,min,max,mean,std,q0.05,q0.25,q0.50,q0.75,q0.95
0,2003-01-01,375220,49568.350000000006,0.0,0.7000000000000001,0.13210476520441342,0.03921246692285965,0.08,0.08,0.13,0.15,0.18
1,2004-01-01,376248,49408.05999999999,0.0,0.72,0.1313178010248559,0.03860425977815842,0.08,0.08,0.13,0.15,0.19
2,2005-01-01,375220,49786.72000000001,0.0,0.76,0.1326867437769842,0.0404473953564215,0.08,0.08,0.13,0.16,0.19
3,2006-01-01,375220,49294.310000000005,0.01,0.78,0.13137442034006716,0.03867686301464965,0.08,0.08,0.13,0.15,0.18
4,2007-01-01,375220,49347.329999999994,0.0,0.66,0.131515724108523,0.03931184959588841,0.08,0.08,0.13,0.15,0.18
5,2008-01-01,376248,49489.94,0.0,0.6900000000000001,0.13153542344411134,0.03857945204292604,0.08,0.08,0.13,0.15,0.19
6,2009-01-01,375220,49646.600000000006,0.0,0.66,0.13231330952507864,0.038476207548798,0.08,0.08,0.13,0.15,0.18
7,2010-01-01,375220,49825.01000000001,0.0,0.71,0.13278879057619533,0.037278660490134466,0.08,0.08,0.13,0.15,0.18
8,2011-01-01,375220,49277.009999999995,0.0,0.68,0.13132831405575393,0.039250509039596794,0.08,0.08,0.13,0.15,0.18
9,2012-01-01,376248,49694.000000000015,0.0,0.72,0.1320777784865302,0.040317844394321393,0.08,0.08,0.13,0.16,0.19
10,2013-01-01,375220,49789.039999999986,0.0,0.77,0.13269292681626776,0.04188263108496468,0.08,0.08,0.13,0.16,0.19
11,2014-01-01,375220,49104.42000000001,0.0,0.68,0.13086834390490915,0.03934082805512017,0.08,0.08,0.13,0.15,0.18
12,2015-01-01,375220,49345.18999999999,0.01,0.6900000000000001,0.13151002078780447,0.04083899496477019,0.08,0.08,0.13,0.15,0.19
13,2016-01-01,376248,49664.28999999999,0.0,0.72,0.13199881461163912,0.03888566477952121,0.08,0.08,0.13,0.15,0.18
14,2017-01-01,375220,49384.360000000015,0.0,0.67,0.13161441287777842,0.03958332135643811,0.08,0.08,0.13,0.15,0.19
15,2018-01-01,375220,49450.86,0.0,0.6900000000000001,0.13179164223655457,0.03957904228117761,0.08,0.08,0.13,0.15,0.19
16,2019-01-01,375220,49134.47000000001,0.0,0.68,0.13094843025425087,0.039897187513230285,0.08,0.08,0.13,0.15,0.18
