,time,n,sum,min,max,mean,std,q0.05,q0.25,q0.50,q0.75,q0.95
0,2002-01-01,10049216,1130976.8799999994,0.0,1.0,0.11254379247097479,0.0447557667886914,0.05,0.05,0.11,0.13,0.19
1,2003-01-01,11796692,1469131.9800000002,0.0,1.0,0.12453762292005252,0.05339646259290992,0.05,0.05,0.12,0.14,0.22
2,2004-01-01,10355087,1363607.5000000014,0.0,1.0,0.1316847941499672,0.0650685684543487,0.06,0.06,0.12,0.15,0.26
3,2005-01-01,11758189,1572781.2100000011,0.0,1.0,0.13376049747116678,0.06578805743277565,0.06,0.06,0.12,0.15,0.26
4,2006-01-01,11406408,1493710.7099999995,0.0,1.0,0.13095364552977584,0.06641358247477264,0.05,0.05,0.12,0.15,0.26
5,2007-01-01,11282110,1366466.6700000009,0.0,1.0,0.12111800629492186,0.049541147679100124,0.06,0.06,0.12,0.14,0.2
6,2008-01-01,10687311,1327580.8300000015,0.0,1.0,0.12422028609441621,0.054679801991794584,0.06,0.06,0.12,0.15,0.22
7,2009-01-01,10566082,1431293.35,0.0,1.0,0.13546112456821743,0.062491005676249975,0.06,0.06,0.13,0.16,0.25
8,2010-01-01,10467174,1438807.8700000006,0.0,1.0,0.1374590572393275,0.06314293142290701,0.06,0.06,0.12,0.16,0.26
9,2011-01-01,11988531,1412801.0699999945,0.0,1.0,0.11784605386598195,0.04556721537392364,0.05,0.05,0.11,0.14,0.19
10,2012-01-01,11359727,1527583.8600000006,0.0,1.0,0.13447364184016047,0.0612717407759952,0.06,0.06,0.12,0.15,0.25
11,2013-01-01,10158736,1415184.7400000002,0.0,1.0,0.13930716774212856,0.06583942487956417,0.06,0.06,0.13,0.16,0.27
12,2014-01-01,10277356,1238387.9699999988,0.0,1.0,0.12049674741246667,0.05099365186359469,0.05,0.05,0.12,0.14,0.21
13,2015-01-01,11850239,1424694.1600000006,0.0,1.0,0.12022493048452446,0.05484038970719452,0.04,0.04,0.11,0.14,0.21
14,2016-01-01,10659315,1305098.890000001,0.0,1.0,0.12243740709417078,0.05568112996205958,0.05,0.05,0.12,0.14,0.22
15,2017-01-01,11538131,1517075.0499999986,0.0,1.0,0.13148360423364916,0.05263216214069188,0.06,0.06,0.13,0.15,0.22
16,2018-01-01,11320780,1555476.4800000014,0.0,1.0,0.13740011553974207,0.06512651210091704,0.06,0.06,0.13,0.16,0.26
17,2019-01-01,11224630,1504764.9400000002,0.0,1.0,0.1340592019514229,0.05712567808182826,0.07,0.07,0.12,0.15,0.24
