,time,n,sum,min,max,mean,std,q0.05,q0.25,q0.50,q0.75,q0.95
0,1,39254649,18494214.969999973,0.0,0.91,0.47113438640095784,0.1796081319690026,0.15,0.15,0.5,0.62,0.72
1,2,35753760,17493515.560000055,0.0,0.9500000000000001,0.4892776468824553,0.17803189929918264,0.16,0.16,0.53,0.64,0.72
2,3,39254649,18104529.29999996,0.0,0.96,0.46120726490255864,0.20263396691013053,0.14,0.14,0.52,0.63,0.71
3,4,37988370,15807183.00000003,0.0,0.93,0.41610585029049757,0.19252827541407583,0.14,0.14,0.46,0.5700000000000001,0.7000000000000001
4,5,39254649,12389309.389999997,0.0,0.93,0.31561381150039064,0.15402193288869892,0.15,0.15,0.27,0.44,0.6
5,6,37988370,7482912.46000002,0.0,0.8200000000000001,0.1969790348993658,0.07348047105001362,0.13,0.13,0.18,0.21,0.37
6,7,39254649,6503473.370000001,0.03,0.7000000000000001,0.16567396564926617,0.02597224710831722,0.13,0.13,0.16,0.18,0.21
7,8,39254649,6321952.079999998,0.02,0.64,0.1610497671243984,0.0217432385823894,0.13,0.13,0.16,0.17,0.2
8,9,37988370,5959936.270000012,0.0,0.9500000000000001,0.156888444279131,0.02413389095982802,0.12,0.12,0.16,0.17,0.2
9,10,39254649,6706120.500000005,0.0,0.9,0.1708363383914095,0.0513033128296473,0.11,0.11,0.16,0.18,0.27
10,11,37988370,9737703.559999984,0.0,0.9,0.2563338084787524,0.12439393212774358,0.12,0.12,0.22,0.33,0.5
11,12,39254649,13357097.420000015,0.0,0.91,0.3402679111969646,0.17842132533627153,0.12,0.12,0.32,0.48,0.66
