,time,n,sum,min,max,mean,std,q0.05,q0.25,q0.50,q0.75,q0.95
0,2020-01-01,1898442,818076.4400000001,0.0,0.93,0.4309199016878051,0.1983876544580759,0.14,0.14,0.43,0.62,0.71
1,2021-01-01,1893255,804883.5500000002,0.0,0.97,0.42513214015016476,0.19908081041342823,0.14,0.14,0.42,0.61,0.71
2,2022-01-01,1893255,831522.3899999991,0.0,0.93,0.43920253214701616,0.20283919140797432,0.15,0.15,0.46,0.63,0.71
3,2023-01-01,1893255,823328.6800000002,0.0,1.0,0.4348746893577464,0.20968806068604814,0.14,0.14,0.46,0.63,0.72
4,2024-01-01,1898442,807286.3500000003,0.0,0.9500000000000001,0.4252362463535891,0.21113195549130587,0.14,0.14,0.45,0.63,0.72
5,2025-01-01,1893255,811133.9099999993,0.0,0.92,0.4284335232179497,0.20750169153186435,0.14,0.14,0.44,0.62,0.72
6,2026-01-01,1893255,777654.9199999999,0.0,0.92,0.41075022646183423,0.2033180171273798,0.13,0.13,0.41000000000000003,0.6,0.71
7,2027-01-01,1893255,776679.6900000005,0.0,0.99,0.4102351188825597,0.19360628118752282,0.14,0.14,0.4,0.59,0.71
8,2028-01-01,1898442,787605.6899999992,0.0,0.9500000000000001,0.41486950351920115,0.20887865870549335,0.13,0.13,0.41000000000000003,0.61,0.71
9,2029-01-01,1893255,780897.19,0.0,0.97,0.41246276386435,0.21053149620559897,0.13,0.13,0.42,0.61,0.71
10,2030-01-01,1893255,796478.7000000002,0.0,0.9500000000000001,0.4206927751412251,0.20568889498306447,0.14,0.14,0.42,0.62,0.71
11,2031-01-01,1893255,790847.1699999998,0.0,0.9500000000000001,0.41771825242769717,0.20479861776910924,0.14,0.14,0.43,0.61,0.71
12,2032-01-01,1898442,805073.4399999997,0.0,1.0,0.4240706010507562,0.20538757119927403,0.14,0.14,0.43,0.62,0.72
13,2033-01-01,1893255,817692.7499999994,0.0,0.98,0.4318978426044032,0.2026060189113638,0.14,0.14,0.44,0.62,0.72
14,2034-01-01,1893255,827542.35,0.0,1.0,0.4371003113685161,0.20139905594783483,0.15,0.15,0.45,0.63,0.71
15,2035-01-01,1893255,772264.4000000006,0.0,1.0,0.4079030030291749,0.19612865609753838,0.14,0.14,0.39,0.59,0.71
16,2036-01-01,1898442,808128.5799999998,0.0,0.93,0.4256798890879994,0.20656416158015906,0.14,0.14,0.44,0.62,0.72
17,2037-01-01,1893255,775523.9400000001,0.0,0.93,0.4096246622879644,0.2072985994133804,0.13,0.13,0.41000000000000003,0.61,0.71
18,2038-01-01,1893255,769076.85,0.0,0.93,0.40621936823090393,0.19611959913514088,0.14,0.14,0.39,0.59,0.71
19,2039-01-01,1893255,810253.3900000002,0.0,0.9400000000000001,0.4279684405956938,0.20746938952761534,0.14,0.14,0.44,0.63,0.72
20,2040-01-01,1898442,827752.6899999996,0.0,0.93,0.43601684433867327,0.20765142768233621,0.14,0.14,0.46,0.63,0.72
21,2041-01-01,1893255,778919.1599999998,0.0,0.96,0.4114179864835956,0.20869530100772102,0.13,0.13,0.4,0.61,0.71
22,2042-01-01,1893255,735887.8600000007,0.0,0.93,0.3886892468262335,0.19057365173049398,0.13,0.13,0.37,0.56,0.6900000000000001
23,2043-01-01,1893255,793709.3200000002,0.0,0.93,0.41923001391782944,0.20430563918665878,0.14,0.14,0.42,0.62,0.71
24,2044-01-01,1898442,797179.1300000005,0.0,1.0,0.4199122912367091,0.19969427226284184,0.14,0.14,0.42,0.61,0.71
25,2045-01-01,1893255,806024.0599999999,0.0,0.9400000000000001,0.42573454711594577,0.20725933689858592,0.14,0.14,0.44,0.62,0.72
26,2046-01-01,1893255,801129.0999999995,0.0,0.98,0.4231490739493621,0.21249185865472725,0.13,0.13,0.44,0.62,0.72
27,2047-01-01,1893255,810126.4200000003,0.0,0.93,0.42790137620130425,0.21209680234227246,0.14,0.14,0.45,0.63,0.72
28,2048-01-01,1898442,760927.82,0.0,0.91,0.40081699625271666,0.20614032371227123,0.13,0.13,0.38,0.6,0.71
29,2049-01-01,1893255,800651.7699999996,0.0,0.92,0.4228969526027923,0.20582626000117762,0.14,0.14,0.42,0.62,0.71
30,2050-01-01,1893255,778438.5800000003,0.0,0.89,0.4111641485167082,0.1998734213665464,0.14,0.14,0.39,0.6,0.71
31,2051-01-01,1893255,722753.4400000005,0.0,1.0,0.381751766138212,0.19250671655514903,0.13,0.13,0.36,0.55,0.7000000000000001
32,2052-01-01,1898442,785048.3999999996,0.0,0.89,0.41352245683565764,0.20161638574189042,0.14,0.14,0.41000000000000003,0.6,0.71
33,2053-01-01,1893255,767999.4400000002,0.0,0.93,0.4056502901088338,0.2073816405013625,0.13,0.13,0.39,0.61,0.71
34,2054-01-01,1893255,767227.1900000006,0.0,0.98,0.4052423947117534,0.20351321337863224,0.13,0.13,0.39,0.6,0.71
35,2055-01-01,1893255,744330.4800000003,0.0,1.0,0.39314856160422146,0.20012353768482916,0.13,0.13,0.36,0.59,0.71
36,2056-01-01,1898442,768428.7799999998,0.0,1.0,0.40476810985007694,0.19633332242321527,0.14,0.14,0.39,0.59,0.7000000000000001
37,2057-01-01,1893255,803216.4500000004,0.0,0.9500000000000001,0.424251593155703,0.2070133666805079,0.14,0.14,0.44,0.62,0.72
38,2058-01-01,1893255,776185.359999999,0.0,0.91,0.40997401829124924,0.20644039228111968,0.13,0.13,0.4,0.61,0.71
39,2059-01-01,1893255,748523.8600000002,0.0,0.92,0.39536346662229876,0.20479537810457116,0.13,0.13,0.38,0.59,0.71
40,2060-01-01,1898442,771521.7399999993,0.0,0.9500000000000001,0.40639731948618885,0.21017892311161912,0.13,0.13,0.4,0.61,0.71
41,2061-01-01,1893255,816001.68,0.0,0.93,0.4310046348748584,0.20672250302461262,0.14,0.14,0.45,0.63,0.71
42,2062-01-01,1893255,840490.78,0.0,0.9500000000000001,0.4439395538371746,0.20645169327575946,0.14,0.14,0.48,0.63,0.72
43,2063-01-01,1893255,802812.4700000002,0.0,0.92,0.4240382146092313,0.21217857629967157,0.13,0.13,0.44,0.63,0.72
44,2064-01-01,1898442,768571.1400000002,0.0,0.97,0.4048430976558674,0.20678144495717085,0.13,0.13,0.41000000000000003,0.6,0.71
45,2065-01-01,1893255,751066.4099999999,0.0,0.93,0.3967064183113209,0.2036339273271592,0.13,0.13,0.38,0.59,0.7000000000000001
46,2066-01-01,1893255,804418.3,0.0,0.93,0.42488639934926886,0.2071617314379334,0.14,0.14,0.44,0.62,0.71
47,2067-01-01,1893255,808212.7700000003,0.0,0.97,0.42689060374857074,0.21007319859344098,0.14,0.14,0.44,0.63,0.72
48,2068-01-01,1898442,810557.6299999998,0.0,0.92,0.42695938564359603,0.21227027405887985,0.14,0.14,0.45,0.63,0.72
49,2069-01-01,1893255,771660.680000001,0.0,0.93,0.40758412363891866,0.20490867609633812,0.13,0.13,0.4,0.6,0.71
50,2070-01-01,1893255,792348.7600000002,0.0,1.0,0.4185113785517536,0.20900291906008883,0.13,0.13,0.43,0.62,0.71
51,2071-01-01,1893255,779477.05,0.0,0.9500000000000001,0.41171265888641523,0.20552740824506982,0.13,0.13,0.4,0.61,0.71
52,2072-01-01,1898442,800374.05,0.0,0.99,0.42159520807061795,0.19612870762805634,0.14,0.14,0.41000000000000003,0.61,0.71
53,2073-01-01,1893255,781605.6599999996,0.0,0.96,0.4128369712479299,0.2082768337239738,0.13,0.13,0.4,0.61,0.71
54,2074-01-01,1893255,784521.2099999996,0.0,0.9400000000000001,0.4143769381303626,0.20880199757222184,0.13,0.13,0.42,0.61,0.71
55,2075-01-01,1893255,784819.9099999998,0.0,1.0,0.41453470874235104,0.20704033913216854,0.14,0.14,0.41000000000000003,0.61,0.71
56,2076-01-01,1898442,731608.9100000001,0.0,0.92,0.38537332718092,0.1928704797666803,0.13,0.13,0.37,0.56,0.6900000000000001
57,2077-01-01,1893255,764435.5200000001,0.0,1.0,0.40376786011393084,0.2072984296079108,0.13,0.13,0.39,0.6,0.71
58,2078-01-01,1893255,787859.2899999998,0.0,0.98,0.41614008149985066,0.19877301720929458,0.14,0.14,0.41000000000000003,0.6,0.71
59,2079-01-01,1893255,770496.3899999998,0.0,0.87,0.4069691562943184,0.20662118732612295,0.13,0.13,0.39,0.61,0.71
60,2080-01-01,1898442,780962.5699999997,0.0,1.0,0.41137025518820153,0.2072880371358902,0.13,0.13,0.39,0.61,0.71
61,2081-01-01,1893255,801681.3500000006,0.0,0.96,0.42344076735569197,0.20410370592622482,0.14,0.14,0.43,0.62,0.71
62,2082-01-01,1893255,804024.0199999989,0.0,0.96,0.4246781442542071,0.19916306082327878,0.14,0.14,0.42,0.62,0.71
63,2083-01-01,1893255,749265.3999999999,0.0,0.87,0.3957551412778521,0.2017616174755628,0.13,0.13,0.37,0.59,0.71
64,2084-01-01,1898442,751840.8900000002,0.0,0.98,0.39603047656973467,0.19778434638416784,0.13,0.13,0.38,0.58,0.7000000000000001
65,2085-01-01,1893255,753151.4599999991,0.0,0.91,0.3978077226786667,0.19743968078096594,0.13,0.13,0.38,0.58,0.7000000000000001
66,2086-01-01,1893255,786570.2300000002,0.0,0.97,0.4154592117807692,0.20805511349605954,0.13,0.13,0.41000000000000003,0.62,0.71
67,2087-01-01,1893255,776519.4900000007,0.0,0.9500000000000001,0.41015050270565806,0.20383417729509093,0.13,0.13,0.4,0.6,0.71
68,2088-01-01,1898442,719536.8099999998,0.0,0.89,0.3790143759988453,0.19711176939009278,0.13,0.13,0.35000000000000003,0.56,0.6900000000000001
69,2089-01-01,1893255,736651.47,0.0,0.91,0.3890925786542225,0.19417297603011077,0.13,0.13,0.37,0.56,0.7000000000000001
70,2090-01-01,1893255,770641.0299999997,0.0,0.9,0.40704555382132873,0.1994138064874539,0.14,0.14,0.4,0.59,0.71
71,2091-01-01,1893255,781725.8499999999,0.0,0.99,0.41290045450824103,0.20530364533519024,0.13,0.13,0.41000000000000003,0.61,0.71
72,2092-01-01,1898442,704237.9600000004,0.0,0.9,0.3709557416028514,0.18505429777629903,0.13,0.13,0.34,0.53,0.68
73,2093-01-01,1893255,743095.3699999999,0.0,0.93,0.392496187782417,0.19675100941283935,0.13,0.13,0.37,0.5700000000000001,0.7000000000000001
74,2094-01-01,1893255,779234.4100000007,0.0,1.0,0.41158449865443414,0.21031114182327187,0.13,0.13,0.41000000000000003,0.61,0.71
75,2095-01-01,1893255,815972.3,0.0,1.0,0.4309891166271844,0.20574510719662462,0.14,0.14,0.45,0.62,0.71
76,2096-01-01,1898442,834983.2299999997,0.0,0.93,0.43982551481688653,0.20806123631555157,0.14,0.14,0.48,0.63,0.72
77,2097-01-01,1893255,790388.1799999994,0.0,0.93,0.41747581810162887,0.20692308576647922,0.14,0.14,0.41000000000000003,0.62,0.71
78,2098-01-01,1893255,805527.4099999997,0.0,0.93,0.4254722211218244,0.2092425552941399,0.13,0.13,0.45,0.62,0.72
79,2099-01-01,1893255,787820.6999999998,0.0,0.9400000000000001,0.41611969861429116,0.2111102493129158,0.13,0.13,0.42,0.62,0.71
80,2100-01-01,1893255,790083.5399999998,0.0,0.93,0.41731491003589044,0.2114298913463824,0.13,0.13,0.42,0.62,0.71
