,time,n,sum,min,max,mean,std,q0.05,q0.25,q0.50,q0.75,q0.95
0,2003-01-01,4771645,701654.11,0.0,0.66,0.1470465866593177,0.04496261949865655,0.09,0.09,0.14,0.17,0.21
1,2004-01-01,4784718,712750.9299999998,0.0,0.73,0.14896404134998129,0.046963690074291145,0.09,0.09,0.15,0.17,0.23
2,2005-01-01,4771645,736696.440000001,0.0,0.8200000000000001,0.15439045444495578,0.05204306793598741,0.09,0.09,0.15,0.18,0.26
3,2006-01-01,4771645,743198.2300000001,0.0,0.8300000000000001,0.15575304323770944,0.05197792416531484,0.09,0.09,0.15,0.18,0.26
4,2007-01-01,4771645,686871.5499999996,0.0,0.81,0.14394858586504225,0.042142561021936024,0.09,0.09,0.14,0.17,0.2
5,2008-01-01,4784718,669983.6200000002,0.0,0.92,0.14002572774403846,0.039580718481961104,0.09,0.09,0.14,0.17,0.19
6,2009-01-01,4771645,702203.5800000004,0.0,0.68,0.14716173981928674,0.04341377062035572,0.09,0.09,0.15,0.17,0.21
7,2010-01-01,4771645,732077.3400000001,0.0,0.77,0.15342242350384408,0.04912572491255351,0.09,0.09,0.15,0.17,0.25
8,2011-01-01,4771645,681976.5799999996,0.0,0.73,0.14292274048048412,0.039684570743247785,0.09,0.09,0.14,0.17,0.19
9,2012-01-01,4784718,685332.9099999988,0.0,0.75,0.1432337099072503,0.04348367880633755,0.09,0.09,0.14,0.17,0.2
10,2013-01-01,4771645,710952.3399999994,0.0,0.76,0.14899522910861965,0.04795605009625791,0.09,0.09,0.15,0.17,0.23
11,2014-01-01,4771645,662295.9799999997,0.0,0.7000000000000001,0.13879825091766043,0.03854809620426135,0.08,0.08,0.14,0.17,0.19
12,2015-01-01,4771645,673137.1999999998,0.0,0.65,0.14107025983701635,0.041307278866977576,0.09,0.09,0.14,0.17,0.19
13,2016-01-01,4784718,672430.5100000001,0.0,0.6900000000000001,0.14053712465395038,0.038657729991330846,0.09,0.09,0.14,0.17,0.19
14,2017-01-01,4771645,678571.8700000006,0.0,0.77,0.14220921086962685,0.042012864634212665,0.09,0.09,0.14,0.17,0.19
15,2018-01-01,4771645,702124.4399999998,0.0,0.79,0.14714515434404693,0.045377093473812656,0.09,0.09,0.15,0.17,0.21
16,2019-01-01,4771645,672616.1999999996,0.0,0.64,0.14096107317287845,0.04177222057405472,0.08,0.08,0.14,0.17,0.19
