,time,n,sum,min,max,mean,std,q0.05,q0.25,q0.50,q0.75,q0.95
0,2003-01-01,4771645,664171.1800000006,0.0,0.58,0.1391912390800239,0.03655748706476069,0.09,0.09,0.14,0.17,0.19
1,2004-01-01,4784718,662877.8399999995,0.0,0.62,0.13854062872670855,0.03627034465765798,0.09,0.09,0.14,0.16,0.19
2,2005-01-01,4771645,661428.4100000004,0.0,0.8,0.13861643311688115,0.03772312308433432,0.09,0.09,0.14,0.17,0.19
3,2006-01-01,4771645,661168.2999999998,0.0,0.5700000000000001,0.13856192151763172,0.03660492553752911,0.08,0.08,0.14,0.16,0.19
4,2007-01-01,4771645,660102.4200000003,0.0,0.8300000000000001,0.1383385436259404,0.037458227307834796,0.08,0.08,0.14,0.17,0.19
5,2008-01-01,4784718,666107.6800000002,0.0,0.64,0.13921566119466186,0.03606104836092776,0.09,0.09,0.14,0.17,0.19
6,2009-01-01,4771645,652628.5599999998,0.0,0.75,0.13677223682817977,0.03631275369913922,0.08,0.08,0.14,0.16,0.19
7,2010-01-01,4771645,649848.87,0.0,0.68,0.1361896934914479,0.03583474090345807,0.08,0.08,0.14,0.16,0.19
8,2011-01-01,4771645,664148.8899999997,0.0,0.6900000000000001,0.13918656773502633,0.03348694033031734,0.09,0.09,0.14,0.16,0.19
9,2012-01-01,4784718,667629.4299999987,0.0,0.67,0.13953370501667992,0.034662992480998356,0.09,0.09,0.14,0.17,0.19
10,2013-01-01,4771645,662683.0500000005,0.0,0.62,0.13887936969326103,0.03554354877213783,0.09,0.09,0.14,0.17,0.19
11,2014-01-01,4771645,651934.5499999992,0.0,0.59,0.1366267922278374,0.03524573771744073,0.08,0.08,0.14,0.16,0.19
12,2015-01-01,4771645,656258.3700000003,0.0,0.65,0.1375329409459422,0.03574040684022337,0.09,0.09,0.14,0.16,0.19
13,2016-01-01,4784718,660752.1500000007,0.0,0.75,0.13809636220985244,0.03750172204080473,0.08,0.08,0.14,0.17,0.19
14,2017-01-01,4771645,661019.7100000007,0.0,0.58,0.13853078131336272,0.034439370128013576,0.09,0.09,0.14,0.16,0.19
15,2018-01-01,4771645,651195.29,0.0,0.71,0.13647186452470794,0.0365007212993375,0.08,0.08,0.14,0.16,0.19
16,2019-01-01,4771645,653767.829999999,0.0,0.7000000000000001,0.13701099515994988,0.03529574001293996,0.08,0.08,0.14,0.16,0.19
