,time,n,sum,min,max,mean,std,q0.05,q0.25,q0.50,q0.75,q0.95
0,2020-01-01,175922292,32060611.89999966,0.0,0.9400000000000001,0.18224303205417344,0.11034872338752327,0.09,0.09,0.15,0.19,0.44
1,2021-01-01,175441630,31942957.31999998,0.0,0.97,0.18207170852208784,0.10864504914740807,0.09,0.09,0.15,0.19,0.44
2,2022-01-01,175441630,32042537.42000003,0.0,0.9400000000000001,0.1826393052777726,0.11047203110269271,0.09,0.09,0.15,0.19,0.44
3,2023-01-01,175441630,31485896.009999983,0.0,1.0,0.17946650410167747,0.10955001506054551,0.09,0.09,0.15,0.19,0.43
4,2024-01-01,175922292,32313396.350000005,0.0,0.98,0.18367994176656138,0.11072719905260159,0.09,0.09,0.15,0.19,0.45
5,2025-01-01,175441630,31734720.630000133,0.0,0.93,0.18088477991227128,0.10971644819919814,0.09,0.09,0.15,0.19,0.44
6,2026-01-01,175441630,30941662.3299999,0.0,0.92,0.17636442576371356,0.10324031893780443,0.09,0.09,0.15,0.19,0.4
7,2027-01-01,175441630,31402328.270000048,0.0,0.99,0.17899017621986327,0.10610702195183382,0.09,0.09,0.15,0.19,0.42
8,2028-01-01,175922292,31453579.340000264,0.0,0.96,0.17879245991179027,0.10845771778573568,0.09,0.09,0.15,0.19,0.43
9,2029-01-01,175441630,31744063.190000053,0.0,0.97,0.1809380315834962,0.10871866235724831,0.09,0.09,0.15,0.19,0.43
10,2030-01-01,175441630,31759992.79999977,0.0,0.9500000000000001,0.18102882879052007,0.10865712873385609,0.09,0.09,0.15,0.19,0.43
11,2031-01-01,175441630,31877790.709999807,0.0,0.9500000000000001,0.18170026526771216,0.10845451052434567,0.09,0.09,0.15,0.19,0.44
12,2032-01-01,175922292,31825356.7000001,0.0,1.0,0.18090576434736366,0.11011745312034998,0.09,0.09,0.15,0.19,0.44
13,2033-01-01,175441630,31984345.319999926,0.0,0.98,0.18230761604301057,0.10980357268134834,0.09,0.09,0.15,0.19,0.44
14,2034-01-01,175441630,32061856.45,0.0,1.0,0.18274942184474688,0.10959949853162386,0.1,0.1,0.15,0.19,0.44
15,2035-01-01,175441630,31137569.899999943,0.0,1.0,0.17748107960465223,0.10501622622810479,0.09,0.09,0.15,0.19,0.41000000000000003
16,2036-01-01,175922292,32107813.649999846,0.0,0.9400000000000001,0.18251134228060106,0.11009789406532906,0.09,0.09,0.15,0.19,0.44
17,2037-01-01,175441630,31745420.53000002,0.0,0.96,0.18094576828772066,0.1081020484106999,0.09,0.09,0.15,0.19,0.43
18,2038-01-01,175441630,31132348.47000049,0.0,0.96,0.1774513179682638,0.10464496854926336,0.09,0.09,0.15,0.19,0.41000000000000003
19,2039-01-01,175441630,31465265.11999993,0.0,0.9500000000000001,0.17934891006199571,0.10839142656496194,0.09,0.09,0.15,0.19,0.43
20,2040-01-01,175922292,32247936.53999983,0.0,0.93,0.18330784673951286,0.11046544070733055,0.09,0.09,0.15,0.19,0.44
21,2041-01-01,175441630,31751715.559999906,0.0,0.96,0.18098164933830074,0.10867010679820704,0.09,0.09,0.15,0.19,0.43
22,2042-01-01,175441630,30642683.290000312,0.0,0.93,0.1746602747021919,0.09787031815920001,0.09,0.09,0.15,0.19,0.38
23,2043-01-01,175441630,31876721.020000253,0.0,0.9500000000000001,0.18169416814014014,0.10859697781039687,0.09,0.09,0.15,0.19,0.44
24,2044-01-01,175922292,31548161.500000004,0.0,1.0,0.179330095926672,0.10654925457533429,0.09,0.09,0.15,0.19,0.42
25,2045-01-01,175441630,31700378.76999999,0.0,0.9500000000000001,0.18068903469490102,0.10942058605658875,0.09,0.09,0.15,0.19,0.43
26,2046-01-01,175441630,31728357.750000164,0.0,0.98,0.1808485121233778,0.1095938496616902,0.09,0.09,0.15,0.19,0.44
27,2047-01-01,175441630,31982078.259999778,0.0,0.9500000000000001,0.18229469402444437,0.11032094475649248,0.09,0.09,0.15,0.19,0.44
28,2048-01-01,175922292,31393718.419999935,0.0,0.91,0.17845219081161093,0.10741040584264615,0.09,0.09,0.15,0.19,0.42
29,2049-01-01,175441630,31678354.930000007,0.0,0.93,0.18056350097750465,0.10863819831432506,0.09,0.09,0.15,0.19,0.43
30,2050-01-01,175441630,30957901.729999967,0.0,0.9500000000000001,0.17645698874320745,0.10455140078081217,0.09,0.09,0.15,0.19,0.41000000000000003
31,2051-01-01,175441630,30728303.190000314,0.0,1.0,0.17514829969375179,0.10072336526916725,0.09,0.09,0.15,0.19,0.39
32,2052-01-01,175922292,31959559.13999973,0.0,0.9400000000000001,0.18166861502691045,0.10899499227140279,0.09,0.09,0.15,0.19,0.44
33,2053-01-01,175441630,31498932.200000618,0.0,0.9400000000000001,0.17954080909987338,0.1074170067181467,0.09,0.09,0.15,0.19,0.43
34,2054-01-01,175441630,31475722.119999852,0.0,0.98,0.17940851393138477,0.10732159016666869,0.09,0.09,0.15,0.19,0.43
35,2055-01-01,175441630,30932319.44999971,0.0,1.0,0.17631117226851864,0.10463338171512628,0.09,0.09,0.15,0.19,0.41000000000000003
36,2056-01-01,175922292,31667861.82000008,0.0,1.0,0.1800105118002901,0.10704404080853011,0.09,0.09,0.15,0.19,0.42
37,2057-01-01,175441630,31748078.94999997,0.0,0.9500000000000001,0.18096092101971448,0.10975078492814122,0.09,0.09,0.15,0.19,0.44
38,2058-01-01,175441630,31541906.75999992,0.0,0.91,0.17978575985642586,0.10807735594538966,0.09,0.09,0.15,0.19,0.43
39,2059-01-01,175441630,31349634.00999976,0.0,0.9500000000000001,0.17868982413124956,0.10599448443812422,0.09,0.09,0.15,0.19,0.42
40,2060-01-01,175922292,31293686.87000043,0.0,0.9500000000000001,0.1778835786768878,0.10780584214716184,0.09,0.09,0.15,0.19,0.42
41,2061-01-01,175441630,31764167.050000086,0.0,0.9400000000000001,0.18105262160412033,0.11016876614062458,0.09,0.09,0.15,0.19,0.44
42,2062-01-01,175441630,32303044.829999737,0.0,0.9500000000000001,0.18412417183994323,0.1111560461956709,0.1,0.1,0.15,0.19,0.45
43,2063-01-01,175441630,31698255.960000303,0.0,0.9400000000000001,0.18067693488712058,0.11025480363083671,0.09,0.09,0.15,0.19,0.44
44,2064-01-01,175922292,31514888.569999926,0.0,0.97,0.17914096168096721,0.10878870684831496,0.09,0.09,0.15,0.19,0.43
45,2065-01-01,175441630,31296016.450000074,0.0,0.96,0.178384209323637,0.10705826363223024,0.09,0.09,0.15,0.19,0.42
46,2066-01-01,175441630,31568428.6100002,0.0,0.93,0.1799369317875136,0.10981418421047336,0.09,0.09,0.15,0.19,0.44
47,2067-01-01,175441630,31717732.289999954,0.0,0.97,0.18078794804859002,0.11088570261991673,0.09,0.09,0.15,0.19,0.44
48,2068-01-01,175922292,31650957.550000127,0.0,0.9500000000000001,0.17991442238599373,0.11056870056431982,0.09,0.09,0.15,0.19,0.44
49,2069-01-01,175441630,31728881.53999996,0.0,0.97,0.18085149767475348,0.10645201303499903,0.1,0.1,0.15,0.19,0.42
50,2070-01-01,175441630,31752621.52000006,0.0,1.0,0.18098681322101293,0.10886244908553332,0.09,0.09,0.15,0.19,0.44
51,2071-01-01,175441630,31637907.5899998,0.0,0.9500000000000001,0.18033295512587177,0.1080925080834054,0.09,0.09,0.15,0.19,0.43
52,2072-01-01,175922292,31751782.14999994,0.0,0.99,0.18048754247699283,0.10787291659377549,0.09,0.09,0.15,0.19,0.43
53,2073-01-01,175441630,31742455.170000225,0.0,0.96,0.1809288660279788,0.1100383304869637,0.09,0.09,0.15,0.19,0.44
54,2074-01-01,175441630,31342654.109999817,0.0,0.96,0.17865003938916788,0.10865870803355855,0.09,0.09,0.15,0.19,0.43
55,2075-01-01,175441630,31684360.45000002,0.0,1.0,0.18059773184961872,0.10889683677077326,0.09,0.09,0.15,0.19,0.43
56,2076-01-01,175922292,30862035.00000013,0.0,0.92,0.17542992789111758,0.10212808340502565,0.09,0.09,0.15,0.19,0.4
57,2077-01-01,175441630,31520232.919999823,0.0,1.0,0.17966222110453386,0.10826544103008368,0.09,0.09,0.15,0.19,0.43
58,2078-01-01,175441630,31673147.13999992,0.0,0.98,0.18053381708776828,0.1081336393250181,0.09,0.09,0.15,0.19,0.43
59,2079-01-01,175441630,30331626.540000126,0.0,0.9400000000000001,0.17288728188400965,0.10291913258190052,0.09,0.09,0.15,0.18,0.39
60,2080-01-01,175922292,31683924.900000386,0.0,1.0,0.1801018196147671,0.10966685186323934,0.09,0.09,0.15,0.19,0.44
61,2081-01-01,175441630,31658693.36999982,0.0,0.96,0.18045143202328784,0.10882367042215317,0.09,0.09,0.15,0.19,0.43
62,2082-01-01,175441630,32062397.900000203,0.0,0.96,0.18275250805638435,0.10913105233487004,0.09,0.09,0.15,0.19,0.44
63,2083-01-01,175441630,30757032.12000011,0.0,0.91,0.17531205176331358,0.10514174945956556,0.09,0.09,0.15,0.19,0.41000000000000003
64,2084-01-01,175922292,31289247.87999998,0.0,0.98,0.1778583460019949,0.10520621793502656,0.09,0.09,0.15,0.19,0.41000000000000003
65,2085-01-01,175441630,30937508.10000005,0.0,0.9400000000000001,0.17634074706214284,0.10351932873181052,0.09,0.09,0.15,0.19,0.41000000000000003
66,2086-01-01,175441630,30969572.070000175,0.0,0.97,0.17652350853101498,0.10654690051296875,0.09,0.09,0.15,0.19,0.41000000000000003
67,2087-01-01,175441630,31452122.67000021,0.0,0.9500000000000001,0.1792739993922777,0.1074616104858151,0.09,0.09,0.15,0.19,0.43
68,2088-01-01,175922292,31027487.579999812,0.0,0.93,0.17637041461465164,0.10699247080439601,0.09,0.09,0.15,0.19,0.42
69,2089-01-01,175441630,30998553.189999994,0.0,0.92,0.17668869805872184,0.10406537171015005,0.09,0.09,0.15,0.19,0.41000000000000003
70,2090-01-01,175441630,31324086.46000016,0.0,0.9500000000000001,0.17854420561414164,0.10606929861149392,0.09,0.09,0.15,0.19,0.42
71,2091-01-01,175441630,31668184.67999988,0.0,0.99,0.18050553155485322,0.10868315523395515,0.09,0.09,0.15,0.19,0.43
72,2092-01-01,175922292,30116149.43000002,0.0,0.9,0.17119006970418518,0.09735634411114401,0.09,0.09,0.15,0.18,0.37
73,2093-01-01,175441630,31153957.31999977,0.0,0.93,0.17757448628355635,0.10496445814591784,0.09,0.09,0.15,0.19,0.41000000000000003
74,2094-01-01,175441630,31432725.719999917,0.0,1.0,0.17916343868898116,0.10829732798025227,0.09,0.09,0.15,0.19,0.43
75,2095-01-01,175441630,32032615.6500007,0.0,1.0,0.18258275216663628,0.11048220446822284,0.09,0.09,0.15,0.19,0.45
76,2096-01-01,175922292,32457407.820000138,0.0,0.9400000000000001,0.1844985501894219,0.11291391554860918,0.09,0.09,0.15,0.19,0.46
77,2097-01-01,175441630,31392368.63999991,0.0,0.93,0.17893340731045368,0.10829360311663865,0.09,0.09,0.15,0.19,0.43
78,2098-01-01,175441630,32040826.549999665,0.0,0.93,0.18262955348738874,0.10986726372170286,0.09,0.09,0.15,0.19,0.44
79,2099-01-01,175441630,31538285.890000053,0.0,0.9500000000000001,0.1797651212542887,0.10958907514482263,0.09,0.09,0.15,0.19,0.44
80,2100-01-01,175441630,31177019.200000107,0.0,0.93,0.17770593672664867,0.1084154409456499,0.09,0.09,0.15,0.19,0.42
