,time,n,sum,min,max,mean,std,q0.05,q0.25,q0.50,q0.75,q0.95
0,2003-01-01,1685205,301495.6700000001,0.02,0.71,0.17890741482490266,0.04058645979467931,0.13,0.13,0.18,0.2,0.23
1,2004-01-01,1689822,302675.6999999997,0.0,0.61,0.17911691290561949,0.040531764350533586,0.13,0.13,0.18,0.2,0.23
2,2005-01-01,1685205,298801.77999999997,0.02,0.59,0.17730886153316658,0.03865771433100507,0.13,0.13,0.18,0.2,0.23
3,2006-01-01,1685205,298214.3399999998,0.01,0.68,0.17696027486270205,0.03952625952764878,0.12,0.12,0.18,0.2,0.23
4,2007-01-01,1685205,300299.54000000004,0.02,0.64,0.1781976317421323,0.039357519846008264,0.12,0.12,0.18,0.2,0.23
5,2008-01-01,1689822,299782.4500000001,0.02,0.72,0.17740475032281514,0.039166981837117726,0.13,0.13,0.18,0.2,0.23
6,2009-01-01,1685205,299395.17000000016,0.01,0.67,0.17766097893134672,0.03863252541591408,0.13,0.13,0.18,0.2,0.23
7,2010-01-01,1685205,297656.8299999999,0.02,0.6,0.17662944864274666,0.037425962428281986,0.12,0.12,0.18,0.2,0.22
8,2011-01-01,1685205,301739.98,0.0,0.67,0.17905238828510478,0.038661540734641925,0.13,0.13,0.18,0.2,0.23
9,2012-01-01,1689822,300938.0699999998,0.03,0.63,0.17808862116838328,0.039412374909923664,0.13,0.13,0.18,0.2,0.23
10,2013-01-01,1685205,300210.68,0.03,0.59,0.17814490225224824,0.04180006936324003,0.12,0.12,0.18,0.2,0.23
11,2014-01-01,1685205,297479.21999999986,0.03,0.62,0.17652405493693638,0.037884920203736995,0.13,0.13,0.18,0.2,0.23
12,2015-01-01,1685205,300126.23,0.04,0.62,0.17809478965467107,0.03960262694616884,0.13,0.13,0.18,0.2,0.23
13,2016-01-01,1689822,297288.1099999998,0.0,0.62,0.17592865402391483,0.03970256896816379,0.12,0.12,0.17,0.2,0.23
14,2017-01-01,1685205,301173.8000000001,0.01,0.73,0.17871641729047807,0.041996715420522274,0.13,0.13,0.18,0.2,0.23
15,2018-01-01,1685205,299441.01999999967,0.02,0.73,0.17768818630374328,0.04196077797227506,0.12,0.12,0.18,0.2,0.23
16,2019-01-01,1685205,298102.9000000002,0.03,0.61,0.1768941464094874,0.038828707681451115,0.12,0.12,0.18,0.2,0.23
