,time,n,sum,min,max,mean,std,q0.05,q0.25,q0.50,q0.75,q0.95
0,1,2733549,1617753.3300000012,0.01,0.93,0.5918142788001975,0.10825379944306267,0.38,0.38,0.61,0.67,0.74
1,2,2489760,1502342.95,0.0,1.0,0.6034087422080843,0.10220400111863806,0.41000000000000003,0.41000000000000003,0.62,0.68,0.74
2,3,2733549,1686523.9400000013,0.0,1.0,0.6169722730413837,0.09050958794638951,0.45,0.45,0.63,0.68,0.74
3,4,2645370,1634851.2700000003,0.04,0.98,0.6180047668190084,0.08835003095618581,0.45,0.45,0.63,0.68,0.74
4,5,2733549,1569280.1199999987,0.0,0.99,0.574081576734128,0.12644513359559872,0.33,0.33,0.61,0.67,0.73
5,6,2645370,947311.2700000005,0.0,0.97,0.35810161527499007,0.12958088087266836,0.19,0.19,0.34,0.4,0.66
6,7,2733549,612621.6,0.0,0.8200000000000001,0.2241121706616563,0.0662950019330616,0.13,0.13,0.22,0.27,0.34
7,8,2733549,485025.68999999994,0.01,0.73,0.17743442316197733,0.047024105700568294,0.12,0.12,0.17,0.2,0.27
8,9,2645370,506122.4000000002,0.0,0.74,0.19132386017834943,0.05895609611042987,0.12,0.12,0.18,0.23,0.3
9,10,2733549,668957.9400000006,0.0,0.87,0.24472140064070577,0.09586860788582456,0.12,0.12,0.23,0.29,0.41000000000000003
10,11,2645370,1120776.9300000006,0.0,0.98,0.42367492260061945,0.1711881864304222,0.15,0.15,0.41000000000000003,0.5700000000000001,0.7000000000000001
11,12,2733549,1463367.2000000007,0.0,1.0,0.5353360045859799,0.14991390843847688,0.24,0.24,0.5700000000000001,0.65,0.73
