,time,n,sum,min,max,mean,std,q0.05,q0.25,q0.50,q0.75,q0.95
0,1,6889471,857736.1499999992,0.0,0.79,0.12449956607698896,0.04803639718490839,0.08,0.08,0.11,0.14,0.23
1,2,6275040,800495.2799999996,0.0,0.8200000000000001,0.12756815574083982,0.04239228819387042,0.09,0.09,0.12,0.14,0.21
2,3,6889471,812513.5400000017,0.0,0.71,0.11793554831713518,0.0310775420955555,0.09,0.09,0.11,0.12,0.16
3,4,6667230,914256.5300000006,0.0,0.71,0.13712689227760264,0.027125644035517534,0.1,0.1,0.14,0.15,0.18
4,5,6889471,1139109.1599999995,0.0,0.86,0.16534058420450562,0.01898965639318302,0.13,0.13,0.17,0.18,0.19
5,6,6667230,1144133.7299999995,0.03,0.52,0.17160555883027878,0.017075905509032558,0.14,0.14,0.17,0.18,0.2
6,7,6889471,1167456.6900000002,0.08,0.35000000000000003,0.16945520055168245,0.017388588381572093,0.14,0.14,0.17,0.18,0.19
7,8,6889471,1106609.1600000018,0.05,0.24,0.16062324088453261,0.017905468303704992,0.13,0.13,0.16,0.17,0.19
8,9,6667230,995088.2799999996,0.04,0.24,0.14925063032173774,0.017598264064305414,0.12,0.12,0.15,0.16,0.17
9,10,6889471,895358.3200000003,0.0,0.43,0.12996038737952453,0.021515392167448792,0.09,0.09,0.13,0.14,0.16
10,11,6667230,711138.2899999998,0.0,0.59,0.10666173058376564,0.022055581509448547,0.07,0.07,0.11,0.12,0.14
11,12,6889471,683728.4900000003,0.0,0.6,0.09924252384544478,0.027885760853031138,0.06,0.06,0.1,0.11,0.14
