,time,n,sum,min,max,mean,std,q0.05,q0.25,q0.50,q0.75,q0.95
0,1,1054,764.69,0.28,0.9400000000000001,0.7255123339658445,0.11625021001249498,0.5,0.5,0.75,0.81,0.87
1,2,960,736.4000000000001,0.4,0.96,0.7670833333333335,0.08830365067324353,0.59,0.59,0.78,0.8300000000000001,0.88
2,3,1054,815.17,0.28,0.97,0.7734060721062618,0.07384064205122742,0.6565000000000001,0.6565000000000001,0.78,0.8200000000000001,0.88
3,4,1020,646.59,0.2,0.97,0.6339117647058824,0.13380440824394862,0.4,0.4,0.65,0.73,0.8300000000000001
4,5,1054,540.02,0.19,0.8200000000000001,0.5123529411764706,0.12477974791388204,0.31,0.31,0.515,0.61,0.7000000000000001
5,6,1020,306.64,0.15,0.77,0.3006274509803921,0.10224633092497816,0.19,0.19,0.27,0.36,0.5104999999999995
6,7,1054,223.36,0.16,0.41000000000000003,0.21191650853889946,0.029294821685120737,0.17,0.17,0.21,0.23,0.2634999999999991
7,8,1054,214.8,0.16,0.29,0.20379506641366224,0.01989106324237339,0.17,0.17,0.21,0.21,0.24
8,9,1020,216.95000000000002,0.16,0.3,0.21269607843137256,0.024331972517288518,0.18,0.18,0.21,0.23,0.26
9,10,1054,252.81000000000003,0.12,0.53,0.2398576850094877,0.057553528032156465,0.18,0.18,0.23,0.26,0.36
10,11,1020,423.47,0.11,0.86,0.4151666666666667,0.17979146871368015,0.17,0.17,0.38,0.56,0.7204999999999995
11,12,1054,610.1400000000001,0.16,0.9,0.5788804554079697,0.18161587311558022,0.24650000000000005,0.24650000000000005,0.59,0.72,0.84
