,time,n,sum,min,max,mean,std,q0.05,q0.25,q0.50,q0.75,q0.95
0,2002-01-01,4772010,462452456.0,0.0,729.0,96.9093643978114,87.67880625823872,1.0,1.0,78.0,170.0,247.0
1,2003-01-01,4772010,470206270.0,0.0,1094.0,98.53421723760009,90.28881233570904,1.0,1.0,77.0,169.0,245.0
2,2004-01-01,4785084,466828041.0,0.0,1460.0,97.55900648766041,100.29115652800036,0.0,0.0,77.0,169.0,253.0
3,2005-01-01,4772010,425557962.0,0.0,1825.0,89.17792753996744,103.64596012716838,0.0,0.0,65.0,157.0,235.0
4,2006-01-01,4772010,550850861.0,0.0,2190.0,115.43371891509028,121.35961822100784,2.0,2.0,96.0,188.0,278.0
5,2007-01-01,4772010,571369885.0,0.0,2555.0,119.73358920035793,132.91948215278393,1.0,1.0,103.0,195.0,277.0
6,2008-01-01,4785084,471271162.0,0.0,2921.0,98.4875421204727,138.17861906792447,0.0,0.0,75.0,167.0,247.0
7,2009-01-01,4772010,558269045.0,0.0,3286.0,116.9882387086364,153.36210566434588,1.0,1.0,101.0,192.0,269.0
8,2010-01-01,4772010,498728353.0,0.0,3651.0,104.51117097407591,164.61766364722268,0.0,0.0,80.0,171.0,265.0
9,2011-01-01,4772010,545896136.0,0.0,4016.0,114.39543001795889,171.97831127616394,1.0,1.0,97.0,188.0,265.0
10,2012-01-01,4785084,528268067.0,0.0,4382.0,110.39891191042832,184.2422082526108,1.0,1.0,88.0,180.0,267.0
11,2013-01-01,4772010,575930257.0,0.0,4747.0,120.68923933520676,198.47644910052867,1.0,1.0,102.0,194.0,280.0
12,2014-01-01,4772010,507533879.0,0.0,5112.0,106.35641564036958,209.6954730257679,1.0,1.0,78.0,170.0,250.0
13,2015-01-01,4772010,494769721.0,0.0,5477.0,103.68161864706906,221.41340576333252,1.0,1.0,77.0,168.0,245.0
14,2016-01-01,4785084,503749930.0,0.0,5843.0,105.27504428344413,235.52730380676994,1.0,1.0,77.0,169.0,246.0
15,2017-01-01,4772010,564891109.0,0.0,6208.0,118.37592733460323,251.9981915279441,1.0,1.0,93.0,184.0,275.0
16,2018-01-01,4772010,551502139.0,0.0,6573.0,115.57019767351703,263.6002633637429,1.0,1.0,89.0,181.0,266.0
17,2019-01-01,4772010,659790284.0,0.0,6938.0,138.26255267696422,284.83458977837165,1.0,1.0,112.0,207.0,297.0
18,2020-01-01,4785084,590097134.0,0.0,7304.0,123.32012019015758,292.944974899417,1.0,1.0,97.0,189.0,275.0
19,2021-01-01,4772010,754578015.0,0.0,7669.0,158.12582433817195,308.7101990180173,3.0,3.0,141.0,234.0,317.0
20,2022-01-01,4772010,501962303.0,0.0,8034.0,105.18886234521722,319.0472890972849,0.0,0.0,73.0,164.0,245.0
21,2023-01-01,4772010,518605758.0,0.0,8399.0,108.6765865955855,333.8343239366823,1.0,1.0,74.0,165.0,248.0
22,2024-01-01,4785084,625213995.0,0.0,8765.0,130.65893827569172,348.95452957210813,1.0,1.0,105.0,197.0,279.0
23,2025-01-01,4772010,634072953.0,0.0,9130.0,132.87334959482482,365.0861924379916,1.0,1.0,105.0,197.0,295.0
24,2026-01-01,4772010,743759007.0,0.0,9495.0,155.8586438419031,379.55539528846305,5.0,5.0,133.0,225.0,314.0
25,2027-01-01,4772010,611775658.0,0.0,9860.0,128.2008331918835,385.16851027904283,1.0,1.0,100.0,192.0,277.0
26,2028-01-01,4785084,649843722.0,0.0,10226.0,135.80612628743822,397.9656780083938,1.0,1.0,109.0,201.0,293.0
27,2029-01-01,4772010,688153926.0,0.0,10591.0,144.2063042617262,412.8977709894615,3.0,3.0,117.0,210.0,300.0
28,2030-01-01,4772010,689661477.0,0.0,10956.0,144.52221956785505,422.9931825900298,2.0,2.0,117.0,209.0,310.0
29,2031-01-01,4772010,598808835.0,0.0,11321.0,125.48356667316288,435.2909238237709,1.0,1.0,95.0,186.0,269.0
30,2032-01-01,4785084,580797604.0,0.0,11687.0,121.3766788628998,449.7067997920872,0.0,0.0,88.0,180.0,264.0
31,2033-01-01,4772010,578527727.0,0.0,12052.0,121.23355294729055,462.7326017949995,0.0,0.0,90.0,181.0,259.0
32,2034-01-01,4772010,734440186.0,0.0,12417.0,153.90583548651406,481.6929197359505,1.0,1.0,118.0,214.0,318.0
33,2035-01-01,4772010,563337764.0,0.0,12782.0,118.05041565294289,490.73331755943576,1.0,1.0,83.0,174.0,254.0
34,2036-01-01,4785084,589287085.0,0.0,13148.0,123.15083392475451,505.0482725547714,1.0,1.0,89.0,180.0,260.0
35,2037-01-01,4772010,742459151.0,0.0,13513.0,155.5862521243669,520.3510988253857,4.0,4.0,126.0,218.0,308.0
36,2038-01-01,4772010,1295718252.0,0.0,13878.0,271.52463050161253,561.42926072654,3.0,3.0,199.0,423.0,645.0
37,2039-01-01,4772010,624430745.0,0.0,14243.0,130.8527737787641,547.8730014900199,2.0,2.0,93.0,184.0,272.0
38,2040-01-01,4785084,648060224.0,0.0,14609.0,135.43340597573626,563.0031542505966,1.0,1.0,99.0,191.0,274.0
39,2041-01-01,4772010,640017395.0,0.0,14974.0,134.1190389374708,575.8754309633835,1.0,1.0,99.0,190.0,275.0
40,2042-01-01,4772010,704852673.0,0.0,15339.0,147.70561524389095,590.1044306389255,1.0,1.0,116.0,208.0,287.0
41,2043-01-01,4772010,745210141.0,0.0,15704.0,156.16273666651998,604.1936551097752,1.0,1.0,127.0,218.0,296.0
42,2044-01-01,4785084,568876463.0,0.0,16070.0,118.885366066719,617.9602589096929,1.0,1.0,72.0,163.0,240.0
43,2045-01-01,4772010,777477606.0,0.0,16435.0,162.92455506170356,633.0677296978981,2.0,2.0,131.0,223.0,309.0
44,2046-01-01,4772010,823803811.0,0.0,16800.0,172.6324569730575,651.6782029995888,1.0,1.0,127.0,225.0,369.0
45,2047-01-01,4772010,708085913.0,0.0,17165.0,148.38315783076732,662.542268139046,1.0,1.0,109.0,201.0,289.0
46,2048-01-01,4785084,695586078.0,0.0,17531.0,145.36548950864812,676.665285528876,2.0,2.0,103.0,195.0,290.0
47,2049-01-01,4772010,684685417.0,0.0,17896.0,143.47945980834072,690.451639019955,1.0,1.0,103.0,195.0,281.0
48,2050-01-01,4772010,628516034.0,0.0,18261.0,131.70886775174404,705.4768310530483,1.0,1.0,86.0,178.0,261.0
49,2051-01-01,4772010,667113696.0,0.0,18626.0,139.7972124953636,719.6492741346729,1.0,1.0,100.0,191.0,268.0
50,2052-01-01,4785084,848729200.0,0.0,18992.0,177.36975986210481,735.8365502599333,1.0,1.0,140.0,233.0,330.0
51,2053-01-01,4772010,653403621.0,0.0,19357.0,136.9241935788064,748.0834897594493,1.0,1.0,94.0,186.0,266.0
52,2054-01-01,4772010,667995146.0,0.0,19722.0,139.9819250169216,762.4648495338138,1.0,1.0,96.0,187.0,265.0
53,2055-01-01,4772010,764389034.0,0.0,20087.0,160.18177539443548,777.405977918632,3.0,3.0,118.0,210.0,305.0
54,2056-01-01,4785084,950520064.0,0.0,20453.0,198.64229426275483,797.6869131003717,4.0,4.0,141.0,242.0,477.0
55,2057-01-01,4772010,848927453.0,0.0,20818.0,177.89724937709687,807.8589923675127,6.0,6.0,132.0,226.0,328.0
56,2058-01-01,4772010,1027848378.0,0.0,21183.0,215.39107797343257,830.4403680679702,3.0,3.0,151.0,258.0,562.0
57,2059-01-01,4772010,825500762.0,0.0,21548.0,172.98806205351624,836.6301637886005,2.0,2.0,132.0,224.0,306.0
58,2060-01-01,4785084,1105968862.0,0.0,21914.0,231.1284111208915,860.698241801561,2.0,2.0,159.0,283.0,577.0
59,2061-01-01,4772010,714642135.0,0.0,22279.0,149.7570489164943,866.2245857477333,2.0,2.0,100.0,192.0,272.0
60,2062-01-01,4772010,1042700557.0,0.0,22644.0,218.50343083941567,885.0707822101541,9.0,9.0,163.0,262.0,455.0
61,2063-01-01,4772010,1699398237.0,0.0,23009.0,356.11791194905294,918.800876035657,7.0,7.0,264.0,518.0,763.0
62,2064-01-01,4785084,818105170.0,0.0,23375.0,170.96986594174732,911.22584043858,1.0,1.0,124.0,217.0,297.0
63,2065-01-01,4772010,811168733.0,0.0,23740.0,169.98470937822847,924.6352138430847,2.0,2.0,125.0,217.0,298.0
64,2066-01-01,4772010,855731945.0,0.0,24105.0,179.32316675782323,940.4068078769778,3.0,3.0,130.0,223.0,321.0
65,2067-01-01,4772010,988549328.0,0.0,24470.0,207.15575365516835,957.0910075695575,4.0,4.0,152.0,251.0,360.0
66,2068-01-01,4785084,1519612907.0,0.0,24836.0,317.57288001631736,986.2937344481919,10.0,10.0,224.0,455.0,671.0
67,2069-01-01,4772010,832237920.0,0.0,25201.0,174.39986923749112,993.741372290263,2.0,2.0,97.0,191.0,308.0
68,2070-01-01,4772010,871863544.0,0.0,25566.0,182.70362886917673,999.4852334172745,4.0,4.0,134.0,225.0,314.0
69,2071-01-01,4772010,799787509.0,0.0,25931.0,167.5997135379012,1013.2128366187203,3.0,3.0,115.0,207.0,288.0
70,2072-01-01,4785084,1740491569.0,0.0,26297.0,363.732709603426,1036.397833615317,7.0,7.0,330.0,499.0,636.0
71,2073-01-01,4772010,821342375.0,0.0,26662.0,172.1166500070201,1043.653762349501,1.0,1.0,119.0,210.0,290.0
72,2074-01-01,4772010,957750007.0,0.0,27027.0,200.70159262030046,1059.8642905224103,3.0,3.0,143.0,240.0,354.0
73,2075-01-01,4772010,1557733618.0,0.0,27392.0,326.43133983373883,1085.9082364041858,8.0,8.0,238.0,411.0,708.0
74,2076-01-01,4785084,874729983.0,0.0,27758.0,182.80347492332422,1089.5152333080937,1.0,1.0,127.0,219.0,299.0
75,2077-01-01,4772010,736844283.0,0.0,28123.0,154.40962676105036,1101.574511137389,1.0,1.0,96.0,187.0,265.0
76,2078-01-01,4772010,819550913.0,0.0,28488.0,171.7412396453486,1116.533624459905,3.0,3.0,114.0,205.0,298.0
77,2079-01-01,4772010,814507823.0,0.0,28853.0,170.6844333938948,1131.2954391872292,1.0,1.0,113.0,205.0,292.0
78,2080-01-01,4785084,871520380.0,0.0,29219.0,182.13272327089766,1147.1827845494072,3.0,3.0,120.0,214.0,297.0
79,2081-01-01,4772010,862804630.0,0.0,29584.0,180.8052854038445,1159.7524339853546,2.0,2.0,123.0,216.0,299.0
80,2082-01-01,4772010,767443509.0,0.0,29949.0,160.8218568276261,1174.0128255681561,1.0,1.0,100.0,191.0,279.0
81,2083-01-01,4772010,857865173.0,0.0,30314.0,179.7701959970746,1188.6586384096977,4.0,4.0,121.0,213.0,296.0
82,2084-01-01,4785084,804538166.0,0.0,30680.0,168.13459617427824,1196.0192655371413,1.0,1.0,111.0,202.0,281.0
83,2085-01-01,4772010,1001875174.0,0.0,31045.0,209.94825534732743,1213.7474517844953,3.0,3.0,133.0,236.0,497.0
84,2086-01-01,4772010,1735623698.0,0.0,31410.0,363.70914939407083,1238.4957237593735,18.0,18.0,253.0,486.0,822.0
85,2087-01-01,4772010,994448002.0,0.0,31775.0,208.39185207072072,1247.2184383340996,3.0,3.0,128.0,224.0,333.0
86,2088-01-01,4785084,718675572.0,0.0,32141.0,150.19079539669522,1254.8925819407266,2.0,2.0,79.0,170.0,247.0
87,2089-01-01,4772010,751955440.0,0.0,32506.0,157.57624984021407,1268.3603564033792,1.0,1.0,92.0,184.0,261.0
88,2090-01-01,4772010,614065563.0,0.0,32871.0,128.68069492729478,1271.993173767883,0.0,0.0,55.0,146.0,219.0
89,2091-01-01,4772010,977729889.0,0.0,33236.0,204.88848284056405,1283.4598856682994,4.0,4.0,152.0,244.0,322.0
90,2092-01-01,4785084,823574340.0,0.0,33602.0,172.11282811336227,1298.7836253601463,1.0,1.0,110.0,202.0,280.0
91,2093-01-01,4772010,800520079.0,0.0,33967.0,167.7532274659944,1312.8749344397559,2.0,2.0,104.0,196.0,270.0
92,2094-01-01,4772010,804418437.0,0.0,34332.0,168.5701490566868,1328.2883930258656,3.0,3.0,92.0,186.0,289.0
93,2095-01-01,4772010,769254368.0,0.0,34697.0,161.20133193350392,1341.8187751559285,1.0,1.0,92.0,184.0,265.0
94,2096-01-01,4785084,1001518258.0,0.0,35063.0,209.3000369481497,1356.1726721369778,4.0,4.0,147.0,242.0,340.0
95,2097-01-01,4772010,1345244984.0,0.0,35428.0,281.9032198172259,1378.8803983059345,5.0,5.0,173.0,330.0,649.0
96,2098-01-01,4772010,947580219.0,0.0,35793.0,198.57045961764538,1384.5403891278497,5.0,5.0,136.0,227.0,302.0
97,2099-01-01,4366716,872217400.0,0.0,36127.0,199.74218611881332,1398.060395883437,3.0,3.0,141.0,225.0,303.0
