,time,n,sum,min,max,mean,std,q0.05,q0.25,q0.50,q0.75,q0.95
0,2002-01-01,52115065,3907335878.0,0.0,729.0,74.97517038499328,77.77190998226314,0.0,0.0,46.0,137.0,215.0
1,2003-01-01,52115065,3105063073.0,0.0,1094.0,59.58091145046063,71.21624734211584,0.0,0.0,28.0,106.0,194.0
2,2004-01-01,52257846,4506130748.0,0.0,1460.0,86.22878845790927,89.61299340271331,0.0,0.0,61.0,153.0,237.0
3,2005-01-01,52115065,4784535827.0,0.0,1825.0,91.80715455310283,95.33943680929863,1.0,1.0,68.0,161.0,239.0
4,2006-01-01,52115065,3506725503.0,0.0,2190.0,67.28813449623443,92.96613104731524,0.0,0.0,31.0,117.0,212.0
5,2007-01-01,52115065,3508819274.0,0.0,2555.0,67.32831042233181,99.02956904369768,0.0,0.0,31.0,121.0,202.0
6,2008-01-01,52257846,4338320413.0,0.0,2921.0,83.01758960750124,112.8437899618019,0.0,0.0,55.0,147.0,225.0
7,2009-01-01,52115065,3900815981.0,0.0,3286.0,74.8500645830529,117.32450594578656,0.0,0.0,42.0,133.0,212.0
8,2010-01-01,52115065,3571234325.0,0.0,3651.0,68.52594974217148,123.94346510818322,0.0,0.0,33.0,118.0,198.0
9,2011-01-01,52115065,3941290812.0,0.0,4016.0,75.62670816970103,135.37628554867322,0.0,0.0,44.0,135.0,211.0
10,2012-01-01,52257846,3796553553.0,0.0,4382.0,72.65040264001696,144.32883287747586,0.0,0.0,35.0,127.0,213.0
11,2013-01-01,52115065,3629213439.0,0.0,4747.0,69.63847092966304,152.57197981584636,0.0,0.0,31.0,122.0,204.0
12,2014-01-01,52115065,4087986676.0,0.0,5112.0,78.44155381941863,164.57364149700226,0.0,0.0,44.0,135.0,224.0
13,2015-01-01,52115065,2801652497.0,0.0,5477.0,53.75897539415906,168.05880208559256,0.0,0.0,16.0,89.0,176.0
14,2016-01-01,52257846,3348176789.0,0.0,5843.0,64.07031757489584,179.84083240351467,0.0,0.0,26.0,107.0,188.0
15,2017-01-01,52115065,3819275479.0,0.0,6208.0,73.28544018893577,192.56761918268862,0.0,0.0,34.0,124.0,209.0
16,2018-01-01,52115065,5008452101.0,0.0,6573.0,96.10372933431053,207.1971321699109,0.0,0.0,67.0,158.0,251.0
17,2019-01-01,52115065,4317831175.0,0.0,6938.0,82.85188121707226,214.39775627685384,0.0,0.0,50.0,141.0,221.0
18,2020-01-01,52257846,3482937478.0,0.0,7304.0,66.64908228326135,222.91948392710736,0.0,0.0,24.0,106.0,210.0
19,2021-01-01,52115065,3882090403.0,0.0,7669.0,74.49075239568444,234.6525432566731,0.0,0.0,33.0,120.0,223.0
20,2022-01-01,52115065,3245752321.0,0.0,8034.0,62.28050029295752,242.14080004263855,0.0,0.0,19.0,103.0,181.0
21,2023-01-01,52115065,4971316715.0,0.0,8399.0,95.3911640520836,257.20834867792166,0.0,0.0,66.0,157.0,239.0
22,2024-01-01,52257846,3869054590.0,0.0,8765.0,74.03777396412397,264.9540960484784,0.0,0.0,34.0,125.0,205.0
23,2025-01-01,52115065,3937963884.0,0.0,9130.0,75.5628700453506,275.60164684900127,0.0,0.0,36.0,128.0,202.0
24,2026-01-01,52115065,4235947846.0,0.0,9495.0,81.28067855235334,286.985087551375,0.0,0.0,43.0,135.0,216.0
25,2027-01-01,52115065,3739481060.0,0.0,9860.0,71.75432017594144,296.10602996202863,0.0,0.0,30.0,117.0,197.0
26,2028-01-01,52257846,3880710860.0,0.0,10226.0,74.26082697706293,307.1645866096946,0.0,0.0,32.0,122.0,201.0
27,2029-01-01,52115065,4227241219.0,0.0,10591.0,81.11361309824711,318.7056573034043,0.0,0.0,40.0,131.0,213.0
28,2030-01-01,52115065,4196434756.0,0.0,10956.0,80.5224891497305,329.12741883654235,0.0,0.0,39.0,130.0,209.0
29,2031-01-01,52115065,4519245663.0,0.0,11321.0,86.71668476284161,340.4202228623553,0.0,0.0,50.0,141.0,219.0
30,2032-01-01,52257846,4141664463.0,0.0,11687.0,79.25440445823197,350.2720000561954,0.0,0.0,37.0,128.0,207.0
31,2033-01-01,52115065,4510017732.0,0.0,12052.0,86.53961636620812,361.2267942557798,0.0,0.0,47.0,139.0,213.0
32,2034-01-01,52115065,4830387054.0,0.0,12417.0,92.68696209052027,373.1930127502783,0.0,0.0,54.0,147.0,238.0
33,2035-01-01,52115065,4450944163.0,0.0,12782.0,85.40609443737621,382.8292274366738,0.0,0.0,43.0,134.0,216.0
34,2036-01-01,52257846,4328516301.0,0.0,13148.0,82.82997927239481,393.5121413998333,0.0,0.0,38.0,130.0,214.0
35,2037-01-01,52115065,3698777425.0,0.0,13513.0,70.97328622731258,403.4816575728332,0.0,0.0,23.0,107.0,196.0
36,2038-01-01,52115065,3957036027.0,0.0,13878.0,75.92883222922201,414.13225464022344,0.0,0.0,33.0,117.0,196.0
37,2039-01-01,52115065,3953642119.0,0.0,14243.0,75.86370887189722,425.3950999757227,0.0,0.0,30.0,117.0,200.0
38,2040-01-01,52257846,4464611500.0,0.0,14609.0,85.43428100729601,435.7570862676664,0.0,0.0,41.0,131.0,211.0
39,2041-01-01,52115065,4482505871.0,0.0,14974.0,86.01171026074707,446.6597394729628,0.0,0.0,41.0,132.0,214.0
40,2042-01-01,52115065,5073125083.0,0.0,15339.0,97.34469453314507,458.3693270409485,1.0,1.0,58.0,149.0,234.0
41,2043-01-01,52115065,4922604090.0,0.0,15704.0,94.45645112406557,469.43508121043334,0.0,0.0,51.0,143.0,239.0
42,2044-01-01,52257846,4966235221.0,0.0,16070.0,95.03329358427824,479.60407644621057,0.0,0.0,56.0,148.0,223.0
43,2045-01-01,52115065,5442628195.0,0.0,16435.0,104.43483462987142,491.06767270787464,0.0,0.0,68.0,159.0,245.0
44,2046-01-01,52115065,5332123534.0,0.0,16800.0,102.31443698669473,502.21292033791326,0.0,0.0,59.0,154.0,251.0
45,2047-01-01,52115065,4770869078.0,0.0,17165.0,91.5449127426014,511.9586089194724,0.0,0.0,47.0,136.0,224.0
46,2048-01-01,52257846,5214919959.0,0.0,17531.0,99.79209550657714,523.3576247947815,0.0,0.0,57.0,148.0,242.0
47,2049-01-01,52115065,4492526010.0,0.0,17896.0,86.20397978972107,533.2489585693446,0.0,0.0,36.0,127.0,211.0
48,2050-01-01,52115065,5618640624.0,0.0,18261.0,107.81221560406766,545.3765114570251,0.0,0.0,69.0,161.0,255.0
49,2051-01-01,52115065,4837768489.0,0.0,18626.0,92.82859935030302,555.2703211568631,0.0,0.0,48.0,140.0,219.0
50,2052-01-01,52257846,4863991274.0,0.0,18992.0,93.0767654296352,566.172378599057,0.0,0.0,48.0,139.0,224.0
51,2053-01-01,52115065,4868498278.0,0.0,19357.0,93.41825205437237,576.9991389849985,0.0,0.0,46.0,137.0,230.0
52,2054-01-01,52115065,4967605640.0,0.0,19722.0,95.31995479618034,587.731671077779,0.0,0.0,52.0,144.0,222.0
53,2055-01-01,52115065,4644846292.0,0.0,20087.0,89.12674851312188,597.9369017702014,0.0,0.0,41.0,131.0,206.0
54,2056-01-01,52257846,5967132233.0,0.0,20453.0,114.18634118597234,610.2999833461654,0.0,0.0,75.0,166.0,260.0
55,2057-01-01,52115065,4651572229.0,0.0,20818.0,89.25580787436417,619.8661395692372,0.0,0.0,40.0,129.0,209.0
56,2058-01-01,52115065,5942496171.0,0.0,21183.0,114.02645609287832,631.6621343801062,0.0,0.0,78.0,170.0,250.0
57,2059-01-01,52115065,5613782380.0,0.0,21548.0,107.71899411427387,642.610148575202,0.0,0.0,61.0,155.0,254.0
58,2060-01-01,52257846,4874558803.0,0.0,21914.0,93.27898442274103,653.0969790172253,0.0,0.0,40.0,132.0,231.0
59,2061-01-01,52115065,5033474341.0,0.0,22279.0,96.58386382133457,663.6712084623227,0.0,0.0,47.0,139.0,223.0
60,2062-01-01,52115065,6117308403.0,0.0,22644.0,117.38080731550464,675.31733861454,0.0,0.0,74.0,166.0,266.0
61,2063-01-01,52115065,5394266694.0,0.0,23009.0,103.50685917785961,685.4724214958087,1.0,1.0,55.0,146.0,230.0
62,2064-01-01,52257846,5112775671.0,0.0,23375.0,97.83747441484672,696.358610988095,0.0,0.0,49.0,141.0,227.0
63,2065-01-01,52115065,4696797175.0,0.0,23740.0,90.12359813808158,706.9151670515747,0.0,0.0,38.0,129.0,207.0
64,2066-01-01,52115065,4689012978.0,0.0,24105.0,89.9742325563635,717.8076689824048,0.0,0.0,36.0,125.0,208.0
65,2067-01-01,52115065,5842710762.0,0.0,24470.0,112.11174277533762,729.2079598263575,1.0,1.0,68.0,159.0,246.0
66,2068-01-01,52257846,4658607895.0,0.0,24836.0,89.14657322462162,739.3725900017122,0.0,0.0,35.0,122.0,199.0
67,2069-01-01,52115065,5361699087.0,0.0,25201.0,102.88194185308988,751.0442365849718,0.0,0.0,50.0,141.0,244.0
68,2070-01-01,52115065,4725466795.0,0.0,25566.0,90.67371968163141,761.1741648561024,0.0,0.0,38.0,122.0,201.0
69,2071-01-01,52115065,5784862914.0,0.0,25931.0,111.00174036048885,773.2451735305123,0.0,0.0,58.0,150.0,233.0
70,2072-01-01,52257846,5346032118.0,0.0,26297.0,102.30104237361793,783.5890481875077,1.0,1.0,46.0,137.0,240.0
71,2073-01-01,52115065,5864191842.0,0.0,26662.0,112.52392838807742,794.6574080018631,0.0,0.0,64.0,158.0,247.0
72,2074-01-01,52115065,4235282851.0,0.0,27027.0,81.26791842243696,804.6031383239293,0.0,0.0,23.0,105.0,186.0
73,2075-01-01,52115065,4993290089.0,0.0,27392.0,95.81279595449031,816.1157107773266,0.0,0.0,40.0,127.0,229.0
74,2076-01-01,52257846,4765460285.0,0.0,27758.0,91.19128800295366,826.5026888822603,0.0,0.0,34.0,122.0,199.0
75,2077-01-01,52115065,5685898942.0,0.0,28123.0,109.10278903038882,838.0392157508786,0.0,0.0,57.0,148.0,238.0
76,2078-01-01,52115065,5854227021.0,0.0,28488.0,112.3327203180117,848.926425053128,0.0,0.0,64.0,155.0,237.0
77,2079-01-01,52115065,5988526698.0,0.0,28853.0,114.90970409420002,860.0451791210043,0.0,0.0,64.0,156.0,254.0
78,2080-01-01,52257846,4767565073.0,0.0,29219.0,91.2315649787785,870.3490093657329,0.0,0.0,32.0,116.0,207.0
79,2081-01-01,52115065,4814110173.0,0.0,29584.0,92.37463625920834,881.3170165745274,0.0,0.0,32.0,123.0,205.0
80,2082-01-01,52115065,5346333089.0,0.0,29949.0,102.58709432675562,892.2893334716308,0.0,0.0,47.0,138.0,218.0
81,2083-01-01,52115065,6346433200.0,0.0,30314.0,121.77732484839076,903.7236560058402,0.0,0.0,74.0,166.0,256.0
82,2084-01-01,52257846,5101633074.0,0.0,30680.0,97.62425098807172,914.4406760240475,0.0,0.0,36.0,124.0,211.0
83,2085-01-01,52115065,5112347194.0,0.0,31045.0,98.09730054064022,925.0831225878488,0.0,0.0,40.0,127.0,210.0
84,2086-01-01,52115065,5518345611.0,0.0,31410.0,105.88772384722152,936.2538795415123,0.0,0.0,46.0,138.0,235.0
85,2087-01-01,52115065,5764458403.0,0.0,31775.0,110.61021228698458,947.0177094066072,0.0,0.0,56.0,147.0,230.0
86,2088-01-01,52257846,5946286585.0,0.0,32141.0,113.78744131551079,958.0590221562535,0.0,0.0,60.0,151.0,238.0
87,2089-01-01,52115065,5764963721.0,0.0,32506.0,110.61990848519521,968.9112673285653,0.0,0.0,57.0,149.0,226.0
88,2090-01-01,52115065,4232846697.0,0.0,32871.0,81.22117274534725,979.294562693841,0.0,0.0,19.0,96.0,173.0
89,2091-01-01,52115065,6235872562.0,0.0,33236.0,119.6558531012098,990.91809403234,0.0,0.0,67.0,158.0,248.0
90,2092-01-01,52257846,5352597818.0,0.0,33602.0,102.4266828372528,1001.611968938267,0.0,0.0,42.0,133.0,216.0
91,2093-01-01,52115065,6191403786.0,0.0,33967.0,118.80257246153296,1012.6659313425805,1.0,1.0,60.0,151.0,248.0
92,2094-01-01,52115065,5908991772.0,0.0,34332.0,113.38356331321854,1023.6244992784275,0.0,0.0,58.0,148.0,231.0
93,2095-01-01,52115065,5874512919.0,0.0,34697.0,112.72197240855404,1034.410974178015,0.0,0.0,57.0,149.0,227.0
94,2096-01-01,52257846,5524737689.0,0.0,35063.0,105.72073117977347,1045.3645397302425,0.0,0.0,46.0,138.0,219.0
95,2097-01-01,52115065,5327845262.0,0.0,35428.0,102.23234417917352,1056.2061317382643,0.0,0.0,40.0,131.0,210.0
96,2098-01-01,52115065,5598682513.0,0.0,35793.0,107.4292531919513,1066.3386953966622,0.0,0.0,48.0,139.0,222.0
97,2099-01-01,52115065,5489373466.0,0.0,36158.0,105.33179736032181,1077.1610504392438,0.0,0.0,46.0,137.0,214.0
98,2100-01-01,51972284,5567989745.0,0.0,36522.0,107.13382819581298,1088.153742583589,0.0,0.0,43.0,134.0,227.0
