,time,n,sum,min,max,mean,std,q0.05,q0.25,q0.50,q0.75,q0.95
0,2002-01-01,537280,5891142.0,0.0,729.0,10.964752084574151,36.09139050690677,0.0,0.0,3.0,10.0,45.0
1,2003-01-01,537280,7653176.0,0.0,1094.0,14.244297200714712,56.80609206746392,0.0,0.0,4.0,11.0,52.0
2,2004-01-01,538752,5601330.0,0.0,1460.0,10.396861635780471,75.17748243246368,0.0,0.0,2.0,6.0,30.0
3,2005-01-01,537280,7047358.0,0.0,1825.0,13.116732430017867,96.28575732904226,0.0,0.0,3.0,9.0,33.0
4,2006-01-01,537280,9538332.0,0.0,2190.0,17.75300029779631,118.32962266541949,0.0,0.0,4.0,11.0,53.0
5,2007-01-01,537280,7799932.0,0.0,2555.0,14.517443418701609,138.32563766853244,0.0,0.0,3.0,7.0,23.0
6,2008-01-01,538752,8228623.0,0.0,2921.0,15.273489471964837,159.40626990625384,0.0,0.0,3.0,8.0,21.0
7,2009-01-01,537280,11123313.0,0.0,3286.0,20.703009603930912,181.14305799059673,0.0,0.0,4.0,11.0,44.0
8,2010-01-01,537280,13023046.0,0.0,3651.0,24.238843805836808,202.09124569548123,0.0,0.0,6.0,16.0,47.0
9,2011-01-01,537280,14174564.0,0.0,4016.0,26.382080107206672,223.5330994617893,0.0,0.0,5.0,16.0,53.0
10,2012-01-01,538752,11676247.0,0.0,4382.0,21.67276780411024,244.34809843392853,0.0,0.0,3.0,8.0,28.0
11,2013-01-01,537280,15138956.0,0.0,4747.0,28.1770324597975,265.6973867677438,0.0,0.0,4.0,15.0,64.0
12,2014-01-01,537280,15464265.0,0.0,5112.0,28.782506328171532,287.3345706104116,0.0,0.0,3.0,10.0,68.0
13,2015-01-01,537280,13999166.0,0.0,5477.0,26.055624627754614,308.0060399653817,0.0,0.0,4.0,9.0,30.0
14,2016-01-01,538752,14017778.0,0.0,5843.0,26.018980904015205,329.2056515435624,0.0,0.0,3.0,8.0,28.0
15,2017-01-01,537280,23581690.0,0.0,6208.0,43.890876265634304,351.2686937984147,0.0,0.0,5.0,29.0,115.0
16,2018-01-01,537280,16362360.0,0.0,6573.0,30.454064919594998,371.68557755780233,0.0,0.0,3.0,10.0,33.0
17,2019-01-01,537280,18061686.0,0.0,6938.0,33.6168962179869,393.2803383861857,0.0,0.0,3.0,8.0,54.0
18,2020-01-01,538752,20113807.0,0.0,7304.0,37.334073933832265,414.2424546929818,0.0,0.0,5.0,14.0,59.0
19,2021-01-01,537280,18820827.0,0.0,7669.0,35.02982988385944,435.43683394829196,0.0,0.0,3.0,11.0,39.0
20,2022-01-01,537280,22085610.0,0.0,8034.0,41.10633189398452,456.91785159655785,0.0,0.0,5.0,14.0,69.0
21,2023-01-01,537280,23144574.0,0.0,8399.0,43.07730419892793,477.76736758112816,0.0,0.0,6.0,19.0,67.0
22,2024-01-01,538752,24260713.0,0.0,8765.0,45.03131867723925,499.210891486002,0.0,0.0,6.0,17.0,75.0
23,2025-01-01,537280,22487927.0,0.0,9130.0,41.85513512507445,520.5235600566986,0.0,0.0,4.0,11.0,54.0
24,2026-01-01,537280,25281913.0,0.0,9495.0,47.055377084574154,541.5965695557596,0.0,0.0,6.0,16.0,73.0
25,2027-01-01,537280,22096942.0,0.0,9860.0,41.12742331745086,562.8003722769178,0.0,0.0,4.0,10.0,36.0
26,2028-01-01,538752,23739671.0,0.0,10226.0,44.06419094499881,584.0534425317214,0.0,0.0,4.0,11.0,47.0
27,2029-01-01,537280,23695253.0,0.0,10591.0,44.102242778439546,605.3904237637189,0.0,0.0,3.0,9.0,40.0
28,2030-01-01,537280,24508295.0,0.0,10956.0,45.61549843656939,626.5977732485488,0.0,0.0,3.0,11.0,34.0
29,2031-01-01,537280,29608761.0,0.0,11321.0,55.108623064324,647.988387126227,0.0,0.0,5.0,16.0,93.0
30,2032-01-01,538752,29822683.0,0.0,11687.0,55.35512257959135,668.9860425683362,0.0,0.0,6.0,19.0,79.0
31,2033-01-01,537280,30582167.0,0.0,12052.0,56.9203525163788,690.1619191331196,0.0,0.0,6.0,18.0,82.0
32,2034-01-01,537280,27879288.0,0.0,12417.0,51.88968135795116,711.5275134182019,0.0,0.0,3.0,11.0,45.0
33,2035-01-01,537280,29552316.0,0.0,12782.0,55.00356611078023,732.7498279024261,0.0,0.0,3.0,11.0,66.0
34,2036-01-01,538752,27935807.0,0.0,13148.0,51.852813539439296,754.097334587808,0.0,0.0,3.0,8.0,33.0
35,2037-01-01,537280,33687987.0,0.0,13513.0,62.70098831149494,775.1222792973243,0.0,0.0,7.0,20.0,84.0
36,2038-01-01,537280,30252664.0,0.0,13878.0,56.307072662298985,796.482528885967,0.0,0.0,3.0,11.0,43.0
37,2039-01-01,537280,33008360.0,0.0,14243.0,61.436048243001785,817.58458666468,0.0,0.0,5.0,17.0,58.0
38,2040-01-01,538752,36031982.0,0.0,14609.0,66.88046076859112,839.0333395271813,0.0,0.0,4.0,16.0,105.0
39,2041-01-01,537280,33619168.0,0.0,14974.0,62.57290053603335,860.236897583855,0.0,0.0,4.0,11.0,64.0
40,2042-01-01,537280,35398578.0,0.0,15339.0,65.8847863311495,881.3496357574294,0.0,0.0,5.0,16.0,72.0
41,2043-01-01,537280,33523053.0,0.0,15704.0,62.39400871054199,902.759402183003,0.0,0.0,4.0,10.0,36.0
42,2044-01-01,538752,33725265.0,0.0,16070.0,62.59886738239487,924.0386388934243,0.0,0.0,3.0,9.0,38.0
43,2045-01-01,537280,36429609.0,0.0,16435.0,67.80376898451459,945.1176580608806,0.0,0.0,5.0,15.0,60.0
44,2046-01-01,537280,37743011.0,0.0,16800.0,70.24830814472901,966.3597040006937,0.0,0.0,4.0,14.0,71.0
45,2047-01-01,537280,39069290.0,0.0,17165.0,72.71681432400239,987.4784898699381,0.0,0.0,6.0,21.0,66.0
46,2048-01-01,538752,36429022.0,0.0,17531.0,67.61742322998337,1009.0003478136243,0.0,0.0,4.0,10.0,37.0
47,2049-01-01,537280,37840767.0,0.0,17896.0,70.43025424359737,1030.2271780018518,0.0,0.0,3.0,10.0,54.0
48,2050-01-01,537280,41566528.0,0.0,18261.0,77.36474091721263,1051.2114779223123,0.0,0.0,7.0,18.0,73.0
49,2051-01-01,537280,40461864.0,0.0,18626.0,75.30871054198929,1072.5921680541858,0.0,0.0,4.0,14.0,62.0
50,2052-01-01,538752,40258705.0,0.0,18992.0,74.72585716619149,1093.9714302410948,0.0,0.0,3.0,11.0,53.0
51,2053-01-01,537280,44452759.0,0.0,19357.0,82.73667175402025,1114.9852257257444,0.0,0.0,6.0,20.0,89.0
52,2054-01-01,537280,48466509.0,0.0,19722.0,90.2071713073258,1136.2124072127601,0.0,0.0,5.0,27.0,120.0
53,2055-01-01,537280,41518978.0,0.0,20087.0,77.27623957712925,1157.716630196203,0.0,0.0,4.0,11.0,37.0
54,2056-01-01,538752,43253029.0,0.0,20453.0,80.2837465104538,1178.8675797408753,0.0,0.0,4.0,15.0,44.0
55,2057-01-01,537280,53764926.0,0.0,20818.0,100.06872766527695,1199.639394158316,0.0,0.0,8.0,47.0,123.0
56,2058-01-01,537280,44620122.0,0.0,21183.0,83.0481722751638,1221.4178710797105,0.0,0.0,4.0,12.0,61.0
57,2059-01-01,537280,45934324.0,0.0,21548.0,85.49420041691484,1242.5402663245668,0.0,0.0,5.0,18.0,53.0
58,2060-01-01,538752,46257643.0,0.0,21914.0,85.86073555179378,1263.9174912256096,0.0,0.0,3.0,10.0,62.0
59,2061-01-01,537280,45700932.0,0.0,22279.0,85.0598049434187,1285.2347824145916,0.0,0.0,3.0,9.0,51.0
60,2062-01-01,537280,45637516.0,0.0,22644.0,84.94177337701012,1306.4878287304582,0.0,0.0,4.0,10.0,37.0
61,2063-01-01,537280,48563110.0,0.0,23009.0,90.38696768910066,1327.594101625283,0.0,0.0,5.0,14.0,57.0
62,2064-01-01,538752,47069738.0,0.0,23375.0,87.36809886552625,1348.9995803212562,0.0,0.0,3.0,9.0,36.0
63,2065-01-01,537280,50621184.0,0.0,23740.0,94.21751042287076,1370.1141895573564,0.0,0.0,4.0,13.0,74.0
64,2066-01-01,537280,50487293.0,0.0,24105.0,93.96830888921977,1391.3512255643107,0.0,0.0,5.0,14.0,59.0
65,2067-01-01,537280,51039538.0,0.0,24470.0,94.99616215008933,1412.5768679915527,0.0,0.0,5.0,14.0,64.0
66,2068-01-01,538752,50795349.0,0.0,24836.0,94.28336043300071,1433.9000868906942,0.0,0.0,4.0,13.0,44.0
67,2069-01-01,537280,53986663.0,0.0,25201.0,100.48143053901131,1455.0444425270591,0.0,0.0,5.0,16.0,82.0
68,2070-01-01,537280,51470699.0,0.0,25566.0,95.79865061048243,1476.4967039196422,0.0,0.0,3.0,9.0,38.0
69,2071-01-01,537280,56717393.0,0.0,25931.0,105.56393872840977,1497.4107828319952,0.0,0.0,7.0,21.0,82.0
70,2072-01-01,538752,53165116.0,0.0,26297.0,98.68198354716084,1518.8991242096483,0.0,0.0,5.0,13.0,39.0
71,2073-01-01,537280,57351423.0,0.0,26662.0,106.74401243299583,1540.0834878910719,0.0,0.0,5.0,14.0,93.0
72,2074-01-01,537280,58919182.0,0.0,27027.0,109.66196768910065,1561.1188223741378,0.0,0.0,6.0,20.0,94.0
73,2075-01-01,537280,56457645.0,0.0,27392.0,105.0804887581894,1582.5811612145496,0.0,0.0,3.0,13.0,66.0
74,2076-01-01,538752,55830729.0,0.0,27758.0,103.62973872950819,1603.9604633978697,0.0,0.0,4.0,10.0,44.0
75,2077-01-01,537280,63963664.0,0.0,28123.0,119.05089338892198,1624.7938037172348,0.0,0.0,7.0,24.0,112.0
76,2078-01-01,537280,63927457.0,0.0,28488.0,118.98350394580108,1645.9214946852435,0.0,0.0,8.0,30.0,102.0
77,2079-01-01,537280,59853408.0,0.0,28853.0,111.40077427039904,1667.5118020612465,0.0,0.0,5.0,15.0,72.0
78,2080-01-01,538752,60803035.0,0.0,29219.0,112.85904275065336,1688.7168277999403,0.0,0.0,5.0,19.0,62.0
79,2081-01-01,537280,63048806.0,0.0,29584.0,117.34813505062537,1709.9643276688007,0.0,0.0,5.0,17.0,95.0
80,2082-01-01,537280,66394371.0,0.0,29949.0,123.5749906938654,1731.0033723294457,0.0,0.0,7.0,26.0,114.0
81,2083-01-01,537280,64302523.0,0.0,30314.0,119.68158688207266,1752.3708589264318,0.0,0.0,5.0,17.0,89.0
82,2084-01-01,538752,60884628.0,0.0,30680.0,113.01049091233072,1773.9963375205493,0.0,0.0,3.0,8.0,50.0
83,2085-01-01,537280,61031398.0,0.0,31045.0,113.59328097081597,1795.2791204621365,0.0,0.0,3.0,8.0,43.0
84,2086-01-01,537280,64527414.0,0.0,31410.0,120.10016006551518,1816.293081579373,0.0,0.0,4.0,13.0,71.0
85,2087-01-01,537280,64448496.0,0.0,31775.0,119.95327575938059,1837.6110919249788,0.0,0.0,5.0,12.0,60.0
86,2088-01-01,538752,63278399.0,0.0,32141.0,117.45366884948919,1858.9642971166897,0.0,0.0,4.0,11.0,38.0
87,2089-01-01,537280,63552443.0,0.0,32506.0,118.28551779332936,1880.259720014925,0.0,0.0,4.0,10.0,37.0
88,2090-01-01,537280,64922784.0,0.0,32871.0,120.83603335318642,1901.438015284763,0.0,0.0,3.0,11.0,46.0
89,2091-01-01,537280,69392329.0,0.0,33236.0,129.1548708308517,1922.4234192347628,0.0,0.0,5.0,17.0,90.0
90,2092-01-01,538752,67705680.0,0.0,33602.0,125.67132929436922,1943.8655024613408,0.0,0.0,4.0,12.0,57.0
91,2093-01-01,537280,70647949.0,0.0,33967.0,131.49186457712923,1964.8814269531965,0.0,0.0,7.0,21.0,75.0
92,2094-01-01,537280,67602380.0,0.0,34332.0,125.82336956521739,1986.4541927733746,0.0,0.0,3.0,10.0,46.0
93,2095-01-01,537280,72346989.0,0.0,34697.0,134.6541635646218,2007.3563336311204,0.0,0.0,6.0,20.0,86.0
94,2096-01-01,538752,70551094.0,0.0,35063.0,130.95282059277739,2028.8268767138964,0.0,0.0,5.0,14.0,58.0
95,2097-01-01,537280,72220576.0,0.0,35428.0,134.41888028588446,2049.9838598053584,0.0,0.0,5.0,14.0,77.0
96,2098-01-01,537280,72506585.0,0.0,35793.0,134.9512079362716,2071.312524199113,0.0,0.0,4.0,12.0,76.0
97,2099-01-01,535808,73388800.0,0.0,36157.0,136.9684663162924,2092.438023015453,0.0,0.0,5.0,14.0,79.0
