,time,n,sum,min,max,mean,std,q0.05,q0.25,q0.50,q0.75,q0.95
0,2002-01-01,14083890,876802126.0,0.0,729.0,62.25567836726927,68.25309412208381,0.0,0.0,30.0,111.0,192.0
1,2003-01-01,14083890,989581689.0,0.0,1094.0,70.26337815759709,77.41872560178278,0.0,0.0,38.0,128.0,204.0
2,2004-01-01,14122476,789208408.0,0.0,1460.0,55.883147402764216,76.67170678490184,0.0,0.0,18.0,99.0,188.0
3,2005-01-01,14083890,888331137.0,0.0,1825.0,63.07427401094442,84.24369785361687,0.0,0.0,26.0,115.0,190.0
4,2006-01-01,14083890,1000682696.0,0.0,2190.0,71.05158418590318,96.30156272364069,0.0,0.0,37.0,124.0,214.0
5,2007-01-01,14083890,1121258613.0,0.0,2555.0,79.61284936193054,106.63184589913531,0.0,0.0,48.0,139.0,219.0
6,2008-01-01,14122476,963347155.0,0.0,2921.0,68.21375763003599,111.35882548943016,0.0,0.0,35.0,121.0,198.0
7,2009-01-01,14083890,1156582248.0,0.0,3286.0,82.12093732626427,124.88249842348887,0.0,0.0,52.0,144.0,223.0
8,2010-01-01,14083890,901543259.0,0.0,3651.0,64.01237577118253,128.59233344401972,0.0,0.0,26.0,113.0,187.0
9,2011-01-01,14083890,1246175979.0,0.0,4016.0,88.48237092167008,145.8394759700703,0.0,0.0,60.0,151.0,236.0
10,2012-01-01,14122476,828924609.0,0.0,4382.0,58.69541637033053,148.48467594635645,0.0,0.0,19.0,98.0,190.0
11,2013-01-01,14083890,978472907.0,0.0,4747.0,69.47462008010571,161.50654536275852,0.0,0.0,30.0,117.0,208.0
12,2014-01-01,14083890,920145238.0,0.0,5112.0,65.33317414435926,170.424291478101,0.0,0.0,27.0,111.0,190.0
13,2015-01-01,14083890,963817892.0,0.0,5477.0,68.43406842853786,182.6859360148249,0.0,0.0,29.0,110.0,210.0
14,2016-01-01,14122476,1085076392.0,0.0,5843.0,76.8332969374492,194.22607896136785,0.0,0.0,40.0,129.0,209.0
15,2017-01-01,14083890,1073852929.0,0.0,6208.0,76.24689833561608,203.9254968666201,0.0,0.0,38.0,127.0,217.0
16,2018-01-01,14083890,1061937253.0,0.0,6573.0,75.4008482741629,214.04553340878806,0.0,0.0,37.0,124.0,206.0
17,2019-01-01,14083890,1084130495.0,0.0,6938.0,76.9766374914885,226.02631078516444,0.0,0.0,39.0,122.0,213.0
18,2020-01-01,14122476,1349790448.0,0.0,7304.0,95.57746446161424,239.38775919730293,0.0,0.0,67.0,158.0,234.0
19,2021-01-01,14083890,1311205142.0,0.0,7669.0,93.0996437773939,249.87691424660846,0.0,0.0,60.0,152.0,239.0
20,2022-01-01,14083890,1015843889.0,0.0,8034.0,72.12807605001176,257.44589080077003,0.0,0.0,30.0,120.0,198.0
21,2023-01-01,14083890,953143746.0,0.0,8399.0,67.67617085904533,268.0743307983356,0.0,0.0,27.0,109.0,186.0
22,2024-01-01,14122476,1289564480.0,0.0,8765.0,91.3129170833783,282.54081347478245,0.0,0.0,55.0,146.0,240.0
23,2025-01-01,14083890,1300283690.0,0.0,9130.0,92.32418671261988,293.9361518936983,0.0,0.0,56.0,148.0,237.0
24,2026-01-01,14083890,1342645057.0,0.0,9495.0,95.33197554084845,304.8080044554345,1.0,1.0,62.0,153.0,229.0
25,2027-01-01,14083890,1127644015.0,0.0,9860.0,80.0662327666575,314.475294482021,0.0,0.0,39.0,130.0,208.0
26,2028-01-01,14122476,1214282538.0,0.0,10226.0,85.98226953970395,326.00167046418505,0.0,0.0,48.0,137.0,221.0
27,2029-01-01,14083890,1363681100.0,0.0,10591.0,96.8256000295373,338.1612307042323,0.0,0.0,62.0,152.0,235.0
28,2030-01-01,14083890,1184194179.0,0.0,10956.0,84.08147031821464,348.46473033515815,0.0,0.0,44.0,133.0,214.0
29,2031-01-01,14083890,1216828333.0,0.0,11321.0,86.3985967655243,359.9063247636551,0.0,0.0,47.0,138.0,216.0
30,2032-01-01,14122476,1138501353.0,0.0,11687.0,80.61627104199009,370.92660135824684,0.0,0.0,36.0,123.0,214.0
31,2033-01-01,14083890,1313659429.0,0.0,12052.0,93.27390578881261,383.0654399497428,0.0,0.0,57.0,148.0,227.0
32,2034-01-01,14083890,1460718092.0,0.0,12417.0,103.71552830929522,395.1259993330385,0.0,0.0,68.0,159.0,245.0
33,2035-01-01,14083890,1233494094.0,0.0,12782.0,87.58191763781171,405.4951443056321,0.0,0.0,45.0,136.0,218.0
34,2036-01-01,14122476,1312615240.0,0.0,13148.0,92.94512095471077,417.19130357685225,0.0,0.0,54.0,145.0,223.0
35,2037-01-01,14083890,1353325708.0,0.0,13513.0,96.09033498557572,428.87433631608184,0.0,0.0,57.0,149.0,229.0
36,2038-01-01,14083890,1547353508.0,0.0,13878.0,109.8669123374295,441.33367790514507,1.0,1.0,74.0,166.0,248.0
37,2039-01-01,14083890,1203018989.0,0.0,14243.0,85.41809038553978,450.7843127642264,0.0,0.0,40.0,127.0,206.0
38,2040-01-01,14122476,1372786865.0,0.0,14609.0,97.20582035331482,463.337202172594,0.0,0.0,57.0,149.0,226.0
39,2041-01-01,14083890,1326849891.0,0.0,14974.0,94.21046962167412,474.84122298460267,0.0,0.0,53.0,145.0,225.0
40,2042-01-01,14083890,1415321062.0,0.0,15339.0,100.49219796519286,486.73327188535376,0.0,0.0,57.0,149.0,245.0
41,2043-01-01,14083890,1606213029.0,0.0,15704.0,114.04612141957939,498.80571094239536,0.0,0.0,78.0,169.0,264.0
42,2044-01-01,14122476,1200557837.0,0.0,16070.0,85.01043563465784,508.77237480873544,0.0,0.0,38.0,127.0,202.0
43,2045-01-01,14083890,1498192597.0,0.0,16435.0,106.37633473422471,521.1864892537193,1.0,1.0,63.0,155.0,245.0
44,2046-01-01,14083890,1537750336.0,0.0,16800.0,109.18505725335827,535.5782772464322,0.0,0.0,65.0,151.0,258.0
45,2047-01-01,14083890,1410255810.0,0.0,17165.0,100.13254931698557,543.339786920604,0.0,0.0,57.0,148.0,235.0
46,2048-01-01,14122476,1320726918.0,0.0,17531.0,93.51950167945054,554.0380392694988,0.0,0.0,49.0,136.0,211.0
47,2049-01-01,14083890,1237752957.0,0.0,17896.0,87.88431015862805,565.5953427854816,0.0,0.0,38.0,125.0,213.0
48,2050-01-01,14083890,1205665329.0,0.0,18261.0,85.60598875736746,577.3334335160172,0.0,0.0,35.0,121.0,205.0
49,2051-01-01,14083890,1457034925.0,0.0,18626.0,103.45401199526552,589.4666416021904,0.0,0.0,63.0,154.0,231.0
50,2052-01-01,14122476,1714516795.0,0.0,18992.0,121.40341360820865,601.8570999686109,0.0,0.0,85.0,177.0,266.0
51,2053-01-01,14083890,1283755539.0,0.0,19357.0,91.1506365783885,611.6576864425555,0.0,0.0,40.0,131.0,212.0
52,2054-01-01,14083890,1284481133.0,0.0,19722.0,91.20215600945477,623.2666283309592,0.0,0.0,40.0,126.0,221.0
53,2055-01-01,14083890,1552941886.0,0.0,20087.0,110.26370455889672,636.0217690954802,1.0,1.0,64.0,155.0,244.0
54,2056-01-01,14122476,1697820817.0,0.0,20453.0,120.2211862140888,647.3333730203967,1.0,1.0,80.0,171.0,255.0
55,2057-01-01,14083890,1589206620.0,0.0,20818.0,112.83861347965654,659.5945180767908,1.0,1.0,64.0,155.0,252.0
56,2058-01-01,14083890,1691111341.0,0.0,21183.0,120.07416566019758,672.4663001494348,0.0,0.0,71.0,166.0,265.0
57,2059-01-01,14083890,1568481426.0,0.0,21548.0,111.36706023690898,681.8979145511768,0.0,0.0,66.0,157.0,247.0
58,2060-01-01,14122476,1641551499.0,0.0,21914.0,116.23680571310584,694.262765861694,1.0,1.0,69.0,162.0,253.0
59,2061-01-01,14083890,1455277867.0,0.0,22279.0,103.32925541167958,704.7704948265366,0.0,0.0,53.0,145.0,231.0
60,2062-01-01,14083890,1831436821.0,0.0,22644.0,130.03771124312956,716.785250358412,2.0,2.0,88.0,180.0,257.0
61,2063-01-01,14083890,2170967048.0,0.0,23009.0,154.14541351856624,733.8914016503649,1.0,1.0,102.0,199.0,357.0
62,2064-01-01,14122476,1616804362.0,0.0,23375.0,114.48448289096048,741.1065690991592,0.0,0.0,65.0,157.0,242.0
63,2065-01-01,14083890,1738245571.0,0.0,23740.0,123.42084260811467,751.7621284828136,1.0,1.0,81.0,172.0,262.0
64,2066-01-01,14083890,1851382571.0,0.0,24105.0,131.45392153730256,766.8111231305976,1.0,1.0,76.0,172.0,316.0
65,2067-01-01,14083890,1758973910.0,0.0,24470.0,124.8926191556452,776.1721782467966,1.0,1.0,76.0,167.0,260.0
66,2068-01-01,14122476,1705478058.0,0.0,24836.0,120.76338865790956,788.0006440912108,2.0,2.0,65.0,155.0,261.0
67,2069-01-01,14083890,1420785750.0,0.0,25201.0,100.88020781190424,797.6846561230199,0.0,0.0,48.0,134.0,213.0
68,2070-01-01,14083890,1890425740.0,0.0,25566.0,134.22610798579086,810.4115386899315,1.0,1.0,91.0,183.0,265.0
69,2071-01-01,14083890,1747754907.0,0.0,25931.0,124.09603504429529,822.6672422888166,1.0,1.0,72.0,164.0,256.0
70,2072-01-01,14122476,2513061596.0,0.0,26297.0,177.94766271863375,841.6231597321618,2.0,2.0,116.0,220.0,489.0
71,2073-01-01,14083890,1864562640.0,0.0,26662.0,132.38974743483513,844.8181517804167,1.0,1.0,91.0,182.0,259.0
72,2074-01-01,14083890,2061771503.0,0.0,27027.0,146.39219015485068,857.451509421015,1.0,1.0,103.0,196.0,291.0
73,2075-01-01,14083890,3146586629.0,0.0,27392.0,223.41743857698407,879.929779725403,2.0,2.0,155.0,275.0,597.0
74,2076-01-01,14122476,1855588704.0,0.0,27758.0,131.39259036446583,881.168810645075,0.0,0.0,82.0,173.0,265.0
75,2077-01-01,14083890,1509632564.0,0.0,28123.0,107.18860797691546,890.9763616547051,0.0,0.0,50.0,141.0,226.0
76,2078-01-01,14083890,1591248361.0,0.0,28488.0,112.98358344179059,902.632394407492,1.0,1.0,57.0,149.0,228.0
77,2079-01-01,14083890,1864010837.0,0.0,28853.0,132.35056770537116,914.691154244817,0.0,0.0,86.0,178.0,258.0
78,2080-01-01,14122476,1983781231.0,0.0,29219.0,140.46978950433336,927.6481839093893,1.0,1.0,91.0,184.0,269.0
79,2081-01-01,14083890,1946650965.0,0.0,29584.0,138.2182738575777,941.5888670899453,1.0,1.0,75.0,169.0,293.0
80,2082-01-01,14083890,1554527846.0,0.0,29949.0,110.3763126522573,949.7351700558164,0.0,0.0,53.0,142.0,218.0
81,2083-01-01,14083890,2239113159.0,0.0,30314.0,158.98399937801275,963.4741826583992,3.0,3.0,107.0,201.0,319.0
82,2084-01-01,14122476,1765794177.0,0.0,30680.0,125.03431954849843,973.3449094667782,1.0,1.0,68.0,160.0,256.0
83,2085-01-01,14083890,1665042824.0,0.0,31045.0,118.22321986326222,985.2700045920991,1.0,1.0,57.0,149.0,242.0
84,2086-01-01,14083890,2448691826.0,0.0,31410.0,173.86473666011307,999.6766697944513,3.0,3.0,118.0,214.0,352.0
85,2087-01-01,14083890,2086195305.0,0.0,31775.0,148.12635607065945,1016.6836901563744,0.0,0.0,69.0,164.0,353.0
86,2088-01-01,14122476,1624940962.0,0.0,32141.0,115.06062832041634,1020.4908281261022,0.0,0.0,55.0,146.0,224.0
87,2089-01-01,14083890,1679844499.0,0.0,32506.0,119.27418483103745,1031.9769682745791,1.0,1.0,60.0,151.0,237.0
88,2090-01-01,14083890,1511577018.0,0.0,32871.0,107.32667025942406,1042.289031930113,0.0,0.0,47.0,138.0,212.0
89,2091-01-01,14083890,2098827916.0,0.0,33236.0,149.02331074724384,1054.3260820299809,1.0,1.0,100.0,192.0,286.0
90,2092-01-01,14122476,1921101594.0,0.0,33602.0,136.03150000042484,1065.7813480942316,1.0,1.0,85.0,176.0,257.0
91,2093-01-01,14083890,1996929816.0,0.0,33967.0,141.7882286782984,1077.4158277740612,1.0,1.0,92.0,184.0,263.0
92,2094-01-01,14083890,1651025822.0,0.0,34332.0,117.22796911932711,1089.5295141882866,1.0,1.0,54.0,138.0,221.0
93,2095-01-01,14083890,1605174195.0,0.0,34697.0,113.97236097413428,1101.0294323373002,0.0,0.0,50.0,141.0,221.0
94,2096-01-01,14122476,1743918883.0,0.0,35063.0,123.48534938207719,1112.9903010226774,0.0,0.0,60.0,152.0,241.0
95,2097-01-01,14083890,1727439523.0,0.0,35428.0,122.65357958632168,1124.8848521106459,1.0,1.0,55.0,146.0,242.0
96,2098-01-01,14083890,2251735024.0,0.0,35793.0,159.88019105517012,1135.7739970624305,2.0,2.0,112.0,204.0,286.0
97,2099-01-01,12887724,1742100037.0,0.0,36127.0,135.1751509420903,1147.0365871345923,1.0,1.0,84.0,167.0,248.0
