,time,n,sum,min,max,mean,std,q0.05,q0.25,q0.50,q0.75,q0.95
0,2002-01-01,34312190,3561467371.0,0.0,729.0,103.79597953380417,90.25504743197985,1.0,1.0,89.0,180.0,256.0
1,2003-01-01,34312190,3591826157.0,0.0,1094.0,104.68076088993445,91.46415590212207,1.0,1.0,86.0,177.0,250.0
2,2004-01-01,34406196,3921563802.0,0.0,1460.0,113.97841836394817,103.69827699444595,0.0,0.0,102.0,194.0,270.0
3,2005-01-01,34312190,3243047313.0,0.0,1825.0,94.51589400151957,102.59219957792453,1.0,1.0,73.0,165.0,239.0
4,2006-01-01,34312190,4931791196.0,0.0,2190.0,143.73291812618197,124.39976286510849,2.0,2.0,136.0,227.0,308.0
5,2007-01-01,34312190,3572152126.0,0.0,2555.0,104.10737775700123,123.72486802283272,1.0,1.0,87.0,178.0,255.0
6,2008-01-01,34406196,3828386547.0,0.0,2921.0,111.27026501273201,135.2425713847838,1.0,1.0,93.0,185.0,264.0
7,2009-01-01,34312190,6109458977.0,0.0,3286.0,178.05505789633364,174.78977567496813,10.0,10.0,157.0,255.0,426.0
8,2010-01-01,34312190,3681902393.0,0.0,3651.0,107.30595724143518,159.7027346089658,1.0,1.0,84.0,175.0,256.0
9,2011-01-01,34312190,4778181598.0,0.0,4016.0,139.25609522446686,182.30570639246835,6.0,6.0,114.0,208.0,315.0
10,2012-01-01,34406196,4414148158.0,0.0,4382.0,128.2951523615107,185.95526357635285,2.0,2.0,111.0,203.0,279.0
11,2013-01-01,34312190,3865665386.0,0.0,4747.0,112.6615755508465,192.64701018149336,1.0,1.0,93.0,184.0,262.0
12,2014-01-01,34312190,5022918179.0,0.0,5112.0,146.38873761773877,219.2506918295312,3.0,3.0,120.0,217.0,332.0
13,2015-01-01,34312190,4323302126.0,0.0,5477.0,125.99901451932972,218.8667933834229,1.0,1.0,109.0,200.0,275.0
14,2016-01-01,34406196,4207921668.0,0.0,5843.0,122.3012758515937,230.58952004717975,1.0,1.0,105.0,196.0,271.0
15,2017-01-01,34312190,5068244338.0,0.0,6208.0,147.70973050685484,244.75546946908094,5.0,5.0,132.0,223.0,305.0
16,2018-01-01,34312190,5986503705.0,0.0,6573.0,174.47162961618014,259.34107238247105,9.0,9.0,162.0,254.0,336.0
17,2019-01-01,34312190,4310292864.0,0.0,6938.0,125.61987048917601,269.1142524256332,1.0,1.0,106.0,198.0,271.0
18,2020-01-01,34406196,5926268245.0,0.0,7304.0,172.24421569301063,284.8658205688234,6.0,6.0,159.0,251.0,335.0
19,2021-01-01,34312190,5456782159.0,0.0,7669.0,159.03333943417778,297.51380399361284,3.0,3.0,145.0,236.0,314.0
20,2022-01-01,34312190,4611962800.0,0.0,8034.0,134.41178776405704,308.9543301425988,2.0,2.0,114.0,205.0,280.0
21,2023-01-01,34312190,4738659533.0,0.0,8399.0,138.10425778710132,323.5070489282892,2.0,2.0,115.0,207.0,286.0
22,2024-01-01,34406196,5441422526.0,0.0,8765.0,158.1524015616257,337.6964681698302,4.0,4.0,141.0,233.0,312.0
23,2025-01-01,34312190,8447803850.0,0.0,9130.0,246.20415805578133,378.9570247048238,8.0,8.0,203.0,325.0,611.0
24,2026-01-01,34312190,4289735605.0,0.0,9495.0,125.02074641694395,363.21815455614916,2.0,2.0,97.0,189.0,263.0
25,2027-01-01,34312190,3944378168.0,0.0,9860.0,114.95559356601838,376.01615529192685,1.0,1.0,84.0,176.0,252.0
26,2028-01-01,34406196,4832528961.0,0.0,10226.0,140.45519478526484,390.9191896689028,1.0,1.0,118.0,210.0,284.0
27,2029-01-01,34312190,5343854654.0,0.0,10591.0,155.74216201297557,405.97764745670094,4.0,4.0,132.0,223.0,318.0
28,2030-01-01,34312190,4942195364.0,0.0,10956.0,144.03613887659168,419.16392683320686,1.0,1.0,120.0,212.0,293.0
29,2031-01-01,34312190,5722497886.0,0.0,11321.0,166.77740144246113,435.9503542010083,3.0,3.0,142.0,236.0,322.0
30,2032-01-01,34406196,4694022949.0,0.0,11687.0,136.42958230546614,443.9130908967137,3.0,3.0,109.0,200.0,275.0
31,2033-01-01,34312190,4295394299.0,0.0,12052.0,125.1856643076411,458.3459125037777,1.0,1.0,88.0,179.0,307.0
32,2034-01-01,34312190,6178532062.0,0.0,12417.0,180.06813502723085,469.19460790978303,4.0,4.0,162.0,253.0,327.0
33,2035-01-01,34312190,5216676428.0,0.0,12782.0,152.03565928027328,484.9405067764364,2.0,2.0,122.0,214.0,354.0
34,2036-01-01,34406196,4138240935.0,0.0,13148.0,120.27603792642465,495.76911524709726,1.0,1.0,87.0,179.0,255.0
35,2037-01-01,34312190,5388289379.0,0.0,13513.0,157.03717480580517,509.30982555979733,2.0,2.0,133.0,224.0,300.0
36,2038-01-01,34312190,4714560489.0,0.0,13878.0,137.4019113615307,522.6408168801191,2.0,2.0,107.0,199.0,274.0
37,2039-01-01,34312190,5565983708.0,0.0,14243.0,162.21592699271017,536.999876101004,7.0,7.0,133.0,225.0,318.0
38,2040-01-01,34406196,4237601149.0,0.0,14609.0,123.16389609011121,550.3197880749257,0.0,0.0,86.0,178.0,255.0
39,2041-01-01,34312190,6501856753.0,0.0,14974.0,189.4911619747967,565.9985491565649,14.0,14.0,161.0,256.0,340.0
40,2042-01-01,34312190,6111246877.0,0.0,15339.0,178.10716474232626,575.08299630034,4.0,4.0,154.0,245.0,320.0
41,2043-01-01,34312190,7133665451.0,0.0,15704.0,207.9046965815939,595.9305709898605,6.0,6.0,170.0,271.0,483.0
42,2044-01-01,34406196,4810286979.0,0.0,16070.0,139.80874197775307,602.4856909278567,2.0,2.0,105.0,196.0,271.0
43,2045-01-01,34312190,4145714760.0,0.0,16435.0,120.82337967935011,615.0076646186812,0.0,0.0,82.0,173.0,248.0
44,2046-01-01,34312190,4756799307.0,0.0,16800.0,138.63292628654713,629.0167810173517,1.0,1.0,105.0,196.0,271.0
45,2047-01-01,34312190,5251960257.0,0.0,17165.0,153.06397688401702,644.3009840457858,2.0,2.0,116.0,209.0,297.0
46,2048-01-01,34406196,5427105111.0,0.0,17531.0,157.7362725888093,656.5444679214669,1.0,1.0,128.0,219.0,296.0
47,2049-01-01,34312190,5500377400.0,0.0,17896.0,160.30388616990055,670.1223125201334,2.0,2.0,130.0,221.0,300.0
48,2050-01-01,34312190,5072041309.0,0.0,18261.0,147.82039004213954,683.8150290407493,1.0,1.0,113.0,204.0,280.0
49,2051-01-01,34312190,5992361301.0,0.0,18626.0,174.64234433884866,697.5965983940846,6.0,6.0,143.0,235.0,318.0
50,2052-01-01,34406196,8231218292.0,0.0,18992.0,239.23651112142707,721.6038900837945,10.0,10.0,185.0,297.0,589.0
51,2053-01-01,34312190,5589612055.0,0.0,19357.0,162.90455534898823,725.7842308191883,4.0,4.0,127.0,219.0,292.0
52,2054-01-01,34312190,5311858082.0,0.0,19722.0,154.8096487574824,739.1670988765349,2.0,2.0,115.0,207.0,285.0
53,2055-01-01,34312190,5196427710.0,0.0,20087.0,151.44552737671364,749.776640941659,1.0,1.0,114.0,205.0,284.0
54,2056-01-01,34406196,5630394195.0,0.0,20453.0,163.64477476673096,763.5087297611677,2.0,2.0,129.0,220.0,295.0
55,2057-01-01,34312190,6471580170.0,0.0,20818.0,188.60877635615796,781.4118483936297,3.0,3.0,143.0,241.0,406.0
56,2058-01-01,34312190,6034951648.0,0.0,21183.0,175.8836042817436,793.3935310116711,5.0,5.0,135.0,227.0,313.0
57,2059-01-01,34312190,7472809956.0,0.0,21548.0,217.78877874015038,810.5263737815372,13.0,13.0,171.0,268.0,398.0
58,2060-01-01,34406196,14235508847.0,0.0,21914.0,413.74840877497763,838.9499410681203,20.0,20.0,397.0,563.0,706.0
59,2061-01-01,34312190,11273941065.0,0.0,22279.0,328.56955691257247,880.9500135754657,3.0,3.0,189.0,317.0,978.0
60,2062-01-01,34312190,6225358117.0,0.0,22644.0,181.43284112730782,853.5009715317123,7.0,7.0,135.0,227.0,307.0
61,2063-01-01,34312190,7519926236.0,0.0,23009.0,219.16194320444134,870.9909898702698,8.0,8.0,160.0,259.0,498.0
62,2064-01-01,34406196,8108234619.0,0.0,23375.0,235.66204816713827,887.0547399087299,10.0,10.0,180.0,281.0,510.0
63,2065-01-01,34312190,5255599826.0,0.0,23740.0,153.1700490700244,888.2999088286737,2.0,2.0,107.0,198.0,272.0
64,2066-01-01,34312190,5961448380.0,0.0,24105.0,173.74141318289506,901.1013467611348,5.0,5.0,132.0,224.0,300.0
65,2067-01-01,34312190,11417224686.0,0.0,24470.0,332.74543787499425,923.5593140745191,10.0,10.0,296.0,454.0,617.0
66,2068-01-01,34406196,11297795317.0,0.0,24836.0,328.36513856399586,954.7865437132509,15.0,15.0,223.0,345.0,902.0
67,2069-01-01,34312190,5184667313.0,0.0,25201.0,151.1027804695649,944.3836574068046,2.0,2.0,101.0,192.0,271.0
68,2070-01-01,34312190,5983589831.0,0.0,25566.0,174.38670720230914,957.1991328519914,2.0,2.0,132.0,223.0,297.0
69,2071-01-01,34312190,6922742318.0,0.0,25931.0,201.7575187710257,970.6241074647261,8.0,8.0,162.0,254.0,329.0
70,2072-01-01,34406196,5662503289.0,0.0,26297.0,164.57801057111922,983.5307345564448,2.0,2.0,120.0,212.0,289.0
71,2073-01-01,34312190,6697258387.0,0.0,26662.0,195.18597871485323,999.8530451028195,5.0,5.0,140.0,237.0,368.0
72,2074-01-01,34312190,9420998472.0,0.0,27027.0,274.56709909801737,1022.353478572086,8.0,8.0,200.0,306.0,677.0
73,2075-01-01,34312190,6243545243.0,0.0,27392.0,181.96288966107963,1029.4708113474153,5.0,5.0,124.0,217.0,311.0
74,2076-01-01,34406196,7455210713.0,0.0,27758.0,216.68221366291118,1044.2336637608203,6.0,6.0,159.0,255.0,391.0
75,2077-01-01,34312190,6537004099.0,0.0,28123.0,190.51550189597342,1057.0573287152529,6.0,6.0,132.0,225.0,339.0
76,2078-01-01,34312190,12285359628.0,0.0,28488.0,358.0465026569275,1076.0441083348794,31.0,31.0,306.0,464.0,641.0
77,2079-01-01,34312190,18021850949.0,0.0,28853.0,525.2317310262038,1112.3618883090144,13.0,13.0,491.0,748.0,966.0
78,2080-01-01,34406196,8136958243.0,0.0,29219.0,236.49688686886512,1105.4452189969998,5.0,5.0,166.0,264.0,528.0
79,2081-01-01,34312190,7674413550.0,0.0,29584.0,223.66434640283816,1105.7672330403684,16.0,16.0,181.0,272.0,345.0
80,2082-01-01,34312190,7976329125.0,0.0,29949.0,232.46342262035736,1125.1764824204274,8.0,8.0,166.0,266.0,526.0
81,2083-01-01,34312190,10642708295.0,0.0,30314.0,310.1728072443059,1147.0754197534775,14.0,14.0,221.0,335.0,715.0
82,2084-01-01,34406196,9392280515.0,0.0,30680.0,272.982241774127,1172.1403005455863,5.0,5.0,159.0,262.0,904.0
83,2085-01-01,34312190,9169852034.0,0.0,31045.0,267.2476467984119,1185.809986725889,11.0,11.0,168.0,270.0,645.0
84,2086-01-01,34312190,12439091375.0,0.0,31410.0,362.5268854888015,1212.047416626822,14.0,14.0,233.0,399.0,913.0
85,2087-01-01,34312190,13883215775.0,0.0,31775.0,404.6146799431922,1246.8093198668494,8.0,8.0,228.0,464.0,1114.0
86,2088-01-01,34406196,11633087028.0,0.0,32141.0,338.11023537737213,1237.769650888789,23.0,23.0,210.0,325.0,1045.0
87,2089-01-01,34312190,9094230623.0,0.0,32506.0,265.0437241983097,1235.4238819991394,6.0,6.0,177.0,281.0,623.0
88,2090-01-01,34312190,6813458706.0,0.0,32871.0,198.57253955518433,1236.176229768704,3.0,3.0,143.0,235.0,317.0
89,2091-01-01,34312190,9929557332.0,0.0,33236.0,289.3886205456428,1254.5725360405343,13.0,13.0,214.0,327.0,615.0
90,2092-01-01,34406196,14417363484.0,0.0,33602.0,419.03392877259665,1282.011169436143,25.0,25.0,295.0,564.0,934.0
91,2093-01-01,34312190,14029837930.0,0.0,33967.0,408.8878596790237,1320.8956855562117,7.0,7.0,222.0,447.0,1211.0
92,2094-01-01,34312190,23074900977.0,0.0,34332.0,672.4986361115393,1340.3967359475118,80.0,80.0,515.0,684.0,1572.0
93,2095-01-01,34312190,11730139801.0,0.0,34697.0,341.86508646052613,1366.7802522487018,7.0,7.0,167.0,269.0,1618.0
94,2096-01-01,34406196,11801226340.0,0.0,35063.0,342.99712586651543,1338.4313558944084,35.0,35.0,244.0,361.0,660.0
95,2097-01-01,34312190,19856099611.0,0.0,35428.0,578.6893699003182,1362.6332246421775,39.0,39.0,523.0,711.0,1016.0
96,2098-01-01,34312190,27914615573.0,0.0,35793.0,813.548058955141,1400.584162214463,17.0,17.0,847.0,1049.0,1366.0
97,2099-01-01,34218184,20698549444.0,0.0,36157.0,604.8991215898541,1471.8442780760631,39.0,39.0,268.0,1174.0,1655.0
