,time,n,sum,min,max,mean,std,q0.05,q0.25,q0.50,q0.75,q0.95
0,2002-01-01,730,14703.0,0.0,95.0,20.14109589041096,25.15689036915333,0.0,0.0,7.0,33.75,76.54999999999995
1,2003-01-01,730,19461.0,0.0,133.0,26.65890410958904,38.5140086082064,0.0,0.0,5.0,42.0,115.0
2,2004-01-01,732,16892.0,0.0,131.0,23.07650273224044,30.184444747402743,0.0,0.0,8.0,33.0,94.44999999999993
3,2005-01-01,730,14819.0,0.0,91.0,20.3,23.402180556403724,0.0,0.0,10.0,31.0,73.0
4,2006-01-01,730,10437.0,0.0,94.0,14.297260273972602,24.12060150890594,0.0,0.0,3.0,12.0,76.0
5,2007-01-01,730,13737.0,0.0,105.0,18.817808219178083,27.701460534492433,0.0,0.0,5.0,23.0,87.0
6,2008-01-01,732,14208.0,0.0,95.0,19.40983606557377,24.493030378693355,0.0,0.0,7.0,31.0,77.0
7,2009-01-01,730,8622.0,0.0,57.0,11.810958904109588,12.875904667180134,0.0,0.0,7.0,18.0,39.0
8,2010-01-01,730,11322.0,0.0,96.0,15.509589041095891,23.544723774963508,0.0,0.0,5.0,15.0,75.54999999999995
9,2011-01-01,730,13603.0,0.0,105.0,18.634246575342466,27.67693624256155,0.0,0.0,5.0,21.0,87.0
10,2012-01-01,732,9395.0,0.0,85.0,12.834699453551913,20.730148797632083,0.0,0.0,4.0,12.0,67.0
11,2013-01-01,730,9122.0,0.0,81.0,12.495890410958904,19.03581655402261,0.0,0.0,4.0,14.0,62.0
12,2014-01-01,730,12768.0,0.0,95.0,17.49041095890411,24.34558363023705,0.0,0.0,5.0,26.0,77.0
13,2015-01-01,730,12796.0,0.0,106.0,17.528767123287672,28.217110710279666,0.0,0.0,4.0,17.75,87.54999999999995
14,2016-01-01,732,7278.0,0.0,63.0,9.942622950819672,13.906085773337859,0.0,0.0,4.0,13.0,45.0
15,2017-01-01,730,20974.0,0.0,137.0,28.731506849315068,39.80764322806916,0.0,0.0,6.0,46.0,119.0
16,2018-01-01,730,39165.0,0.0,192.0,53.65068493150685,60.71117254784007,0.0,0.0,23.0,101.0,174.0
17,2019-01-01,730,24795.0,0.0,151.0,33.965753424657535,44.803133204947805,0.0,0.0,8.0,59.0,132.0
18,2020-01-01,732,6608.0,0.0,53.0,9.027322404371585,11.96234149913624,0.0,0.0,4.0,13.0,37.0
19,2021-01-01,730,17650.0,0.0,127.0,24.17808219178082,36.34708726275594,0.0,0.0,5.0,36.0,109.0
20,2022-01-01,730,13876.0,0.0,110.0,19.008219178082193,29.94003025878843,0.0,0.0,3.0,23.0,92.0
21,2023-01-01,730,25749.0,0.0,154.0,35.272602739726025,46.33024326690884,0.0,0.0,9.0,63.0,136.0
22,2024-01-01,732,11187.0,0.0,84.0,15.282786885245901,21.181897077881626,0.0,0.0,5.0,23.0,66.0
23,2025-01-01,730,21812.0,0.0,139.0,29.87945205479452,40.497816477259406,0.0,0.0,7.0,48.0,121.0
24,2026-01-01,730,14307.0,0.0,103.0,19.5986301369863,26.795097656053578,0.0,0.0,7.0,27.0,85.0
25,2027-01-01,730,8934.0,0.0,92.0,12.238356164383562,19.314361397724596,0.0,0.0,4.0,12.0,60.549999999999955
26,2028-01-01,732,13378.0,0.0,105.0,18.275956284153004,27.69077534822864,0.0,0.0,5.0,18.25,87.0
27,2029-01-01,730,17418.0,0.0,119.0,23.86027397260274,32.63269534384788,0.0,0.0,7.0,34.0,101.0
28,2030-01-01,730,12521.0,0.0,95.0,17.15205479452055,23.936391790372312,0.0,0.0,7.0,20.0,77.0
29,2031-01-01,730,29487.0,0.0,167.0,40.393150684931506,51.482011298447325,0.0,0.0,9.0,75.75,148.54999999999995
30,2032-01-01,732,10681.0,0.0,86.0,14.591530054644808,20.901501615675375,0.0,0.0,5.0,18.0,68.0
31,2033-01-01,730,14179.0,0.0,107.0,19.423287671232877,25.19605872934471,0.0,0.0,7.0,29.0,77.0
32,2034-01-01,730,8446.0,0.0,70.0,11.56986301369863,16.55248758304063,0.0,0.0,4.0,14.0,52.0
33,2035-01-01,730,26979.0,0.0,155.0,36.95753424657534,46.19452146194549,0.0,0.0,11.0,64.0,137.0
34,2036-01-01,732,5291.0,0.0,47.0,7.228142076502732,9.248312523172125,0.0,0.0,4.0,10.0,27.0
35,2037-01-01,730,13008.0,0.0,104.0,17.81917808219178,27.56303191036092,0.0,0.0,4.0,21.0,86.0
36,2038-01-01,730,14021.0,0.0,106.0,19.206849315068492,27.871027962065295,0.0,0.0,5.5,25.0,87.54999999999995
37,2039-01-01,730,9161.0,0.0,68.0,12.54931506849315,16.51859577507071,0.0,0.0,4.0,20.0,50.0
38,2040-01-01,732,12997.0,0.0,98.0,17.755464480874316,24.81993151066484,0.0,0.0,7.0,21.0,80.0
39,2041-01-01,730,19378.0,0.0,132.0,26.545205479452054,37.939696350977215,0.0,0.0,6.0,41.0,114.0
40,2042-01-01,730,13464.0,0.0,103.0,18.443835616438356,26.683281853878583,0.0,0.0,6.0,18.75,85.0
41,2043-01-01,730,9563.0,0.0,68.0,13.1,16.31990548589339,0.0,0.0,6.0,19.0,50.0
42,2044-01-01,732,20724.0,0.0,131.0,28.311475409836067,36.42450429482483,0.0,0.0,10.0,44.0,111.44999999999993
43,2045-01-01,730,10681.0,0.0,73.0,14.631506849315068,16.770484319325654,0.0,0.0,8.0,22.0,53.0
44,2046-01-01,730,11660.0,0.0,88.0,15.972602739726028,21.450658643487955,0.0,0.0,7.0,18.75,70.0
45,2047-01-01,730,20546.0,0.0,135.0,28.145205479452056,38.90555139138073,0.0,0.0,8.0,44.0,117.0
46,2048-01-01,732,18821.0,0.0,127.0,25.711748633879782,35.77548728368214,0.0,0.0,6.5,36.0,109.0
47,2049-01-01,730,8051.0,0.0,73.0,11.028767123287672,16.70429343097038,0.0,0.0,4.0,12.0,55.0
48,2050-01-01,730,11780.0,0.0,92.0,16.136986301369863,22.790598319033627,0.0,0.0,6.0,19.0,74.0
49,2051-01-01,730,14646.0,0.0,102.0,20.063013698630137,26.648115443142416,0.0,0.0,8.0,30.0,84.0
50,2052-01-01,732,23965.0,0.0,148.0,32.73907103825137,44.05329550713169,0.0,0.0,8.0,57.0,130.0
51,2053-01-01,730,13246.0,0.0,102.0,18.145205479452056,26.41571263988247,0.0,0.0,6.0,19.0,84.0
52,2054-01-01,730,13714.0,0.0,82.0,18.786301369863015,22.878016696470233,0.0,0.0,8.0,31.75,68.0
53,2055-01-01,730,17933.0,0.0,119.0,24.565753424657533,32.62088884159831,0.0,0.0,8.0,37.0,101.0
54,2056-01-01,732,20272.0,0.0,134.0,27.693989071038253,38.48027408846483,0.0,0.0,8.0,43.0,116.0
55,2057-01-01,730,7533.0,0.0,52.0,10.319178082191781,12.720850724698703,0.0,0.0,4.0,16.0,39.0
56,2058-01-01,730,47938.0,0.0,216.0,65.66849315068494,70.47616691626226,0.0,0.0,34.0,125.0,198.0
57,2059-01-01,730,12385.0,0.0,95.0,16.965753424657535,23.660791908713023,0.0,0.0,7.5,17.75,77.0
58,2060-01-01,732,7940.0,0.0,68.0,10.846994535519126,15.343732963018072,0.0,0.0,4.0,15.0,50.0
59,2061-01-01,730,16837.0,0.0,130.0,23.064383561643837,32.89739078575099,0.0,0.0,7.0,28.75,100.0
60,2062-01-01,730,23164.0,0.0,138.0,31.731506849315068,38.97795961932294,0.0,0.0,14.0,47.0,120.0
61,2063-01-01,730,16500.0,0.0,113.0,22.602739726027398,29.93831087832655,0.0,0.0,10.0,27.0,95.0
62,2064-01-01,732,18413.0,0.0,134.0,25.154371584699454,35.90393139521655,0.0,0.0,6.0,35.25,108.44999999999993
63,2065-01-01,730,19463.0,0.0,139.0,26.661643835616438,39.70103042083274,0.0,0.0,4.0,44.0,117.0
64,2066-01-01,730,8504.0,0.0,55.0,11.64931506849315,13.9061543809874,0.0,0.0,6.0,17.0,44.0
65,2067-01-01,730,22654.0,0.0,143.0,31.03287671232877,41.9980627563483,0.0,0.0,9.0,52.0,125.0
66,2068-01-01,732,11459.0,0.0,73.0,15.654371584699453,19.61819844933382,0.0,0.0,6.0,24.0,59.44999999999993
67,2069-01-01,730,7184.0,0.0,50.0,9.841095890410958,11.963733274672975,0.0,0.0,4.0,15.0,37.549999999999955
68,2070-01-01,730,18906.0,0.0,119.0,25.898630136986302,32.5479729947762,0.0,0.0,10.0,41.0,101.0
69,2071-01-01,730,20242.0,0.0,140.0,27.72876712328767,38.38568325954265,0.0,0.0,8.0,42.75,115.54999999999995
70,2072-01-01,732,6086.0,0.0,43.0,8.314207650273223,9.242611303979206,0.0,0.0,5.0,12.0,27.449999999999932
71,2073-01-01,730,7350.0,0.0,58.0,10.068493150684931,13.020456788825772,0.0,0.0,5.0,13.0,40.0
72,2074-01-01,730,8317.0,0.0,66.0,11.393150684931507,15.224627028448882,0.0,0.0,5.0,15.0,48.0
73,2075-01-01,730,15961.0,0.0,140.0,21.864383561643837,33.520175359428734,0.0,0.0,4.0,32.75,103.54999999999995
74,2076-01-01,732,14895.0,0.0,108.0,20.348360655737704,27.377900026862108,0.0,0.0,9.0,24.25,87.44999999999993
75,2077-01-01,730,8554.0,0.0,59.0,11.717808219178082,13.683900574109863,0.0,0.0,6.0,18.0,42.0
76,2078-01-01,730,20335.0,0.0,125.0,27.856164383561644,34.78658805596947,0.0,0.0,10.0,45.0,107.0
77,2079-01-01,730,14685.0,0.0,105.0,20.116438356164384,27.288341199070437,0.0,0.0,8.0,24.0,87.0
78,2080-01-01,732,12039.0,0.0,100.0,16.44672131147541,26.095477334925935,0.0,0.0,4.0,18.0,82.0
79,2081-01-01,730,10812.0,0.0,81.0,14.810958904109588,20.37759689573053,0.0,0.0,5.0,20.75,63.0
80,2082-01-01,730,17501.0,0.0,121.0,23.973972602739725,29.202516908778062,0.0,0.0,9.0,40.0,84.54999999999995
81,2083-01-01,730,13709.0,0.0,115.0,18.779452054794522,28.64777817249191,0.0,0.0,5.0,21.0,88.54999999999995
82,2084-01-01,732,21768.0,0.0,141.0,29.737704918032787,41.500635970903254,0.0,0.0,6.0,50.0,123.0
83,2085-01-01,730,23655.0,0.0,146.0,32.4041095890411,43.195284301078566,0.0,0.0,8.0,55.0,128.0
84,2086-01-01,730,7470.0,0.0,65.0,10.232876712328768,14.43219436503956,0.0,0.0,5.0,12.0,47.0
85,2087-01-01,730,21381.0,0.0,139.0,29.28904109589041,40.58513818562476,0.0,0.0,7.0,48.0,121.0
86,2088-01-01,732,23407.0,0.0,146.0,31.976775956284154,43.23453330937965,0.0,0.0,8.0,55.0,128.0
87,2089-01-01,730,19394.0,0.0,142.0,26.567123287671233,37.385500283539784,0.0,0.0,7.0,38.75,111.54999999999995
88,2090-01-01,730,12836.0,0.0,104.0,17.583561643835615,27.485323673765958,0.0,0.0,4.0,17.0,86.0
89,2091-01-01,730,16644.0,0.0,115.0,22.8,30.61910944187794,0.0,0.0,9.0,26.75,96.54999999999995
90,2092-01-01,732,25680.0,0.0,155.0,35.08196721311475,47.004666114836205,0.0,0.0,8.0,64.0,137.0
91,2093-01-01,730,12926.0,0.0,92.0,17.706849315068492,22.745984614884925,0.0,0.0,8.0,23.0,74.0
92,2094-01-01,730,13845.0,0.0,94.0,18.965753424657535,24.23990098525192,0.0,0.0,7.0,30.0,76.0
93,2095-01-01,730,12932.0,0.0,81.0,17.715068493150685,20.500676041194193,0.0,0.0,9.0,30.0,63.0
94,2096-01-01,732,13779.0,0.0,105.0,18.82377049180328,27.71222793353544,0.0,0.0,5.0,24.0,87.0
95,2097-01-01,730,13015.0,0.0,98.0,17.828767123287673,25.405629725863637,0.0,0.0,5.0,25.0,80.0
96,2098-01-01,730,20052.0,0.0,125.0,27.46849315068493,35.18595951575676,0.0,0.0,9.0,45.0,107.0
97,2099-01-01,730,30206.0,0.0,169.0,41.37808219178082,52.49680550379074,0.0,0.0,10.0,78.0,151.0
98,2100-01-01,728,22960.0,0.0,146.0,31.53846153846154,43.58556891235166,0.0,0.0,6.0,55.25,128.0
