,time,n,sum,min,max,mean,std,q0.05,q0.25,q0.50,q0.75,q0.95
0,2002-01-01,27227175,1094876934.0,0.0,729.0,40.212652763277866,64.52439509419182,0.0,0.0,10.0,48.0,197.0
1,2003-01-01,27227175,1099429021.0,0.0,1094.0,40.379841867545935,63.47928383280166,0.0,0.0,9.0,63.0,169.0
2,2004-01-01,27301770,1298708681.0,0.0,1460.0,47.56866243470662,77.12138172874056,0.0,0.0,12.0,66.0,208.0
3,2005-01-01,27227175,1236171428.0,0.0,1825.0,45.40211858189474,82.43861494344058,0.0,0.0,15.0,50.0,211.0
4,2006-01-01,27227175,984111448.0,0.0,2190.0,36.144456705478994,84.99580848244199,0.0,0.0,6.0,42.0,184.0
5,2007-01-01,27227175,1041855463.0,0.0,2555.0,38.26527955985151,91.77673359892384,0.0,0.0,9.0,45.0,176.0
6,2008-01-01,27301770,1207125420.0,0.0,2921.0,44.21418171788862,104.06889192373451,0.0,0.0,12.0,56.0,194.0
7,2009-01-01,27227175,1025257967.0,0.0,3286.0,37.65568653376636,111.7030570077465,0.0,0.0,9.0,33.0,182.0
8,2010-01-01,27227175,1070412981.0,0.0,3651.0,39.31414041302485,122.26559740544268,0.0,0.0,9.0,46.0,177.0
9,2011-01-01,27227175,1057538648.0,0.0,4016.0,38.84129176089697,131.21702353950718,0.0,0.0,8.0,45.0,177.0
10,2012-01-01,27301770,1076043424.0,0.0,4382.0,39.412954691215994,141.92951905847923,0.0,0.0,7.0,39.0,191.0
11,2013-01-01,27227175,1054579187.0,0.0,4747.0,38.732596642876096,151.45059068500913,0.0,0.0,6.0,37.0,183.0
12,2014-01-01,27227175,1296011754.0,0.0,5112.0,47.59993477105135,163.57590414533925,0.0,0.0,11.0,61.0,200.0
13,2015-01-01,27227175,980135520.0,0.0,5477.0,35.99842877566255,170.34667060380923,0.0,0.0,7.0,37.0,157.0
14,2016-01-01,27301770,983847987.0,0.0,5843.0,36.03605139886535,181.26160183809574,0.0,0.0,8.0,30.0,163.0
15,2017-01-01,27227175,1358808759.0,0.0,6208.0,49.90634390090048,194.5346148130629,0.0,0.0,12.0,71.0,183.0
16,2018-01-01,27227175,1654024335.0,0.0,6573.0,60.74902500902132,208.20488225622245,0.0,0.0,17.0,87.0,214.0
17,2019-01-01,27227175,1407859080.0,0.0,6938.0,51.70786466094995,216.3237604043927,0.0,0.0,11.0,73.0,193.0
18,2020-01-01,27301770,1080618775.0,0.0,7304.0,39.58053910057846,226.88218171279948,0.0,0.0,5.0,28.0,189.0
19,2021-01-01,27227175,1290031492.0,0.0,7669.0,47.380291638776335,238.47417548216444,0.0,0.0,8.0,55.0,196.0
20,2022-01-01,27227175,1014099430.0,0.0,8034.0,37.245855657077904,246.63417928942104,0.0,0.0,6.0,27.0,158.0
21,2023-01-01,27227175,1462604024.0,0.0,8399.0,53.718537600761,260.9970411627023,0.0,0.0,11.0,63.0,211.0
22,2024-01-01,27301770,1267894392.0,0.0,8765.0,46.440007076464276,269.4513589063374,0.0,0.0,8.0,56.0,172.0
23,2025-01-01,27227175,1334836245.0,0.0,9130.0,49.025881127953966,280.80403264657537,0.0,0.0,9.0,61.0,178.0
24,2026-01-01,27227175,1366614349.0,0.0,9495.0,50.19302770118457,292.6077902612729,0.0,0.0,10.0,58.0,195.0
25,2027-01-01,27227175,1107554665.0,0.0,9860.0,40.678280614863645,302.3672979212522,0.0,0.0,6.0,31.0,172.0
26,2028-01-01,27301770,1259910775.0,0.0,10226.0,46.14758585249235,313.79737628462084,0.0,0.0,8.0,50.0,178.0
27,2029-01-01,27227175,1404662555.0,0.0,10591.0,51.590462653580474,325.65880385011155,0.0,0.0,11.0,56.0,193.0
28,2030-01-01,27227175,1295235980.0,0.0,10956.0,47.57144213455858,336.2373575582559,0.0,0.0,10.0,48.0,180.0
29,2031-01-01,27227175,1556740811.0,0.0,11321.0,57.17599460832789,348.0679514553593,0.0,0.0,11.0,75.0,193.0
30,2032-01-01,27301770,1256223269.0,0.0,11687.0,46.01252112958244,358.12910067441396,0.0,0.0,8.0,44.0,179.0
31,2033-01-01,27227175,1515960520.0,0.0,12052.0,55.67821560628306,370.0379819011915,0.0,0.0,13.0,63.0,192.0
32,2034-01-01,27227175,1426823085.0,0.0,12417.0,52.40437485710508,381.64604814749526,0.0,0.0,8.0,51.0,206.0
33,2035-01-01,27227175,1522566003.0,0.0,12782.0,55.9208218627162,392.06511004772636,0.0,0.0,14.0,60.0,189.0
34,2036-01-01,27301770,1214861049.0,0.0,13148.0,44.49751972124884,403.07399266800513,0.0,0.0,7.0,23.0,187.0
35,2037-01-01,27227175,1306642823.0,0.0,13513.0,47.99039279690236,413.6270473648537,0.0,0.0,7.0,52.0,165.0
36,2038-01-01,27227175,1437535780.0,0.0,13878.0,52.79783084363324,425.526186703426,0.0,0.0,9.0,60.0,172.0
37,2039-01-01,27227175,1267980020.0,0.0,14243.0,46.57038491874386,436.2281641875991,0.0,0.0,8.0,34.0,177.0
38,2040-01-01,27301770,1439295535.0,0.0,14609.0,52.71803018632125,447.6432205148461,0.0,0.0,11.0,51.0,187.0
39,2041-01-01,27227175,1580333106.0,0.0,14974.0,58.04249269342119,459.19505926482185,0.0,0.0,12.0,67.0,190.0
40,2042-01-01,27227175,1546319726.0,0.0,15339.0,56.79324887727059,470.9341968522151,0.0,0.0,10.0,55.0,206.0
41,2043-01-01,27227175,1527178754.0,0.0,15704.0,56.09023903508168,482.4138832360171,0.0,0.0,9.0,49.0,209.0
42,2044-01-01,27301770,1649012197.0,0.0,16070.0,60.39946117046624,493.10740958546893,0.0,0.0,13.0,65.0,197.0
43,2045-01-01,27227175,1726823930.0,0.0,16435.0,63.42280938070145,505.2745323825123,0.0,0.0,14.0,62.0,213.0
44,2046-01-01,27227175,1751127246.0,0.0,16800.0,64.31542185335056,517.0805662635364,0.0,0.0,12.0,64.0,237.0
45,2047-01-01,27227175,1768807761.0,0.0,17165.0,64.96479201386116,526.5048752248605,0.0,0.0,16.0,79.0,200.0
46,2048-01-01,27301770,1735783739.0,0.0,17531.0,63.57769987074098,538.0901803571938,0.0,0.0,14.0,65.0,210.0
47,2049-01-01,27227175,1410280118.0,0.0,17896.0,51.79678457276599,548.67859196335,0.0,0.0,8.0,36.0,185.0
48,2050-01-01,27227175,1754269803.0,0.0,18261.0,64.4308417233885,561.0895157301076,0.0,0.0,10.0,63.0,226.0
49,2051-01-01,27227175,1614370898.0,0.0,18626.0,59.292633113791645,571.2168292886148,0.0,0.0,11.0,60.0,194.0
50,2052-01-01,27301770,1820189835.0,0.0,18992.0,66.66929781475706,582.5398868361654,0.0,0.0,12.0,84.0,195.0
51,2053-01-01,27227175,1626991549.0,0.0,19357.0,59.75616453047369,593.2362613261672,0.0,0.0,11.0,61.0,195.0
52,2054-01-01,27227175,1509875686.0,0.0,19722.0,55.45473175237607,604.3641317351202,0.0,0.0,9.0,43.0,192.0
53,2055-01-01,27227175,1641636737.0,0.0,20087.0,60.29405316563323,615.3121577966443,0.0,0.0,13.0,58.0,181.0
54,2056-01-01,27301770,1950161108.0,0.0,20453.0,71.42984165495497,628.2989873894505,0.0,0.0,13.0,76.0,234.0
55,2057-01-01,27227175,1493772005.0,0.0,20818.0,54.86327556935304,637.973653330545,0.0,0.0,8.0,34.0,185.0
56,2058-01-01,27227175,2307614035.0,0.0,21183.0,84.75407511062018,650.009752596882,0.0,0.0,27.0,115.0,219.0
57,2059-01-01,27227175,1782651356.0,0.0,21548.0,65.4732397319957,661.2848336295591,0.0,0.0,12.0,55.0,228.0
58,2060-01-01,27301770,1608504315.0,0.0,21914.0,58.91575216551894,672.1826258234271,0.0,0.0,8.0,40.0,209.0
59,2061-01-01,27227175,1849779904.0,0.0,22279.0,67.93873782351639,682.9160033933008,0.0,0.0,14.0,75.0,197.0
60,2062-01-01,27227175,2072578629.0,0.0,22644.0,76.12169198603968,695.0002839409343,0.0,0.0,20.0,80.0,235.0
61,2063-01-01,27227175,1843981839.0,0.0,23009.0,67.72578642477598,705.6512856852906,0.0,0.0,14.0,64.0,208.0
62,2064-01-01,27301770,1702538326.0,0.0,23375.0,62.35999812466371,716.7375357015709,0.0,0.0,9.0,51.0,197.0
63,2065-01-01,27227175,1638883204.0,0.0,23740.0,60.192921373590906,727.7209949592124,0.0,0.0,7.0,51.0,181.0
64,2066-01-01,27227175,1598544200.0,0.0,24105.0,58.7113499656134,739.0217705223027,0.0,0.0,9.0,38.0,187.0
65,2067-01-01,27227175,1980691248.0,0.0,24470.0,72.74685118819708,750.5999824872308,0.0,0.0,12.0,79.0,212.0
66,2068-01-01,27301770,1646318466.0,0.0,24836.0,60.300796102230734,761.3410734655045,0.0,0.0,10.0,41.0,183.0
67,2069-01-01,27227175,1736518387.0,0.0,25201.0,63.77886751012545,773.0509892068271,0.0,0.0,9.0,41.0,206.0
68,2070-01-01,27227175,1772307480.0,0.0,25566.0,65.0933297339882,783.7468738906114,0.0,0.0,12.0,60.0,177.0
69,2071-01-01,27227175,2135657262.0,0.0,25931.0,78.4384447523476,796.2488797731836,0.0,0.0,15.0,82.0,217.0
70,2072-01-01,27301770,1767238295.0,0.0,26297.0,64.72980671216555,806.8269391342783,0.0,0.0,9.0,38.0,214.0
71,2073-01-01,27227175,1747677997.0,0.0,26662.0,64.18873779597038,818.1793249975416,0.0,0.0,8.0,32.0,217.0
72,2074-01-01,27227175,1495908918.0,0.0,27027.0,54.941760134865255,828.5027587889884,0.0,0.0,8.0,27.0,164.0
73,2075-01-01,27227175,1842446017.0,0.0,27392.0,67.66937873650132,840.341529246685,0.0,0.0,7.0,56.0,205.0
74,2076-01-01,27301770,1725030678.0,0.0,27758.0,63.18384038837043,850.9592348003602,0.0,0.0,12.0,45.0,172.0
75,2077-01-01,27227175,1976203127.0,0.0,28123.0,72.58201142792082,862.9804738576617,0.0,0.0,12.0,62.0,216.0
76,2078-01-01,27227175,2214303801.0,0.0,28488.0,81.32697575124853,874.1585977766053,0.0,0.0,17.0,84.0,218.0
77,2079-01-01,27227175,2000286766.0,0.0,28853.0,73.4665556011595,885.489321972378,0.0,0.0,11.0,63.0,221.0
78,2080-01-01,27301770,1816670752.0,0.0,29219.0,66.54040203254222,896.3317100691573,0.0,0.0,8.0,53.0,190.0
79,2081-01-01,27227175,1623526157.0,0.0,29584.0,59.62888757280181,907.4079497660961,0.0,0.0,7.0,29.0,179.0
80,2082-01-01,27227175,2015334522.0,0.0,29949.0,74.01922975850414,918.6893782789529,0.0,0.0,16.0,63.0,197.0
81,2083-01-01,27227175,2005324419.0,0.0,30314.0,73.65157857912178,930.4809351529202,0.0,0.0,9.0,59.0,221.0
82,2084-01-01,27301770,1879476431.0,0.0,30680.0,68.84082720644119,941.3488018057199,0.0,0.0,11.0,50.0,180.0
83,2085-01-01,27227175,1954070033.0,0.0,31045.0,71.76910689412324,952.3237419659662,0.0,0.0,12.0,62.0,181.0
84,2086-01-01,27227175,1907415073.0,0.0,31410.0,70.05556298073525,963.9997608428947,0.0,0.0,8.0,47.0,208.0
85,2087-01-01,27227175,2178755244.0,0.0,31775.0,80.02134793639075,975.1063064536716,0.0,0.0,13.0,82.0,211.0
86,2088-01-01,27301770,2205119187.0,0.0,32141.0,80.7683599634749,986.3951488721109,0.0,0.0,14.0,81.0,214.0
87,2089-01-01,27227175,1991794839.0,0.0,32506.0,73.15466400755862,997.5419563566292,0.0,0.0,10.0,58.0,197.0
88,2090-01-01,27227175,1680957965.0,0.0,32871.0,61.73824368484795,1008.2268183609164,0.0,0.0,7.0,40.0,146.0
89,2091-01-01,27227175,2222935522.0,0.0,33236.0,81.64400170050693,1020.171680778991,0.0,0.0,14.0,76.0,223.0
90,2092-01-01,27301770,2091093268.0,0.0,33602.0,76.59185715797913,1031.2397893123884,0.0,0.0,10.0,69.0,197.0
91,2093-01-01,27227175,2142374431.0,0.0,33967.0,78.68515301348745,1043.1576523656217,0.0,0.0,11.0,48.0,239.0
92,2094-01-01,27227175,2069995252.0,0.0,34332.0,76.02680968554395,1054.0152586807083,0.0,0.0,10.0,52.0,209.0
93,2095-01-01,27227175,2023437247.0,0.0,34697.0,74.31682673652334,1065.032214891459,0.0,0.0,11.0,48.0,202.0
94,2096-01-01,27301770,1962074376.0,0.0,35063.0,71.8661968070202,1076.0473164071227,0.0,0.0,9.0,53.0,186.0
95,2097-01-01,27227175,2053414483.0,0.0,35428.0,75.4178310089093,1087.2985590906292,0.0,0.0,10.0,62.0,187.0
96,2098-01-01,27227175,2279486703.0,0.0,35793.0,83.72101413385707,1098.5505743779042,0.0,0.0,14.0,84.0,193.0
97,2099-01-01,27227175,2165997088.0,0.0,36158.0,79.55276623446979,1109.716887506074,0.0,0.0,13.0,70.0,184.0
98,2100-01-01,27152580,2218873927.0,0.0,36522.0,81.71871428055823,1120.9641594281597,0.0,0.0,11.0,82.0,185.0
