,time,n,sum,min,max,mean,std,q0.05,q0.25,q0.50,q0.75,q0.95
0,2002-01-01,25835578,48986708.92000004,0.0,7.0,1.8960949478273734,1.7034540681469315,0.07,0.07,1.3,3.0500000000000003,5.2
1,2003-01-01,52099370,91606870.91999997,0.0,7.0,1.7583105308183185,1.633699865185124,0.07,0.07,1.17,2.75,5.0
2,2004-01-01,52242108,88196251.7499998,0.0,7.0,1.6882215348201455,1.69946588782998,0.05,0.05,1.02,2.7,5.05
3,2005-01-01,52099370,86579489.56000027,0.0,7.0,1.6618145202139731,1.6569951340532572,0.0,0.0,1.1,2.6,5.07
4,2006-01-01,52099370,90074184.6299998,0.0,7.0,1.7288920121298934,1.6929822388230948,0.04,0.04,1.1400000000000001,2.7,5.15
5,2007-01-01,52099370,94165113.0699998,0.0,7.0,1.8074136610481049,1.6614233130570009,0.05,0.05,1.25,2.8000000000000003,5.1000000000000005
6,2008-01-01,52242108,88134226.7100006,0.0,7.0,1.6870342733872952,1.624435216725644,0.07,0.07,1.1,2.52,5.05
7,2009-01-01,52099370,91073561.97000015,0.0,7.0,1.7480741508006747,1.7065117376806258,0.04,0.04,1.1,2.87,5.1000000000000005
8,2010-01-01,52099370,81711763.88000007,0.0,7.0,1.568382955110591,1.6642786486084158,0.0,0.0,0.92,2.4,5.1000000000000005
9,2011-01-01,52099370,98945374.91000006,0.0,7.0,1.8991664373292816,1.625710887567465,0.1,0.1,1.32,2.95,5.07
10,2012-01-01,52242108,95861048.5,0.0,7.0,1.8349383700213628,1.6883757414630687,0.07,0.07,1.25,3.0,5.1000000000000005
11,2013-01-01,52099370,90964948.73999982,0.0,7.0,1.7459894186820266,1.7772445421396699,0.0,0.0,1.1,2.82,5.3
12,2014-01-01,52099370,91749346.03,0.0,7.0,1.7610452109113797,1.5779990504313308,0.07,0.07,1.25,2.6,5.0
13,2015-01-01,52099370,104389294.49999963,0.0,7.0,2.0036575202348823,1.7794021409498844,0.1,0.1,1.37,3.17,5.42
14,2016-01-01,52242108,105593308.18000023,0.0,7.0,2.0212298512150433,1.8017642090507169,0.1,0.1,1.37,3.3000000000000003,5.4
15,2017-01-01,52099370,101512702.80999988,0.0,7.0,1.948443960262857,1.7552282532163672,0.1,0.1,1.32,3.15,5.3
16,2018-01-01,52099370,99927122.99999999,0.0,7.0,1.9180101985878137,1.7457490835570817,0.07,0.07,1.37,3.12,5.25
17,2019-01-01,52099370,96130182.21999991,0.0,7.0,1.84513137529302,1.693449428688942,0.09,0.09,1.25,2.9,5.2
