,sd,0.0-1.0,1.0-2.0,2.0-3.0,3.0-5.0,5.0-8.0,8.0-13.0,13.0-21.0,21.0-34.0,34.0-55.0,55.0-89.0,89.0-144.0,144.0-233.0,233.0-377.0,377.0-610.0
0,0.0,,0.33613861386138616,0.34040948275862065,0.3496167369901547,0.355887922705314,0.3903725830979796,0.3660747021081576,0.3132008248367511,0.3214612025529056,0.26007890865320316,0.2053027823240589,0.14696588868940758,0.8427272727272727,0.5576497695852536
1,0.13,0.3604192336589031,0.36534326956929936,0.369474759264663,0.3616547270709313,0.35622277535780955,0.3640382360898187,0.37380461888756367,0.36118129614438066,0.34987483433956706,0.34146410136086347,0.22625,,,
2,0.29,0.36574219169260486,0.37388399203866934,0.37349683544303797,0.3725804311774461,0.3779030770520667,0.39171408850371964,0.39143345710377175,0.37431142591732464,0.3593718858523328,0.34677190213101816,0.22,,,
3,0.46,0.38697441283177386,0.3916137451065681,0.39297967890423263,0.39854149517323956,0.4018666063075298,0.4002095738921971,0.39925538516089,0.3860030706243603,0.3719563687543983,0.36168674698795183,,,,
4,0.66,0.409688679245283,0.41250221238938056,0.41118786857624257,0.4139283257239352,0.41713681419281523,0.420502515684204,0.40626046511627906,0.38863761813163844,0.3788422269312271,0.3623586744639377,,,,
5,0.88,0.42095053029202384,0.42700374022441345,0.42163075081238244,0.4184198684665974,0.41798594024604574,0.419799759711654,0.4144995849638326,0.4006590257879657,0.39667301285102335,0.3449386503067484,,,,
6,1.13,0.46339447619617585,0.47025460835720856,0.4652185921185584,0.47079435431817207,0.47747057296174483,0.4941057138284251,0.49388221773074936,0.44851544837980406,0.4171922717357432,0.34189473684210525,,,,
7,1.42,0.5648245819729794,0.569145101663586,0.5691322595281306,0.5784495095484053,0.5907973331519151,0.5967459679126276,0.563201978520482,0.4886639946559787,0.46016296296296305,0.3328169014084507,,,,
8,1.74,0.6345910391083494,0.6357369534555712,0.6328287572254334,0.6371463109899561,0.6315054133604145,0.6124972276274768,0.5593089095545223,0.5085784828745534,0.49807129798903116,0.28268656716417917,,,,
9,2.11,0.6573388962733225,0.6608096275589903,0.6557991342940114,0.6530613772455091,0.6359335910848306,0.6054640627501201,0.5574112249387217,0.5360209135938361,0.4702678571428571,0.2833333333333333,,,,
10,2.53,0.6642034805890227,0.6643701472141127,0.6615851751679838,0.6550424988737047,0.6375404235937144,0.6065351494343446,0.5670814814814815,0.532419293581466,0.45253246753246756,0.2865217391304348,,,,
11,3.01,0.6676280168367501,0.6683384731915816,0.6651292852992446,0.6585013866359689,0.6414363013698631,0.6068202432488147,0.5538368883312421,0.4727543035993741,0.3628571428571429,0.508,,,,
12,3.55,0.6730343773067594,0.6688147935230431,0.6666679790026248,0.6581576439191766,0.6378690612660808,0.6100860383261635,0.5512379011716759,0.4642583732057416,0.346993006993007,0.23,,,,
13,4.16,0.6765733837197426,0.6692277766971406,0.6662178967288457,0.6562413652986591,0.6380117899249732,0.6117581573896353,0.5549956178790535,0.45481566820276503,0.36145161290322575,0.508,,,,
14,4.85,0.6672450728363325,0.65986743993372,0.6586017191977077,0.6514889167712254,0.6403940634595701,0.6028549734244495,0.5366610455311973,0.39592156862745104,0.37611111111111106,,,,,
15,5.64,0.6564905660377358,0.6523887375113533,0.6427680798004988,0.6312334801762115,0.6250218818380744,0.5795894428152494,0.48366161616161607,0.4286013986013986,0.40599999999999997,,,,,
16,6.53,0.6179417122040073,0.6156925675675676,0.6131050228310502,0.6048817567567568,0.5810629921259842,0.5769866666666666,0.5002586206896552,0.3627049180327869,0.33268292682926826,,,,,
17,7.55,0.6371775700934579,0.6317028985507246,0.6217619047619047,0.6211538461538462,0.6138582677165355,0.5699450549450551,0.46412587412587425,0.349010989010989,0.4433333333333333,,,,,
18,8.7,0.624214463840399,0.6325000000000001,0.627125,0.6134299516908213,0.6041279069767441,0.6108484848484849,0.4885294117647059,0.38652173913043475,0.86,,,,,
19,10.0,0.6937724550898204,0.6984090909090909,0.678125,0.6713636363636364,0.6470000000000002,0.6391666666666665,0.4268,0.27,,,,,,
