,sd,0.0-1e-06,1e-06-0.13,0.13-0.27,0.27-0.43,0.43-0.62,0.62-0.82,0.82-1.05,1.05-1.31,1.31-1.61,1.61-1.94,1.94-2.32,2.32-2.74,2.74-3.22,3.22-3.75,3.75-4.36,4.36-5.04,5.04-5.81,5.81-6.68,6.68-7.65,7.65-8.76,8.76-10.0
0,0.0,0.16826934558799506,0.18193127606903017,0.15723360502624104,0.13189849117551722,0.11963107873367441,0.11556584436992634,0.11750258808536768,0.12155847516222068,0.12716689818581223,0.1306282805545314,0.13401005172025665,0.13840071524754974,0.14143946198553137,0.14338134977109118,0.14538899751832404,0.1499431454986744,0.15079512395299216,0.14983943194231403,0.13222820157032447,,
1,0.13,0.21787013893850848,0.22697501428276828,0.19571308139891508,0.1598378476074647,0.13219562529160675,0.11539668513676078,0.11254943820442291,0.11227587704584456,0.11410275351850654,0.11539497323304115,0.11536763780639696,0.11606193726352869,0.11689480033568786,0.1180484612995005,0.11344172487641348,0.11807915026444374,0.11358239668204573,0.09161574736942302,0.08131712419958158,,
2,0.29,0.225041084352048,0.22948044058825592,0.200851726302794,0.1667452373242157,0.13769111434348488,0.11900630554083261,0.11463844637541233,0.11279408265014278,0.11309397974125257,0.1142924203270476,0.11288823869440244,0.11129691340263423,0.11069338672134471,0.11474188509165854,0.10566200787656875,0.10921212104779389,0.10896557163985122,0.08518915029679758,0.08383072331148379,,
3,0.46,0.23236976874200782,0.23601511547235013,0.20894377238221465,0.17650191701805987,0.1449214650864001,0.12315038170721876,0.1170788427254444,0.11452848884354394,0.11412726986644918,0.11523033104813099,0.1133145585558631,0.11068669502150605,0.1087723507271321,0.11504848311101366,0.10291161460500832,0.10356030380140246,0.10834259598075599,0.08080165916408191,0.0794171852531516,,
4,0.66,0.23511918021831152,0.23746220690610523,0.21262587860066828,0.18303177314257285,0.151815951471481,0.12747429344614603,0.11964286797981147,0.11630383930453919,0.11585126830465405,0.11711376170711543,0.11476986086974203,0.11149600806139061,0.10893276036976667,0.11480900641283309,0.10271117240946954,0.10096654431730931,0.10570593954233656,0.07809697841959297,0.07659302587810794,,
5,0.88,0.2386130801365429,0.2389489620065223,0.21448951925962928,0.18757327524094494,0.15701827136744412,0.1304640342408444,0.12045058513269695,0.1159687084866616,0.11527947216845291,0.11597862325594738,0.11406466420657285,0.11018162798157113,0.1073407856816279,0.11067615748563708,0.0998414682911274,0.09749093326527099,0.09979484479800346,0.07365498875063135,0.06884745517191429,,
6,1.13,0.24128678894589115,0.2426072898366156,0.21695707601159295,0.18994202568854002,0.15898727740786503,0.13092734513998242,0.11992024757489657,0.11491418839625618,0.11389381114087861,0.11314695222821351,0.1117158217619315,0.1068549477312364,0.10318447926754117,0.10352494112609721,0.09455009988130049,0.09232763141465852,0.0909184580439148,0.06937903742070652,0.06110493873134229,,
7,1.42,0.2494979055630923,0.24831952843747973,0.2210576471164357,0.19149034788137986,0.1583915950169719,0.12934843176519376,0.11856918696100918,0.1148013431829846,0.11419045238095236,0.11405158450634159,0.11261811221920019,0.10827671480296754,0.10441860179232179,0.10461657593392155,0.09401507550616141,0.09201323074710578,0.08942687562797154,0.0671540344260322,0.05445376922389491,,
8,1.74,0.2580431514917108,0.2550874500861616,0.22554737711698167,0.19263299611573492,0.15714811788220104,0.1279342812026978,0.11775072981638937,0.11500603419777036,0.1164431725904179,0.11858049938506425,0.11889476659667259,0.1180800276333491,0.11585600645607565,0.12005977138983885,0.10578832245545954,0.10376456739258387,0.10363614793724235,0.0716538169868554,0.05916066263476203,,
9,2.11,0.27630806477218606,0.2636911909908468,0.23041739376670264,0.19646430949318328,0.15934397644634693,0.12882951785973726,0.11778698751989011,0.11451039384033244,0.11705618324381058,0.12067272921285702,0.12238542827360628,0.12350929054054055,0.12654254976486504,0.1331647744248581,0.12242160762186662,0.12037520042757885,0.12290083082906134,0.08298641374006666,0.06867129586187483,,
10,2.53,0.2990637683620616,0.2733625511502513,0.23719302700711395,0.2023869890283346,0.1645448381670962,0.1327867846768528,0.11958373172516573,0.1153797878867561,0.1179259093373565,0.12051673730254063,0.1235111598724586,0.126502429343735,0.13015416775542202,0.1361974375821288,0.12919368246051538,0.12716828863042962,0.13147779986746191,0.08829218106995886,0.07177704752275027,,
11,3.01,0.318805559141173,0.2824548177788586,0.24586397760012987,0.2119953123244128,0.1732190956683273,0.14189833631387852,0.12576493697360241,0.1196259406492497,0.12064329951245224,0.12234225989789038,0.12338612314466303,0.1293822162243215,0.13214306070105444,0.13599552572706936,0.13281670533642692,0.12855050505050505,0.13430366492146595,0.09774748923959828,0.07199736321687542,,
12,3.55,0.3346860959319975,0.2901993829981719,0.25474101867425714,0.22247772545378172,0.18565020513599756,0.1532473907842086,0.1332091298397422,0.12459827833572454,0.12547841180299416,0.12579210871379187,0.12745950704225353,0.1296129032258065,0.13013100436681221,0.139022770398482,0.13544671689989235,0.13109785202863963,0.1440994623655914,0.1043421052631579,0.09898009950248755,,
13,4.16,0.33646032405484005,0.3004186515207036,0.2625858001674149,0.2308060203224081,0.19833963487090853,0.16333184656556649,0.13987111892208554,0.13064644523744168,0.1282638888888889,0.12470568999345978,0.12834867075664622,0.12659217877094972,0.13415860735009674,0.1377952755905512,0.13698757763975156,0.13872131147540984,0.1508050847457627,0.13355555555555554,0.11523809523809524,,
14,4.85,0.35927789934354487,0.3023529411764706,0.26506401525469897,0.23647497337593185,0.2044632768361582,0.17155936207914946,0.13805229455709714,0.13129648760330578,0.1318613413715147,0.13530585106382978,0.13937163375224418,0.14755555555555558,0.13843621399176956,0.14693430656934306,0.14697478991596638,0.135929203539823,0.17109090909090913,0.14120000000000002,0.1708108108108108,,
15,5.64,0.41225806451612906,0.3189396411092985,0.28664772727272725,0.2410795454545455,0.19721881390593046,0.17255874673629243,0.1529705882352941,0.1332018561484919,0.13729957805907175,0.13867549668874177,0.14153061224489796,0.1472972972972973,0.14818181818181816,0.1397777777777778,0.14971428571428572,0.1521875,0.16826086956521744,0.13153846153846152,0.15500000000000003,,
16,6.53,0.4110714285714286,0.2778787878787879,0.26136054421768706,0.24971326164874552,0.21806451612903227,0.17808080808080806,0.17973684210526317,0.14604651162790702,0.13896551724137932,0.1375,0.1351063829787234,0.13216216216216217,0.1356521739130435,0.12615384615384614,0.20058823529411765,0.1335,0.18947368421052635,0.14,0.182,,
17,7.55,0.388,0.32549999999999996,0.2382142857142857,0.281219512195122,0.2455319148936171,0.186,0.14857142857142858,0.11666666666666665,0.11294117647058824,0.14692307692307693,0.16714285714285718,0.14800000000000002,0.1708333333333333,0.2,0.18333333333333335,0.185,0.20600000000000002,,,,
18,8.7,,,0.09,0.08,0.22000000000000006,0.21642857142857141,0.21352941176470588,0.16366666666666665,0.13355555555555554,0.09823529411764706,0.08714285714285712,0.08333333333333333,0.08,,,,,,,,
19,10.0,,,,,,,,,,,,,,,,,,,,,
