,sd,0.0-1e-06,1e-06-0.13,0.13-0.27,0.27-0.43,0.43-0.62,0.62-0.82,0.82-1.05,1.05-1.31,1.31-1.61,1.61-1.94,1.94-2.32,2.32-2.74,2.74-3.22,3.22-3.75,3.75-4.36,4.36-5.04,5.04-5.81,5.81-6.68,6.68-7.65,7.65-8.76,8.76-10.0
0,0.0,0.42298388370616324,0.2680186493003935,0.18200653251521096,0.16224222091934218,0.1588227207881767,0.1585919229024144,0.1599421767879618,0.16335612270287012,0.1675892157690411,0.1715638971369721,0.17547279477288502,0.1787906751991304,0.18116857021037894,0.1826235985967828,0.18341703783776658,0.18392948240446041,0.18541599517419105,0.18653297572483096,0.1758078952374278,,
1,0.13,0.47487322016454936,0.34787782633028064,0.22484765631048514,0.17795651902271178,0.16559477809053447,0.16106834297945616,0.15938481817851996,0.15922096998781285,0.15943886651386402,0.16117260897904773,0.16126133647589955,0.16245631604719854,0.16371721928647703,0.17456018066509882,0.16320183371012306,0.1651833925399645,0.18585334586787455,0.15829729221511848,0.16581631646443723,,
2,0.29,0.49650961682195666,0.3761332741162475,0.24950628313554943,0.19005659201979408,0.1719945811583101,0.16540313737745688,0.16238062412757898,0.1611679508103389,0.1605729216265118,0.16221695403821498,0.16103261318450518,0.162337143813082,0.16354030436333375,0.1801524843689082,0.16257192033439882,0.1651179263641317,0.19358041343831364,0.15498396318505092,0.16655974049378267,,
3,0.46,0.5136474126563012,0.40092142131156655,0.2718178297359666,0.20034834775253627,0.17682014751267824,0.16757171588344938,0.1641318509935225,0.16262684287243376,0.16179732441936107,0.16372142699775538,0.160784463455988,0.16166224263418053,0.16311115751556363,0.18030478023740776,0.16368216160101506,0.16471596891451493,0.19808547368421056,0.1580339302544769,0.1768311085316309,,
4,0.66,0.536995555492301,0.4188317212233818,0.2838512635597926,0.2066240994482696,0.18008357254620533,0.1694672033079051,0.16560448490525287,0.16394698117197254,0.1624937973820675,0.1657300491924466,0.16220505551369266,0.16300998573466471,0.16429372163616143,0.1865326952397086,0.16710151615029667,0.16621863696388586,0.212727441515039,0.15964745762711866,0.1951294969692199,,
5,0.88,0.5584329534370631,0.42886966282601824,0.29281772609136175,0.21417390699803213,0.18640888067724534,0.1736444662117115,0.1680676506971616,0.1646819215754724,0.16288435477127572,0.16724002065297489,0.16342324323951532,0.16447032279629453,0.1663189181741236,0.19242516622427794,0.1699277837837838,0.16780928638205048,0.2178261581273531,0.15912491649966598,0.19682578397212547,,
6,1.13,0.578775790439389,0.4367714105688344,0.3071932716762088,0.224838966347026,0.192970021970091,0.17729384109614235,0.17111194195680626,0.1669294189291379,0.16417961208041804,0.16946878321696127,0.1651281075940769,0.16645015889487,0.1689166352725903,0.20135970173447884,0.17294114114114112,0.17347680203632998,0.22904555052790346,0.16479452054794522,0.2062227211495285,,
7,1.42,0.5964793463575128,0.44655526744977386,0.32840033209640074,0.24236848428753233,0.20278188819224643,0.18273510099453602,0.1738438690900401,0.16923770859763834,0.16500869445357483,0.17157366562888687,0.1652138944585709,0.1666069336840591,0.16851774600504624,0.21031091829356474,0.17220674544174036,0.17267328199052132,0.23663220594276324,0.169901144640999,0.21066322555512274,,
8,1.74,0.6078291944477381,0.45567102225968953,0.3458957898573948,0.257826147333172,0.2102549086369311,0.1856438189979376,0.17746622644259336,0.17118083182640145,0.16565762541945728,0.17147504411138376,0.1645264187010258,0.16588219385547384,0.16695153821466233,0.2090802412125822,0.16864148163737766,0.17325821790365928,0.2382777519739898,0.16999283154121864,0.21421879267959576,,
9,2.11,0.6154206715088074,0.4622298068439022,0.36001710372800183,0.2689263106073984,0.21530555659169182,0.18828294770771273,0.17749514592793042,0.17075780646744268,0.16524833195531374,0.1696557072819433,0.1640441984612969,0.16521796857711885,0.16629910492292393,0.20541910644100428,0.16761415179921377,0.17552453717308256,0.23814368585452922,0.16749727965179545,0.21372479240806644,,
10,2.53,0.6205018410654075,0.4696075266454235,0.3746566019691058,0.2815751945729064,0.22281880215164132,0.1917490069513406,0.1786138650717822,0.1709584035975267,0.16592168939727228,0.16928021254269832,0.16397007270838743,0.16517668069906874,0.1656494397438829,0.2031073901143133,0.1675126050420168,0.17045454545454544,0.24315315315315317,0.17078350515463914,0.21796126401630994,,
11,3.01,0.6232285269453688,0.47586504512950706,0.3842447470402105,0.2935318104153804,0.2332280278290501,0.1979666053488043,0.18274004565051993,0.17423841059602646,0.16817135676730266,0.1732833919380319,0.16716129032258065,0.16710722433460076,0.16952239611440906,0.20986950037285607,0.17403606102635227,0.17624833110814417,0.2566324284666177,0.17093596059113297,0.22675489067894133,,
12,3.55,0.6257118888893397,0.4786598184608503,0.39379156694797834,0.3069182924342329,0.24358786610878663,0.20720255863539444,0.19040767554649612,0.17984465189196894,0.17425902251942177,0.17838335809806835,0.16893801377471673,0.1684931506849315,0.17042046250875964,0.22368260427263478,0.17369439071566734,0.18210862619808307,0.29568228105906313,0.19772727272727272,0.2919191919191919,,
13,4.16,0.6259762596106658,0.48062648165833377,0.3948209156193896,0.31434106982767207,0.24799476782210597,0.2047898758357211,0.19011410788381744,0.18506430529200926,0.17797344110854504,0.1805931863727455,0.1666927374301676,0.17018737672583828,0.17261724659606656,0.2256324582338902,0.1673706896551724,0.18299999999999997,0.3122093023255814,0.19333333333333336,0.2982692307692308,,
14,4.85,0.6216117510267929,0.47888599429351203,0.3860725252229858,0.31050852618757613,0.24047159699892817,0.195718287314926,0.1880269058295964,0.1838115404976178,0.17815612382234186,0.17987318840579708,0.18097014925373134,0.18029684601113175,0.17163009404388715,0.17825581395348836,0.1616279069767442,0.16034482758620694,0.190919540229885,0.16,0.21777777777777776,,
15,5.64,0.610867224628843,0.47793316272768327,0.36566281138790035,0.28155362776025233,0.2161904761904762,0.17793478260869566,0.17298202614379085,0.18022201665124885,0.1878540772532189,0.1844360902255639,0.17463483146067416,0.1679527559055118,0.16816216216216215,0.17961165048543687,0.1715384615384615,0.1775,0.2565,0.195,0.35363636363636364,,
16,6.53,0.5974916666666666,0.48856742883807747,0.37798050139275763,0.2675198412698413,0.21426573426573428,0.1798727272727273,0.1605912162162162,0.16050073637702506,0.17085106382978726,0.1695985401459854,0.17819327731092435,0.18059210526315786,0.1751948051948052,0.1918421052631579,0.16814814814814819,0.145,0.18142857142857144,0.16399999999999998,0.285,,
17,7.55,0.5992911098198722,0.5046892138939671,0.3586702127659575,0.24804444444444446,0.1822026431718062,0.1748684210526316,0.15368627450980393,0.1615139442231076,0.17818713450292398,0.19294117647058825,0.1651578947368421,0.1641860465116279,0.16666666666666666,0.2485,0.14928571428571427,0.16625,0.24769230769230774,0.19,0.35333333333333333,,
18,8.7,0.6191258278145695,0.5529774127310062,0.435,0.23833333333333329,0.18385321100917432,0.20389380530973453,0.18823529411764706,0.1770476190476191,0.17632911392405062,0.19970149253731342,0.1935,0.1803846153846154,0.1785714285714286,0.17,0.13333333333333333,0.13,0.15,0.12,0.19,,
19,10.0,0.5997590361445784,0.5166147859922179,0.3986666666666668,0.3008823529411765,0.27555555555555555,0.2285714285714286,0.27454545454545454,0.11750000000000001,0.17166666666666666,0.186,0.1657142857142857,0.1825,0.17499999999999996,0.19,0.185,,,,,,
