,sd,0.0-1e-06,1e-06-0.13,0.13-0.27,0.27-0.43,0.43-0.62,0.62-0.82,0.82-1.05,1.05-1.31,1.31-1.61,1.61-1.94,1.94-2.32,2.32-2.74,2.74-3.22,3.22-3.75,3.75-4.36,4.36-5.04,5.04-5.81,5.81-6.68,6.68-7.65,7.65-8.76,8.76-10.0
0,0.0,0.4128398353271443,0.31798901930357865,0.20248238416610562,0.165559023028297,0.15983366160263635,0.16252746024304923,0.16809242228550386,0.17678581879314012,0.18611006277998923,0.1925782321844747,0.19672473979055288,0.1987502768097219,0.19922151854886677,0.1983519031744872,0.19671126844198686,0.19572788687921944,0.19556380940609353,0.19626048692219117,0.19130892407340772,,
1,0.13,0.4545097398000122,0.38217616391600245,0.24347631348581927,0.17205169665929104,0.15885753659149446,0.15355748285599033,0.15014852804049558,0.144680948648243,0.14282606020605637,0.14288849745132576,0.14331974025974026,0.14455350503616576,0.14653523357086304,0.16721237993596585,0.1435801312089972,0.14987964416535843,0.17567403817025146,0.14951945080091533,0.1722621951219512,,
2,0.29,0.4578288841392567,0.3720211760142548,0.25485860415556744,0.17486041994527388,0.15955407019444057,0.1535732625628412,0.1485706972130675,0.14624665601724438,0.14500409589864013,0.14356292114368968,0.14345420359924793,0.14615280009889975,0.1462972018473241,0.15768437747819192,0.1428807615230461,0.14935560859188546,0.16800668896321072,0.14270270270270274,0.1667363344051447,,
3,0.46,0.4639274100015919,0.3778149065601672,0.26819972448461715,0.17377377486326903,0.15792207977818748,0.15238897396630935,0.1552424154868535,0.15437069938471623,0.14871047804035828,0.14282288898969608,0.13949600120718275,0.13743914937227775,0.13850391937290032,0.13939736346516007,0.13550776053215077,0.13764379764379764,0.1421825396825397,0.13244827586206898,0.14392638036809816,,
4,0.66,0.48554925994449594,0.40594422778994604,0.2775445118372139,0.17901510110058869,0.16581033167272563,0.1592486372142218,0.16148044027254965,0.16180334417622555,0.156634494334872,0.14651483891445802,0.1360109470890695,0.1350237073831565,0.13361091672498251,0.13467305524239007,0.13476587556125724,0.13578947368421054,0.1347761194029851,0.13235537190082644,0.14339622641509436,,
5,0.88,0.48421906693711964,0.39609602142310635,0.2998257345491388,0.19235205685390191,0.16873906401888628,0.15758903089713364,0.15815913978494622,0.15884568503169186,0.1546513491851456,0.14926094371802162,0.13892857142857143,0.13663078579117333,0.1351912568306011,0.13833333333333334,0.13222222222222224,0.13388513513513514,0.14494545454545454,0.13107142857142856,0.15963963963963967,,
6,1.13,0.46049578059071733,0.3788825577714467,0.278003300330033,0.15545591939546602,0.14056370302474797,0.13205263157894734,0.13381229235880399,0.13199302730970366,0.12737539613944107,0.12614718614718615,0.12282364933741081,0.12076923076923075,0.11967741935483873,0.1356363636363636,0.12190184049079755,0.12217391304347824,0.14134831460674158,0.12,0.19473684210526318,,
7,1.42,0.398109756097561,0.24061538461538462,0.246,0.1644397463002114,0.1434074074074074,0.14273730684326716,0.13559352517985612,0.1356474820143885,0.1297964376590331,0.12284810126582281,0.11734375000000002,0.11175000000000002,0.11624999999999999,0.111875,0.11617647058823528,0.11437499999999999,0.12133333333333332,0.11,0.12050000000000002,,
8,1.74,,,,,,0.13,,0.11249999999999998,0.1249107142857143,0.13121212121212122,0.12937500000000002,,0.10333333333333333,0.10333333333333333,0.12666666666666668,0.12,0.11499999999999999,,0.12,,
9,2.11,,,,,,,,,,,,,,,,,,,,,
10,2.53,,,,,,,,,,,,,,,,,,,,,
11,3.01,,,,,,,,,,,,,,,,,,,,,
12,3.55,,,,,,,,,,,,,,,,,,,,,
13,4.16,,,,,,,,,,,,,,,,,,,,,
14,4.85,,,,,,,,,,,,,,,,,,,,,
15,5.64,,,,,,,,,,,,,,,,,,,,,
16,6.53,,,,,,,,,,,,,,,,,,,,,
17,7.55,,,,,,,,,,,,,,,,,,,,,
18,8.7,,,,,,,,,,,,,,,,,,,,,
19,10.0,,,,,,,,,,,,,,,,,,,,,
