,sd,0.0-1.0,1.0-2.0,2.0-3.0,3.0-5.0,5.0-8.0,8.0-13.0,13.0-21.0,21.0-34.0,34.0-55.0,55.0-89.0,89.0-144.0,144.0-233.0,233.0-377.0,377.0-610.0
0,0.0,,0.21824451993120444,0.22609633642892618,0.2271756133837437,0.22626477851731364,0.2225583824463248,0.20993289791005795,0.1866008315093007,0.1719835792959599,0.1768658543541929,0.17830814110159596,0.16488119178034222,0.15299771063626474,0.1789415544565178
1,0.13,0.23670750319505404,0.2474151240496122,0.2518378125613445,0.2500278869301382,0.24330420975205386,0.24193094686340125,0.25259828740692036,0.2333588906757482,0.17071745175233322,0.1568402678729098,0.1483867374914325,0.13630565583634177,,
2,0.29,0.2596940592679516,0.2655738042240679,0.2678889178904301,0.26491759496734296,0.25929897094954124,0.24434087969008716,0.2367116730118385,0.2223260475459399,0.1716034940348888,0.15394800508467626,0.14613642349223072,0.12491027732463295,,
3,0.46,0.2701755602342912,0.26922299289345875,0.26953119837168427,0.2674742580929681,0.2622794100460464,0.24590860671020978,0.23075867532135888,0.2245497680027263,0.1742233023795705,0.15018743291222855,0.12639561270801816,0.1118097447795824,,
4,0.66,0.28428925975087266,0.28409895568755467,0.28312019734239374,0.28047662884262675,0.27646855692536715,0.25999351789649844,0.24333829087012399,0.24289632168345043,0.1761182319118352,0.14943403799839441,0.13611927398444254,0.11905063291139242,,
5,0.88,0.31201956977086387,0.30991663917008727,0.30625703695038686,0.303521968778335,0.2971768227589695,0.27839263761069627,0.264469283400155,0.25868576860682585,0.17081650219803868,0.15090421969189552,0.13260756192959583,0.13351648351648351,,
6,1.13,0.3429960007459749,0.3369659429511454,0.3340179239434813,0.3328133967560824,0.32290789852355084,0.3050349907362655,0.2766845897770848,0.2452356648253326,0.17272832530566876,0.14690842490842493,0.13657205240174675,0.13027777777777774,,
7,1.42,0.37208560445073247,0.3689564906541298,0.36568345971919813,0.3640817557106771,0.35464391176488497,0.3253521342575703,0.2807821102362205,0.22928260627022204,0.17356427659431492,0.14270971635485818,0.13617021276595745,0.1175,,
8,1.74,0.3919939916932135,0.3882097239227458,0.3861826687556546,0.3822501765675273,0.37218037581275554,0.338196521005043,0.283081662126835,0.2200976659493461,0.17405588202683223,0.14510447761194029,0.14195121951219514,,,
9,2.11,0.40782615392231825,0.40346003422146165,0.4033480114737577,0.39662178514069474,0.383954684028316,0.341767452720056,0.2816385612892897,0.2064829610304908,0.17427922346137958,0.14192012288786482,0.13756097560975608,,,
10,2.53,0.42429484595450623,0.4197851671016079,0.4181856399781489,0.4096416763170703,0.3947203282211585,0.3495733300161712,0.2910926214134642,0.2056162479957242,0.1714757021845742,0.1405154639175258,0.0935294117647059,0.08826771653543308,,
11,3.01,0.4362979640849299,0.4310549193346151,0.42843525536727645,0.4190592255125285,0.40450087623582315,0.35812016327919044,0.32279381584348066,0.2451961979039727,0.1554238833181404,0.11943870014771049,0.10720403022670028,0.07,,
12,3.55,0.4352486549574426,0.43360118356927363,0.43181007617728534,0.42035979513444305,0.39722753198705113,0.34833074684772064,0.32745229007633586,0.23393083980239945,0.13230769230769232,0.12192090395480225,,,,
13,4.16,0.4274566972333255,0.4223128792987188,0.4130372570194385,0.40018189086548067,0.3720907538424006,0.3315725806451613,0.33425155428024866,0.2000705882352941,0.1423404255319149,0.08281250000000001,,0.069375,,
14,4.85,0.4120403530895334,0.4028670520231214,0.3869880624426079,0.3766822118587609,0.341986301369863,0.30850187265917606,0.2924058919803601,0.13855072463768117,0.10609375000000001,0.10220779220779219,0.09583710407239819,0.0964814814814815,,
15,5.64,0.3865618860510806,0.3705882352941176,0.3502491103202848,0.3523947368421053,0.2987341772151899,0.22231372549019607,0.18289215686274507,0.11999999999999998,0.12251999999999999,0.11507276507276508,0.11125475285171103,,,
16,6.53,0.356165191740413,0.34894366197183097,0.32566371681415934,0.27625,0.2583561643835616,0.227292817679558,0.1778969957081545,0.12133047210300431,0.1319753086419753,0.11058823529411763,,0.10106382978723401,,
17,7.55,0.29784366576819404,0.2545959595959596,0.2431543624161074,0.24963855421686748,0.24776923076923077,0.2086382978723404,0.13038277511961727,0.0992817679558011,0.14277777777777778,0.12285000000000001,0.12241167434715823,0.12152173913043478,,
18,8.7,0.3380071174377225,0.34480916030534353,0.3527272727272727,0.3447580645161291,0.28145631067961163,0.21245454545454553,0.21999999999999997,0.15631768953068592,0.1418181818181818,0.13487248322147652,0.13664705882352943,,,
19,10.0,0.35967637540453073,0.3220338983050847,0.3303225806451613,0.2990909090909091,0.28290780141843974,0.2563356164383561,0.22461340206185568,0.1620689655172414,0.1463157894736842,0.135625,,,,
