,sd,0.0-1e-06,1e-06-0.13,0.13-0.27,0.27-0.43,0.43-0.62,0.62-0.82,0.82-1.05,1.05-1.31,1.31-1.61,1.61-1.94,1.94-2.32,2.32-2.74,2.74-3.22,3.22-3.75,3.75-4.36,4.36-5.04,5.04-5.81,5.81-6.68,6.68-7.65,7.65-8.76,8.76-10.0
0,0.0,0.5449999999999999,0.5117241379310344,0.286,0.22336283185840713,0.21558375634517765,0.21383333333333335,0.225,0.25,0.25,,,,,,,,,,,,
1,0.13,0.5786666666666667,0.5241379310344827,0.22999999999999998,0.24499999999999994,0.2328,0.21818181818181817,0.21466666666666664,0.21428571428571427,,,,,,,,,,,,,
2,0.29,0.48500000000000004,0.5371428571428571,0.3018181818181818,0.23950000000000005,0.2313636363636364,0.22666666666666668,0.22454545454545452,0.215,,,,,,,,,,,,,
3,0.46,0.5300000000000001,0.67125,0.6018181818181819,0.19,0.20571428571428568,0.19500000000000003,0.20800000000000002,0.21,,,,,,,,,,,,,
4,0.66,0.7981818181818183,0.6975,,0.2425,0.18473684210526317,0.198,0.21000000000000002,0.21,,,,,,,,,,,,,
5,0.88,0.7437142857142857,0.5166666666666667,0.33499999999999996,0.23200000000000004,0.18,0.195,0.21,,,,,,,,,,,,,,
6,1.13,0.7352,0.5672727272727273,0.5700000000000001,,,,,,,,,,,,,,,,,,
7,1.42,0.7787096774193546,0.4422727272727272,0.5950000000000001,,,,,,,,,,,,,,,,,,
8,1.74,0.7897014925373136,0.5355882352941177,0.29,0.29,,,,,,,,,,,,,,,,,
9,2.11,0.7753237410071944,0.48238095238095235,0.29,0.29,,,,,,,,,,,,,,,,,
10,2.53,0.7828125,0.7553846153846153,,,,,,,,,,,,,,,,,,,
11,3.01,0.7912195121951219,0.7555555555555556,,,,,,,,,,,,,,,,,,,
12,3.55,0.7033333333333335,,,,,,,,,,,,,,,,,,,,
13,4.16,,,,,,,,,,,,,,,,,,,,,
14,4.85,,,,,,,,,,,,,,,,,,,,,
15,5.64,,,,,,,,,,,,,,,,,,,,,
16,6.53,,,,,,,,,,,,,,,,,,,,,
17,7.55,,,,,,,,,,,,,,,,,,,,,
18,8.7,,,,,,,,,,,,,,,,,,,,,
19,10.0,,,,,,,,,,,,,,,,,,,,,
