,sd,0.0-1.0,1.0-2.0,2.0-3.0,3.0-5.0,5.0-8.0,8.0-13.0,13.0-21.0,21.0-34.0,34.0-55.0,55.0-89.0,89.0-144.0,144.0-233.0,233.0-377.0,377.0-610.0
0,0.0,,0.18634322544089524,0.19152572293207804,0.19543764054661825,0.19740603963419065,0.20959704375281116,0.2117523511870628,0.1988979377541178,0.18995058214161673,0.1665451497164156,0.16796628005911066,0.128740459894628,0.11430241545893721,0.4528537170263789
1,0.13,0.22674768679599358,0.22877243026768773,0.22335154180209218,0.23159396162175014,0.24262294321825076,0.2665869030434871,0.26152839674027073,0.2373613582025873,0.2123563141497353,0.1799630465352039,0.20765316718587745,,,
2,0.29,0.2648244996021146,0.2684549188010156,0.2654309561858337,0.26572830763018535,0.2843518073075073,0.29546049225459176,0.2843162600563717,0.2531501209980251,0.22083470883146936,0.1855046210720887,0.2123093220338983,,,
3,0.46,0.30624466058476213,0.3104725788855321,0.3077760201127103,0.3126017725702268,0.3204692974839362,0.32594598578883754,0.3043464888269547,0.2626631687559,0.22380684026428294,0.17831122900088417,0.2551707317073171,,,
4,0.66,0.33875486335792565,0.35161707576448126,0.34810077965419023,0.3518466465210863,0.351407251419154,0.3448501808490386,0.3214566929133858,0.268586864083386,0.22363307972636023,0.17921914357682622,0.24777777777777782,,,
5,0.88,0.38144466319288894,0.3869288920639321,0.3805515176830967,0.3818792082682947,0.38773510847574555,0.3799128447506164,0.3589002976413048,0.29260717009916093,0.24283126608939856,0.17786652078774617,0.2361538461538461,,,
6,1.13,0.47930253511105614,0.4764776439089692,0.4736461282909742,0.48257778785963884,0.4951337725295213,0.49447379979885475,0.46819829080043107,0.41262592860186365,0.37110184327051804,0.180565371024735,0.2035714285714286,,,
7,1.42,0.570668070492091,0.5641261653850427,0.5634990160833303,0.5702173202367841,0.5746460622396122,0.5671511129982943,0.5169954194102491,0.4500643584718492,0.41874675565443087,0.18899725274725276,0.16680851063829785,,,
8,1.74,0.6097040737666036,0.6068441869044423,0.6044534267146435,0.6057295188445612,0.5971227242984803,0.5732234376075542,0.5114280089072344,0.4409224361253619,0.412209594095941,0.16965770171149142,0.19115384615384615,,,
9,2.11,0.6232939165639153,0.6238872708099252,0.6198460010357153,0.6165731346940025,0.5995613573589371,0.5651127582868579,0.4984508686210642,0.42180282605164854,0.3896837481698389,0.19517241379310343,0.19,,,
10,2.53,0.6259873950286371,0.6264355722807741,0.6233590324249596,0.6150953430216403,0.5945598780467034,0.5546571378581714,0.4904409138493749,0.40662350005940356,0.38244988864142543,0.19614457831325302,,,,
11,3.01,0.6240992156893412,0.6225792775002904,0.621614031478243,0.6117949989601164,0.5869260684030186,0.5463313314973953,0.4890379223845359,0.393428496595076,0.3464145077720207,0.1509375,,,,
12,3.55,0.6242531786199235,0.6221925070688031,0.6206933692359474,0.6119463029679191,0.5910234157524153,0.5489832732043293,0.48272830310880827,0.40489594172736737,0.33692640692640696,0.09933333333333336,,,,
13,4.16,0.631189591078067,0.6285973182484811,0.6279802526499201,0.613747996152613,0.5869395685381213,0.5442704558458897,0.4758605442176871,0.41412008281573504,0.3335573122529645,0.21399999999999997,,,,
14,4.85,0.6369730375879932,0.6285970224577341,0.6284507042253521,0.621239751552795,0.597459393196445,0.553536320139191,0.4623125493291239,0.38574889867841416,0.35307692307692307,,,,,
15,5.64,0.6378166069295101,0.6327241179872759,0.630382072005878,0.6147875201721354,0.5760849673202615,0.531865864144454,0.4801923076923077,0.504375,0.5218518518518519,,,,,
16,6.53,0.6375866336633664,0.6332974910394266,0.6276065573770492,0.6225196850393702,0.610839580209895,0.5872264150943397,0.53814332247557,0.41925925925925933,0.4375,,,,,
17,7.55,0.6658333333333334,0.6636094674556213,0.651593625498008,0.6453333333333333,0.5758943089430894,0.5608510638297873,0.4269298245614036,0.3232558139534884,0.6433333333333334,,,,,
18,8.7,0.6357284768211919,0.6413605442176871,0.6340178571428572,0.6193506493506493,0.5902797202797204,0.535,0.5018181818181818,0.446875,,,,,,
19,10.0,0.6836567164179106,0.6836986301369864,0.6739285714285713,0.6746987951807228,0.6549152542372882,0.5668571428571428,0.455263157894737,0.34,,,,,,
