,sd,0.0-1.0,1.0-2.0,2.0-3.0,3.0-4.0,4.0-5.0,5.0-6.0,6.0-7.0,7.0-9.0,9.0-11.0,11.0-13.0,13.0-16.0,16.0-19.0,19.0-23.0,23.0-28.0,28.0-33.0
0,0.0,0.20186395432353807,0.1816976676429546,0.1513288225167154,0.17328872532619607,0.16577442414614776,0.17718814326883492,0.14799003322259136,0.17446453407510432,0.20821052631578948,0.20521384928716904,,,,,
1,0.13,0.235870669029421,0.20561101392229755,0.19814886888834835,0.2009747373127655,0.18865259117082536,0.21672705314009663,0.17583157894736845,0.277808988764045,0.23140243902439023,0.24912727272727275,,,,,
2,0.29,0.2695528778940373,0.23260297199915217,0.22178735031744753,0.2194922194922195,0.22008219178082197,0.2336846543001686,0.20051181102362206,0.3057752808988764,0.23538265306122452,0.3018226600985222,,,,,
3,0.46,0.30329117850762277,0.2671335562203062,0.25298122065727696,0.25314828897338404,0.25795975017349065,0.2806111833550065,0.23385767790262174,0.36972602739726024,0.26559566787003613,0.34887323943661974,,,,,
4,0.66,0.3304571636931095,0.308888133480638,0.2986781796459216,0.2929220287660863,0.30421019900497515,0.3169854132901135,0.2661612903225807,0.38443418013856817,0.34313351498637606,0.36336,,,,,
5,0.88,0.36798475606406633,0.34471615842580433,0.33664967305774135,0.3282807692307692,0.32611360239162934,0.3445692883895131,0.2849802371541502,0.41251046025104604,0.32354054054054054,0.47770270270270265,,,,,
6,1.13,0.48027289655693817,0.41890545246826,0.41101650958314884,0.3939037950205463,0.41027599802858555,0.4047574626865672,0.4440766550522648,0.46398296059637917,0.3875,0.5175609756097562,,,,,
7,1.42,0.5650025062343358,0.49996186197168374,0.4790934194011117,0.4638222410625972,0.4798681592039801,0.46094069529652354,0.47205246913580245,0.49799470549305097,0.5483289817232376,0.551678129298487,,,,,
8,1.74,0.5988789707813602,0.544967902295897,0.5033843965422913,0.49163043478260876,0.5252804232804233,0.47946469248291573,0.511318407960199,0.5047972027972029,0.5802806260118726,0.5665472779369628,,,,,
9,2.11,0.6107977563122039,0.5680420303748928,0.5217093437341022,0.5092020765237454,0.5414265706282514,0.5089303201506592,0.41928571428571426,0.48896732026143785,0.5705803298717166,0.5521428571428573,,,,,
10,2.53,0.6110130820509039,0.5736932266982623,0.5346153846153846,0.5129487680876027,0.5567767295597484,0.511919795221843,0.4051821862348178,0.496764705882353,0.5528120516499283,0.5083730158730159,,,,,
11,3.01,0.6058893938309597,0.576091669943268,0.5403463541666668,0.4876279863481229,0.5478178178178178,0.5217647058823529,0.33988095238095234,0.5106914893617023,0.536132075471698,0.5431250000000001,,,,,
12,3.55,0.6025222825778979,0.575853044086774,0.5720383141762452,0.546528735632184,0.5614814814814815,0.611,0.3355555555555556,0.5197435897435899,0.5590909090909091,0.5487931034482758,,,,,
13,4.16,0.5991431804827091,0.5810162601626017,0.5975802997858672,0.544842105263158,0.606,0.6208333333333333,,0.5900000000000001,0.59,0.5446666666666666,,,,,
14,4.85,0.5955192252919397,0.5894667760459392,0.5777380952380953,0.5485714285714285,0.55,,,,,,,,,,
15,5.64,0.5877312708522899,0.5914340588988476,0.6133333333333334,,,,,,,,,,,,
16,6.53,0.5922489270386266,0.6456363636363636,,,,,,,,,,,,,
17,7.55,0.6168336886993604,0.3969999999999999,,,,,,,,,,,,,
18,8.7,0.4719186046511628,,,,,,,,,,,,,,
19,10.0,0.40666666666666673,,,,,,,,,,,,,,
