,sd,0.0-1.0,1.0-2.0,2.0-3.0,3.0-4.0,4.0-5.0,5.0-6.0,6.0-7.0,7.0-9.0,9.0-11.0,11.0-13.0,13.0-16.0,16.0-19.0,19.0-23.0,23.0-28.0,28.0-33.0
0,0.0,0.13848044373279117,0.14517682337521348,0.14253171517222418,0.13366544960711707,0.13048042592130443,0.13302470872606825,0.13473495882399372,0.13426327182602962,0.13790060621687594,0.13630699067046761,0.13602408524876156,0.1355441583571086,0.13637639279131547,0.11092349957734571,
1,0.13,0.1207841488583378,0.12315597976424854,0.1256713557771874,0.11386148545510053,0.10931563098822886,0.106017733230532,0.1038918257192143,0.10774380308545677,0.11194089367569783,0.11327088966138794,0.10520447266601254,0.10265344188742975,0.10200326619488298,0.16497191011235957,
2,0.29,0.13220356472795497,0.14344476858787353,0.1558867077958497,0.12351770878880633,0.12330433686333839,0.11004146510020733,0.10414045598269263,0.11477213098824217,0.13671404958677685,0.13397962211890396,0.11554059948900107,0.10500708148427912,0.11782416192283367,0.12472573839662447,
3,0.46,0.14406676238334531,0.15533436745949672,0.19957481162540366,0.13883601756954614,0.1476450079239303,0.11878382487078142,0.08902032308494008,0.12094274146905727,0.21655069878085043,0.1854996379435192,0.1508746541817408,0.08608085808580858,0.18702674357629787,0.143781512605042,
4,0.66,0.25672870436649964,0.20732695810564664,0.3103680203045685,0.14973434535104366,0.17881494986326346,0.20098657718120808,0.08488207547169814,0.1985413642960813,0.3409601259181533,0.33991062562065544,0.2719396551724138,0.08617977528089889,0.340037037037037,0.08642857142857141,
5,0.88,0.41387955182072833,0.27034098360655734,0.4190763430725731,0.10769063180827888,0.17222222222222225,0.2483895131086142,0.06500000000000002,0.25982812499999997,0.4076918199112239,0.44043824701195217,0.3722981366459628,,0.44186023622047244,,
6,1.13,0.4893684210526317,0.30741706161137444,0.5041123370110331,0.08530612244897959,0.1225,0.3587087912087912,0.062,0.34443999999999997,0.40701417848206844,0.44300236406619387,0.3446509009009009,,0.4279679144385027,,
7,1.42,0.5362328767123287,0.3649881235154394,0.49213375796178344,,,0.37750000000000006,,0.45002369668246445,0.49527939949958294,0.49567656765676565,0.40236802413273,,0.39833881578947367,,
8,1.74,0.5741860465116279,0.4837962962962963,0.5187555555555556,,,0.4623809523809524,,0.5180965909090909,0.49986330178759203,0.5124137931034484,0.49140522875816994,,0.4691861898890259,,
9,2.11,0.5221875,0.5540000000000002,0.5385714285714285,,,0.4520967741935485,,0.4711552346570397,0.5067909238249595,0.5379310344827587,0.4966071428571429,,0.5177643504531722,,
10,2.53,,,0.56,,,0.47843750000000007,,0.4658490566037735,0.5214516129032258,,0.5280434782608695,,0.5003597122302158,,
11,3.01,,,,,,0.5018965517241379,,0.57625,0.5505263157894738,,0.5529411764705883,,0.542547770700637,,
12,3.55,,,,,,0.5182608695652174,,,,,,,0.57,,
13,4.16,,,,,,0.41000000000000003,,,,,,,,,
14,4.85,,,,,,,,,,,,,,,
15,5.64,,,,,,,,,,,,,,,
16,6.53,,,,,,,,,,,,,,,
17,7.55,,,,,,,,,,,,,,,
18,8.7,,,,,,,,,,,,,,,
19,10.0,,,,,,,,,,,,,,,
