,time,n,sum,min,max,mean,std,q0.05,q0.25,q0.50,q0.75,q0.95
0,2000-01-01,554856,2157.459999999999,0.0,0.7000000000000001,0.00388832417780469,0.026828892110794665,0.0,0.0,0.0,0.0,0.01
1,2001-01-01,553340,11865.039999999999,0.0,1.0,0.021442585029096035,0.06179540884088459,0.0,0.0,0.0,0.0,0.13
2,2002-01-01,553340,3123.38,0.0,1.56,0.005644594643438031,0.042183937217745514,0.0,0.0,0.0,0.0,0.02
3,2003-01-01,553340,3624.490000000001,0.0,1.35,0.006550204214407058,0.04920498816644483,0.0,0.0,0.0,0.0,0.01
4,2004-01-01,554856,5686.98,0.0,1.76,0.01024947013279121,0.05205891892870226,0.0,0.0,0.0,0.0,0.06
5,2005-01-01,553340,24403.620000000003,0.0,2.08,0.044102396356670404,0.11123688486867507,0.0,0.0,0.0,0.0,0.24
6,2006-01-01,553340,3978.619999999999,0.0,1.6600000000000001,0.0071901904796327736,0.045265647720372684,0.0,0.0,0.0,0.0,0.03
7,2007-01-01,553340,15716.480000000003,0.0,3.71,0.028402934904398748,0.14292685626878274,0.0,0.0,0.0,0.0,0.13
8,2008-01-01,554856,12935.65,0.0,2.56,0.02331352639243335,0.11546423406911582,0.0,0.0,0.0,0.0,0.13
9,2009-01-01,553340,9418.08,0.0,2.07,0.017020421440705532,0.08790143506123076,0.0,0.0,0.0,0.0,0.13
10,2010-01-01,553340,17311.91,0.0,1.52,0.03128620739509162,0.09246338086770915,0.0,0.0,0.0,0.0,0.19
11,2011-01-01,553340,7296.250000000001,0.0,3.45,0.013185835110420359,0.10378238015854321,0.0,0.0,0.0,0.0,0.04
12,2012-01-01,554856,11887.45,0.0,2.85,0.021424387588851884,0.11525762217675178,0.0,0.0,0.0,0.0,0.14
13,2013-01-01,553340,12268.449999999999,0.0,2.45,0.022171630462283584,0.11955252620026144,0.0,0.0,0.0,0.0,0.09
14,2014-01-01,553340,7135.95,0.0,2.39,0.01289613980554451,0.08956030361402467,0.0,0.0,0.0,0.0,0.05
15,2015-01-01,553340,18669.45,0.0,2.73,0.03373956337875447,0.13735265820906825,0.0,0.0,0.0,0.0,0.14
16,2016-01-01,554856,20059.220000000005,0.0,2.23,0.0361521187479274,0.1371664261909562,0.0,0.0,0.0,0.0,0.17
17,2017-01-01,553340,13762.569999999998,0.0,3.0,0.024871814797412076,0.12959636345653386,0.0,0.0,0.0,0.0,0.13
18,2018-01-01,553340,6074.650000000003,0.0,2.38,0.010978150865652228,0.09079722125950919,0.0,0.0,0.0,0.0,0.02
19,2019-01-01,553340,10608.679999999997,0.0,2.84,0.0191720822640691,0.1167104457296785,0.0,0.0,0.0,0.0,0.09
20,2020-01-01,554856,8746.040000000003,0.0,1.44,0.015762720417549784,0.05208783484826436,0.0,0.0,0.0,0.0,0.13
21,2021-01-01,553340,27574.749999999996,0.0,2.09,0.04983328514114287,0.14480606803857626,0.0,0.0,0.0,0.01,0.32
22,2022-01-01,553340,8213.61,0.0,2.89,0.014843694654281274,0.11163664782556142,0.0,0.0,0.0,0.0,0.04
23,2023-01-01,553340,13624.03,0.0,2.23,0.024621444319947953,0.09182206596885432,0.0,0.0,0.0,0.0,0.21
24,2024-01-01,554856,7370.900000000001,0.0,2.23,0.013284347650561587,0.09336845876603907,0.0,0.0,0.0,0.0,0.04
25,2025-01-01,553340,12674.230000000003,0.0,4.47,0.02290495897639788,0.16756408375070572,0.0,0.0,0.0,0.0,0.07
26,2026-01-01,553340,27246.809999999987,0.0,3.2,0.04924062963096828,0.16831805600287505,0.0,0.0,0.0,0.0,0.32
27,2027-01-01,553340,24612.02000000001,0.0,1.81,0.044479018325080444,0.1175547827986458,0.0,0.0,0.0,0.0,0.28
28,2028-01-01,554856,28858.179999999997,0.0,2.2800000000000002,0.05201021526305924,0.15436984822818436,0.0,0.0,0.0,0.0,0.32
29,2029-01-01,553340,4092.06,0.0,1.32,0.0073952000578306285,0.055279778410646185,0.0,0.0,0.0,0.0,0.02
30,2030-01-01,553340,4849.55,0.0,2.08,0.008764141395886797,0.07082623972248236,0.0,0.0,0.0,0.0,0.01
31,2031-01-01,553340,2995.79,0.0,1.25,0.005414013084179709,0.0488094470042287,0.0,0.0,0.0,0.0,0.01
32,2032-01-01,554856,8948.46,0.0,2.4,0.016127535793070632,0.09373693555425273,0.0,0.0,0.0,0.0,0.07
33,2033-01-01,553340,8605.27,0.0,3.34,0.015551505403549356,0.12550328073717545,0.0,0.0,0.0,0.0,0.06
34,2034-01-01,553340,5906.870000000002,0.0,2.93,0.010674937651353602,0.1027600072830951,0.0,0.0,0.0,0.0,0.0
35,2035-01-01,553340,7688.100000000001,0.0,2.18,0.013893989229045436,0.09221707883670936,0.0,0.0,0.0,0.0,0.06
36,2036-01-01,554856,10801.310000000003,0.0,3.5300000000000002,0.01946687068356475,0.13144521007344626,0.0,0.0,0.0,0.0,0.08
37,2037-01-01,553340,3871.7500000000005,0.0,2.21,0.006997054252358406,0.06857623017009908,0.0,0.0,0.0,0.0,0.0
38,2038-01-01,553340,5411.9699999999975,0.0,2.36,0.009780550836736903,0.08826913434007527,0.0,0.0,0.0,0.0,0.01
39,2039-01-01,553340,3985.660000000001,0.0,2.0100000000000002,0.007202913217913039,0.06179529136325247,0.0,0.0,0.0,0.0,0.02
40,2040-01-01,554856,4708.930000000001,0.0,2.23,0.00848676052885794,0.07355660272383072,0.0,0.0,0.0,0.0,0.03
41,2041-01-01,553340,8576.080000000002,0.0,1.85,0.015498753027071967,0.07960098169497047,0.0,0.0,0.0,0.0,0.09
42,2042-01-01,553340,5784.200000000002,0.0,2.2800000000000002,0.010453247551234326,0.09192718754466077,0.0,0.0,0.0,0.0,0.01
43,2043-01-01,553340,5854.5,0.0,1.8900000000000001,0.010580294213322732,0.07930967823346548,0.0,0.0,0.0,0.0,0.03
44,2044-01-01,554856,12965.569999999998,0.0,2.74,0.023367450293409458,0.13010010377894876,0.0,0.0,0.0,0.0,0.09
45,2045-01-01,553340,9070.670000000002,0.0,2.47,0.016392579607474613,0.1035425209166981,0.0,0.0,0.0,0.0,0.08
46,2046-01-01,553340,6304.670000000002,0.0,1.45,0.01139384465247407,0.06395437758812589,0.0,0.0,0.0,0.0,0.05
47,2047-01-01,553340,6379.440000000001,0.0,2.57,0.011528969530487588,0.08476976818739188,0.0,0.0,0.0,0.0,0.04
48,2048-01-01,554856,13764.670000000004,0.0,1.77,0.024807643785054147,0.07539269415486946,0.0,0.0,0.0,0.0,0.17
49,2049-01-01,553340,13692.04,0.0,2.36,0.024744352477680993,0.10097371510078261,0.0,0.0,0.0,0.0,0.15
50,2050-01-01,553340,1919.3300000000004,0.0,0.97,0.0034686268840134465,0.032981818878809153,0.0,0.0,0.0,0.0,0.0
51,2051-01-01,553340,3963.8500000000004,0.0,0.92,0.007163498030144216,0.03537932119354228,0.0,0.0,0.0,0.0,0.04
52,2052-01-01,554856,20985.29999999999,0.0,1.24,0.03782116441022534,0.09807781146541976,0.0,0.0,0.0,0.0,0.28
53,2053-01-01,553340,4103.11,0.0,2.49,0.007415169696750641,0.08823731627585048,0.0,0.0,0.0,0.0,0.0
54,2054-01-01,553340,5795.460000000001,0.0,1.79,0.010473596703654175,0.06116769679598734,0.0,0.0,0.0,0.0,0.05
55,2055-01-01,553340,7885.319999999999,0.0,3.5100000000000002,0.014250406621606966,0.12118165556404376,0.0,0.0,0.0,0.0,0.03
56,2056-01-01,554856,5819.270000000002,0.0,1.3800000000000001,0.010487892354052227,0.06330727791455666,0.0,0.0,0.0,0.0,0.05
57,2057-01-01,553340,13945.039999999999,0.0,2.58,0.025201575884627896,0.1044294439233204,0.0,0.0,0.0,0.0,0.17
58,2058-01-01,553340,6670.700000000002,0.0,1.62,0.012055336682690572,0.06738650689875318,0.0,0.0,0.0,0.0,0.07
59,2059-01-01,553340,17564.210000000003,0.0,2.59,0.03174216575703908,0.12039668169071938,0.0,0.0,0.0,0.0,0.18
60,2060-01-01,554856,6602.230000000001,0.0,2.36,0.011898997217296021,0.08261863437889454,0.0,0.0,0.0,0.0,0.06
61,2061-01-01,553340,3824.67,0.0,2.32,0.006911970940109155,0.07887858994436393,0.0,0.0,0.0,0.0,0.01
62,2062-01-01,553340,6597.160000000003,0.0,0.97,0.011922434669461818,0.04341969784573529,0.0,0.0,0.0,0.0,0.09
63,2063-01-01,553340,3366.4999999999995,0.0,1.6400000000000001,0.006083962843821158,0.061191636215500125,0.0,0.0,0.0,0.0,0.0
64,2064-01-01,554856,7061.120000000001,0.0,3.06,0.012726040630361753,0.10260409062582489,0.0,0.0,0.0,0.0,0.03
65,2065-01-01,553340,7500.17,0.0,3.02,0.013554360790833846,0.11947224408502133,0.0,0.0,0.0,0.0,0.0
66,2066-01-01,553340,9718.920000000006,0.0,2.33,0.01756410163732968,0.10485694559147475,0.0,0.0,0.0,0.0,0.07
67,2067-01-01,553340,7683.080000000001,0.0,2.14,0.01388491704919218,0.08538408617602136,0.0,0.0,0.0,0.0,0.07
68,2068-01-01,554856,5763.980000000003,0.0,1.9100000000000001,0.010388244877950321,0.07546696768225544,0.0,0.0,0.0,0.0,0.05
69,2069-01-01,553340,5200.959999999999,0.0,1.85,0.009399212057686051,0.06548214538193248,0.0,0.0,0.0,0.0,0.03
70,2070-01-01,553340,10369.529999999997,0.0,2.38,0.018739888676040043,0.10886472305244194,0.0,0.0,0.0,0.0,0.07
71,2071-01-01,553340,12215.540000000003,0.0,2.43,0.022076011132396,0.11145058169072102,0.0,0.0,0.0,0.0,0.14
72,2072-01-01,554856,6936.100000000001,0.0,1.1500000000000001,0.012500720907767063,0.06847486732976801,0.0,0.0,0.0,0.0,0.05
73,2073-01-01,553340,9903.100000000002,0.0,1.52,0.017896953048758452,0.06999668091133654,0.0,0.0,0.0,0.0,0.14
74,2074-01-01,553340,6308.170000000001,0.0,2.44,0.011400169877471358,0.09177225290110629,0.0,0.0,0.0,0.0,0.01
75,2075-01-01,553340,6061.460000000001,0.0,3.36,0.010954313803448154,0.1212925432941268,0.0,0.0,0.0,0.0,0.0
76,2076-01-01,554856,6225.180000000002,0.0,1.67,0.011219451533370825,0.06760420081210106,0.0,0.0,0.0,0.0,0.05
77,2077-01-01,553340,3472.5000000000005,0.0,1.8900000000000001,0.006275526800881918,0.05810242297231189,0.0,0.0,0.0,0.0,0.02
78,2078-01-01,553340,5127.9,0.0,2.7600000000000002,0.009267177503885496,0.07647915433842603,0.0,0.0,0.0,0.0,0.0
79,2079-01-01,553340,9327.079999999996,0.0,2.92,0.01685596559077601,0.14197142861985496,0.0,0.0,0.0,0.0,0.03
80,2080-01-01,554856,9706.880000000001,0.0,2.35,0.017494412964805285,0.10829640075025339,0.0,0.0,0.0,0.0,0.05
81,2081-01-01,553340,7065.14,0.0,1.8800000000000001,0.012768171467813642,0.07024839211115283,0.0,0.0,0.0,0.0,0.07
82,2082-01-01,553340,7273.43,0.0,2.5300000000000002,0.013144594643438031,0.10217792604132377,0.0,0.0,0.0,0.0,0.03
83,2083-01-01,553340,6333.709999999999,0.0,2.98,0.011446325947880144,0.10718294687954373,0.0,0.0,0.0,0.0,0.03
84,2084-01-01,554856,7001.790000000004,0.0,2.72,0.012619111985812542,0.06844556906936335,0.0,0.0,0.0,0.0,0.07
85,2085-01-01,553340,13242.249999999996,0.0,3.45,0.023931488777243642,0.1494042272828098,0.0,0.0,0.0,0.0,0.08
86,2086-01-01,553340,3734.7699999999995,0.0,0.75,0.0067495030180359265,0.036496599410862876,0.0,0.0,0.0,0.0,0.03
87,2087-01-01,553340,18572.870000000003,0.0,2.2,0.03356502331297214,0.11513762828692851,0.0,0.0,0.0,0.0,0.19
88,2088-01-01,554856,10498.779999999997,0.0,1.77,0.01892163011664287,0.10614556382108686,0.0,0.0,0.0,0.0,0.08
89,2089-01-01,553340,5025.370000000001,0.0,2.91,0.009081884555607765,0.09492246361512796,0.0,0.0,0.0,0.0,0.01
90,2090-01-01,553340,5671.0599999999995,0.0,2.63,0.010248780135179093,0.10108251462156849,0.0,0.0,0.0,0.0,0.02
91,2091-01-01,553340,4204.4800000000005,0.0,2.65,0.007598366284743558,0.09793528855725013,0.0,0.0,0.0,0.0,0.0
92,2092-01-01,554856,8725.540000000003,0.0,1.92,0.015725773894487944,0.07810932837585438,0.0,0.0,0.0,0.0,0.08
93,2093-01-01,553340,4647.84,0.0,1.49,0.00839960964325731,0.06273527456776207,0.0,0.0,0.0,0.0,0.01
94,2094-01-01,553340,7218.06,0.0,1.86,0.013044529583980917,0.06810331028504087,0.0,0.0,0.0,0.0,0.07
95,2095-01-01,553340,5893.1399999999985,0.0,3.22,0.0106501246972928,0.1093618107292059,0.0,0.0,0.0,0.0,0.0
96,2096-01-01,554856,2635.9,0.0,1.25,0.004750601957985496,0.042388134088013535,0.0,0.0,0.0,0.0,0.0
97,2097-01-01,553340,3047.61,0.0,1.18,0.005507662558282431,0.04617085375529123,0.0,0.0,0.0,0.0,0.01
98,2098-01-01,553340,10716.249999999998,0.0,3.2800000000000002,0.019366483536342932,0.1165842924396519,0.0,0.0,0.0,0.0,0.1
99,2099-01-01,553340,10022.98,0.0,6.48,0.018113601040951312,0.2084223559158425,0.0,0.0,0.0,0.0,0.0
100,2100-01-01,551824,2959.34,0.0,1.36,0.005362833077213025,0.04798757477412881,0.0,0.0,0.0,0.0,0.0
