,time,n,sum,min,max,mean,std,q0.05,q0.25,q0.50,q0.75,q0.95
0,2000-01-01,34406196,547287.3600000001,0.0,0.71,0.01590665123223736,0.05408386288977262,0.0,0.0,0.0,0.0,0.12
1,2001-01-01,34312190,368939.6799999997,0.0,0.68,0.010752437544790924,0.034425649319304086,0.0,0.0,0.0,0.0,0.08
2,2002-01-01,34312190,555133.3499999997,0.0,0.81,0.01617889589676438,0.04427559832317411,0.0,0.0,0.0,0.0,0.12
3,2003-01-01,34312190,158576.45999999988,0.0,0.55,0.004621577929010065,0.021799269082129688,0.0,0.0,0.0,0.0,0.03
4,2004-01-01,34406196,408018.9100000002,0.0,0.62,0.01185887884844928,0.0396103145690162,0.0,0.0,0.0,0.0,0.1
5,2005-01-01,34312190,125462.09999999999,0.0,0.68,0.0036564876797429715,0.020620894276150922,0.0,0.0,0.0,0.0,0.01
6,2006-01-01,34312190,631122.390000002,0.0,0.9400000000000001,0.01839353273574208,0.06480616443039118,0.0,0.0,0.0,0.0,0.13
7,2007-01-01,34312190,125319.32999999991,0.0,0.71,0.00365232676783382,0.01985337711156053,0.0,0.0,0.0,0.0,0.02
8,2008-01-01,34406196,272112.1100000004,0.0,0.92,0.007908811250159721,0.03297338920764344,0.0,0.0,0.0,0.0,0.06
9,2009-01-01,34312190,155280.81000000003,0.0,0.6900000000000001,0.004525528973813681,0.022114732261620577,0.0,0.0,0.0,0.0,0.02
10,2010-01-01,34312190,247675.32000000024,0.0,1.17,0.0072182894767136765,0.027586206290808695,0.0,0.0,0.0,0.0,0.05
11,2011-01-01,34312190,615532.6699999991,0.0,1.43,0.017939183421402105,0.058319798511643005,0.0,0.0,0.0,0.0,0.14
12,2012-01-01,34406196,585359.0299999999,0.0,1.49,0.017013186520241873,0.06429790538520687,0.0,0.0,0.0,0.0,0.13
13,2013-01-01,34312190,751174.4100000003,0.0,0.92,0.021892348171305892,0.06830158587836577,0.0,0.0,0.0,0.0,0.17
14,2014-01-01,34312190,312173.0199999999,0.0,0.77,0.00909802084915011,0.03118247267381156,0.0,0.0,0.0,0.0,0.07
15,2015-01-01,34312190,267963.7899999998,0.0,0.76,0.007809579918973397,0.026304774314163892,0.0,0.0,0.0,0.0,0.05
16,2016-01-01,34406196,867475.7400000024,0.0,1.05,0.025212776791715144,0.07731466125232214,0.0,0.0,0.0,0.0,0.18
17,2017-01-01,34312190,588573.0100000007,0.0,1.01,0.017153466741703188,0.055109211531729894,0.0,0.0,0.0,0.0,0.12
18,2018-01-01,34312190,991995.4500000004,0.0,1.3,0.02891087540608747,0.09831749185038571,0.0,0.0,0.0,0.0,0.24
19,2019-01-01,34312190,950877.48,0.0,1.3900000000000001,0.02771252665597853,0.07514469418690696,0.0,0.0,0.0,0.0,0.21
20,2020-01-01,34406196,450522.6000000004,0.0,1.34,0.013094228725547002,0.04403080474636211,0.0,0.0,0.0,0.0,0.09
21,2021-01-01,34312190,202717.44,0.0,0.75,0.005908029770177887,0.02207056854456487,0.0,0.0,0.0,0.0,0.05
22,2022-01-01,34312190,160965.31000000014,0.0,0.42,0.0046911989587374095,0.023331484926863988,0.0,0.0,0.0,0.0,0.01
23,2023-01-01,34312190,369900.49000000115,0.0,0.88,0.010780439546411965,0.04192801651560922,0.0,0.0,0.0,0.0,0.08
24,2024-01-01,34406196,541464.9900000002,0.0,0.98,0.01573742677045728,0.05783095700907332,0.0,0.0,0.0,0.0,0.1
25,2025-01-01,34312190,420298.6600000008,0.0,1.19,0.012249251942239792,0.061433495070065035,0.0,0.0,0.0,0.0,0.05
26,2026-01-01,34312190,239484.38000000015,0.0,0.73,0.006979571400135058,0.03690479601350825,0.0,0.0,0.0,0.0,0.03
27,2027-01-01,34312190,872926.520000002,0.0,0.92,0.02544071130405847,0.07455838930743557,0.0,0.0,0.0,0.0,0.21
28,2028-01-01,34406196,286929.5500000003,0.0,0.98,0.008339473215812649,0.0262977594444721,0.0,0.0,0.0,0.0,0.05
29,2029-01-01,34312190,1592520.1200000003,0.0,1.42,0.04641266325466257,0.10408625363510854,0.0,0.0,0.0,0.01,0.28
30,2030-01-01,34312190,1359497.7300000004,0.0,1.49,0.03962142113342228,0.11702627794589743,0.0,0.0,0.0,0.0,0.27
31,2031-01-01,34312190,692313.0299999993,0.0,0.8300000000000001,0.020176882618101594,0.060728374265924,0.0,0.0,0.0,0.0,0.15
32,2032-01-01,34406196,463056.30000000016,0.0,0.76,0.013458514855870731,0.0430440356004874,0.0,0.0,0.0,0.0,0.09
33,2033-01-01,34312190,127909.91000000006,0.0,0.58,0.0037278270492207017,0.020548233305808895,0.0,0.0,0.0,0.0,0.02
34,2034-01-01,34312190,158999.57999999996,0.0,0.58,0.004633909406540356,0.01797478882842194,0.0,0.0,0.0,0.0,0.04
35,2035-01-01,34312190,95842.10999999991,0.0,0.79,0.0027932379134062825,0.020074053941957885,0.0,0.0,0.0,0.0,0.01
36,2036-01-01,34406196,214305.8800000002,0.0,0.61,0.006228700202719307,0.026908260424580006,0.0,0.0,0.0,0.0,0.05
37,2037-01-01,34312190,266694.98999999976,0.0,0.54,0.007772601807112859,0.028831420740272715,0.0,0.0,0.0,0.0,0.06
38,2038-01-01,34312190,525293.86,0.0,0.8,0.015309248987021812,0.05440451097220831,0.0,0.0,0.0,0.0,0.11
39,2039-01-01,34312190,16868.389999999985,0.0,0.34,0.0004916150790724808,0.004463325463367955,0.0,0.0,0.0,0.0,0.0
40,2040-01-01,34406196,435907.3299999997,0.0,0.75,0.012669442736418747,0.04176600314649595,0.0,0.0,0.0,0.0,0.09
41,2041-01-01,34312190,369097.5000000005,0.0,0.71,0.0107570370763277,0.03900848104424057,0.0,0.0,0.0,0.0,0.07
42,2042-01-01,34312190,82348.20999999985,0.0,0.66,0.002399969515207273,0.01677919727241717,0.0,0.0,0.0,0.0,0.0
43,2043-01-01,34312190,445382.40999999945,0.0,1.53,0.012980296798309856,0.060369041101355554,0.0,0.0,0.0,0.0,0.06
44,2044-01-01,34406196,99108.16999999988,0.0,0.61,0.002880532622670634,0.01716706349239614,0.0,0.0,0.0,0.0,0.01
45,2045-01-01,34312190,270594.10999999975,0.0,0.58,0.007886238389330433,0.03747159064508345,0.0,0.0,0.0,0.0,0.04
46,2046-01-01,34312190,345239.60000000056,0.0,0.84,0.010061718590390196,0.03510260058274503,0.0,0.0,0.0,0.0,0.08
47,2047-01-01,34312190,371147.8400000004,0.0,1.01,0.010816792516012542,0.04460543223283907,0.0,0.0,0.0,0.0,0.07
48,2048-01-01,34406196,399692.56999999995,0.0,1.3,0.011616877669359319,0.05668108653559056,0.0,0.0,0.0,0.0,0.06
49,2049-01-01,34312190,195229.52000000005,0.0,0.4,0.005689800621878115,0.022913450088063555,0.0,0.0,0.0,0.0,0.04
50,2050-01-01,34312190,105455.39000000003,0.0,0.76,0.003073408896371815,0.020052409158544074,0.0,0.0,0.0,0.0,0.01
51,2051-01-01,34312190,358101.4800000001,0.0,0.66,0.010436567295762821,0.04368235804709131,0.0,0.0,0.0,0.0,0.08
52,2052-01-01,34406196,129510.04,0.0,0.88,0.003764148759717581,0.021166791214386506,0.0,0.0,0.0,0.0,0.02
53,2053-01-01,34312190,602810.0800000014,0.0,1.04,0.01756839420625735,0.051817130779934224,0.0,0.0,0.0,0.0,0.11
54,2054-01-01,34312190,110386.29999999997,0.0,0.54,0.0032171161327796322,0.019046105851739933,0.0,0.0,0.0,0.0,0.01
55,2055-01-01,34312190,240236.80999999985,0.0,0.88,0.007001500341423846,0.030823535927761825,0.0,0.0,0.0,0.0,0.05
56,2056-01-01,34406196,212886.2099999998,0.0,0.97,0.006187438157941081,0.028300353664113095,0.0,0.0,0.0,0.0,0.04
57,2057-01-01,34312190,293090.70999999956,0.0,0.87,0.008541882928486918,0.03212515311865204,0.0,0.0,0.0,0.0,0.06
58,2058-01-01,34312190,53453.32999999996,0.0,0.6900000000000001,0.0015578524716726026,0.009777774038290207,0.0,0.0,0.0,0.0,0.0
59,2059-01-01,34312190,301564.24000000063,0.0,1.1400000000000001,0.008788836853608022,0.030840536495727242,0.0,0.0,0.0,0.0,0.06
60,2060-01-01,34406196,813938.480000002,0.0,1.07,0.02365674136135253,0.07799349076931075,0.0,0.0,0.0,0.0,0.19
61,2061-01-01,34312190,215659.03000000055,0.0,0.88,0.006285201556647959,0.02947275564929059,0.0,0.0,0.0,0.0,0.04
62,2062-01-01,34312190,206929.78999999998,0.0,0.63,0.0060307951780402234,0.023518680675027603,0.0,0.0,0.0,0.0,0.05
63,2063-01-01,34312190,876291.2899999999,0.0,0.88,0.025538774703684024,0.061778669426651146,0.0,0.0,0.0,0.0,0.17
64,2064-01-01,34406196,449917.7600000016,0.0,1.1400000000000001,0.013076649333742143,0.04522785181416252,0.0,0.0,0.0,0.0,0.08
65,2065-01-01,34312190,58874.22999999994,0.0,0.53,0.001715840055677004,0.012859239963756446,0.0,0.0,0.0,0.0,0.0
66,2066-01-01,34312190,40236.67000000002,0.0,0.44,0.0011726640007530857,0.010001923920588874,0.0,0.0,0.0,0.0,0.0
67,2067-01-01,34312190,260597.51000000007,0.0,0.48,0.00759489586645446,0.02934968922240501,0.0,0.0,0.0,0.0,0.07
68,2068-01-01,34406196,169904.00000000015,0.0,0.63,0.004938180320777111,0.02196333078755494,0.0,0.0,0.0,0.0,0.03
69,2069-01-01,34312190,525547.3000000004,0.0,1.36,0.015316635283262315,0.050941988552645354,0.0,0.0,0.0,0.0,0.11
70,2070-01-01,34312190,571032.6099999998,0.0,1.23,0.016642266494793827,0.05884933123448956,0.0,0.0,0.0,0.0,0.11
71,2071-01-01,34312190,833316.4200000002,0.0,0.91,0.024286308160452602,0.07193775376325526,0.0,0.0,0.0,0.0,0.17
72,2072-01-01,34406196,426832.15999999933,0.0,0.98,0.012405677163496928,0.05830305560872177,0.0,0.0,0.0,0.0,0.08
73,2073-01-01,34312190,191179.09999999995,0.0,0.56,0.0055717545280554795,0.023093773083457468,0.0,0.0,0.0,0.0,0.04
74,2074-01-01,34312190,1035755.6299999985,0.0,1.57,0.030186229150631263,0.09214584674172192,0.0,0.0,0.0,0.0,0.25
75,2075-01-01,34312190,172778.06000000026,0.0,0.72,0.005035471650162822,0.01870223263364714,0.0,0.0,0.0,0.0,0.04
76,2076-01-01,34406196,598152.6100000005,0.0,0.54,0.017385025941257803,0.04954634442789172,0.0,0.0,0.0,0.0,0.15
77,2077-01-01,34312190,170963.07000000044,0.0,0.71,0.004982575288840509,0.024631423537131793,0.0,0.0,0.0,0.0,0.03
78,2078-01-01,34312190,539765.79,0.0,0.77,0.015731021249299447,0.04679927959882109,0.0,0.0,0.0,0.0,0.11
79,2079-01-01,34312190,50897.57000000002,0.0,0.73,0.001483366989982278,0.010231653271856983,0.0,0.0,0.0,0.0,0.0
80,2080-01-01,34406196,525653.1200000005,0.0,0.46,0.01527786216180366,0.040641100230216505,0.0,0.0,0.0,0.0,0.12
81,2081-01-01,34312190,117744.48,0.0,0.45,0.0034315641175920275,0.02220258484983874,0.0,0.0,0.0,0.0,0.01
82,2082-01-01,34312190,512726.0400000006,0.0,1.06,0.01494297041372179,0.05325318674262118,0.0,0.0,0.0,0.0,0.1
83,2083-01-01,34312190,444404.6199999995,0.0,0.92,0.012951799928829943,0.04616035274827434,0.0,0.0,0.0,0.0,0.09
84,2084-01-01,34406196,34610.98999999995,0.0,0.32,0.0010059522418578313,0.007790742170449694,0.0,0.0,0.0,0.0,0.0
85,2085-01-01,34312190,354204.0199999999,0.0,0.48,0.010322979092853004,0.03516747615668606,0.0,0.0,0.0,0.0,0.08
86,2086-01-01,34312190,122044.76999999983,0.0,0.9,0.0035568924629992963,0.018986159448968625,0.0,0.0,0.0,0.0,0.01
87,2087-01-01,34312190,480775.71,0.0,1.36,0.014011804842535554,0.0450719729918697,0.0,0.0,0.0,0.0,0.1
88,2088-01-01,34406196,167875.28000000012,0.0,1.28,0.004879216522512402,0.02865469850452041,0.0,0.0,0.0,0.0,0.02
89,2089-01-01,34312190,215101.86999999994,0.0,1.4000000000000001,0.006268963595736673,0.026114454492766316,0.0,0.0,0.0,0.0,0.04
90,2090-01-01,34312190,226126.77999999974,0.0,0.93,0.006590275351121562,0.02832428314872327,0.0,0.0,0.0,0.0,0.05
91,2091-01-01,34312190,828952.090000001,0.0,1.03,0.024159113422955545,0.06978922354617627,0.0,0.0,0.0,0.0,0.18
92,2092-01-01,34406196,473634.08999999985,0.0,0.8200000000000001,0.013765953376537176,0.048966875790776826,0.0,0.0,0.0,0.0,0.1
93,2093-01-01,34312190,2451430.149999992,0.0,1.27,0.07144487571326669,0.1676121068697514,0.0,0.0,0.0,0.0,0.5
94,2094-01-01,34312190,495588.12,0.0,1.28,0.014443500108853442,0.058020909974129266,0.0,0.0,0.0,0.0,0.11
95,2095-01-01,34312190,137431.31999999992,0.0,1.05,0.004005320558087371,0.023600193367183244,0.0,0.0,0.0,0.0,0.01
96,2096-01-01,34406196,203084.08000000025,0.0,0.5,0.005902543832512035,0.02847028362263851,0.0,0.0,0.0,0.0,0.03
97,2097-01-01,34312190,96580.94000000013,0.0,0.54,0.0028147704941013712,0.017599242273079217,0.0,0.0,0.0,0.0,0.0
98,2098-01-01,34312190,92385.70999999992,0.0,1.02,0.002692504034280526,0.02066960927069085,0.0,0.0,0.0,0.0,0.0
99,2099-01-01,34312190,138094.68,0.0,0.51,0.0040246536289289606,0.018982368924321667,0.0,0.0,0.0,0.0,0.03
100,2100-01-01,34218184,515156.80999999994,0.0,0.77,0.015055059906159834,0.04711177585969229,0.0,0.0,0.0,0.0,0.12
