,time,n,sum,min,max,mean,std,q0.05,q0.25,q0.50,q0.75,q0.95
0,2000-01-01,34406196,130141.25999999972,0.0,0.55,0.0037824948738884043,0.019820248851851886,0.0,0.0,0.0,0.0,0.02
1,2001-01-01,34312190,1162689.3000000033,0.0,0.9500000000000001,0.033885604503822206,0.08324844067867619,0.0,0.0,0.0,0.0,0.21
2,2002-01-01,34312190,113928.62000000001,0.0,0.71,0.0033203540782444957,0.015967247969511083,0.0,0.0,0.0,0.0,0.02
3,2003-01-01,34312190,195398.58999999973,0.0,0.8200000000000001,0.00569472802522951,0.026496594668642924,0.0,0.0,0.0,0.0,0.03
4,2004-01-01,34406196,309125.67000000004,0.0,0.78,0.008984593065737347,0.03732649912222528,0.0,0.0,0.0,0.0,0.06
5,2005-01-01,34312190,1600009.9200000009,0.0,1.42,0.046630947193985604,0.10068518376902381,0.0,0.0,0.0,0.0,0.27
6,2006-01-01,34312190,522489.58999999997,0.0,0.99,0.015227520889806216,0.05187918629100499,0.0,0.0,0.0,0.0,0.14
7,2007-01-01,34312190,488071.42000000086,0.0,1.1,0.01422443219159141,0.04624632953624941,0.0,0.0,0.0,0.0,0.1
8,2008-01-01,34406196,1265189.6800000013,0.0,1.53,0.036772146505239967,0.08858397821683307,0.0,0.0,0.0,0.0,0.26
9,2009-01-01,34312190,659141.3800000002,0.0,0.93,0.019210122699833507,0.05278206784333009,0.0,0.0,0.0,0.0,0.14
10,2010-01-01,34312190,1332900.7299999984,0.0,1.19,0.03884627387526119,0.0938589873041323,0.0,0.0,0.0,0.0,0.26
11,2011-01-01,34312190,768922.8199999998,0.0,0.71,0.02240961069520773,0.0641230055178292,0.0,0.0,0.0,0.0,0.17
12,2012-01-01,34406196,116437.78000000003,0.0,0.74,0.0033842096347995003,0.021432201428063652,0.0,0.0,0.0,0.0,0.0
13,2013-01-01,34312190,809491.28,0.0,1.03,0.02359194443723936,0.06372992124888054,0.0,0.0,0.0,0.0,0.17
14,2014-01-01,34312190,1774716.5800000047,0.0,1.78,0.05172262627363642,0.13258249157130256,0.0,0.0,0.0,0.0,0.38
15,2015-01-01,34312190,87860.69000000008,0.0,0.93,0.002560626121503759,0.0162001368857092,0.0,0.0,0.0,0.0,0.0
16,2016-01-01,34406196,592711.6000000013,0.0,1.34,0.017226885529571512,0.06045011137211987,0.0,0.0,0.0,0.0,0.14
17,2017-01-01,34312190,156197.40000000002,0.0,0.98,0.004552242220621884,0.02289626201545883,0.0,0.0,0.0,0.0,0.02
18,2018-01-01,34312190,217491.28000000038,0.0,0.92,0.006338600946194352,0.03116693128381309,0.0,0.0,0.0,0.0,0.04
19,2019-01-01,34312190,269864.90000000014,0.0,1.43,0.00786498617546709,0.035673028465831154,0.0,0.0,0.0,0.0,0.05
20,2020-01-01,34406196,555775.4400000011,0.0,1.1300000000000001,0.016153353308805227,0.04646377231041289,0.0,0.0,0.0,0.0,0.11
21,2021-01-01,34312190,3259091.5800000024,0.0,2.24,0.09498349070694707,0.2087078641487025,0.0,0.0,0.0,0.1,0.52
22,2022-01-01,34312190,3449294.9399999985,0.0,2.12,0.1005268081110532,0.2235033305152251,0.0,0.0,0.0,0.0,0.64
23,2023-01-01,34312190,670105.1000000011,0.0,0.9500000000000001,0.01952965112398833,0.06305012857002468,0.0,0.0,0.0,0.0,0.15
24,2024-01-01,34406196,872359.5200000012,0.0,1.08,0.0253547215739863,0.06694698879282204,0.0,0.0,0.0,0.0,0.15
25,2025-01-01,34312190,699977.8000000011,0.0,0.93,0.020400265911327757,0.06963145456666511,0.0,0.0,0.0,0.0,0.14
26,2026-01-01,34312190,458065.4399999999,0.0,0.7000000000000001,0.013349933070433565,0.046271029084155216,0.0,0.0,0.0,0.0,0.13
27,2027-01-01,34312190,465754.8500000012,0.0,1.23,0.013574034475794207,0.04647544782961628,0.0,0.0,0.0,0.0,0.1
28,2028-01-01,34406196,81205.01999999999,0.0,0.53,0.002360185938602454,0.01368340717897005,0.0,0.0,0.0,0.0,0.0
29,2029-01-01,34312190,349859.7400000005,0.0,1.08,0.010196368695790053,0.049540629936899803,0.0,0.0,0.0,0.0,0.06
30,2030-01-01,34312190,149556.41999999978,0.0,0.84,0.004358696428295594,0.02303909550585689,0.0,0.0,0.0,0.0,0.02
31,2031-01-01,34312190,1671962.41,0.0,1.53,0.04872794216865784,0.1150400896668781,0.0,0.0,0.0,0.03,0.27
32,2032-01-01,34406196,1177812.350000005,0.0,0.9400000000000001,0.034232565262373234,0.09615333612749803,0.0,0.0,0.0,0.0,0.26
33,2033-01-01,34312190,908566.3900000006,0.0,1.19,0.026479405424136453,0.07584554170990734,0.0,0.0,0.0,0.0,0.19
34,2034-01-01,34312190,272162.4300000002,0.0,0.63,0.00793194576038429,0.03280522881773735,0.0,0.0,0.0,0.0,0.06
35,2035-01-01,34312190,731527.1599999992,0.0,1.5,0.021319745548156476,0.08560060885355279,0.0,0.0,0.0,0.0,0.15
36,2036-01-01,34406196,329178.0799999999,0.0,1.84,0.009567406986811326,0.06866468554173831,0.0,0.0,0.0,0.0,0.01
37,2037-01-01,34312190,195207.1800000002,0.0,0.78,0.0056891495413146234,0.02265184344898533,0.0,0.0,0.0,0.0,0.04
38,2038-01-01,34312190,274396.61999999953,0.0,0.6,0.00799705935412457,0.03367349973559398,0.0,0.0,0.0,0.0,0.06
39,2039-01-01,34312190,99463.39000000003,0.0,0.52,0.002898777081847589,0.013575901331108354,0.0,0.0,0.0,0.0,0.02
40,2040-01-01,34406196,204467.40999999995,0.0,0.65,0.005942749672181137,0.028701898186914408,0.0,0.0,0.0,0.0,0.03
41,2041-01-01,34312190,232301.90999999974,0.0,1.05,0.006770244335905104,0.028072171210593105,0.0,0.0,0.0,0.0,0.05
42,2042-01-01,34312190,199194.80000000005,0.0,0.88,0.005805365381807458,0.022839078074105276,0.0,0.0,0.0,0.0,0.04
43,2043-01-01,34312190,239220.31999999992,0.0,0.91,0.006971875592901529,0.02803413590405643,0.0,0.0,0.0,0.0,0.06
44,2044-01-01,34406196,291170.89999999985,0.0,0.75,0.008462746070504273,0.03563767996133452,0.0,0.0,0.0,0.0,0.06
45,2045-01-01,34312190,289073.73999999964,0.0,0.66,0.008424811706859854,0.037074051417354335,0.0,0.0,0.0,0.0,0.06
46,2046-01-01,34312190,1169583.1000000022,0.0,0.87,0.034086518523008945,0.08768038055687467,0.0,0.0,0.0,0.0,0.25
47,2047-01-01,34312190,384565.33000000013,0.0,0.9400000000000001,0.011207834008846423,0.04485251260031841,0.0,0.0,0.0,0.0,0.08
48,2048-01-01,34406196,110005.65000000018,0.0,1.76,0.0031972627837148922,0.017029399583896664,0.0,0.0,0.0,0.0,0.02
49,2049-01-01,34312190,970220.5599999998,0.0,2.02,0.028276264499584546,0.08170053920326892,0.0,0.0,0.0,0.0,0.19
50,2050-01-01,34312190,929802.9200000007,0.0,1.35,0.027098326279960585,0.08549042009283864,0.0,0.0,0.0,0.0,0.22
51,2051-01-01,34312190,471225.56000000023,0.0,1.31,0.013733473730473055,0.05230525966191828,0.0,0.0,0.0,0.0,0.1
52,2052-01-01,34406196,131021.75000000001,0.0,0.58,0.0038080859040621642,0.016238469084715233,0.0,0.0,0.0,0.0,0.03
53,2053-01-01,34312190,148511.64000000022,0.0,0.67,0.004328247191450042,0.02177779175650443,0.0,0.0,0.0,0.0,0.02
54,2054-01-01,34312190,258198.49000000017,0.0,0.79,0.007524978440606681,0.03163732351837424,0.0,0.0,0.0,0.0,0.05
55,2055-01-01,34312190,66898.0900000001,0.0,0.77,0.001949688725785212,0.015061830235262754,0.0,0.0,0.0,0.0,0.0
56,2056-01-01,34406196,392957.4700000006,0.0,1.07,0.011421125136879434,0.04783207259026392,0.0,0.0,0.0,0.0,0.08
57,2057-01-01,34312190,396968.7999999996,0.0,0.62,0.011569322739236393,0.04935659124424102,0.0,0.0,0.0,0.0,0.09
58,2058-01-01,34312190,530755.1399999999,0.0,0.9,0.015468413412259605,0.059020041378209986,0.0,0.0,0.0,0.0,0.13
59,2059-01-01,34312190,69929.01999999999,0.0,0.73,0.002038022638601616,0.012568169748379788,0.0,0.0,0.0,0.0,0.0
60,2060-01-01,34406196,208103.65999999977,0.0,0.64,0.0060484355782894385,0.02658239832106844,0.0,0.0,0.0,0.0,0.05
61,2061-01-01,34312190,165531.8099999998,0.0,0.59,0.004824285771324995,0.02816328337538798,0.0,0.0,0.0,0.0,0.0
62,2062-01-01,34312190,212524.06000000043,0.0,0.53,0.006193835485289643,0.02884505263192705,0.0,0.0,0.0,0.0,0.04
63,2063-01-01,34312190,257064.7600000001,0.0,0.51,0.007491936830613263,0.03197061169359841,0.0,0.0,0.0,0.0,0.06
64,2064-01-01,34406196,370989.8399999998,0.0,0.79,0.010782646241973387,0.043809875234415166,0.0,0.0,0.0,0.0,0.09
65,2065-01-01,34312190,676139.6300000009,0.0,0.9500000000000001,0.019705522439692744,0.06720980416111587,0.0,0.0,0.0,0.0,0.18
66,2066-01-01,34312190,1251330.340000003,0.0,1.6300000000000001,0.03646897327159832,0.10322508231587875,0.0,0.0,0.0,0.0,0.29
67,2067-01-01,34312190,158228.80999999997,0.0,0.64,0.004611445961333275,0.020978475514582623,0.0,0.0,0.0,0.0,0.03
68,2068-01-01,34406196,822231.48,0.0,0.9400000000000001,0.02389777352893066,0.07477207298667264,0.0,0.0,0.0,0.0,0.19
69,2069-01-01,34312190,794377.6800000004,0.0,1.04,0.0231514712409788,0.07540550636144165,0.0,0.0,0.0,0.0,0.21
70,2070-01-01,34312190,96074.51000000005,0.0,1.05,0.002800011016492974,0.017896203379613382,0.0,0.0,0.0,0.0,0.0
71,2071-01-01,34312190,69451.99999999999,0.0,0.38,0.002024120290777126,0.011163081787215885,0.0,0.0,0.0,0.0,0.01
72,2072-01-01,34406196,3422.9300000000017,0.0,0.2,9.948586004683579e-05,0.0028338404018102563,0.0,0.0,0.0,0.0,0.0
73,2073-01-01,34312190,187818.5700000003,0.0,0.88,0.005473814699673798,0.03126015991667499,0.0,0.0,0.0,0.0,0.0
74,2074-01-01,34312190,67835.63000000005,0.0,0.34,0.001977012542772701,0.012354915546630955,0.0,0.0,0.0,0.0,0.0
75,2075-01-01,34312190,52595.74999999996,0.0,0.65,0.0015328590218228555,0.011148556275761619,0.0,0.0,0.0,0.0,0.0
76,2076-01-01,34406196,33131.78000000002,0.0,0.44,0.0009629596948177596,0.007028794854201938,0.0,0.0,0.0,0.0,0.0
77,2077-01-01,34312190,18038.769999999997,0.0,0.36,0.000525724822577632,0.005506925388470059,0.0,0.0,0.0,0.0,0.0
78,2078-01-01,34312190,73887.35000000002,0.0,0.56,0.002153384846609908,0.014088521112288597,0.0,0.0,0.0,0.0,0.0
79,2079-01-01,34312190,220142.10999999996,0.0,0.64,0.006415857163299689,0.029499955354624362,0.0,0.0,0.0,0.0,0.04
80,2080-01-01,34406196,46557.6,0.0,0.34,0.001353174875827598,0.009423038103073602,0.0,0.0,0.0,0.0,0.0
81,2081-01-01,34312190,286289.2200000003,0.0,0.8,0.008343659206830003,0.03434890570138133,0.0,0.0,0.0,0.0,0.07
82,2082-01-01,34312190,80305.27000000009,0.0,0.98,0.0023404297423160717,0.017165048569872342,0.0,0.0,0.0,0.0,0.0
83,2083-01-01,34312190,263864.56999999983,0.0,0.93,0.007690111590079206,0.037213298995474105,0.0,0.0,0.0,0.0,0.05
84,2084-01-01,34406196,201112.02999999997,0.0,0.72,0.0058452271213010575,0.029902966341308262,0.0,0.0,0.0,0.0,0.03
85,2085-01-01,34312190,7210.130000000016,0.0,0.28,0.00021013319173156873,0.0033797431635036964,0.0,0.0,0.0,0.0,0.0
86,2086-01-01,34312190,31243.98,0.0,0.41000000000000003,0.0009105795928502378,0.009114248051860044,0.0,0.0,0.0,0.0,0.0
87,2087-01-01,34312190,34619.72,0.0,0.47000000000000003,0.0010089627039253396,0.01020539302438726,0.0,0.0,0.0,0.0,0.0
88,2088-01-01,34406196,40264.20000000005,0.0,0.33,0.001170260147329279,0.008747250279291687,0.0,0.0,0.0,0.0,0.0
89,2089-01-01,34312190,202084.40999999974,0.0,0.88,0.005889580641748595,0.03854217818797979,0.0,0.0,0.0,0.0,0.02
90,2090-01-01,34312190,49988.72000000007,0.0,0.32,0.001456879318982556,0.008977534320497941,0.0,0.0,0.0,0.0,0.0
91,2091-01-01,34312190,26222.660000000025,0.0,0.44,0.0007642374328190659,0.008218480397211582,0.0,0.0,0.0,0.0,0.0
92,2092-01-01,34406196,394510.56999999966,0.0,0.74,0.011466265262221945,0.04250953617628484,0.0,0.0,0.0,0.0,0.11
93,2093-01-01,34312190,19002.140000000007,0.0,0.44,0.0005538014332515648,0.006653541859069114,0.0,0.0,0.0,0.0,0.0
94,2094-01-01,34312190,8654.27000000001,0.0,0.47000000000000003,0.00025222144083487556,0.0037780272888773394,0.0,0.0,0.0,0.0,0.0
95,2095-01-01,34312190,268702.25999999995,0.0,0.89,0.007831102007770414,0.03745170438365583,0.0,0.0,0.0,0.0,0.05
96,2096-01-01,34406196,171875.36999999988,0.0,0.86,0.004995477268106009,0.0341764769642891,0.0,0.0,0.0,0.0,0.0
97,2097-01-01,34312190,120580.54999999996,0.0,0.49,0.0035142189991370404,0.018656852177487956,0.0,0.0,0.0,0.0,0.01
98,2098-01-01,34312190,23218.139999999996,0.0,0.45,0.0006766732173026553,0.00681100595956873,0.0,0.0,0.0,0.0,0.0
99,2099-01-01,34312190,12783.630000000005,0.0,0.43,0.00037256817475072283,0.005285039227761179,0.0,0.0,0.0,0.0,0.0
100,2100-01-01,34218184,94993.54999999987,0.0,0.65,0.0027761131332977775,0.023835632233890673,0.0,0.0,0.0,0.0,0.0
