,time,n,sum,min,max,mean,std,q0.05,q0.25,q0.50,q0.75,q0.95
0,2000-01-01,27301770,16452824.76999998,0.0,9.59,0.602628502474381,0.7281183645307439,0.0,0.0,0.25,1.1,2.02
1,2001-01-01,27227175,14190871.550000012,0.0,9.74,0.5212024953011104,0.6991255682027057,0.0,0.0,0.18,0.87,1.96
2,2002-01-01,27227175,17479549.18999997,0.0,11.5,0.6419890859040636,0.9118152600942685,0.0,0.0,0.07,1.19,2.56
3,2003-01-01,27227175,15069061.23000005,0.0,9.46,0.5534566560798192,0.7187655490186847,0.0,0.0,0.21,0.9500000000000001,2.0300000000000002
4,2004-01-01,27301770,21390789.949999962,0.0,10.09,0.7834946214109914,0.894423203683912,0.0,0.0,0.42,1.41,2.5
5,2005-01-01,27227175,17179798.550000034,0.0,10.09,0.6309798409126189,0.8853371631504247,0.0,0.0,0.09,1.24,2.44
6,2006-01-01,27227175,19913574.970000032,0.0,10.48,0.731386013054973,0.9057042915487973,0.0,0.0,0.26,1.32,2.54
7,2007-01-01,27227175,14746362.60000001,0.0,10.290000000000001,0.5416045770448095,0.7414567603206396,0.0,0.0,0.09,1.02,2.04
8,2008-01-01,27301770,11292868.790000021,0.0,9.25,0.41363137957722235,0.6237146538499576,0.0,0.0,0.03,0.7000000000000001,1.75
9,2009-01-01,27227175,13302297.389999999,0.0,9.55,0.488566933220211,0.6987564576422153,0.0,0.0,0.08,0.8,1.97
10,2010-01-01,27227175,14216203.949999994,0.0,9.42,0.5221329039828772,0.6730498182112756,0.0,0.0,0.16,0.96,1.87
11,2011-01-01,27227175,15383164.780000009,0.0,9.91,0.5649930549166415,0.7357125598916879,0.0,0.0,0.15,1.06,2.05
12,2012-01-01,27301770,20010231.590000063,0.0,10.74,0.732927996609746,0.9639666727849331,0.0,0.0,0.17,1.37,2.71
13,2013-01-01,27227175,13455658.170000011,0.0,10.52,0.49419956973134416,0.7246321389892016,0.0,0.0,0.05,0.8200000000000001,2.05
14,2014-01-01,27227175,12956056.259999983,0.0,10.01,0.47585018497144793,0.7119806864518633,0.0,0.0,0.02,0.8300000000000001,1.99
15,2015-01-01,27227175,11966509.719999999,0.0,10.03,0.4395061081437938,0.6395430861720048,0.0,0.0,0.08,0.71,1.81
16,2016-01-01,27301770,18280445.269999996,0.0,10.75,0.6695699681742244,0.9182915269672143,0.0,0.0,0.12,1.23,2.56
17,2017-01-01,27227175,13748718.979999943,0.0,9.17,0.5049631105687588,0.6898738833527148,0.0,0.0,0.09,0.92,1.92
18,2018-01-01,27227175,20380869.399999954,0.0,10.27,0.748548808313751,1.0047513558118693,0.0,0.0,0.11,1.51,2.77
19,2019-01-01,27227175,10960178.290000007,0.0,9.35,0.40254555568104317,0.5854876456343516,0.0,0.0,0.06,0.67,1.6400000000000001
20,2020-01-01,27301770,15310702.679999974,0.0,10.52,0.5607952407481264,0.7959677327692585,0.0,0.0,0.06,0.99,2.24
21,2021-01-01,27227175,8682002.249999985,0.0,8.57,0.3188726795930898,0.479997588126985,0.0,0.0,0.0,0.55,1.33
22,2022-01-01,27227175,16401152.450000012,0.0,9.48,0.6023817178976524,0.7992949227016155,0.0,0.0,0.16,1.07,2.24
23,2023-01-01,27227175,16049813.650000017,0.0,9.86,0.5894777423658538,0.7751584873564041,0.0,0.0,0.11,1.1300000000000001,2.14
24,2024-01-01,27301770,10058030.720000012,0.0,9.52,0.3684021482856244,0.5463424934581924,0.0,0.0,0.01,0.65,1.5
25,2025-01-01,27227175,12897793.119999938,0.0,9.47,0.47371029568803735,0.7581434398079859,0.0,0.0,0.0,0.71,2.14
26,2026-01-01,27227175,16404245.439999996,0.0,10.33,0.6024953172703373,0.763789356035538,0.0,0.0,0.19,1.1,2.12
27,2027-01-01,27227175,15410671.290000023,0.0,10.040000000000001,0.5660033143357702,0.7849933951211523,0.0,0.0,0.12,0.98,2.24
28,2028-01-01,27301770,20318712.50999998,0.0,10.35,0.7442269314407081,0.9895088817149555,0.0,0.0,0.15,1.44,2.75
29,2029-01-01,27227175,18630399.55999999,0.0,10.69,0.6842575316756142,0.8814905945664461,0.0,0.0,0.24,1.21,2.5
30,2030-01-01,27227175,19380926.579999994,0.0,11.18,0.711822896793369,0.9727583825637998,0.0,0.0,0.14,1.3,2.74
31,2031-01-01,27227175,10822919.039999966,0.0,10.14,0.39750429635097895,0.625689193557287,0.0,0.0,0.0,0.63,1.73
32,2032-01-01,27301770,18271355.46000003,0.0,11.23,0.6692370296870873,0.8755799235611662,0.0,0.0,0.21,1.18,2.47
33,2033-01-01,27227175,23468858.530000076,0.0,10.700000000000001,0.8619645089878063,0.9440063309811427,0.0,0.0,0.49,1.58,2.65
34,2034-01-01,27227175,13032315.71999997,0.0,9.51,0.47865104330507924,0.627133380813875,0.0,0.0,0.09,0.9,1.71
35,2035-01-01,27227175,26397216.16000001,0.0,11.0,0.9695172620736456,1.0909899190604706,0.0,0.0,0.49,1.8,3.0100000000000002
36,2036-01-01,27301770,17129040.019999992,0.0,10.3,0.627396686002409,0.833837143683677,0.0,0.0,0.14,1.1400000000000001,2.32
37,2037-01-01,27227175,17341460.189999957,0.0,10.3,0.6369173515063519,0.8389010696900826,0.0,0.0,0.14,1.21,2.33
38,2038-01-01,27227175,13914538.320000015,0.0,9.38,0.5110533252164433,0.6923389247306599,0.0,0.0,0.1,0.93,1.9100000000000001
39,2039-01-01,27227175,14083747.270000009,0.0,9.96,0.5172680334996197,0.7387446389767803,0.0,0.0,0.06,0.89,2.07
40,2040-01-01,27301770,13519284.289999973,0.0,9.53,0.4951797736923274,0.710820081997621,0.0,0.0,0.03,0.92,1.97
41,2041-01-01,27227175,13238787.949999964,0.0,9.5,0.48623435776939633,0.6526025099400877,0.0,0.0,0.11,0.87,1.83
42,2042-01-01,27227175,19143526.37000003,0.0,10.55,0.7031036591199796,0.8670198810369881,0.0,0.0,0.24,1.31,2.43
43,2043-01-01,27227175,18566241.690000016,0.0,11.41,0.6819011406802218,0.9214268285107101,0.0,0.0,0.13,1.29,2.56
44,2044-01-01,27301770,12210965.300000008,0.0,10.55,0.44725910810910824,0.6480193018824415,0.0,0.0,0.08,0.72,1.84
45,2045-01-01,27227175,15665894.730000023,0.0,10.620000000000001,0.5753771638078509,0.8173654567894356,0.0,0.0,0.13,0.96,2.2800000000000002
46,2046-01-01,27227175,13204342.110000037,0.0,9.84,0.48496923055733976,0.6381080895190754,0.0,0.0,0.14,0.86,1.78
47,2047-01-01,27227175,16647901.65000006,0.0,11.290000000000001,0.6114443253844756,0.8611295822240213,0.0,0.0,0.08,1.1500000000000001,2.38
48,2048-01-01,27301770,14961226.959999982,0.0,9.77,0.547994762244352,0.7258532336289057,0.0,0.0,0.16,0.9500000000000001,2.05
49,2049-01-01,27227175,9785797.830000011,0.0,9.120000000000001,0.35941289649036345,0.5299907118497323,0.0,0.0,0.04,0.6,1.49
50,2050-01-01,27227175,12870235.599999994,0.0,10.72,0.4726981627730381,0.6696592593128802,0.0,0.0,0.03,0.89,1.81
51,2051-01-01,27227175,22686576.40999997,0.0,10.78,0.8332328421879968,1.1145135584566082,0.0,0.0,0.18,1.57,3.09
52,2052-01-01,27301770,15124837.28999998,0.0,11.3,0.5539874260899561,0.7576418405128593,0.0,0.0,0.15,0.93,2.16
53,2053-01-01,27227175,11957480.93999996,0.0,9.74,0.4391744990069649,0.6562570068414733,0.0,0.0,0.06,0.72,1.81
54,2054-01-01,27227175,17843717.990000047,0.0,10.82,0.6553642818250534,0.855933959425524,0.0,0.0,0.21,1.1500000000000001,2.43
55,2055-01-01,27227175,19135349.070000038,0.0,11.74,0.7028033231504935,0.8483547289158507,0.0,0.0,0.31,1.27,2.35
56,2056-01-01,27301770,17285176.589999992,0.0,11.200000000000001,0.6331156034938391,0.8722008114207126,0.0,0.0,0.09,1.17,2.4
57,2057-01-01,27227175,19993664.279999964,0.0,10.16,0.734327534163936,0.8944523850932,0.0,0.0,0.25,1.3900000000000001,2.48
58,2058-01-01,27227175,15996604.900000008,0.0,10.73,0.5875234907771375,0.8754775248380658,0.0,0.0,0.04,1.01,2.47
59,2059-01-01,27227175,15623579.040000007,0.0,11.32,0.5738229926534797,0.8659332036161896,0.0,0.0,0.02,1.0,2.44
60,2060-01-01,27301770,10791317.279999997,0.0,9.02,0.39526072045878335,0.5574224169361016,0.0,0.0,0.1,0.65,1.56
61,2061-01-01,27227175,14990366.769999985,0.0,9.59,0.5505663650378706,0.7091765199782861,0.0,0.0,0.15,1.02,1.96
62,2062-01-01,27227175,15035154.369999986,0.0,9.97,0.5522113245314648,0.7172186850571152,0.0,0.0,0.14,1.05,1.97
63,2063-01-01,27227175,14597081.549999975,0.0,9.8,0.5361217809045549,0.8472600273926799,0.0,0.0,0.0,0.96,2.34
64,2064-01-01,27301770,9369006.16999999,0.0,9.14,0.34316479004841044,0.516330131631133,0.0,0.0,0.04,0.53,1.48
65,2065-01-01,27227175,12914838.000000034,0.0,9.75,0.4743363202388802,0.7117269634209745,0.0,0.0,0.02,0.8200000000000001,2.0
66,2066-01-01,27227175,12995382.309999999,0.0,9.82,0.4772945525931353,0.7024122469319458,0.0,0.0,0.01,0.9400000000000001,1.92
67,2067-01-01,27227175,13081713.140000034,0.0,9.26,0.4804653123212391,0.6134032581668495,0.0,0.0,0.16,0.87,1.71
68,2068-01-01,27301770,17902575.6,0.0,11.33,0.6557294856707093,0.9521372734681105,0.0,0.0,0.06,1.31,2.62
69,2069-01-01,27227175,10261521.550000006,0.0,9.120000000000001,0.3768852828102808,0.6059619614277193,0.0,0.0,0.03,0.55,1.69
70,2070-01-01,27227175,21657811.81999994,0.0,10.07,0.79544836436391,0.9402121890111493,0.0,0.0,0.29,1.5,2.57
71,2071-01-01,27227175,26107141.600000035,0.0,10.19,0.9588634002609538,1.1468617554216198,0.0,0.0,0.36,1.84,3.14
72,2072-01-01,27301770,15016255.740000008,0.0,10.8,0.5500103377912864,0.8110543234144211,0.0,0.0,0.09,0.89,2.2800000000000002
73,2073-01-01,27227175,19747910.250000026,0.0,10.3,0.7253014772924486,0.8659780895900896,0.0,0.0,0.32,1.36,2.39
74,2074-01-01,27227175,25888821.039999936,0.0,11.3,0.9508449201946194,1.0393630198688295,0.0,0.0,0.52,1.77,2.88
75,2075-01-01,27227175,18657783.470000044,0.0,10.48,0.6852632882405186,0.9268701033714065,0.0,0.0,0.1,1.31,2.56
76,2076-01-01,27301770,13075415.260000024,0.0,10.18,0.4789218889471277,0.7347320109835697,0.0,0.0,0.0,0.8200000000000001,2.04
77,2077-01-01,27227175,13401898.039999979,0.0,9.4,0.4922250670515754,0.6984723436435462,0.0,0.0,0.03,0.96,1.92
78,2078-01-01,27227175,12116041.949999958,0.0,9.290000000000001,0.4449981296260063,0.618069224175029,0.0,0.0,0.07,0.81,1.72
79,2079-01-01,27227175,15903541.679999938,0.0,9.97,0.5841054637508275,0.7753623761914697,0.0,0.0,0.13,1.12,2.14
80,2080-01-01,27301770,18838617.090000067,0.0,10.86,0.6900144968622938,0.9152613248743587,0.0,0.0,0.12,1.35,2.5100000000000002
81,2081-01-01,27227175,16293663.169999992,0.0,10.35,0.5984338503719168,0.7761960699462817,0.0,0.0,0.17,1.08,2.17
82,2082-01-01,27227175,15244742.090000045,0.0,10.05,0.5599090647487316,0.7477988113784756,0.0,0.0,0.11,1.05,2.07
83,2083-01-01,27227175,15475235.66999999,0.0,9.56,0.5683746356351693,0.7483584654222802,0.0,0.0,0.11,1.09,2.06
84,2084-01-01,27301770,21606007.940000053,0.0,11.84,0.7913775531769571,1.1224664700947204,0.0,0.0,0.07,1.5,3.13
85,2085-01-01,27227175,13048989.940000001,0.0,9.41,0.47926345425112965,0.618956270473124,0.0,0.0,0.15,0.87,1.73
86,2086-01-01,27227175,21590008.500000034,0.0,10.39,0.7929580832385303,1.0176770792770806,0.0,0.0,0.14,1.6,2.77
87,2087-01-01,27227175,12986316.259999983,0.0,9.77,0.4769615746033139,0.6438379932803522,0.0,0.0,0.05,0.9,1.75
88,2088-01-01,27301770,10179530.420000006,0.0,9.120000000000001,0.37285239821447497,0.595994156657388,0.0,0.0,0.0,0.61,1.6500000000000001
89,2089-01-01,27227175,12393553.63000004,0.0,9.93,0.45519058183597966,0.6942930438244063,0.0,0.0,0.04,0.73,1.97
90,2090-01-01,27227175,12695437.0,0.0,9.34,0.46627815775966475,0.6337810290513409,0.0,0.0,0.05,0.88,1.74
91,2091-01-01,27227175,17187282.29000002,0.0,10.24,0.63125470380236,0.8806117041121635,0.0,0.0,0.12,1.17,2.47
92,2092-01-01,27301770,13988945.059999978,0.0,10.23,0.5123823495692762,0.7671934667881065,0.0,0.0,0.01,0.96,2.12
93,2093-01-01,27227175,8301900.489999992,0.0,8.68,0.30491229773195316,0.486800276017572,0.0,0.0,0.01,0.47000000000000003,1.36
94,2094-01-01,27227175,16497583.880000012,0.0,9.620000000000001,0.6059234525800056,0.8713736308388584,0.0,0.0,0.1,1.05,2.48
95,2095-01-01,27227175,16043755.81999998,0.0,9.84,0.5892552503151716,0.7867090263532208,0.0,0.0,0.1,1.16,2.17
96,2096-01-01,27301770,18547341.62999998,0.0,10.98,0.6793457578025154,0.8885366731412689,0.0,0.0,0.19,1.23,2.5
97,2097-01-01,27227175,13911908.990000034,0.0,10.200000000000001,0.5109567551536299,0.6895046227609697,0.0,0.0,0.08,0.9500000000000001,1.9000000000000001
98,2098-01-01,27227175,14371814.970000042,0.0,9.290000000000001,0.5278481873348977,0.6908694043735217,0.0,0.0,0.09,1.03,1.87
99,2099-01-01,27227175,16129369.029999975,0.0,10.77,0.5923996532875693,0.8658878846111504,0.0,0.0,0.03,1.1500000000000001,2.4
100,2100-01-01,27152580,6960439.520000017,0.0,7.62,0.2563454198459232,0.41231381944074735,0.0,0.0,0.0,0.41000000000000003,1.1400000000000001
