,time,n,sum,min,max,mean,std,q0.05,q0.25,q0.50,q0.75,q0.95
0,2000-01-01,52257846,2185645.160000008,0.0,7.13,0.04182424893670528,0.14324852222017118,0.0,0.0,0.0,0.0,0.3
1,2001-01-01,52115065,5951902.73999994,0.0,7.3,0.11420695225075397,0.23921770541715362,0.0,0.0,0.0,0.14,0.61
2,2002-01-01,52115065,3291867.810000015,0.0,6.46,0.06316537857143639,0.16941449416614976,0.0,0.0,0.0,0.03,0.36
3,2003-01-01,52115065,4526012.759999978,0.0,5.79,0.086846533914905,0.2307502354772385,0.0,0.0,0.0,0.04,0.5
4,2004-01-01,52257846,4343310.479999992,0.0,5.91,0.08311307894320773,0.23912565456061333,0.0,0.0,0.0,0.03,0.52
5,2005-01-01,52115065,10557797.890000002,0.0,6.13,0.2025862941934353,0.3876196060338839,0.0,0.0,0.0,0.25,1.09
6,2006-01-01,52115065,4036038.819999983,0.0,4.91,0.07744476227747164,0.20239154655153663,0.0,0.0,0.0,0.04,0.43
7,2007-01-01,52115065,5758038.539999974,0.0,5.32,0.1104870259684023,0.24172674442491407,0.0,0.0,0.0,0.12,0.5700000000000001
8,2008-01-01,52257846,9685801.10999996,0.0,5.98,0.18534635181863332,0.3608895133272287,0.0,0.0,0.0,0.24,0.9500000000000001
9,2009-01-01,52115065,9894668.399999972,0.0,5.97,0.18986196026043473,0.43639648010776166,0.0,0.0,0.0,0.12,1.22
10,2010-01-01,52115065,10901024.869999938,0.0,5.2700000000000005,0.20917223973528457,0.40649278323243254,0.0,0.0,0.0,0.23,1.16
11,2011-01-01,52115065,10134002.349999964,0.0,6.4,0.19445437418143802,0.3661068950984133,0.0,0.0,0.0,0.26,1.0
12,2012-01-01,52257846,5739887.8399999775,0.0,4.91,0.10983781918604103,0.2748976857208471,0.0,0.0,0.0,0.03,0.74
13,2013-01-01,52115065,7928149.469999978,0.0,5.97,0.15212778627446744,0.2921316448425315,0.0,0.0,0.0,0.19,0.8
14,2014-01-01,52115065,14197623.219999982,0.0,6.57,0.27242838937263114,0.5116822252063071,0.0,0.0,0.0,0.34,1.42
15,2015-01-01,52115065,4350751.099999981,0.0,7.29,0.08348355892868944,0.24559412762737626,0.0,0.0,0.0,0.01,0.55
16,2016-01-01,52257846,10836734.699999973,0.0,6.6000000000000005,0.20737048174545833,0.46547967940562945,0.0,0.0,0.0,0.14,1.32
17,2017-01-01,52115065,2867216.700000014,0.0,4.63,0.05501704161742894,0.15437711703627643,0.0,0.0,0.0,0.0,0.39
18,2018-01-01,52115065,4088286.5999999824,0.0,5.39,0.078447308853975,0.21263386233592113,0.0,0.0,0.0,0.02,0.5
19,2019-01-01,52115065,10777344.049999984,0.0,5.97,0.20679901387439475,0.4547325612464682,0.0,0.0,0.0,0.17,1.22
20,2020-01-01,52257846,15644490.279999968,0.0,9.23,0.29937112754322037,0.6169045405283723,0.0,0.0,0.0,0.23,1.76
21,2021-01-01,52115065,20537664.680000003,0.0,8.81,0.39408306753527034,0.7413502911093824,0.0,0.0,0.0,0.41000000000000003,2.16
22,2022-01-01,52115065,13149085.409999939,0.0,8.69,0.25230872128817144,0.4753480208159063,0.0,0.0,0.0,0.31,1.32
23,2023-01-01,52115065,3768822.7199999704,0.0,7.04,0.07231733703104794,0.17622465514005828,0.0,0.0,0.0,0.03,0.44
24,2024-01-01,52257846,3830839.099999971,0.0,6.36,0.07330648683835861,0.20143682195790855,0.0,0.0,0.0,0.03,0.41000000000000003
25,2025-01-01,52115065,7727213.739999964,0.0,5.74,0.1482721692854065,0.3509281842087151,0.0,0.0,0.0,0.06,1.0
26,2026-01-01,52115065,3251442.9600000097,0.0,4.2700000000000005,0.06238969403568833,0.15172161159082448,0.0,0.0,0.0,0.02,0.39
27,2027-01-01,52115065,10468939.439999973,0.0,7.15,0.20088125074774393,0.40975895876396945,0.0,0.0,0.0,0.22,1.09
28,2028-01-01,52257846,3694238.2699999777,0.0,4.83,0.07069250940806052,0.21070418592926118,0.0,0.0,0.0,0.0,0.55
29,2029-01-01,52115065,4445411.939999969,0.0,5.73,0.08529994042989236,0.2524404110418139,0.0,0.0,0.0,0.0,0.59
30,2030-01-01,52115065,7883179.339999963,0.0,5.71,0.15126488549903877,0.34354033322174493,0.0,0.0,0.0,0.09,0.9400000000000001
31,2031-01-01,52115065,12031993.090000005,0.0,6.32,0.2308736080440465,0.46983078772784626,0.0,0.0,0.0,0.23,1.29
32,2032-01-01,52257846,7704856.779999951,0.0,5.36,0.14743923390948702,0.32537270256571305,0.0,0.0,0.0,0.06,0.91
33,2033-01-01,52115065,7092642.62999999,0.0,7.0200000000000005,0.13609582238840132,0.2915344015004739,0.0,0.0,0.0,0.13,0.76
34,2034-01-01,52115065,7114168.719999988,0.0,7.82,0.1365088716669544,0.3460463852348317,0.0,0.0,0.0,0.04,0.89
35,2035-01-01,52115065,16779678.659999933,0.0,5.78,0.3219736684584377,0.6510995278690751,0.0,0.0,0.0,0.28,1.87
36,2036-01-01,52257846,8472921.18999997,0.0,5.92,0.16213682420052233,0.509515310148263,0.0,0.0,0.0,0.0,1.3900000000000001
37,2037-01-01,52115065,2704241.8099999647,0.0,4.92,0.051889828977474454,0.1371081668491539,0.0,0.0,0.0,0.02,0.31
38,2038-01-01,52115065,4509548.429999982,0.0,4.97,0.08653061125415429,0.2490209358275982,0.0,0.0,0.0,0.0,0.65
39,2039-01-01,52115065,6561067.639999978,0.0,5.87,0.1258957969255143,0.28753833351025765,0.0,0.0,0.0,0.09,0.77
40,2040-01-01,52257846,5486958.609999973,0.0,5.53,0.10499779516361951,0.2346441494287304,0.0,0.0,0.0,0.08,0.63
41,2041-01-01,52115065,6887401.529999943,0.0,4.91,0.1321575926270061,0.3125054749150484,0.0,0.0,0.0,0.04,0.84
42,2042-01-01,52115065,4135253.5799999693,0.0,4.78,0.07934852580534955,0.22331973894669394,0.0,0.0,0.0,0.0,0.61
43,2043-01-01,52115065,5227871.12999999,0.0,5.43,0.10031400958628738,0.26714052998548266,0.0,0.0,0.0,0.04,0.65
44,2044-01-01,52257846,5162569.889999996,0.0,4.65,0.0987903307380866,0.2823649770081914,0.0,0.0,0.0,0.01,0.64
45,2045-01-01,52115065,3201143.2199999765,0.0,3.64,0.06142452705374111,0.15984050949432482,0.0,0.0,0.0,0.0,0.41000000000000003
46,2046-01-01,52115065,10155858.049999978,0.0,5.8500000000000005,0.19487374811870575,0.41793121086206036,0.0,0.0,0.0,0.17,1.1500000000000001
47,2047-01-01,52115065,7096793.909999959,0.0,5.57,0.13617547843411418,0.30973982405207573,0.0,0.0,0.0,0.09,0.8200000000000001
48,2048-01-01,52257846,4545724.619999975,0.0,5.42,0.08698645213964569,0.21561210259384908,0.0,0.0,0.0,0.05,0.51
49,2049-01-01,52115065,10863026.619999927,0.0,6.47,0.20844311755151657,0.43642046515289906,0.0,0.0,0.0,0.22,1.1300000000000001
50,2050-01-01,52115065,6116970.55999997,0.0,4.94,0.11737432467943712,0.248501002646601,0.0,0.0,0.0,0.09,0.6900000000000001
51,2051-01-01,52115065,9231946.56999998,0.0,5.07,0.17714544863371043,0.34890031420956663,0.0,0.0,0.0,0.2,0.9400000000000001
52,2052-01-01,52257846,3478091.5299999746,0.0,4.78,0.06655635079180215,0.22252489142390994,0.0,0.0,0.0,0.0,0.41000000000000003
53,2053-01-01,52115065,3386479.8899999755,0.0,3.64,0.06498082445066461,0.1724343674529995,0.0,0.0,0.0,0.0,0.43
54,2054-01-01,52115065,7045042.569999954,0.0,7.32,0.13518245770200907,0.35526166617150917,0.0,0.0,0.0,0.07,0.8300000000000001
55,2055-01-01,52115065,2581277.4899999886,0.0,4.29,0.0495303515403845,0.16651610660831903,0.0,0.0,0.0,0.0,0.36
56,2056-01-01,52257846,7487851.429999985,0.0,8.11,0.1432866450331685,0.3768860702433833,0.0,0.0,0.0,0.07,0.86
57,2057-01-01,52115065,4250642.17,0.0,3.49,0.08156263779005168,0.19751347273866546,0.0,0.0,0.0,0.02,0.52
58,2058-01-01,52115065,7442895.749999946,0.0,4.82,0.14281658767958835,0.33077880436460844,0.0,0.0,0.0,0.06,0.93
59,2059-01-01,52115065,2266896.5000000023,0.0,2.57,0.04349791178424132,0.13115768631388622,0.0,0.0,0.0,0.0,0.33
60,2060-01-01,52257846,1711339.2900000094,0.0,2.64,0.03274798754621477,0.11302306561100008,0.0,0.0,0.0,0.0,0.23
61,2061-01-01,52115065,2042510.5500000033,0.0,3.09,0.03919232471455237,0.11643236671471584,0.0,0.0,0.0,0.0,0.26
62,2062-01-01,52115065,5491885.2699999735,0.0,4.42,0.1053799946330293,0.2590525392622114,0.0,0.0,0.0,0.05,0.64
63,2063-01-01,52115065,3033185.449999975,0.0,4.22,0.058201701369843345,0.1653996077949223,0.0,0.0,0.0,0.01,0.38
64,2064-01-01,52257846,2123317.070000012,0.0,2.54,0.0406315459309213,0.11513780104767656,0.0,0.0,0.0,0.0,0.29
65,2065-01-01,52115065,8224445.909999926,0.0,4.67,0.15781321408694254,0.35531664490248793,0.0,0.0,0.0,0.13,0.92
66,2066-01-01,52115065,10488636.92999994,0.0,5.64,0.2012592122834336,0.4008566090078978,0.0,0.0,0.0,0.22,1.1300000000000001
67,2067-01-01,52115065,3850722.349999964,0.0,5.38,0.07388885248440089,0.21252254341173488,0.0,0.0,0.0,0.0,0.48
68,2068-01-01,52257846,4242315.419999985,0.0,4.05,0.08118044934343419,0.19713163399860892,0.0,0.0,0.0,0.03,0.49
69,2069-01-01,52115065,3819487.5000000084,0.0,3.3000000000000003,0.07328950851351732,0.18033578729510824,0.0,0.0,0.0,0.0,0.49
70,2070-01-01,52115065,1836504.8700000076,0.0,2.43,0.03523942395543415,0.1282535783774162,0.0,0.0,0.0,0.0,0.23
71,2071-01-01,52115065,2897634.9499999722,0.0,3.2,0.05560071641472523,0.1729442599165743,0.0,0.0,0.0,0.0,0.36
72,2072-01-01,52257846,1186170.6900000065,0.0,3.79,0.02269842293155379,0.09392497140889426,0.0,0.0,0.0,0.0,0.15
73,2073-01-01,52115065,2428762.019999982,0.0,3.74,0.04660383748921702,0.15101951980972367,0.0,0.0,0.0,0.0,0.35000000000000003
74,2074-01-01,52115065,1150212.45,0.0,3.81,0.02207063255125941,0.08436040137914529,0.0,0.0,0.0,0.0,0.14
75,2075-01-01,52115065,2461728.720000009,0.0,4.09,0.0472364127340148,0.1613462766850929,0.0,0.0,0.0,0.0,0.31
76,2076-01-01,52257846,2650834.9999999744,0.0,5.3100000000000005,0.050726067048381104,0.1681794991342895,0.0,0.0,0.0,0.0,0.37
77,2077-01-01,52115065,963537.3500000039,0.0,3.12,0.018488652945170537,0.07682375992803729,0.0,0.0,0.0,0.0,0.12
78,2078-01-01,52115065,1836648.4700000016,0.0,4.01,0.03524217939668696,0.12483251687764553,0.0,0.0,0.0,0.0,0.26
79,2079-01-01,52115065,4192990.179999969,0.0,4.68,0.0804563935591363,0.2421897341609423,0.0,0.0,0.0,0.0,0.55
80,2080-01-01,52257846,1245731.7900000073,0.0,2.64,0.023838177141859374,0.0857590682400924,0.0,0.0,0.0,0.0,0.16
81,2081-01-01,52115065,2029583.3400000064,0.0,3.02,0.03894427340731526,0.12412972652987335,0.0,0.0,0.0,0.0,0.27
82,2082-01-01,52115065,3614398.859999974,0.0,3.92,0.06935420420179796,0.21645875806144543,0.0,0.0,0.0,0.0,0.52
83,2083-01-01,52115065,2363820.810000013,0.0,3.0100000000000002,0.045357725448486215,0.12951084822869588,0.0,0.0,0.0,0.0,0.31
84,2084-01-01,52257846,2246560.3999999855,0.0,3.71,0.042989915810919294,0.13179072604400457,0.0,0.0,0.0,0.0,0.31
85,2085-01-01,52115065,573626.8900000058,0.0,2.5,0.011006930337705726,0.059027105426859544,0.0,0.0,0.0,0.0,0.05
86,2086-01-01,52115065,608074.9399999995,0.0,1.82,0.011667930184870718,0.05673300561202441,0.0,0.0,0.0,0.0,0.07
87,2087-01-01,52115065,657894.5100000045,0.0,1.83,0.0126238835162156,0.054362879416246464,0.0,0.0,0.0,0.0,0.08
88,2088-01-01,52257846,756401.9600000039,0.0,2.02,0.014474419018342316,0.05847797136947073,0.0,0.0,0.0,0.0,0.1
89,2089-01-01,52115065,1502008.9800000116,0.0,2.99,0.028821013271306706,0.0999740829497675,0.0,0.0,0.0,0.0,0.19
90,2090-01-01,52115065,1394437.750000004,0.0,2.54,0.02675690321023305,0.08680148786213825,0.0,0.0,0.0,0.0,0.17
91,2091-01-01,52115065,724090.6100000062,0.0,2.45,0.013894074774731762,0.05850831769253862,0.0,0.0,0.0,0.0,0.1
92,2092-01-01,52257846,2283543.880000007,0.0,2.38,0.04369762733810358,0.1210891180664316,0.0,0.0,0.0,0.0,0.32
93,2093-01-01,52115065,914379.8200000032,0.0,2.64,0.017545403042287355,0.07461785335593431,0.0,0.0,0.0,0.0,0.12
94,2094-01-01,52115065,877256.1600000062,0.0,2.04,0.016833062762178386,0.06976094340826622,0.0,0.0,0.0,0.0,0.11
95,2095-01-01,52115065,4054544.9299999783,0.0,4.93,0.07779986324491735,0.20325570757347233,0.0,0.0,0.0,0.03,0.46
96,2096-01-01,52257846,1413347.7000000135,0.0,3.39,0.027045655498315287,0.10868087671268901,0.0,0.0,0.0,0.0,0.18
97,2097-01-01,52115065,1714969.5900000038,0.0,2.33,0.032907367380238396,0.10257341022740331,0.0,0.0,0.0,0.0,0.25
98,2098-01-01,52115065,1387025.1600000146,0.0,3.34,0.026614668138666135,0.10621785878254493,0.0,0.0,0.0,0.0,0.18
99,2099-01-01,52115065,837969.7000000037,0.0,3.02,0.016079222006151268,0.07596604379041315,0.0,0.0,0.0,0.0,0.1
100,2100-01-01,51972284,1646971.0200000014,0.0,4.75,0.03168941007095246,0.11508663055769246,0.0,0.0,0.0,0.0,0.22
