,time,n,sum,min,max,mean,std,q0.05,q0.25,q0.50,q0.75,q0.95
0,2000-01-01,554856,3301.470000000001,0.0,1.85,0.005950138414291277,0.05601509970317954,0.0,0.0,0.0,0.0,0.01
1,2001-01-01,553340,3349.3500000000004,0.0,0.97,0.006052969241334442,0.032539001497945134,0.0,0.0,0.0,0.0,0.02
2,2002-01-01,553340,7834.230000000003,0.0,2.27,0.014158076408717973,0.10003805500884241,0.0,0.0,0.0,0.0,0.04
3,2003-01-01,553340,9069.780000000004,0.0,3.4,0.016390971193118165,0.1240389439882212,0.0,0.0,0.0,0.0,0.05
4,2004-01-01,554856,16264.750000000002,0.0,1.12,0.02931346151073432,0.08568100396713253,0.0,0.0,0.0,0.0,0.22
5,2005-01-01,553340,5012.380000000002,0.0,1.02,0.009058408934832113,0.03783735168785755,0.0,0.0,0.0,0.0,0.06
6,2006-01-01,553340,5628.639999999998,0.0,1.11,0.010172118408211944,0.04316321197634722,0.0,0.0,0.0,0.0,0.08
7,2007-01-01,553340,5909.930000000001,0.0,0.89,0.010680467705208373,0.047100876623421384,0.0,0.0,0.0,0.0,0.09
8,2008-01-01,554856,2024.87,0.0,0.92,0.0036493612757183846,0.028799588766543656,0.0,0.0,0.0,0.0,0.0
9,2009-01-01,553340,6262.650000000001,0.0,1.35,0.011317905808363756,0.060989601409446995,0.0,0.0,0.0,0.0,0.05
10,2010-01-01,553340,7317.920000000002,0.0,1.08,0.013224997289189291,0.05524236821917015,0.0,0.0,0.0,0.0,0.09
11,2011-01-01,553340,8566.97,0.0,1.92,0.015482289370007589,0.06717392336669502,0.0,0.0,0.0,0.0,0.1
12,2012-01-01,554856,17800.280000000002,0.0,2.33,0.03208090026961951,0.12017764730915732,0.0,0.0,0.0,0.0,0.24
13,2013-01-01,553340,4239.35,0.0,2.0300000000000002,0.007661383597787979,0.07104521507794423,0.0,0.0,0.0,0.0,0.01
14,2014-01-01,553340,2995.0500000000006,0.0,1.97,0.005412675750894568,0.06826846096068609,0.0,0.0,0.0,0.0,0.0
15,2015-01-01,553340,2041.8100000000004,0.0,1.3800000000000001,0.0036899736147757265,0.03603546992425714,0.0,0.0,0.0,0.0,0.0
16,2016-01-01,554856,3689.979999999999,0.0,1.36,0.00665033810574275,0.04365186549141112,0.0,0.0,0.0,0.0,0.02
17,2017-01-01,553340,4173.540000000001,0.0,2.0100000000000002,0.007542451295767523,0.07050687400937027,0.0,0.0,0.0,0.0,0.01
18,2018-01-01,553340,3086.230000000001,0.0,1.12,0.005577456898109663,0.04269539278254586,0.0,0.0,0.0,0.0,0.01
19,2019-01-01,553340,9431.029999999997,0.0,1.27,0.0170438247731955,0.0705538360405971,0.0,0.0,0.0,0.0,0.12
20,2020-01-01,554856,4598.9400000000005,0.0,1.8900000000000001,0.008288528915610537,0.06119388458532531,0.0,0.0,0.0,0.0,0.02
21,2021-01-01,553340,10817.070000000002,0.0,2.4,0.019548686160407707,0.09028000475962102,0.0,0.0,0.0,0.0,0.15
22,2022-01-01,553340,2874.7200000000003,0.0,2.11,0.005195214515487765,0.06091231220917324,0.0,0.0,0.0,0.0,0.0
23,2023-01-01,553340,9072.400000000001,0.0,1.6400000000000001,0.016395706075830414,0.07102387728814989,0.0,0.0,0.0,0.0,0.13
24,2024-01-01,554856,10482.460000000003,0.0,1.98,0.018892217079746823,0.09748119765325082,0.0,0.0,0.0,0.0,0.09
25,2025-01-01,553340,6948.559999999999,0.0,2.73,0.012557487259189646,0.09195241676119244,0.0,0.0,0.0,0.0,0.03
26,2026-01-01,553340,2982.79,0.0,1.1,0.0053905193913326346,0.04185936072906662,0.0,0.0,0.0,0.0,0.01
27,2027-01-01,553340,2993.450000000001,0.0,1.05,0.005409784219467238,0.038515589671639046,0.0,0.0,0.0,0.0,0.01
28,2028-01-01,554856,11067.6,0.0,1.53,0.019946797006790952,0.07250241101664233,0.0,0.0,0.0,0.0,0.17
29,2029-01-01,553340,13277.379999999996,0.0,1.56,0.023994975964145,0.09043696194074084,0.0,0.0,0.0,0.0,0.13
30,2030-01-01,553340,5975.260000000001,0.0,2.5,0.01079853254780063,0.0863498960699183,0.0,0.0,0.0,0.0,0.03
31,2031-01-01,553340,5573.870000000001,0.0,1.33,0.010073137673040085,0.05541402765983965,0.0,0.0,0.0,0.0,0.07
32,2032-01-01,554856,3077.200000000001,0.0,1.9000000000000001,0.005545943451994754,0.0585273677110685,0.0,0.0,0.0,0.0,0.0
33,2033-01-01,553340,3034.5700000000006,0.0,1.3900000000000001,0.005484096577149674,0.05341938528679231,0.0,0.0,0.0,0.0,0.0
34,2034-01-01,553340,3872.7700000000004,0.0,2.86,0.00699889760364333,0.09357955444022159,0.0,0.0,0.0,0.0,0.0
35,2035-01-01,553340,1703.4600000000005,0.0,0.59,0.0030785050782520702,0.019284022223104012,0.0,0.0,0.0,0.0,0.01
36,2036-01-01,554856,2554.9200000000014,0.0,1.29,0.0046046541805441436,0.04754556658580945,0.0,0.0,0.0,0.0,0.0
37,2037-01-01,553340,6289.97,0.0,1.32,0.011367278707485452,0.053957631445048115,0.0,0.0,0.0,0.0,0.08
38,2038-01-01,553340,1944.3600000000004,0.0,1.02,0.0035138612787797745,0.03351577492196234,0.0,0.0,0.0,0.0,0.0
39,2039-01-01,553340,1838.38,0.0,1.18,0.003322333465861857,0.03177100744987481,0.0,0.0,0.0,0.0,0.0
40,2040-01-01,554856,6054.6600000000035,0.0,1.49,0.010912128552273028,0.06258203336147128,0.0,0.0,0.0,0.0,0.07
41,2041-01-01,553340,4060.3,0.0,1.9100000000000001,0.007337803158998085,0.05736153231490348,0.0,0.0,0.0,0.0,0.02
42,2042-01-01,553340,571.1200000000001,0.0,0.49,0.0010321321429862293,0.011425625794809243,0.0,0.0,0.0,0.0,0.0
43,2043-01-01,553340,3432.6600000000003,0.0,2.2,0.006203527668341346,0.07480022427109831,0.0,0.0,0.0,0.0,0.0
44,2044-01-01,554856,12190.54,0.0,1.26,0.021970637426647635,0.07179541912992278,0.0,0.0,0.0,0.0,0.17
45,2045-01-01,553340,4216.37,0.0,0.86,0.00761985397766292,0.03835951288533288,0.0,0.0,0.0,0.0,0.05
46,2046-01-01,553340,34194.91,0.0,0.8300000000000001,0.0617972855748726,0.12749579804320516,0.0,0.0,0.0,0.0,0.38
47,2047-01-01,553340,5448.829999999999,0.0,1.57,0.00984716449199407,0.063250196020256,0.0,0.0,0.0,0.0,0.03
48,2048-01-01,554856,8504.909999999998,0.0,2.2800000000000002,0.01532813919287166,0.0886870525131905,0.0,0.0,0.0,0.0,0.06
49,2049-01-01,553340,5520.84,0.0,1.45,0.009977301478295442,0.053500491488947886,0.0,0.0,0.0,0.0,0.05
50,2050-01-01,553340,1797.24,0.0,0.59,0.0032479849640365778,0.0208019710614641,0.0,0.0,0.0,0.0,0.01
51,2051-01-01,553340,4043.0000000000005,0.0,1.46,0.007306538475440056,0.052096018364892104,0.0,0.0,0.0,0.0,0.02
52,2052-01-01,554856,3432.149999999999,0.0,1.3800000000000001,0.006185658981789868,0.052830388158678285,0.0,0.0,0.0,0.0,0.01
53,2053-01-01,553340,2429.59,0.0,1.45,0.004390772400332526,0.0473109236436267,0.0,0.0,0.0,0.0,0.0
54,2054-01-01,553340,2657.28,0.0,1.84,0.00480225539451332,0.05429692143995618,0.0,0.0,0.0,0.0,0.0
55,2055-01-01,553340,1998.5499999999993,0.0,0.78,0.00361179383380923,0.03521825103410627,0.0,0.0,0.0,0.0,0.0
56,2056-01-01,554856,5308.580000000001,0.0,1.02,0.009567491385152185,0.044193853318952,0.0,0.0,0.0,0.0,0.07
57,2057-01-01,553340,6369.560000000001,0.0,1.1,0.01151111432392381,0.04596340573778773,0.0,0.0,0.0,0.0,0.07
58,2058-01-01,553340,3208.649999999999,0.0,1.25,0.005798695196443415,0.05584586670620317,0.0,0.0,0.0,0.0,0.0
59,2059-01-01,553340,6968.219999999999,0.0,0.71,0.012593016951602991,0.041428535766687216,0.0,0.0,0.0,0.0,0.11
60,2060-01-01,554856,1866.6000000000004,0.0,1.09,0.0033641160949868082,0.03807164563435974,0.0,0.0,0.0,0.0,0.0
61,2061-01-01,553340,3170.050000000001,0.0,1.6400000000000001,0.005728937000759029,0.053188858040878015,0.0,0.0,0.0,0.0,0.0
62,2062-01-01,553340,2599.9500000000007,0.0,2.0100000000000002,0.004698648209057723,0.05520998679692571,0.0,0.0,0.0,0.0,0.0
63,2063-01-01,553340,2169.4,0.0,1.07,0.003920555174034048,0.03996532155098195,0.0,0.0,0.0,0.0,0.0
64,2064-01-01,554856,7840.63,0.0,1.29,0.014130927664114654,0.06605076881676711,0.0,0.0,0.0,0.0,0.07
65,2065-01-01,553340,3941.33,0.0,0.58,0.007122799725304514,0.03312831786127295,0.0,0.0,0.0,0.0,0.04
66,2066-01-01,553340,2871.2599999999998,0.0,2.11,0.005188961578776159,0.05884517346926937,0.0,0.0,0.0,0.0,0.0
67,2067-01-01,553340,2788.459999999999,0.0,1.41,0.005039324827411716,0.05011236234882123,0.0,0.0,0.0,0.0,0.01
68,2068-01-01,554856,3339.2600000000007,0.0,2.35,0.006018246175584297,0.07721344964407652,0.0,0.0,0.0,0.0,0.0
69,2069-01-01,553340,2797.0799999999995,0.0,1.05,0.0050549029529764694,0.037507875151654574,0.0,0.0,0.0,0.0,0.01
70,2070-01-01,553340,7807.5199999999995,0.0,1.92,0.014109805905952939,0.07383313079903622,0.0,0.0,0.0,0.0,0.07
71,2071-01-01,553340,1459.38,0.0,0.54,0.0026374019590125423,0.02090304275774393,0.0,0.0,0.0,0.0,0.0
72,2072-01-01,554856,3558.6099999999997,0.0,1.78,0.006413573972345978,0.052681534126863515,0.0,0.0,0.0,0.0,0.01
73,2073-01-01,553340,1866.3999999999999,0.0,1.98,0.003372971409983012,0.05292359257280419,0.0,0.0,0.0,0.0,0.0
74,2074-01-01,553340,3788.7400000000007,0.0,1.02,0.0068470379874941275,0.039503106862539585,0.0,0.0,0.0,0.0,0.04
75,2075-01-01,553340,8385.390000000001,0.0,1.6400000000000001,0.01515413669714823,0.0814684591153566,0.0,0.0,0.0,0.0,0.09
76,2076-01-01,554856,1878.5299999999995,0.0,0.73,0.0033856171691393796,0.02157342943792419,0.0,0.0,0.0,0.0,0.02
77,2077-01-01,553340,3890.630000000001,0.0,1.36,0.007031174323200927,0.04291479912352742,0.0,0.0,0.0,0.0,0.04
78,2078-01-01,553340,6132.999999999998,0.0,1.33,0.01108360140239274,0.05104709201732147,0.0,0.0,0.0,0.0,0.08
79,2079-01-01,553340,821.24,0.0,1.1,0.0014841507933639354,0.017335555383907738,0.0,0.0,0.0,0.0,0.0
80,2080-01-01,554856,5294.610000000002,0.0,3.96,0.009542313681387608,0.12680049844533453,0.0,0.0,0.0,0.0,0.0
81,2081-01-01,553340,3879.4700000000007,0.0,1.97,0.0070110058914952846,0.06900126991767193,0.0,0.0,0.0,0.0,0.01
82,2082-01-01,553340,3261.2299999999996,0.0,1.36,0.00589371814797412,0.057691646166954436,0.0,0.0,0.0,0.0,0.0
83,2083-01-01,553340,2109.2900000000004,0.0,1.21,0.003811923952723462,0.027329352274200146,0.0,0.0,0.0,0.0,0.01
84,2084-01-01,554856,2979.69,0.0,2.07,0.005370204161079631,0.07350149979607605,0.0,0.0,0.0,0.0,0.0
85,2085-01-01,553340,3309.16,0.0,0.86,0.0059803375862941405,0.03012702790717404,0.0,0.0,0.0,0.0,0.04
86,2086-01-01,553340,1093.02,0.0,1.44,0.001975313550439151,0.029549708626411916,0.0,0.0,0.0,0.0,0.0
87,2087-01-01,553340,1383.9399999999994,0.0,0.6,0.0025010662522138277,0.02332602018131307,0.0,0.0,0.0,0.0,0.0
88,2088-01-01,554856,432.2999999999999,0.0,0.44,0.0007791210692503999,0.013163842045197001,0.0,0.0,0.0,0.0,0.0
89,2089-01-01,553340,1382.9199999999996,0.0,0.47000000000000003,0.0024992229009289037,0.016089002209428667,0.0,0.0,0.0,0.0,0.01
90,2090-01-01,553340,1030.5800000000002,0.0,0.72,0.0018624715364875125,0.023134960475851056,0.0,0.0,0.0,0.0,0.0
91,2091-01-01,553340,310.48000000000013,0.0,0.54,0.0005611016734738138,0.010400567756197,0.0,0.0,0.0,0.0,0.0
92,2092-01-01,554856,281.99000000000007,0.0,0.33,0.0005082219530833227,0.006033454549886495,0.0,0.0,0.0,0.0,0.0
93,2093-01-01,553340,1029.2100000000003,0.0,0.81,0.0018599956627028595,0.024449369447096733,0.0,0.0,0.0,0.0,0.0
94,2094-01-01,553340,2935.9300000000003,0.0,1.04,0.005305833664654643,0.02829002575300727,0.0,0.0,0.0,0.0,0.03
95,2095-01-01,553340,6740.979999999999,0.0,2.0300000000000002,0.012182347200636134,0.0752770024840797,0.0,0.0,0.0,0.0,0.08
96,2096-01-01,554856,35226.67,0.0,1.06,0.06348795002667358,0.14358635841706788,0.0,0.0,0.0,0.01,0.42
97,2097-01-01,553340,1873.7,0.0,0.93,0.0033861640221202155,0.030090817599005466,0.0,0.0,0.0,0.0,0.0
98,2098-01-01,553340,2064.46,0.0,0.99,0.003730906856543897,0.032086925279652644,0.0,0.0,0.0,0.0,0.0
99,2099-01-01,553340,5935.270000000001,0.0,2.54,0.010726262334188746,0.09072738352619318,0.0,0.0,0.0,0.0,0.0
100,2100-01-01,553340,2722.7699999999995,0.0,2.0100000000000002,0.00492060939024831,0.0586898317745551,0.0,0.0,0.0,0.0,0.0
