,time,n,sum,min,max,mean,std,q0.05,q0.25,q0.50,q0.75,q0.95
0,2000-01-01,4785084,163379.68999999994,0.0,2.33,0.03414353645620431,0.14071599907619808,0.0,0.0,0.0,0.0,0.22
1,2001-01-01,4772010,486787.8600000006,0.0,3.79,0.10200897734916746,0.2623590820783215,0.0,0.0,0.0,0.03,0.73
2,2002-01-01,4772010,510041.66000000015,0.0,2.84,0.10688193444691024,0.28724481762875376,0.0,0.0,0.0,0.0,0.8
3,2003-01-01,4772010,221230.12000000014,0.0,3.41,0.04635994476122224,0.17315783202223237,0.0,0.0,0.0,0.0,0.27
4,2004-01-01,4785084,375760.42,0.0,4.12,0.07852744486826145,0.25163793079855423,0.0,0.0,0.0,0.0,0.56
5,2005-01-01,4772010,487906.37000000017,0.0,4.3100000000000005,0.10224336705078158,0.31182003606692055,0.0,0.0,0.0,0.01,0.79
6,2006-01-01,4772010,306022.88999999996,0.0,2.35,0.06412871934467865,0.19597241636558468,0.0,0.0,0.0,0.0,0.44
7,2007-01-01,4772010,574154.0400000002,0.0,5.57,0.12031702364412483,0.3019924321672083,0.0,0.0,0.0,0.08,0.7000000000000001
8,2008-01-01,4785084,334517.22999999975,0.0,3.46,0.06990832971793175,0.21046733310338603,0.0,0.0,0.0,0.0,0.53
9,2009-01-01,4772010,82532.18000000002,0.0,4.61,0.017295055961743588,0.11919942861045918,0.0,0.0,0.0,0.0,0.03
10,2010-01-01,4772010,59194.39999999994,0.0,1.87,0.012404500409680604,0.056239445898571154,0.0,0.0,0.0,0.0,0.08
11,2011-01-01,4772010,55052.609999999964,0.0,3.34,0.01153656635254326,0.07635093914867197,0.0,0.0,0.0,0.0,0.04
12,2012-01-01,4785084,181533.43000000025,0.0,2.36,0.037937354913727794,0.12067785076071334,0.0,0.0,0.0,0.0,0.25
13,2013-01-01,4772010,296068.19000000076,0.0,2.0300000000000002,0.0620426591729692,0.133829461822744,0.0,0.0,0.0,0.04,0.33
14,2014-01-01,4772010,51432.00999999995,0.0,2.8000000000000003,0.010777850423616035,0.058561865208049436,0.0,0.0,0.0,0.0,0.05
15,2015-01-01,4772010,127142.07000000014,0.0,2.7600000000000002,0.02664329496375744,0.10667073886405481,0.0,0.0,0.0,0.0,0.15
16,2016-01-01,4785084,511321.27999999974,0.0,3.12,0.10685732580661066,0.28873490478971564,0.0,0.0,0.0,0.0,0.81
17,2017-01-01,4772010,28806.450000000015,0.0,3.15,0.006036544349236488,0.04900932491606421,0.0,0.0,0.0,0.0,0.01
18,2018-01-01,4772010,39590.330000000016,0.0,2.9,0.008296363586832386,0.06857037719017721,0.0,0.0,0.0,0.0,0.0
19,2019-01-01,4772010,110206.83999999994,0.0,0.92,0.0230944277149461,0.06376922295322483,0.0,0.0,0.0,0.0,0.17
20,2020-01-01,4785084,25572.269999999997,0.0,1.86,0.005344163237259784,0.042700686917369945,0.0,0.0,0.0,0.0,0.01
21,2021-01-01,4772010,38213.189999999966,0.0,2.06,0.0080077765972829,0.046957094525345154,0.0,0.0,0.0,0.0,0.04
22,2022-01-01,4772010,100025.3500000001,0.0,3.04,0.020960842496138964,0.0942331880658035,0.0,0.0,0.0,0.0,0.12
23,2023-01-01,4772010,43724.31999999996,0.0,2.52,0.009162663112608726,0.05753070372378695,0.0,0.0,0.0,0.0,0.03
24,2024-01-01,4785084,89791.66000000002,0.0,2.2,0.018764907784272967,0.09902431004306159,0.0,0.0,0.0,0.0,0.07
25,2025-01-01,4772010,23282.740000000013,0.0,1.84,0.0048790216282027935,0.031449782071562044,0.0,0.0,0.0,0.0,0.01
26,2026-01-01,4772010,81814.96999999999,0.0,2.36,0.017144760803099738,0.07085090630537706,0.0,0.0,0.0,0.0,0.11
27,2027-01-01,4772010,307584.27,0.0,3.99,0.06445591480319614,0.21270015788324903,0.0,0.0,0.0,0.0,0.43
28,2028-01-01,4785084,93713.90999999993,0.0,2.5,0.019584590364557848,0.08378255495318267,0.0,0.0,0.0,0.0,0.11
29,2029-01-01,4772010,71998.39,0.0,1.72,0.015087644409797967,0.07674085415856126,0.0,0.0,0.0,0.0,0.07
30,2030-01-01,4772010,193527.65999999995,0.0,4.09,0.04055474737060483,0.17158408652505003,0.0,0.0,0.0,0.0,0.22
31,2031-01-01,4772010,48301.659999999996,0.0,1.17,0.01012186898183365,0.051140589000423585,0.0,0.0,0.0,0.0,0.06
32,2032-01-01,4785084,126971.95000000008,0.0,3.0300000000000002,0.026534946930921188,0.1106455290529407,0.0,0.0,0.0,0.0,0.2
33,2033-01-01,4772010,69739.86999999994,0.0,1.62,0.014614359567561665,0.04997488763487113,0.0,0.0,0.0,0.0,0.11
34,2034-01-01,4772010,125399.47000000002,0.0,2.11,0.02627812389328606,0.09239907694690433,0.0,0.0,0.0,0.0,0.22
35,2035-01-01,4772010,76072.51000000001,0.0,1.94,0.01594139785960214,0.07675599427117027,0.0,0.0,0.0,0.0,0.1
36,2036-01-01,4785084,380353.96000000037,0.0,3.33,0.07948741547692796,0.19440606560754237,0.0,0.0,0.0,0.05,0.48
37,2037-01-01,4772010,198155.52999999994,0.0,3.36,0.04152454206927478,0.1782904145378551,0.0,0.0,0.0,0.0,0.22
38,2038-01-01,4772010,46671.729999999974,0.0,1.07,0.009780308507316617,0.037751333029645194,0.0,0.0,0.0,0.0,0.07
39,2039-01-01,4772010,40078.109999999986,0.0,1.53,0.00839858047237956,0.04251255520582076,0.0,0.0,0.0,0.0,0.04
40,2040-01-01,4785084,431336.8300000002,0.0,5.23,0.09014195571070438,0.3121352108651943,0.0,0.0,0.0,0.0,0.67
41,2041-01-01,4772010,31627.700000000015,0.0,2.48,0.006627752246956736,0.06340746707449027,0.0,0.0,0.0,0.0,0.0
42,2042-01-01,4772010,131035.45000000013,0.0,1.3800000000000001,0.027459173388153027,0.1025812097580915,0.0,0.0,0.0,0.0,0.22
43,2043-01-01,4772010,13869.460000000005,0.0,1.47,0.0029064188884767644,0.027093693566921113,0.0,0.0,0.0,0.0,0.0
44,2044-01-01,4785084,113658.29999999992,0.0,2.7600000000000002,0.023752623778391335,0.10183630094272808,0.0,0.0,0.0,0.0,0.15
45,2045-01-01,4772010,476881.2700000001,0.0,3.77,0.09993299888307025,0.2568234957766773,0.0,0.0,0.0,0.03,0.66
46,2046-01-01,4772010,131363.63,0.0,3.0100000000000002,0.027527945247390512,0.11201771392348772,0.0,0.0,0.0,0.0,0.15
47,2047-01-01,4772010,177415.39999999997,0.0,4.04,0.0371783378492501,0.1858731123080661,0.0,0.0,0.0,0.0,0.15
48,2048-01-01,4785084,231293.54000000015,0.0,4.1,0.048336359403513114,0.1638789050047122,0.0,0.0,0.0,0.0,0.35000000000000003
49,2049-01-01,4772010,87858.62000000013,0.0,1.58,0.018411239708215222,0.07741928759447371,0.0,0.0,0.0,0.0,0.11
50,2050-01-01,4772010,243819.20999999993,0.0,2.95,0.05109360835371257,0.1733252680523034,0.0,0.0,0.0,0.0,0.41000000000000003
51,2051-01-01,4772010,161917.08000000002,0.0,3.54,0.0339305827104302,0.1713549282067147,0.0,0.0,0.0,0.0,0.14
52,2052-01-01,4785084,42652.09000000004,0.0,2.1,0.008913550942888367,0.0622485529752503,0.0,0.0,0.0,0.0,0.0
53,2053-01-01,4772010,23720.08000000002,0.0,1.09,0.004970668544282183,0.03149984240728615,0.0,0.0,0.0,0.0,0.02
54,2054-01-01,4772010,114983.47999999998,0.0,2.62,0.024095397955997574,0.10292389048901665,0.0,0.0,0.0,0.0,0.16
55,2055-01-01,4772010,235951.83999999997,0.0,3.97,0.049444959251971385,0.19221948699965438,0.0,0.0,0.0,0.0,0.31
56,2056-01-01,4785084,150442.24999999994,0.0,1.77,0.03143983470300624,0.11815121194660863,0.0,0.0,0.0,0.0,0.19
57,2057-01-01,4772010,46096.57000000002,0.0,1.52,0.009659780679420207,0.04869236149061456,0.0,0.0,0.0,0.0,0.05
58,2058-01-01,4772010,47807.969999999994,0.0,1.43,0.010018413624447558,0.057795975516343454,0.0,0.0,0.0,0.0,0.03
59,2059-01-01,4772010,20198.190000000006,0.0,1.3800000000000001,0.004232637819283699,0.0385104204407469,0.0,0.0,0.0,0.0,0.0
60,2060-01-01,4785084,10818.82000000001,0.0,0.65,0.0022609467252821497,0.01802773855041505,0.0,0.0,0.0,0.0,0.0
61,2061-01-01,4772010,37572.94000000002,0.0,1.93,0.007873608814734256,0.0494468241189653,0.0,0.0,0.0,0.0,0.03
62,2062-01-01,4772010,89317.26000000005,0.0,2.66,0.018716905454934096,0.111350219934859,0.0,0.0,0.0,0.0,0.03
63,2063-01-01,4772010,15517.52000000001,0.0,1.76,0.0032517786006316016,0.027121956508285916,0.0,0.0,0.0,0.0,0.0
64,2064-01-01,4785084,14858.52000000001,0.0,1.1300000000000001,0.0031051743292280784,0.027263367657382947,0.0,0.0,0.0,0.0,0.0
65,2065-01-01,4772010,88702.18999999999,0.0,1.46,0.01858801427490722,0.06515983293540435,0.0,0.0,0.0,0.0,0.15
66,2066-01-01,4772010,73773.8599999999,0.0,2.57,0.015459703563068791,0.09272370020781376,0.0,0.0,0.0,0.0,0.05
67,2067-01-01,4772010,25593.790000000008,0.0,1.86,0.005363314410489502,0.040076368569417785,0.0,0.0,0.0,0.0,0.0
68,2068-01-01,4785084,15075.610000000024,0.0,1.96,0.003150542393822141,0.028815002499968562,0.0,0.0,0.0,0.0,0.0
69,2069-01-01,4772010,165481.1599999999,0.0,1.78,0.034677454573649236,0.10438149615015703,0.0,0.0,0.0,0.0,0.25
70,2070-01-01,4772010,73437.68999999996,0.0,2.75,0.01538925735696278,0.08307700652528208,0.0,0.0,0.0,0.0,0.07
71,2071-01-01,4772010,17837.270000000008,0.0,1.21,0.0037378945140517325,0.032020493926014575,0.0,0.0,0.0,0.0,0.0
72,2072-01-01,4785084,366544.59,0.0,2.72,0.07660149539694601,0.2040500954304983,0.0,0.0,0.0,0.0,0.49
73,2073-01-01,4772010,36249.130000000005,0.0,2.22,0.0075961974094773494,0.0484498043899448,0.0,0.0,0.0,0.0,0.02
74,2074-01-01,4772010,23000.02,0.0,1.69,0.004819776153025665,0.043850739420188134,0.0,0.0,0.0,0.0,0.0
75,2075-01-01,4772010,59903.96000000003,0.0,1.4000000000000001,0.01255319247025887,0.06542051392711683,0.0,0.0,0.0,0.0,0.05
76,2076-01-01,4785084,40532.090000000026,0.0,1.6,0.008470507518781286,0.05000286073921095,0.0,0.0,0.0,0.0,0.03
77,2077-01-01,4772010,37371.510000000024,0.0,1.56,0.007831398090112976,0.049234497323079426,0.0,0.0,0.0,0.0,0.02
78,2078-01-01,4772010,2051.429999999998,0.0,0.52,0.00042988803460177117,0.005633015802640442,0.0,0.0,0.0,0.0,0.0
79,2079-01-01,4772010,3348.6299999999997,0.0,0.53,0.0007017231732540375,0.008562241370480832,0.0,0.0,0.0,0.0,0.0
80,2080-01-01,4785084,12762.570000000002,0.0,0.51,0.002667156940191646,0.016006126063252434,0.0,0.0,0.0,0.0,0.0
81,2081-01-01,4772010,1695.4499999999994,0.0,0.5,0.0003552905379494174,0.004652782792533092,0.0,0.0,0.0,0.0,0.0
82,2082-01-01,4772010,6882.310000000003,0.0,1.52,0.0014422245552712595,0.017513846732293486,0.0,0.0,0.0,0.0,0.0
83,2083-01-01,4772010,21901.909999999974,0.0,2.34,0.004589661379586375,0.04670187083958769,0.0,0.0,0.0,0.0,0.0
84,2084-01-01,4785084,40351.91999999999,0.0,1.6600000000000001,0.008432855097214592,0.053429630883864605,0.0,0.0,0.0,0.0,0.01
85,2085-01-01,4772010,11243.94,0.0,1.05,0.0023562272501524515,0.022069293124195387,0.0,0.0,0.0,0.0,0.0
86,2086-01-01,4772010,11115.69000000001,0.0,1.01,0.0023293517825821843,0.021472485449827015,0.0,0.0,0.0,0.0,0.0
87,2087-01-01,4772010,6670.78,0.0,0.85,0.0013978973220927868,0.013596154770703688,0.0,0.0,0.0,0.0,0.0
88,2088-01-01,4785084,5914.520000000005,0.0,0.81,0.0012360326380895308,0.015238975172586508,0.0,0.0,0.0,0.0,0.0
89,2089-01-01,4772010,22971.140000000014,0.0,0.55,0.004813724195883918,0.027491139736817164,0.0,0.0,0.0,0.0,0.01
90,2090-01-01,4772010,52898.05999999999,0.0,1.04,0.01108506897512788,0.05295694908097539,0.0,0.0,0.0,0.0,0.07
91,2091-01-01,4772010,6561.770000000005,0.0,0.96,0.0013750536985463158,0.015370911168554137,0.0,0.0,0.0,0.0,0.0
92,2092-01-01,4785084,3416.4700000000025,0.0,0.53,0.0007139832863958088,0.009614620446428832,0.0,0.0,0.0,0.0,0.0
93,2093-01-01,4772010,115741.13,0.0,3.39,0.024254167531082293,0.14710894139934194,0.0,0.0,0.0,0.0,0.05
94,2094-01-01,4772010,1042.5799999999997,0.0,0.24,0.00021847816748078895,0.0032558771743594994,0.0,0.0,0.0,0.0,0.0
95,2095-01-01,4772010,11523.270000000002,0.0,1.7,0.0024147623328534523,0.01899932903427539,0.0,0.0,0.0,0.0,0.0
96,2096-01-01,4785084,2380.8200000000083,0.0,0.45,0.0004975503042370851,0.007891036828093525,0.0,0.0,0.0,0.0,0.0
97,2097-01-01,4772010,16411.57,0.0,1.37,0.0034391315190035227,0.03548986005922368,0.0,0.0,0.0,0.0,0.0
98,2098-01-01,4772010,17378.899999999994,0.0,0.92,0.0036418406499567255,0.029834737998728197,0.0,0.0,0.0,0.0,0.0
99,2099-01-01,4758936,2644.7900000000013,0.0,0.93,0.0005557523782627044,0.012288753911181765,0.0,0.0,0.0,0.0,0.0
