,time,n,sum,min,max,mean,std,q0.05,q0.25,q0.50,q0.75,q0.95
0,2000-01-01,215543256,45395890.78999995,0.0,10.6,0.21061151080505133,0.49778362284073024,0.0,0.0,0.0,0.12,1.3900000000000001
1,2001-01-01,214954340,32472182.38999961,0.0,10.74,0.15106548855910334,0.38653201050373015,0.0,0.0,0.0,0.08,0.9400000000000001
2,2002-01-01,214954340,55330583.64000044,0.0,10.99,0.25740621771116806,0.5869483137385078,0.0,0.0,0.0,0.14,1.6600000000000001
3,2003-01-01,214954340,66001453.41000004,0.0,11.84,0.30704871281035795,0.6494819779043384,0.0,0.0,0.0,0.25,1.86
4,2004-01-01,215543256,37287747.82000006,0.0,10.18,0.1729942681203631,0.39893927629780496,0.0,0.0,0.0,0.1,1.06
5,2005-01-01,214954340,18268548.65999975,0.0,9.66,0.08498804285598398,0.2814937594159791,0.0,0.0,0.0,0.0,0.59
6,2006-01-01,214954340,32352720.000000462,0.0,9.76,0.15050973150856345,0.3906691887083432,0.0,0.0,0.0,0.06,1.03
7,2007-01-01,214954340,70952602.78000048,0.0,12.1,0.33008220620249157,0.6812012594103548,0.0,0.0,0.0,0.28,1.92
8,2008-01-01,215543256,29343057.550000187,0.0,10.41,0.1361353544274203,0.32817266042773174,0.0,0.0,0.0,0.08,0.86
9,2009-01-01,214954340,42961487.91000009,0.0,10.82,0.19986331939145818,0.4736309890066632,0.0,0.0,0.0,0.11,1.28
10,2010-01-01,214954340,34358206.74999998,0.0,9.39,0.1598395582522315,0.3773947291573631,0.0,0.0,0.0,0.09,1.02
11,2011-01-01,214954340,56689904.50000035,0.0,10.13,0.2637299833071542,0.5175298971201119,0.0,0.0,0.0,0.27,1.48
12,2012-01-01,215543256,48693659.5600004,0.0,10.18,0.22591131109200835,0.43055903074148866,0.0,0.0,0.0,0.27,1.19
13,2013-01-01,214954340,78114918.68999986,0.0,11.200000000000001,0.36340237973329526,0.636264808927923,0.0,0.0,0.0,0.5,1.79
14,2014-01-01,214954340,69947156.84000015,0.0,11.31,0.32540472009078836,0.640386901974392,0.0,0.0,0.0,0.31,1.83
15,2015-01-01,214954340,60615804.14000019,0.0,10.48,0.28199386037053353,0.5272766751027772,0.0,0.0,0.0,0.33,1.5
16,2016-01-01,215543256,63341572.61000024,0.0,10.950000000000001,0.2938694245669196,0.6083169134262894,0.0,0.0,0.0,0.29,1.6600000000000001
17,2017-01-01,214954340,43030838.23999966,0.0,10.76,0.2001859475830991,0.49333284726070087,0.0,0.0,0.0,0.07,1.37
18,2018-01-01,214954340,26793396.7899998,0.0,10.25,0.12464692171369883,0.35069875085713154,0.0,0.0,0.0,0.01,0.87
19,2019-01-01,214954340,43279825.170000345,0.0,10.5,0.20134427232313776,0.46771189466816043,0.0,0.0,0.0,0.12,1.25
20,2020-01-01,215543256,42601429.95999995,0.0,10.6,0.1976467774988049,0.47016556919235486,0.0,0.0,0.0,0.09,1.29
21,2021-01-01,214954340,69569643.64000022,0.0,12.1,0.32364847176381845,0.7035438486365424,0.0,0.0,0.0,0.2,2.0100000000000002
22,2022-01-01,214954340,81747156.01999854,0.0,11.200000000000001,0.38030009545282284,0.6442341932861207,0.0,0.0,0.01,0.53,1.84
23,2023-01-01,214954340,40975397.70000022,0.0,10.4,0.19062372827643406,0.4657350365366812,0.0,0.0,0.0,0.09,1.29
24,2024-01-01,215543256,63705488.41000035,0.0,11.11,0.2955577900799659,0.5557529304795013,0.0,0.0,0.0,0.33,1.59
25,2025-01-01,214954340,108886519.67999971,0.0,12.18,0.5065565072098555,0.880270904412924,0.0,0.0,0.0,0.65,2.5500000000000003
26,2026-01-01,214954340,65346819.74,0.0,12.5,0.30400325827336167,0.6455579555158631,0.0,0.0,0.0,0.21,1.86
27,2027-01-01,214954340,44702763.179999754,0.0,11.32,0.20796399449296885,0.43101052087180086,0.0,0.0,0.0,0.2,1.2
28,2028-01-01,215543256,73775814.70000048,0.0,11.450000000000001,0.3422784645138722,0.6562900219879366,0.0,0.0,0.0,0.38,1.8800000000000001
29,2029-01-01,214954340,56567200.71999993,0.0,12.38,0.2631591468215991,0.5887617344199176,0.0,0.0,0.0,0.15,1.7
30,2030-01-01,214954340,26703178.149999894,0.0,10.07,0.12422721099746065,0.3407581628502353,0.0,0.0,0.0,0.05,0.81
31,2031-01-01,214954340,56799877.37000049,0.0,11.73,0.26424159367985073,0.5919449562392171,0.0,0.0,0.0,0.19,1.6500000000000001
32,2032-01-01,215543256,52541699.2200003,0.0,11.66,0.24376406014763133,0.5267732975719636,0.0,0.0,0.0,0.18,1.51
33,2033-01-01,214954340,26735974.930000562,0.0,9.81,0.12437978656304666,0.30220191980156574,0.0,0.0,0.0,0.08,0.73
34,2034-01-01,214954340,39282962.71999994,0.0,10.83,0.18275026556802687,0.43721537151148515,0.0,0.0,0.0,0.09,1.2
35,2035-01-01,214954340,33805907.150000386,0.0,10.06,0.15727017723857256,0.37880537292548233,0.0,0.0,0.0,0.11,0.99
36,2036-01-01,215543256,40799760.14999975,0.0,10.290000000000001,0.18928803854572815,0.4414990657740762,0.0,0.0,0.0,0.13,1.19
37,2037-01-01,214954340,47355427.33999962,0.0,11.09,0.22030458812787695,0.5014969090067694,0.0,0.0,0.0,0.16,1.32
38,2038-01-01,214954340,46399371.30000047,0.0,11.14,0.21585687127787448,0.5113912996794425,0.0,0.0,0.0,0.07,1.47
39,2039-01-01,214954340,58201062.210000314,0.0,11.16,0.2707601168229509,0.5196749049824619,0.0,0.0,0.0,0.31,1.44
40,2040-01-01,215543256,63478488.68000017,0.0,10.85,0.2945046384564227,0.6046248664676515,0.0,0.0,0.0,0.22,1.6600000000000001
41,2041-01-01,214954340,23848400.999999635,0.0,9.42,0.11094635725893989,0.3237651509669501,0.0,0.0,0.0,0.04,0.7000000000000001
42,2042-01-01,214954340,22646726.570000023,0.0,8.59,0.10535598662488053,0.30661911122759455,0.0,0.0,0.0,0.01,0.65
43,2043-01-01,214954340,33703825.91999977,0.0,9.26,0.1567952799650371,0.376603077095921,0.0,0.0,0.0,0.1,0.99
44,2044-01-01,215543256,39535147.33000043,0.0,11.3,0.18342094326532968,0.4494149465774592,0.0,0.0,0.0,0.09,1.17
45,2045-01-01,214954340,33153265.370000076,0.0,9.36,0.1542339892741876,0.4237152286850928,0.0,0.0,0.0,0.01,1.12
46,2046-01-01,214954340,31214695.110000156,0.0,9.16,0.14521546813151182,0.376370601014513,0.0,0.0,0.0,0.01,1.07
47,2047-01-01,214954340,23703998.640000045,0.0,9.13,0.11027457570756675,0.29081001089031805,0.0,0.0,0.0,0.07,0.67
48,2048-01-01,215543256,42613693.350000985,0.0,9.07,0.19770367276070555,0.4845352519386867,0.0,0.0,0.0,0.04,1.36
49,2049-01-01,214954340,30295055.42000016,0.0,9.540000000000001,0.14093716563247877,0.3553426394064707,0.0,0.0,0.0,0.06,0.9
50,2050-01-01,214954340,42281017.58000053,0.0,10.66,0.19669766881655204,0.4539312761044732,0.0,0.0,0.0,0.09,1.27
51,2051-01-01,214954340,36745982.1599998,0.0,10.58,0.17094784948282413,0.4292734551982989,0.0,0.0,0.0,0.06,1.17
52,2052-01-01,215543256,59359154.560000256,0.0,11.75,0.2753932350358494,0.6395371843204345,0.0,0.0,0.0,0.16,1.8
53,2053-01-01,214954340,48430891.52000016,0.0,10.790000000000001,0.22530780964924998,0.4288985097361507,0.0,0.0,0.0,0.27,1.16
54,2054-01-01,214954340,78132116.13999894,0.0,11.540000000000001,0.3634823848636829,0.6820359425337358,0.0,0.0,0.0,0.41000000000000003,1.98
55,2055-01-01,214954340,45884686.94000049,0.0,10.65,0.21346248203223295,0.47306934250885796,0.0,0.0,0.0,0.13,1.31
56,2056-01-01,215543256,21233630.43000009,0.0,9.790000000000001,0.09851215400587662,0.313771404513558,0.0,0.0,0.0,0.0,0.73
57,2057-01-01,214954340,48201673.28000013,0.0,9.46,0.22424145183577185,0.4707013087441322,0.0,0.0,0.0,0.21,1.35
58,2058-01-01,214954340,22351990.449999712,0.0,9.370000000000001,0.10398482975500617,0.27742646084553174,0.0,0.0,0.0,0.04,0.6900000000000001
59,2059-01-01,214954340,56026165.23000077,0.0,9.51,0.2606421681460387,0.5783889349271604,0.0,0.0,0.0,0.15,1.69
60,2060-01-01,215543256,35665143.75000006,0.0,8.77,0.16546629392106826,0.3904192919014703,0.0,0.0,0.0,0.12,1.06
61,2061-01-01,214954340,66249402.20000009,0.0,10.47,0.3082022079665853,0.6408197039279896,0.0,0.0,0.0,0.23,1.85
62,2062-01-01,214954340,23884614.89000009,0.0,9.450000000000001,0.11111482973546889,0.29547702926082264,0.0,0.0,0.0,0.0,0.8
63,2063-01-01,214954340,44550452.87000069,0.0,8.92,0.20725542396585567,0.40572280159333507,0.0,0.0,0.0,0.24,1.1500000000000001
64,2064-01-01,215543256,31132296.660000175,0.0,9.06,0.14443642189389666,0.33489059801179977,0.0,0.0,0.0,0.1,0.86
65,2065-01-01,214954340,69061866.50999986,0.0,9.72,0.32128621599359125,0.6148264786911756,0.0,0.0,0.0,0.35000000000000003,1.75
66,2066-01-01,214954340,73203869.34000018,0.0,10.83,0.3405554376803938,0.7378333831873608,0.0,0.0,0.0,0.2,2.13
67,2067-01-01,214954340,21737169.550000206,0.0,9.68,0.10112459022693009,0.3106379014890222,0.0,0.0,0.0,0.01,0.67
68,2068-01-01,215543256,36661099.00999988,0.0,11.53,0.17008696857581052,0.4576554958004282,0.0,0.0,0.0,0.06,1.12
69,2069-01-01,214954340,46537717.02999996,0.0,11.01,0.21650047647328244,0.502607071365629,0.0,0.0,0.0,0.12,1.37
70,2070-01-01,214954340,35838973.290000156,0.0,10.51,0.16672830746287864,0.4177071054927323,0.0,0.0,0.0,0.08,1.07
71,2071-01-01,214954340,17900018.309999984,0.0,8.49,0.0832735841016282,0.24560808267702755,0.0,0.0,0.0,0.0,0.55
72,2072-01-01,215543256,34587775.649999894,0.0,7.86,0.16046790928128085,0.3845882938680866,0.0,0.0,0.0,0.07,1.08
73,2073-01-01,214954340,41065480.59999976,0.0,9.64,0.191042807509724,0.4426765794323583,0.0,0.0,0.0,0.12,1.24
74,2074-01-01,214954340,55568228.980000064,0.0,10.93,0.258511779664463,0.5838673283572217,0.0,0.0,0.0,0.15,1.6600000000000001
75,2075-01-01,214954340,53201443.46999975,0.0,12.25,0.24750113661347686,0.5136692984995808,0.0,0.0,0.0,0.23,1.44
76,2076-01-01,215543256,52459257.870000444,0.0,12.14,0.24338157845217132,0.5388430916942588,0.0,0.0,0.0,0.18,1.51
77,2077-01-01,214954340,34866907.4799999,0.0,11.13,0.16220611074891486,0.4478197179761321,0.0,0.0,0.0,0.02,1.2
78,2078-01-01,214954340,25341778.27999978,0.0,10.58,0.11789377353348521,0.31992671050313565,0.0,0.0,0.0,0.02,0.79
79,2079-01-01,214954340,19385044.099999864,0.0,9.27,0.09018214798547386,0.2742500565433668,0.0,0.0,0.0,0.01,0.5700000000000001
80,2080-01-01,215543256,33539006.199999668,0.0,8.56,0.1556022063617693,0.3898742011402471,0.0,0.0,0.0,0.05,1.06
81,2081-01-01,214954340,64706368.490000196,0.0,10.200000000000001,0.3010237824925991,0.5784663793528225,0.0,0.0,0.0,0.31,1.6500000000000001
82,2082-01-01,214954340,42567887.010000035,0.0,11.58,0.1980322286584213,0.5381608062430928,0.0,0.0,0.0,0.03,1.49
83,2083-01-01,214954340,28895316.13999967,0.0,8.82,0.1344253674524537,0.33891735226344477,0.0,0.0,0.0,0.04,0.9
84,2084-01-01,215543256,31483090.959999893,0.0,10.18,0.14606391099520133,0.41567024178910283,0.0,0.0,0.0,0.04,0.96
85,2085-01-01,214954340,40603580.22999971,0.0,8.98,0.18889397734421046,0.4143688535854408,0.0,0.0,0.0,0.17,1.1400000000000001
86,2086-01-01,214954340,54397499.07000097,0.0,9.27,0.25306536760318943,0.5113874999075809,0.0,0.0,0.0,0.24,1.44
87,2087-01-01,214954340,40707586.55000004,0.0,10.94,0.18937783042668524,0.484909452975063,0.0,0.0,0.0,0.05,1.35
88,2088-01-01,215543256,23125486.939999986,0.0,9.16,0.10728930874088673,0.29073566642492865,0.0,0.0,0.0,0.04,0.6900000000000001
89,2089-01-01,214954340,46664589.01000076,0.0,10.24,0.21709070405371092,0.4967247588720053,0.0,0.0,0.0,0.11,1.42
90,2090-01-01,214954340,66617750.14000026,0.0,12.01,0.3099158181221196,0.6749317450145904,0.0,0.0,0.0,0.21,1.9100000000000001
91,2091-01-01,214954340,28812044.209999606,0.0,9.82,0.13403797387854371,0.3589179856885895,0.0,0.0,0.0,0.02,0.93
92,2092-01-01,215543256,45083393.620000005,0.0,9.98,0.20916169893991027,0.43932118637504164,0.0,0.0,0.0,0.18,1.23
93,2093-01-01,214954340,23957914.80000001,0.0,10.68,0.11145583196878,0.3646687763434122,0.0,0.0,0.0,0.0,0.88
94,2094-01-01,214954340,26160001.44999994,0.0,10.46,0.12170027109012983,0.34961306758624977,0.0,0.0,0.0,0.02,0.84
95,2095-01-01,214954340,46950920.69999993,0.0,11.64,0.2184227622480194,0.5096982133398996,0.0,0.0,0.0,0.11,1.43
96,2096-01-01,215543256,61805522.59999982,0.0,11.17,0.2867430127342969,0.5669829298190828,0.0,0.0,0.0,0.28,1.62
97,2097-01-01,214954340,91576146.44000117,0.0,11.18,0.4260260408791987,0.8035166384870769,0.0,0.0,0.0,0.45,2.36
98,2098-01-01,214954340,49665460.900000095,0.0,11.02,0.2310512125505356,0.510983771838816,0.0,0.0,0.0,0.13,1.44
99,2099-01-01,214954340,81725792.89000006,0.0,12.33,0.38020071095098645,0.7410936955920682,0.0,0.0,0.0,0.41000000000000003,2.13
100,2100-01-01,214365424,42610335.14000009,0.0,10.47,0.1987742908576529,0.433028285351032,0.0,0.0,0.0,0.15,1.17
