,time,n,sum,min,max,mean,std,q0.05,q0.25,q0.50,q0.75,q0.95
0,2000-01-01,52257846,11401766.390000015,0.0,10.39,0.21818286176586796,0.4112433826843751,0.0,0.0,0.0,0.23,1.2
1,2001-01-01,52115065,7791620.349999983,0.0,10.02,0.14950802325584708,0.3082222862614097,0.0,0.0,0.0,0.17,0.75
2,2002-01-01,52115065,11094235.92000002,0.0,11.620000000000001,0.21287963317324884,0.5339472309441151,0.0,0.0,0.0,0.06,1.5
3,2003-01-01,52115065,8186967.2799999695,0.0,10.24,0.15709406253258956,0.3071094684643066,0.0,0.0,0.0,0.21,0.75
4,2004-01-01,52257846,9938465.009999985,0.0,9.88,0.19018129851735535,0.3772369112607037,0.0,0.0,0.0,0.24,0.96
5,2005-01-01,52115065,6129152.759999975,0.0,9.15,0.1176080805041685,0.3142973304032703,0.0,0.0,0.0,0.03,0.81
6,2006-01-01,52115065,6130095.460000001,0.0,9.39,0.11762616932359196,0.30412871763454374,0.0,0.0,0.0,0.03,0.8
7,2007-01-01,52115065,11556727.630000029,0.0,9.23,0.221754067274022,0.43183328574237134,0.0,0.0,0.0,0.25,1.18
8,2008-01-01,52257846,6794611.0899999775,0.0,9.22,0.1300208793527383,0.30482418455049287,0.0,0.0,0.0,0.09,0.81
9,2009-01-01,52115065,17566614.83999994,0.0,10.31,0.33707364348485297,0.6754543712028462,0.0,0.0,0.0,0.28,1.95
10,2010-01-01,52115065,17816772.310000014,0.0,12.01,0.3418737424581551,0.6628096138814167,0.0,0.0,0.0,0.32,1.8900000000000001
11,2011-01-01,52115065,14743542.65000003,0.0,11.36,0.28290366039071485,0.6068938649115851,0.0,0.0,0.0,0.16,1.77
12,2012-01-01,52257846,11758276.570000045,0.0,11.71,0.22500499867522372,0.49931822040221574,0.0,0.0,0.0,0.19,1.28
13,2013-01-01,52115065,8832430.119999971,0.0,10.82,0.1694794033164877,0.3166350873924338,0.0,0.0,0.0,0.23,0.86
14,2014-01-01,52115065,10585653.050000018,0.0,10.01,0.20312078762638053,0.39605237431769136,0.0,0.0,0.0,0.26,0.97
15,2015-01-01,52115065,11719285.949999955,0.0,11.1,0.22487328663986036,0.4850941596733565,0.0,0.0,0.0,0.2,1.27
16,2016-01-01,52257846,4666066.899999974,0.0,9.39,0.0892893078677597,0.2063030589824801,0.0,0.0,0.0,0.06,0.52
17,2017-01-01,52115065,4629832.490000003,0.0,7.91,0.08883865903266172,0.2230465236809387,0.0,0.0,0.0,0.04,0.58
18,2018-01-01,52115065,3479910.9399999725,0.0,7.3,0.06677360836065296,0.19891296109914733,0.0,0.0,0.0,0.02,0.37
19,2019-01-01,52115065,9503925.919999912,0.0,7.79,0.18236427259564797,0.39570654161367474,0.0,0.0,0.0,0.15,1.06
20,2020-01-01,52257846,5327522.169999977,0.0,7.01,0.10194683818387724,0.2552483267081113,0.0,0.0,0.0,0.03,0.64
21,2021-01-01,52115065,6664808.839999986,0.0,7.9,0.1278864151853209,0.3132902295012208,0.0,0.0,0.0,0.04,0.85
22,2022-01-01,52115065,2845881.7000000076,0.0,5.49,0.05460765903294964,0.15477845555015088,0.0,0.0,0.0,0.01,0.36
23,2023-01-01,52115065,5312511.60999998,0.0,5.99,0.10193811731789992,0.22358346495892484,0.0,0.0,0.0,0.09,0.5700000000000001
24,2024-01-01,52257846,2897939.0500000166,0.0,4.59,0.05545462111086662,0.15352012720824385,0.0,0.0,0.0,0.0,0.37
25,2025-01-01,52115065,22040275.810000073,0.0,8.71,0.42291563504718016,0.8067327977967695,0.0,0.0,0.0,0.4,2.33
26,2026-01-01,52115065,11117499.089999951,0.0,6.95,0.2133260140805725,0.5152144733328129,0.0,0.0,0.0,0.08,1.51
27,2027-01-01,52115065,7337510.889999997,0.0,6.5600000000000005,0.14079443036289022,0.3076612632479405,0.0,0.0,0.0,0.13,0.78
28,2028-01-01,52257846,1900690.3000000045,0.0,4.5,0.0363713862220805,0.12707556755925475,0.0,0.0,0.0,0.0,0.23
29,2029-01-01,52115065,6494107.519999973,0.0,5.5,0.12461094541472745,0.2633112778535749,0.0,0.0,0.0,0.12,0.7000000000000001
30,2030-01-01,52115065,11582936.099999981,0.0,6.61,0.2222569635094954,0.4158418980379798,0.0,0.0,0.0,0.28,1.16
31,2031-01-01,52115065,12488248.669999983,0.0,7.38,0.23962838135191777,0.48654045942789487,0.0,0.0,0.0,0.22,1.35
32,2032-01-01,52257846,9002486.680000002,0.0,5.69,0.17227052718552543,0.31817059074142184,0.0,0.0,0.0,0.26,0.84
33,2033-01-01,52115065,26234597.83,0.0,9.370000000000001,0.5033975843645211,0.8928439703957951,0.0,0.0,0.0,0.64,2.57
34,2034-01-01,52115065,4444522.999999984,0.0,6.69,0.08528288317399171,0.2119398877213961,0.0,0.0,0.0,0.03,0.61
35,2035-01-01,52115065,6058949.239999977,0.0,6.41,0.11626099363015237,0.27081458467044744,0.0,0.0,0.0,0.08,0.6900000000000001
36,2036-01-01,52257846,10653824.009999981,0.0,7.1000000000000005,0.20387032427628152,0.39708303288113217,0.0,0.0,0.0,0.25,1.09
37,2037-01-01,52115065,2676499.210000007,0.0,5.07,0.05135749538065446,0.15723941780719844,0.0,0.0,0.0,0.0,0.37
38,2038-01-01,52115065,4265860.209999973,0.0,4.39,0.08185464625247944,0.229294079141617,0.0,0.0,0.0,0.01,0.62
39,2039-01-01,52115065,7132597.1599999815,0.0,6.63,0.1368624822783965,0.29014980783401795,0.0,0.0,0.0,0.14,0.75
40,2040-01-01,52257846,7018202.429999968,0.0,6.01,0.1342994969597478,0.2885386786089621,0.0,0.0,0.0,0.13,0.75
41,2041-01-01,52115065,10217853.709999975,0.0,6.9,0.19606334003421036,0.49174458000481686,0.0,0.0,0.0,0.07,1.33
42,2042-01-01,52115065,2482560.370000009,0.0,4.8,0.04763613688287655,0.13417771575165946,0.0,0.0,0.0,0.01,0.31
43,2043-01-01,52115065,1766853.980000003,0.0,4.8100000000000005,0.03390294111693045,0.11846874065146197,0.0,0.0,0.0,0.0,0.22
44,2044-01-01,52257846,7764577.179999971,0.0,6.69,0.14858203646587292,0.38413023016108927,0.0,0.0,0.0,0.04,1.02
45,2045-01-01,52115065,2287387.510000008,0.0,3.94,0.0438910996273344,0.11727964670971783,0.0,0.0,0.0,0.0,0.28
46,2046-01-01,52115065,2612087.4999999795,0.0,4.62,0.05012154354983496,0.18512642792259557,0.0,0.0,0.0,0.0,0.36
47,2047-01-01,52115065,3312143.970000003,0.0,3.91,0.06355444380622001,0.18378700984995316,0.0,0.0,0.0,0.0,0.48
48,2048-01-01,52257846,4983234.009999975,0.0,6.37,0.09535858041297712,0.26293544687224957,0.0,0.0,0.0,0.02,0.67
49,2049-01-01,52115065,4952357.999999945,0.0,6.0600000000000005,0.095027378359788,0.27395607926509924,0.0,0.0,0.0,0.02,0.64
50,2050-01-01,52115065,5164988.549999956,0.0,5.72,0.09910739917526643,0.2741720522679654,0.0,0.0,0.0,0.01,0.66
51,2051-01-01,52115065,6944652.950000002,0.0,7.36,0.13325615059676127,0.31522346879501273,0.0,0.0,0.0,0.08,0.81
52,2052-01-01,52257846,9144854.790000003,0.0,6.93,0.1749948666081645,0.4589202143134797,0.0,0.0,0.0,0.06,1.24
53,2053-01-01,52115065,4067911.8299999763,0.0,6.5200000000000005,0.07805635145998525,0.23421974617329291,0.0,0.0,0.0,0.0,0.51
54,2054-01-01,52115065,5013411.079999972,0.0,5.76,0.09619888375846739,0.24895406898469094,0.0,0.0,0.0,0.03,0.61
55,2055-01-01,52115065,1786704.9600000062,0.0,4.25,0.0342838478662553,0.10641362276522154,0.0,0.0,0.0,0.0,0.22
56,2056-01-01,52257846,3166005.150000001,0.0,3.7800000000000002,0.06058430249880565,0.1600959214669227,0.0,0.0,0.0,0.03,0.38
57,2057-01-01,52115065,5969769.649999983,0.0,4.48,0.11454978805072934,0.2766548495956504,0.0,0.0,0.0,0.05,0.74
58,2058-01-01,52115065,4325882.449999993,0.0,6.15,0.08300637157413106,0.2418774440623783,0.0,0.0,0.0,0.02,0.5
59,2059-01-01,52115065,1789683.4300000095,0.0,4.61,0.034340999670632845,0.13463935165193058,0.0,0.0,0.0,0.0,0.22
60,2060-01-01,52257846,1436360.1399999994,0.0,3.83,0.02748601884585904,0.09830093909309617,0.0,0.0,0.0,0.0,0.2
61,2061-01-01,52115065,3221483.389999976,0.0,3.3200000000000003,0.06181482053221992,0.1778245724217497,0.0,0.0,0.0,0.0,0.4
62,2062-01-01,52115065,5403526.4199999925,0.0,4.65,0.10368453766679543,0.22042994636006394,0.0,0.0,0.0,0.1,0.6
63,2063-01-01,52115065,1938439.980000008,0.0,3.49,0.03719538640122598,0.11441980976578234,0.0,0.0,0.0,0.0,0.27
64,2064-01-01,52257846,3879576.760000005,0.0,7.5200000000000005,0.07423912497273624,0.22029212627297232,0.0,0.0,0.0,0.0,0.52
65,2065-01-01,52115065,6331109.110000003,0.0,5.6000000000000005,0.12148328146573363,0.3319995408945273,0.0,0.0,0.0,0.03,0.86
66,2066-01-01,52115065,8630207.100000016,0.0,9.19,0.16559908540841342,0.41443445320283606,0.0,0.0,0.0,0.04,1.16
67,2067-01-01,52115065,7063592.079999998,0.0,5.65,0.13553839144209065,0.3259102855082056,0.0,0.0,0.0,0.06,0.87
68,2068-01-01,52257846,10997370.979999958,0.0,9.07,0.21044439872244175,0.5540218632719839,0.0,0.0,0.0,0.06,1.47
69,2069-01-01,52115065,4083560.1299999873,0.0,4.94,0.07835661588448536,0.1816184838017357,0.0,0.0,0.0,0.06,0.45
70,2070-01-01,52115065,7017257.399999949,0.0,5.86,0.1346493072588502,0.33280831683775125,0.0,0.0,0.0,0.06,0.88
71,2071-01-01,52115065,859927.2700000048,0.0,4.63,0.01650055065651371,0.06350624561969785,0.0,0.0,0.0,0.0,0.11
72,2072-01-01,52257846,9605502.659999976,0.0,5.5200000000000005,0.1838097701156679,0.3715789624336407,0.0,0.0,0.0,0.17,1.07
73,2073-01-01,52115065,4354882.439999977,0.0,4.7,0.08356283235951019,0.2629729647897529,0.0,0.0,0.0,0.0,0.68
74,2074-01-01,52115065,7101582.509999994,0.0,6.38,0.1362673635732776,0.34326328539975,0.0,0.0,0.0,0.07,0.91
75,2075-01-01,52115065,5596982.749999993,0.0,5.36,0.10739663761332721,0.26941362734760005,0.0,0.0,0.0,0.05,0.6900000000000001
76,2076-01-01,52257846,10683696.159999952,0.0,5.5200000000000005,0.2044419542282694,0.3776400802029579,0.0,0.0,0.0,0.26,1.07
77,2077-01-01,52115065,6577351.989999971,0.0,5.8500000000000005,0.1262082660743102,0.3725719681696299,0.0,0.0,0.0,0.0,1.01
78,2078-01-01,52115065,18314526.180000007,0.0,8.43,0.3514247978007896,0.7116076877782735,0.0,0.0,0.0,0.3,2.05
79,2079-01-01,52115065,12046211.459999995,0.0,8.53,0.23114643452905595,0.5733902104860601,0.0,0.0,0.0,0.06,1.71
80,2080-01-01,52257846,5914199.390000008,0.0,5.9,0.11317342452270245,0.2977209305095792,0.0,0.0,0.0,0.03,0.79
81,2081-01-01,52115065,4956105.929999991,0.0,6.29,0.095099294800841,0.23748739407888686,0.0,0.0,0.0,0.06,0.55
82,2082-01-01,52115065,4221102.359999972,0.0,5.12,0.08099581877140463,0.1999260184456335,0.0,0.0,0.0,0.03,0.51
83,2083-01-01,52115065,9731400.909999926,0.0,5.87,0.1867291331211028,0.3936349727396903,0.0,0.0,0.0,0.14,1.1
84,2084-01-01,52257846,3981933.0499999756,0.0,5.23,0.07619780290982478,0.21364781872597333,0.0,0.0,0.0,0.0,0.53
85,2085-01-01,52115065,4230701.849999976,0.0,4.38,0.08118001675715028,0.19320757231222369,0.0,0.0,0.0,0.05,0.49
86,2086-01-01,52115065,5334712.159999973,0.0,4.2700000000000005,0.10236410834371928,0.27247945374486,0.0,0.0,0.0,0.01,0.74
87,2087-01-01,52115065,9425421.529999934,0.0,5.49,0.18085790605844843,0.4739579367422378,0.0,0.0,0.0,0.04,1.33
88,2088-01-01,52257846,1476569.8400000099,0.0,3.7600000000000002,0.028255466939835404,0.10496356042846886,0.0,0.0,0.0,0.0,0.2
89,2089-01-01,52115065,1806108.600000005,0.0,3.79,0.034656170917181144,0.12223860064317364,0.0,0.0,0.0,0.0,0.24
90,2090-01-01,52115065,6808920.889999968,0.0,8.38,0.1306516818121587,0.36853388943409826,0.0,0.0,0.0,0.01,0.99
91,2091-01-01,52115065,8014989.019999965,0.0,7.03,0.15379409044198572,0.3826769695190156,0.0,0.0,0.0,0.04,1.0
92,2092-01-01,52257846,3033787.969999973,0.0,4.83,0.05805421007976435,0.1742723417744806,0.0,0.0,0.0,0.01,0.34
93,2093-01-01,52115065,2760264.4999999786,0.0,4.41,0.05296480969562215,0.15432745121309865,0.0,0.0,0.0,0.0,0.35000000000000003
94,2094-01-01,52115065,2332208.3600000134,0.0,5.0200000000000005,0.04475113597191164,0.139002709024823,0.0,0.0,0.0,0.0,0.28
95,2095-01-01,52115065,9825097.769999962,0.0,3.98,0.18852701747565626,0.3367864039391127,0.0,0.0,0.0,0.28,0.93
96,2096-01-01,52257846,6432822.779999919,0.0,3.85,0.12309774076795893,0.3210397095533204,0.0,0.0,0.0,0.02,0.89
97,2097-01-01,52115065,6902807.7499999795,0.0,4.69,0.13245321194552823,0.3181370348413078,0.0,0.0,0.0,0.07,0.8300000000000001
98,2098-01-01,52115065,13032059.679999925,0.0,7.4,0.25006319535435534,0.6058522824283864,0.0,0.0,0.0,0.05,1.74
99,2099-01-01,52115065,5846307.33999993,0.0,3.94,0.11218075502735975,0.23761700444867762,0.0,0.0,0.0,0.1,0.62
100,2100-01-01,51972284,6644019.36,0.0,4.72,0.12783774059265898,0.31657099696990915,0.0,0.0,0.0,0.06,0.8
