,time,n,sum,min,max,mean,std,q0.05,q0.25,q0.50,q0.75,q0.95
0,2000-01-01,12127776,601053.8500000008,0.0,9.790000000000001,0.04956010483702872,0.19398612463712994,0.0,0.0,0.0,0.0,0.34
1,2001-01-01,12094640,699524.6,0.0,9.85,0.05783757102319705,0.16714553374573793,0.0,0.0,0.0,0.01,0.35000000000000003
2,2002-01-01,12094640,351070.44,0.0,9.76,0.029026944167002904,0.13412816496119606,0.0,0.0,0.0,0.0,0.16
3,2003-01-01,12094640,515701.4600000005,0.0,9.040000000000001,0.042638843322331255,0.16964773360044758,0.0,0.0,0.0,0.0,0.25
4,2004-01-01,12127776,417012.4399999999,0.0,8.55,0.03438490618560237,0.15033435379480783,0.0,0.0,0.0,0.0,0.21
5,2005-01-01,12094640,1866920.0300000038,0.0,8.59,0.15435928890814474,0.29519343484991917,0.0,0.0,0.0,0.21,0.77
6,2006-01-01,12094640,1339195.8200000012,0.0,9.23,0.11072638954115221,0.25093472397163524,0.0,0.0,0.0,0.12,0.59
7,2007-01-01,12094640,2188515.6200000015,0.0,10.31,0.18094921552026363,0.40998005046477687,0.0,0.0,0.0,0.13,1.02
8,2008-01-01,12127776,1665031.370000003,0.0,10.950000000000001,0.1372907423422071,0.46695003811057445,0.0,0.0,0.0,0.01,0.97
9,2009-01-01,12094640,1381241.4899999974,0.0,10.69,0.11420277825549148,0.30932951551687143,0.0,0.0,0.0,0.08,0.5700000000000001
10,2010-01-01,12094640,838428.3900000019,0.0,10.17,0.06932231054417509,0.22762042671371965,0.0,0.0,0.0,0.02,0.41000000000000003
11,2011-01-01,12094640,870659.46,0.0,9.200000000000001,0.07198721582453053,0.21202667850570703,0.0,0.0,0.0,0.02,0.47000000000000003
12,2012-01-01,12127776,3532616.239999992,0.0,11.370000000000001,0.29128310417342734,0.6102271842624799,0.0,0.0,0.0,0.31,1.73
13,2013-01-01,12094640,533356.0800000002,0.0,10.56,0.04409854944008256,0.1645903254249283,0.0,0.0,0.0,0.0,0.24
14,2014-01-01,12094640,731748.3500000003,0.0,10.15,0.06050187107677453,0.20651848258270875,0.0,0.0,0.0,0.0,0.37
15,2015-01-01,12094640,1179573.5300000007,0.0,10.42,0.09752861846239332,0.3162144531245865,0.0,0.0,0.0,0.03,0.63
16,2016-01-01,12127776,1082586.9399999988,0.0,9.88,0.08926508372186284,0.20327269635370326,0.0,0.0,0.0,0.1,0.44
17,2017-01-01,12094640,692773.859999999,0.0,7.68,0.05727941137561755,0.17798250706715277,0.0,0.0,0.0,0.0,0.39
18,2018-01-01,12094640,954613.2800000027,0.0,9.86,0.07892862292718118,0.24337060576344763,0.0,0.0,0.0,0.02,0.45
19,2019-01-01,12094640,767435.9900000022,0.0,9.64,0.06345256989873219,0.15796096762311537,0.0,0.0,0.0,0.03,0.37
20,2020-01-01,12127776,835406.6000000007,0.0,10.06,0.06888374257572046,0.21148909183970382,0.0,0.0,0.0,0.03,0.36
21,2021-01-01,12094640,539395.3200000001,0.0,9.39,0.04459788137555149,0.16708068522112346,0.0,0.0,0.0,0.0,0.27
22,2022-01-01,12094640,362283.83999999973,0.0,9.58,0.029954082138864798,0.14161476644669077,0.0,0.0,0.0,0.0,0.16
23,2023-01-01,12094640,635063.82,0.0,10.53,0.05250787290899109,0.22347111709275747,0.0,0.0,0.0,0.0,0.29
24,2024-01-01,12127776,2691700.7899999986,0.0,12.25,0.2219451274495834,0.5893782474198449,0.0,0.0,0.0,0.07,1.61
25,2025-01-01,12094640,664966.1099999999,0.0,10.43,0.05498023173901827,0.22069726591592617,0.0,0.0,0.0,0.0,0.33
26,2026-01-01,12094640,2081042.699999997,0.0,11.65,0.17206321974031447,0.39449327442113324,0.0,0.0,0.0,0.14,1.0
27,2027-01-01,12094640,1692636.0000000005,0.0,11.27,0.13994926678264094,0.3514471354092434,0.0,0.0,0.0,0.04,0.85
28,2028-01-01,12127776,811258.3000000014,0.0,10.39,0.06689258607678782,0.24303723501983143,0.0,0.0,0.0,0.0,0.34
29,2029-01-01,12094640,682700.5600000005,0.0,10.25,0.056446538301264074,0.2006288649786887,0.0,0.0,0.0,0.0,0.35000000000000003
30,2030-01-01,12094640,2200821.8100000015,0.0,12.790000000000001,0.18196670673951448,0.5494557115140792,0.0,0.0,0.0,0.07,1.23
31,2031-01-01,12094640,1590691.8699999964,0.0,11.66,0.13152039829213572,0.37998235192903357,0.0,0.0,0.0,0.04,0.8
32,2032-01-01,12127776,1304158.4499999997,0.0,11.290000000000001,0.10753483985851979,0.437667996991558,0.0,0.0,0.0,0.0,0.65
33,2033-01-01,12094640,686574.790000001,0.0,10.58,0.05676686449534678,0.24555718518735994,0.0,0.0,0.0,0.0,0.33
34,2034-01-01,12094640,559600.3399999996,0.0,10.950000000000001,0.046268457763108256,0.23788511691954992,0.0,0.0,0.0,0.0,0.15
35,2035-01-01,12094640,186782.4499999999,0.0,7.36,0.015443407162180924,0.09613010683279163,0.0,0.0,0.0,0.0,0.08
36,2036-01-01,12127776,1272439.8100000015,0.0,9.23,0.10491946833450762,0.32244777207457076,0.0,0.0,0.0,0.01,0.66
37,2037-01-01,12094640,359505.7100000002,0.0,8.71,0.02972438286712132,0.1556603466287575,0.0,0.0,0.0,0.0,0.13
38,2038-01-01,12094640,1711780.0900000047,0.0,9.47,0.14153212414755667,0.3205466609264433,0.0,0.0,0.0,0.15,0.76
39,2039-01-01,12094640,1681282.170000002,0.0,10.84,0.13901051788230176,0.3637350438376123,0.0,0.0,0.0,0.04,0.92
40,2040-01-01,12127776,1044872.9600000008,0.0,12.120000000000001,0.08615536434709882,0.3940994186979648,0.0,0.0,0.0,0.0,0.37
41,2041-01-01,12094640,504478.06999999937,0.0,10.24,0.04171087936474334,0.16737899062305903,0.0,0.0,0.0,0.0,0.23
42,2042-01-01,12094640,530061.3100000012,0.0,8.47,0.043826133725352816,0.15003643398796213,0.0,0.0,0.0,0.0,0.29
43,2043-01-01,12094640,1377919.0100000035,0.0,11.35,0.1139280714432181,0.29948748660383195,0.0,0.0,0.0,0.05,0.65
44,2044-01-01,12127776,1219284.3300000017,0.0,12.120000000000001,0.10053651469156437,0.3958866523293872,0.0,0.0,0.0,0.0,0.61
45,2045-01-01,12094640,1459692.4799999997,0.0,10.85,0.12068920447404799,0.38792418571563186,0.0,0.0,0.0,0.01,0.74
46,2046-01-01,12094640,971884.5300000007,0.0,11.02,0.08035663153264593,0.2937254863645798,0.0,0.0,0.0,0.0,0.51
47,2047-01-01,12094640,1142847.5299999993,0.0,11.0,0.09449206673369355,0.3387305450187204,0.0,0.0,0.0,0.0,0.5700000000000001
48,2048-01-01,12127776,207631.13999999937,0.0,8.370000000000001,0.017120298066191145,0.1136788519993394,0.0,0.0,0.0,0.0,0.05
49,2049-01-01,12094640,513843.3200000001,0.0,7.25,0.042485209977312276,0.18374973528016367,0.0,0.0,0.0,0.0,0.25
50,2050-01-01,12094640,1369597.590000001,0.0,8.790000000000001,0.11324004600384972,0.3987029822438224,0.0,0.0,0.0,0.01,0.63
51,2051-01-01,12094640,548330.5300000003,0.0,8.02,0.04533665574171701,0.14306726413343987,0.0,0.0,0.0,0.0,0.28
52,2052-01-01,12127776,2108980.509999998,0.0,9.93,0.17389672352127858,0.41556197360657077,0.0,0.0,0.0,0.16,0.9400000000000001
53,2053-01-01,12094640,1112092.0799999966,0.0,10.57,0.091949167565136,0.3298204764727359,0.0,0.0,0.0,0.0,0.64
54,2054-01-01,12094640,395337.6400000002,0.0,9.68,0.032687011767196066,0.16056004051211023,0.0,0.0,0.0,0.0,0.18
55,2055-01-01,12094640,912272.0799999997,0.0,11.06,0.07542779942189265,0.29948748133710595,0.0,0.0,0.0,0.0,0.4
56,2056-01-01,12127776,980922.9400000013,0.0,11.59,0.08088234314354102,0.24843614313039547,0.0,0.0,0.0,0.02,0.47000000000000003
57,2057-01-01,12094640,2274242.7600000035,0.0,12.27,0.18803724294398208,0.5540660726930849,0.0,0.0,0.0,0.05,1.27
58,2058-01-01,12094640,692881.8,0.0,10.290000000000001,0.057288335990157625,0.24811460189117093,0.0,0.0,0.0,0.0,0.36
59,2059-01-01,12094640,928246.8700000022,0.0,10.96,0.07674861508899829,0.22045064991273902,0.0,0.0,0.0,0.02,0.45
60,2060-01-01,12127776,529710.0200000001,0.0,10.290000000000001,0.043677424451111245,0.18155026165659094,0.0,0.0,0.0,0.0,0.26
61,2061-01-01,12094640,1394398.220000001,0.0,10.6,0.11529059318838766,0.31535448105902725,0.0,0.0,0.0,0.07,0.71
62,2062-01-01,12094640,839488.8199999995,0.0,10.450000000000001,0.0694099882261894,0.22588707903375305,0.0,0.0,0.0,0.0,0.37
63,2063-01-01,12094640,1061210.420000001,0.0,11.83,0.08774220811863777,0.36633023652229807,0.0,0.0,0.0,0.0,0.53
64,2064-01-01,12127776,708623.7799999994,0.0,9.790000000000001,0.05842982093336812,0.22543077190768013,0.0,0.0,0.0,0.0,0.41000000000000003
65,2065-01-01,12094640,890985.4299999999,0.0,10.31,0.07366779250973984,0.2294901172434384,0.0,0.0,0.0,0.0,0.45
66,2066-01-01,12094640,1142850.3599999999,0.0,9.200000000000001,0.09449230072164197,0.24172485594181264,0.0,0.0,0.0,0.0,0.6
67,2067-01-01,12094640,488796.08000000066,0.0,9.24,0.04041427276876374,0.18140742403218255,0.0,0.0,0.0,0.0,0.19
68,2068-01-01,12127776,505947.93000000116,0.0,8.94,0.041718113032430774,0.15962187206908426,0.0,0.0,0.0,0.0,0.27
69,2069-01-01,12094640,747654.1399999992,0.0,10.66,0.061816981737364586,0.2493500108920356,0.0,0.0,0.0,0.0,0.35000000000000003
70,2070-01-01,12094640,1311193.1800000006,0.0,10.63,0.10841109615499102,0.3385717048422685,0.0,0.0,0.0,0.02,0.64
71,2071-01-01,12094640,495126.55000000144,0.0,9.22,0.04093768396578992,0.1875372815203081,0.0,0.0,0.0,0.0,0.22
72,2072-01-01,12127776,875511.110000001,0.0,9.15,0.07219057393540258,0.21362652594744755,0.0,0.0,0.0,0.02,0.42
73,2073-01-01,12094640,1027657.6400000002,0.0,9.450000000000001,0.08496802219826305,0.24875237372297773,0.0,0.0,0.0,0.03,0.45
74,2074-01-01,12094640,494387.0700000003,0.0,10.290000000000001,0.040876542832196765,0.1743798410568206,0.0,0.0,0.0,0.0,0.28
75,2075-01-01,12094640,886043.4900000015,0.0,10.68,0.07325918671411481,0.28373895324226717,0.0,0.0,0.0,0.0,0.49
76,2076-01-01,12127776,929719.2199999994,0.0,11.42,0.07666032255213152,0.27773597131252287,0.0,0.0,0.0,0.0,0.51
77,2077-01-01,12094640,1963463.2899999986,0.0,11.58,0.1623416066951971,0.49063302094256345,0.0,0.0,0.0,0.02,1.19
78,2078-01-01,12094640,1292675.4699999995,0.0,10.950000000000001,0.10688002867385879,0.35798956621743444,0.0,0.0,0.0,0.0,0.8
79,2079-01-01,12094640,1031688.4699999992,0.0,10.67,0.0853012962766977,0.2922723029922596,0.0,0.0,0.0,0.01,0.5700000000000001
80,2080-01-01,12127776,1187955.3200000012,0.0,10.16,0.09795327024509698,0.3117171208954702,0.0,0.0,0.0,0.0,0.67
81,2081-01-01,12094640,799061.330000002,0.0,9.200000000000001,0.06606739266319643,0.2151597032976272,0.0,0.0,0.0,0.0,0.47000000000000003
82,2082-01-01,12094640,945707.8099999991,0.0,9.26,0.07819230750150473,0.23713324194520893,0.0,0.0,0.0,0.01,0.51
83,2083-01-01,12094640,2390212.490000002,0.0,10.46,0.19762576562841078,0.40104400235415866,0.0,0.0,0.0,0.24,1.0
84,2084-01-01,12127776,927781.1299999998,0.0,10.85,0.07650051666521543,0.218109912670825,0.0,0.0,0.0,0.02,0.48
85,2085-01-01,12094640,3326309.950000001,0.0,11.08,0.2750234773420293,0.5227082093352378,0.0,0.0,0.0,0.37,1.46
86,2086-01-01,12094640,1107436.8000000021,0.0,11.03,0.09156426317773841,0.3518487672501565,0.0,0.0,0.0,0.0,0.6
87,2087-01-01,12094640,506820.1100000003,0.0,9.34,0.041904522168497806,0.1763587559978554,0.0,0.0,0.0,0.0,0.25
88,2088-01-01,12127776,409467.56000000023,0.0,8.05,0.0337627904737027,0.13218589696873018,0.0,0.0,0.0,0.0,0.17
89,2089-01-01,12094640,690357.8300000002,0.0,8.27,0.05707965098589129,0.2147585601388199,0.0,0.0,0.0,0.0,0.37
90,2090-01-01,12094640,1547355.1600000027,0.0,10.68,0.12793726477183304,0.44353901308444055,0.0,0.0,0.0,0.0,0.89
91,2091-01-01,12094640,516731.33000000013,0.0,10.19,0.04272399426522824,0.1816879697593429,0.0,0.0,0.0,0.0,0.26
92,2092-01-01,12127776,541160.4100000006,0.0,9.73,0.04462157035222292,0.17622511664450677,0.0,0.0,0.0,0.0,0.29
93,2093-01-01,12094640,928325.1100000025,0.0,10.28,0.07675508407029911,0.2531290865716659,0.0,0.0,0.0,0.0,0.49
94,2094-01-01,12094640,2001460.9099999992,0.0,10.68,0.16548329755991076,0.4039641488752728,0.0,0.0,0.0,0.11,1.02
95,2095-01-01,12094640,1596030.9399999983,0.0,10.48,0.13196183929410038,0.3017360157827964,0.0,0.0,0.0,0.11,0.71
96,2096-01-01,12127776,527883.5399999997,0.0,9.98,0.04352682140567238,0.2012790551637095,0.0,0.0,0.0,0.0,0.25
97,2097-01-01,12094640,433537.2300000006,0.0,9.85,0.035845401764748736,0.1773591290298534,0.0,0.0,0.0,0.0,0.16
98,2098-01-01,12094640,680037.1999999989,0.0,10.72,0.05622632835702418,0.24346666015347598,0.0,0.0,0.0,0.0,0.31
99,2099-01-01,12094640,442444.5499999999,0.0,9.82,0.036581870150744454,0.1755316335321025,0.0,0.0,0.0,0.0,0.18
100,2100-01-01,12061504,826936.3600000003,0.0,10.38,0.06855997063052836,0.27721781906934906,0.0,0.0,0.0,0.0,0.42
