,time,n,sum,min,max,mean,std,q0.05,q0.25,q0.50,q0.75,q0.95
0,2000-01-01,26985546,2701970.8900000085,0.0,9.790000000000001,0.1001265970308701,0.27683323188020137,0.0,0.0,0.0,0.01,0.72
1,2001-01-01,26911815,2689656.8999999845,0.0,9.85,0.0999433483025944,0.22961632974317078,0.0,0.0,0.0,0.07,0.59
2,2002-01-01,26911815,2109936.0700000045,0.0,9.76,0.07840184952222674,0.21095632661297278,0.0,0.0,0.0,0.04,0.45
3,2003-01-01,26911815,2993992.839999981,0.0,9.040000000000001,0.1112519850482021,0.2656222637293122,0.0,0.0,0.0,0.05,0.68
4,2004-01-01,26985546,2292928.179999999,0.0,8.55,0.08496875253144771,0.2539105221718112,0.0,0.0,0.0,0.03,0.49
5,2005-01-01,26911815,5672154.310000008,0.0,8.59,0.21076818155891783,0.37086904391713754,0.0,0.0,0.0,0.29,1.06
6,2006-01-01,26911815,5424508.7,0.0,9.23,0.20156606680002817,0.3615362119120644,0.0,0.0,0.0,0.26,0.99
7,2007-01-01,26911815,7360872.360000002,0.0,10.31,0.27351824319541446,0.5369646756326668,0.0,0.0,0.0,0.28,1.5
8,2008-01-01,26985546,8433720.970000014,0.0,10.950000000000001,0.3125273422298001,0.6506968685487435,0.0,0.0,0.0,0.24,1.78
9,2009-01-01,26911815,5523782.030000005,0.0,10.69,0.20525490495531443,0.42051863190872757,0.0,0.0,0.0,0.22,1.1400000000000001
10,2010-01-01,26911815,3608917.369999994,0.0,10.17,0.13410159701231575,0.31612727145741126,0.0,0.0,0.0,0.08,0.81
11,2011-01-01,26911815,3536288.820000001,0.0,9.200000000000001,0.13140283626355195,0.2782331423470196,0.0,0.0,0.0,0.13,0.72
12,2012-01-01,26985546,13035174.009999989,0.0,11.370000000000001,0.4830428115110211,0.8706830150864142,0.0,0.0,0.0,0.51,2.52
13,2013-01-01,26911815,2281065.5299999984,0.0,10.56,0.08476074653456106,0.21397618831388746,0.0,0.0,0.0,0.06,0.49
14,2014-01-01,26911815,3042995.099999987,0.0,10.15,0.11307283065077503,0.2780104628552684,0.0,0.0,0.0,0.02,0.73
15,2015-01-01,26911815,5563089.7299999865,0.0,10.42,0.20671551621471781,0.47616112466813565,0.0,0.0,0.0,0.11,1.34
16,2016-01-01,26985546,4029161.7400000053,0.0,9.88,0.14930814221806019,0.27713667205538306,0.0,0.0,0.0,0.21,0.74
17,2017-01-01,26911815,3924693.650000007,0.0,7.68,0.14583533849352068,0.3270638990258536,0.0,0.0,0.0,0.08,0.88
18,2018-01-01,26911815,4231695.149999995,0.0,9.86,0.15724302318516958,0.34075573021719063,0.0,0.0,0.0,0.15,0.89
19,2019-01-01,26911815,2387651.4499999993,0.0,9.64,0.08872130883777253,0.1862175428637193,0.0,0.0,0.0,0.09,0.5
20,2020-01-01,26985546,3931528.589999999,0.0,10.06,0.14569016280048583,0.32277816763413253,0.0,0.0,0.0,0.12,0.91
21,2021-01-01,26911815,2791621.4200000083,0.0,9.39,0.10373218677372775,0.2500512301773879,0.0,0.0,0.0,0.05,0.66
22,2022-01-01,26911815,1822985.629999998,0.0,9.58,0.0677392301485425,0.1678303205845288,0.0,0.0,0.0,0.03,0.41000000000000003
23,2023-01-01,26911815,3486904.690000007,0.0,10.53,0.12956780098257983,0.31463472390201913,0.0,0.0,0.0,0.06,0.78
24,2024-01-01,26985546,11799414.439999957,0.0,12.25,0.4372494238211803,0.8753455587428841,0.0,0.0,0.0,0.37,2.59
25,2025-01-01,26911815,4143027.189999983,0.0,10.43,0.15394826361581274,0.35827951947879705,0.0,0.0,0.0,0.1,0.92
26,2026-01-01,26911815,6981836.009999995,0.0,11.65,0.25943385869737867,0.5128135068450431,0.0,0.0,0.0,0.26,1.42
27,2027-01-01,26911815,6599233.579999981,0.0,11.27,0.2452169643704812,0.4719906046797029,0.0,0.0,0.0,0.29,1.29
28,2028-01-01,26985546,3347714.9899999932,0.0,10.39,0.12405585530861571,0.3237135294509021,0.0,0.0,0.0,0.04,0.77
29,2029-01-01,26911815,3207719.0800000066,0.0,10.25,0.11919371027186411,0.2847126815697744,0.0,0.0,0.0,0.07,0.72
30,2030-01-01,26911815,11262779.519999953,0.0,12.790000000000001,0.41850687216748306,0.8364249530790863,0.0,0.0,0.0,0.39,2.38
31,2031-01-01,26911815,6762256.119999972,0.0,11.66,0.25127462120261945,0.5273649410373059,0.0,0.0,0.0,0.21,1.46
32,2032-01-01,26985546,6719956.460000009,0.0,11.290000000000001,0.24902058531630264,0.5970615403245997,0.0,0.0,0.0,0.12,1.6300000000000001
33,2033-01-01,26911815,4138981.509999996,0.0,10.58,0.15379793261807115,0.36957823867049633,0.0,0.0,0.0,0.07,0.96
34,2034-01-01,26911815,3441314.299999996,0.0,10.950000000000001,0.12787373501192678,0.3636505448549456,0.0,0.0,0.0,0.0,0.91
35,2035-01-01,26911815,957611.5600000023,0.0,7.36,0.035583313871621156,0.14745768182245342,0.0,0.0,0.0,0.0,0.2
36,2036-01-01,26985546,4997439.299999988,0.0,9.23,0.1851894825474344,0.4337843074690664,0.0,0.0,0.0,0.09,1.19
37,2037-01-01,26911815,1602676.5000000023,0.0,8.71,0.05955289526180239,0.19350292451427706,0.0,0.0,0.0,0.0,0.41000000000000003
38,2038-01-01,26911815,5822199.639999992,0.0,9.47,0.21634362602448004,0.41804153830692864,0.0,0.0,0.0,0.25,1.16
39,2039-01-01,26911815,5880102.270000007,0.0,10.84,0.21849519514012739,0.4860261020674085,0.0,0.0,0.0,0.11,1.3900000000000001
40,2040-01-01,26985546,5162961.81999999,0.0,12.120000000000001,0.19132322985052777,0.5526687602974509,0.0,0.0,0.0,0.04,1.36
41,2041-01-01,26911815,2563870.0799999996,0.0,10.24,0.09526931126718877,0.23031796380212846,0.0,0.0,0.0,0.05,0.59
42,2042-01-01,26911815,2618347.1599999983,0.0,8.47,0.09729359242399661,0.23410733464465178,0.0,0.0,0.0,0.03,0.6
43,2043-01-01,26911815,4854842.540000005,0.0,11.35,0.18039818347443323,0.40866529661063705,0.0,0.0,0.0,0.12,1.08
44,2044-01-01,26985546,5426670.949999994,0.0,12.120000000000001,0.20109546606913173,0.5277428509023943,0.0,0.0,0.0,0.02,1.4000000000000001
45,2045-01-01,26911815,6233381.25999998,0.0,10.85,0.23162247733941319,0.5197148417832451,0.0,0.0,0.0,0.16,1.45
46,2046-01-01,26911815,5099447.929999995,0.0,11.02,0.1894873285209487,0.4401478174552954,0.0,0.0,0.0,0.08,1.21
47,2047-01-01,26911815,4986593.549999983,0.0,11.0,0.1852938402705274,0.4678338924715565,0.0,0.0,0.0,0.03,1.29
48,2048-01-01,26985546,1394199.7799999984,0.0,8.370000000000001,0.05166468671784512,0.19618348859576998,0.0,0.0,0.0,0.0,0.33
49,2049-01-01,26911815,2644479.3000000035,0.0,7.25,0.09826462094808558,0.27887930142490575,0.0,0.0,0.0,0.02,0.66
50,2050-01-01,26911815,7358286.679999982,0.0,8.790000000000001,0.2734221634624042,0.6170421996246287,0.0,0.0,0.0,0.16,1.78
51,2051-01-01,26911815,2537969.0400000005,0.0,8.02,0.094306870049456,0.21677857610287643,0.0,0.0,0.0,0.07,0.54
52,2052-01-01,26985546,9782670.97000002,0.0,9.93,0.3625152135146726,0.679751131813599,0.0,0.0,0.0,0.44,1.8800000000000001
53,2053-01-01,26911815,5088183.909999985,0.0,10.57,0.1890687755545282,0.4822662443611189,0.0,0.0,0.0,0.06,1.35
54,2054-01-01,26911815,2129007.100000004,0.0,9.68,0.07911049849294831,0.2444146857632261,0.0,0.0,0.0,0.01,0.49
55,2055-01-01,26911815,4664791.919999995,0.0,11.06,0.17333620642085995,0.42512973076265304,0.0,0.0,0.0,0.1,1.08
56,2056-01-01,26985546,4209917.1100000115,0.0,11.59,0.15600637133671527,0.33223591760975474,0.0,0.0,0.0,0.15,0.85
57,2057-01-01,26911815,10274240.62999994,0.0,12.27,0.38177434818127054,0.7728911823191964,0.0,0.0,0.0,0.35000000000000003,2.23
58,2058-01-01,26911815,3624704.359999991,0.0,10.290000000000001,0.13468821630945335,0.3447504297775395,0.0,0.0,0.0,0.02,0.9500000000000001
59,2059-01-01,26911815,3655265.330000019,0.0,10.96,0.1358238130724375,0.30232180909166195,0.0,0.0,0.0,0.11,0.8
60,2060-01-01,26985546,2673150.369999995,0.0,10.290000000000001,0.0990585986290585,0.25349707879663785,0.0,0.0,0.0,0.05,0.61
61,2061-01-01,26911815,5727944.010000013,0.0,10.6,0.21284123757539256,0.48357363778927154,0.0,0.0,0.0,0.14,1.37
62,2062-01-01,26911815,3449971.500000002,0.0,10.450000000000001,0.12819542271675105,0.3267664376683378,0.0,0.0,0.0,0.05,0.85
63,2063-01-01,26911815,4682036.929999994,0.0,11.83,0.17397700340909725,0.45995010355306093,0.0,0.0,0.0,0.03,1.11
64,2064-01-01,26985546,4731682.240000005,0.0,9.790000000000001,0.17534135644318646,0.37556608105058026,0.0,0.0,0.0,0.12,1.03
65,2065-01-01,26911815,3503849.199999993,0.0,10.31,0.13019743187146587,0.30667861376616035,0.0,0.0,0.0,0.08,0.79
66,2066-01-01,26911815,4318804.499999986,0.0,9.200000000000001,0.16047986729991962,0.3285211297424961,0.0,0.0,0.0,0.15,0.89
67,2067-01-01,26911815,2509051.0500000105,0.0,9.24,0.0932323237953297,0.25456752291553136,0.0,0.0,0.0,0.03,0.58
68,2068-01-01,26985546,2148580.1800000025,0.0,8.94,0.07961966676531217,0.21398009927608455,0.0,0.0,0.0,0.01,0.53
69,2069-01-01,26911815,3626796.0300000217,0.0,10.66,0.13476593942103204,0.3350056596121488,0.0,0.0,0.0,0.05,0.86
70,2070-01-01,26911815,6625625.750000013,0.0,10.63,0.24619765519345363,0.4993405405941595,0.0,0.0,0.0,0.22,1.41
71,2071-01-01,26911815,3470824.42,0.0,9.22,0.1289702838697427,0.3227749889399809,0.0,0.0,0.0,0.02,0.91
72,2072-01-01,26985546,4011538.1500000088,0.0,9.15,0.1486550670495979,0.3144462230015229,0.0,0.0,0.0,0.12,0.84
73,2073-01-01,26911815,4078462.9700000077,0.0,9.450000000000001,0.15154916047096814,0.35092110332831744,0.0,0.0,0.0,0.11,0.9400000000000001
74,2074-01-01,26911815,2474566.1300000055,0.0,10.290000000000001,0.09195091932669741,0.24386109745495071,0.0,0.0,0.0,0.01,0.61
75,2075-01-01,26911815,4604051.939999989,0.0,10.68,0.1710792059175492,0.38226981303528285,0.0,0.0,0.0,0.11,1.01
76,2076-01-01,26985546,3519215.6699999985,0.0,11.42,0.1304111345384673,0.34405248290330187,0.0,0.0,0.0,0.02,0.87
77,2077-01-01,26911815,9198209.92999999,0.0,11.58,0.3417907684784542,0.6841253477150127,0.0,0.0,0.0,0.32,1.93
78,2078-01-01,26911815,6673809.009999991,0.0,10.950000000000001,0.24798806806601456,0.5212081803353916,0.0,0.0,0.0,0.2,1.43
79,2079-01-01,26911815,4741251.250000002,0.0,10.67,0.1761773128270985,0.4195658286780411,0.0,0.0,0.0,0.07,1.1400000000000001
80,2080-01-01,26985546,5008903.099999996,0.0,10.16,0.18561429514896588,0.4512965554970214,0.0,0.0,0.0,0.06,1.25
81,2081-01-01,26911815,3447168.4299999787,0.0,9.200000000000001,0.12809126511905566,0.3025199758733777,0.0,0.0,0.0,0.06,0.84
82,2082-01-01,26911815,4040435.099999982,0.0,9.26,0.1501361056472773,0.3216787319688617,0.0,0.0,0.0,0.12,0.87
83,2083-01-01,26911815,6649564.350000013,0.0,10.46,0.2470871752797057,0.4975872998405322,0.0,0.0,0.0,0.24,1.4000000000000001
84,2084-01-01,26985546,3965218.7899999977,0.0,10.85,0.14693861632445746,0.30368904760038606,0.0,0.0,0.0,0.16,0.79
85,2085-01-01,26911815,11507673.980000021,0.0,11.08,0.4276067585928344,0.7006180565599075,0.0,0.0,0.0,0.66,1.99
86,2086-01-01,26911815,5535214.609999987,0.0,11.03,0.2056797213417225,0.5043258720751728,0.0,0.0,0.0,0.08,1.41
87,2087-01-01,26911815,2108255.849999994,0.0,9.34,0.07833941523453525,0.21554623968529657,0.0,0.0,0.0,0.01,0.52
88,2088-01-01,26985546,1462961.0300000017,0.0,8.05,0.05421276375138015,0.15555338325617393,0.0,0.0,0.0,0.01,0.32
89,2089-01-01,26911815,3150631.7500000023,0.0,8.27,0.11707243640014627,0.2828453783407237,0.0,0.0,0.0,0.04,0.75
90,2090-01-01,26911815,8253607.230000005,0.0,10.68,0.30669084303678534,0.6392728854722002,0.0,0.0,0.0,0.29,1.73
91,2091-01-01,26911815,2519037.3700000043,0.0,10.19,0.09360339947342847,0.24522217451168168,0.0,0.0,0.0,0.02,0.62
92,2092-01-01,26985546,2495013.830000002,0.0,9.73,0.09245741516588184,0.2352097967056156,0.0,0.0,0.0,0.02,0.59
93,2093-01-01,26911815,4342337.750000005,0.0,10.28,0.161354325228529,0.36456448163932975,0.0,0.0,0.0,0.1,0.98
94,2094-01-01,26911815,8724848.740000002,0.0,10.68,0.3242014237984321,0.6238903458172885,0.0,0.0,0.0,0.36,1.73
95,2095-01-01,26911815,5779308.86000001,0.0,10.48,0.21474987324340664,0.4219320054366897,0.0,0.0,0.0,0.22,1.17
96,2096-01-01,26985546,2992633.2899999907,0.0,9.98,0.11089763720178168,0.27504610763303083,0.0,0.0,0.0,0.03,0.7000000000000001
97,2097-01-01,26911815,2495435.9199999855,0.0,9.85,0.09272640734190486,0.2538812470718724,0.0,0.0,0.0,0.02,0.6
98,2098-01-01,26911815,3876828.5300000003,0.0,10.72,0.14405674719449432,0.3493049731637566,0.0,0.0,0.0,0.07,0.9400000000000001
99,2099-01-01,26911815,2388662.920000002,0.0,9.82,0.08875889344512816,0.24155855134277143,0.0,0.0,0.0,0.02,0.58
100,2100-01-01,26838084,3980067.6999999927,0.0,10.38,0.14829924893297125,0.3851598116893937,0.0,0.0,0.0,0.01,1.02
