,time,n,sum,min,max,mean,std,q0.05,q0.25,q0.50,q0.75,q0.95
0,2000-01-01,52257846,4059153.830000005,0.0,2.68,0.077675490681342,0.1989505150016901,0.0,0.0,0.0,0.0,0.54
1,2001-01-01,52115065,9843185.100000005,0.0,3.43,0.18887408276282502,0.34052137022339796,0.0,0.0,0.0,0.27,0.97
2,2002-01-01,52115065,9383585.169999925,0.0,3.5,0.18005513703187218,0.36830107417381275,0.0,0.0,0.0,0.19,1.07
3,2003-01-01,52115065,7148477.319999928,0.0,4.12,0.13716719570435013,0.29470398298247963,0.0,0.0,0.0,0.11,0.8300000000000001
4,2004-01-01,52257846,10624471.799999988,0.0,6.82,0.2033086438350327,0.406734826906825,0.0,0.0,0.0,0.21,1.1300000000000001
5,2005-01-01,52115065,12935868.269999994,0.0,8.290000000000001,0.24821744480218905,0.5065794888725178,0.0,0.0,0.0,0.22,1.47
6,2006-01-01,52115065,7602748.019999959,0.0,5.74,0.14588388252034146,0.33763127917078106,0.0,0.0,0.0,0.08,0.96
7,2007-01-01,52115065,5675949.609999959,0.0,4.97,0.10891187816804909,0.2913808184829066,0.0,0.0,0.0,0.02,0.8
8,2008-01-01,52257846,5003031.379999978,0.0,5.11,0.09573742055881862,0.2137949232559599,0.0,0.0,0.0,0.08,0.54
9,2009-01-01,52115065,9581237.529999895,0.0,5.3100000000000005,0.18384775170096967,0.38815492721371886,0.0,0.0,0.0,0.16,1.16
10,2010-01-01,52115065,7670895.879999986,0.0,5.25,0.14719152475392644,0.33101317463199814,0.0,0.0,0.0,0.11,0.9
11,2011-01-01,52115065,12000111.969999898,0.0,6.48,0.23026186324434017,0.5428272264657633,0.0,0.0,0.0,0.08,1.57
12,2012-01-01,52257846,6504769.289999988,0.0,5.79,0.12447450072856023,0.2812840689275683,0.0,0.0,0.0,0.13,0.62
13,2013-01-01,52115065,5630703.069999992,0.0,5.87,0.10804367355197565,0.27687876092141805,0.0,0.0,0.0,0.04,0.73
14,2014-01-01,52115065,4040207.279999987,0.0,5.82,0.07752474797834344,0.22248270382984942,0.0,0.0,0.0,0.03,0.52
15,2015-01-01,52115065,8478015.949999968,0.0,6.07,0.16267879450980188,0.42269638754075534,0.0,0.0,0.0,0.03,1.23
16,2016-01-01,52257846,2679968.9099999866,0.0,5.04,0.05128357012648372,0.15380347735557598,0.0,0.0,0.0,0.01,0.35000000000000003
17,2017-01-01,52115065,8335032.559999996,0.0,6.2700000000000005,0.15993518496043316,0.419913134047973,0.0,0.0,0.0,0.03,1.18
18,2018-01-01,52115065,2184784.000000008,0.0,4.3,0.04192231171543215,0.14262530998428896,0.0,0.0,0.0,0.0,0.28
19,2019-01-01,52115065,4317775.4499999825,0.0,5.2,0.08285081194852165,0.23397178321451315,0.0,0.0,0.0,0.0,0.63
20,2020-01-01,52257846,5568564.029999977,0.0,5.26,0.10655938689091733,0.2749021776534695,0.0,0.0,0.0,0.01,0.75
21,2021-01-01,52115065,7829656.709999979,0.0,5.46,0.15023787670609215,0.358428472359987,0.0,0.0,0.0,0.03,1.03
22,2022-01-01,52115065,6244937.619999933,0.0,5.22,0.11982979624029891,0.26824586872694894,0.0,0.0,0.0,0.1,0.68
23,2023-01-01,52115065,4513982.849999997,0.0,6.1000000000000005,0.08661570027783706,0.2257228301631436,0.0,0.0,0.0,0.03,0.54
24,2024-01-01,52257846,6500197.799999963,0.0,5.84,0.12438702123313622,0.29080014540327526,0.0,0.0,0.0,0.05,0.77
25,2025-01-01,52115065,4145566.4700000114,0.0,4.78,0.07954641273113659,0.2433205816181862,0.0,0.0,0.0,0.0,0.54
26,2026-01-01,52115065,5152153.949999939,0.0,6.97,0.09886112489737735,0.3040438879288479,0.0,0.0,0.0,0.0,0.8200000000000001
27,2027-01-01,52115065,4005223.7499999604,0.0,4.34,0.07685347317517421,0.18685006696864764,0.0,0.0,0.0,0.04,0.46
28,2028-01-01,52257846,4920987.309999922,0.0,5.22,0.09416743487666755,0.25418168394637586,0.0,0.0,0.0,0.01,0.67
29,2029-01-01,52115065,2772660.93999996,0.0,3.96,0.05320267642379339,0.1586674715963873,0.0,0.0,0.0,0.0,0.38
30,2030-01-01,52115065,2115057.1400000122,0.0,2.96,0.04058437114105129,0.11754176094717549,0.0,0.0,0.0,0.0,0.27
31,2031-01-01,52115065,4698437.519999986,0.0,3.11,0.09015507358572776,0.21915489355627601,0.0,0.0,0.0,0.04,0.55
32,2032-01-01,52257846,3314485.4600000004,0.0,2.73,0.0634256042623724,0.16002344926262985,0.0,0.0,0.0,0.02,0.42
33,2033-01-01,52115065,11624910.80000001,0.0,4.3,0.2230623870468167,0.39829632427777034,0.0,0.0,0.0,0.33,1.11
34,2034-01-01,52115065,906378.749999999,0.0,3.36,0.01739187603430983,0.07606347187872498,0.0,0.0,0.0,0.0,0.11
35,2035-01-01,52115065,5713039.779999975,0.0,3.5700000000000003,0.10962357583167123,0.2593111569341471,0.0,0.0,0.0,0.05,0.7000000000000001
36,2036-01-01,52257846,5014439.559999966,0.0,4.49,0.09595572615067154,0.2553903285535828,0.0,0.0,0.0,0.02,0.66
37,2037-01-01,52115065,2507208.2699999567,0.0,3.2,0.04810908841809862,0.155325332045943,0.0,0.0,0.0,0.0,0.35000000000000003
38,2038-01-01,52115065,655494.0200000047,0.0,2.62,0.012577822170998053,0.056993734604801345,0.0,0.0,0.0,0.0,0.08
39,2039-01-01,52115065,1059972.7300000037,0.0,2.52,0.020339084869221667,0.07092143863817622,0.0,0.0,0.0,0.0,0.13
40,2040-01-01,52257846,2513048.530000005,0.0,2.57,0.048089401350373394,0.13373733577548455,0.0,0.0,0.0,0.0,0.33
41,2041-01-01,52115065,7785510.070000014,0.0,6.43,0.14939077731170466,0.3734261440656425,0.0,0.0,0.0,0.05,1.02
42,2042-01-01,52115065,4040845.1099999696,0.0,2.5500000000000003,0.07753698685783025,0.17517092296838163,0.0,0.0,0.0,0.04,0.47000000000000003
43,2043-01-01,52115065,4291131.799999952,0.0,3.49,0.08233956534449208,0.23341531467233856,0.0,0.0,0.0,0.0,0.6
44,2044-01-01,52257846,2355589.1700000083,0.0,3.3200000000000003,0.045076277541175505,0.12487914769465569,0.0,0.0,0.0,0.01,0.28
45,2045-01-01,52115065,3426949.509999948,0.0,3.4,0.06575736804703108,0.18687611302123674,0.0,0.0,0.0,0.0,0.46
46,2046-01-01,52115065,3835390.4699999755,0.0,3.39,0.07359465962481243,0.22624118350412945,0.0,0.0,0.0,0.0,0.5700000000000001
47,2047-01-01,52115065,7255541.42,0.0,5.82,0.13922157479799746,0.35441167834491777,0.0,0.0,0.0,0.01,1.01
48,2048-01-01,52257846,4801184.449999992,0.0,4.96,0.0918749014262852,0.23709334723656825,0.0,0.0,0.0,0.02,0.62
49,2049-01-01,52115065,3829400.509999976,0.0,3.94,0.07347972241807577,0.20120839568799206,0.0,0.0,0.0,0.01,0.47000000000000003
50,2050-01-01,52115065,7211359.460000006,0.0,8.5,0.13837379767251573,0.4107404549287823,0.0,0.0,0.0,0.02,0.99
51,2051-01-01,52115065,6876389.640000008,0.0,6.68,0.13194629307283812,0.329706052435804,0.0,0.0,0.0,0.06,0.85
52,2052-01-01,52257846,3191585.859999977,0.0,5.12,0.061073811959260184,0.17675400654047385,0.0,0.0,0.0,0.0,0.41000000000000003
53,2053-01-01,52115065,4726561.159999978,0.0,4.07,0.09069471869602345,0.21374343147444566,0.0,0.0,0.0,0.05,0.5700000000000001
54,2054-01-01,52115065,1956603.3400000131,0.0,5.07,0.037543910575569904,0.12625910975975208,0.0,0.0,0.0,0.0,0.25
55,2055-01-01,52115065,746590.4100000068,0.0,3.5100000000000002,0.014325807902187338,0.06435432246618891,0.0,0.0,0.0,0.0,0.08
56,2056-01-01,52257846,761743.9500000026,0.0,3.25,0.01457664271122087,0.06514357098892991,0.0,0.0,0.0,0.0,0.09
57,2057-01-01,52115065,1901356.4100000083,0.0,3.06,0.03648381538044725,0.12278061162612902,0.0,0.0,0.0,0.0,0.29
58,2058-01-01,52115065,2715879.3000000077,0.0,2.45,0.05211313273810572,0.15351694249497386,0.0,0.0,0.0,0.0,0.38
59,2059-01-01,52115065,3685960.1199999815,0.0,4.66,0.07072734381123734,0.21107840784621315,0.0,0.0,0.0,0.0,0.52
60,2060-01-01,52257846,1154595.0699999998,0.0,1.32,0.02209419557782768,0.06883438332306777,0.0,0.0,0.0,0.0,0.16
61,2061-01-01,52115065,2384463.380000004,0.0,4.01,0.04575382147177604,0.13994391678481646,0.0,0.0,0.0,0.0,0.31
62,2062-01-01,52115065,437096.56999999913,0.0,2.0100000000000002,0.008387144293113692,0.04700461585034186,0.0,0.0,0.0,0.0,0.03
63,2063-01-01,52115065,494252.1099999999,0.0,1.72,0.009483862487747064,0.04425983073608858,0.0,0.0,0.0,0.0,0.05
64,2064-01-01,52257846,6873879.669999987,0.0,5.58,0.13153775358440886,0.37238887530903375,0.0,0.0,0.0,0.0,1.03
65,2065-01-01,52115065,1629958.2100000097,0.0,2.4,0.03127614270460969,0.10610874696339204,0.0,0.0,0.0,0.0,0.23
66,2066-01-01,52115065,1019968.2900000011,0.0,1.52,0.019571467290696098,0.0711656113598813,0.0,0.0,0.0,0.0,0.13
67,2067-01-01,52115065,1178994.2800000028,0.0,2.67,0.022622907215025113,0.09695760461115194,0.0,0.0,0.0,0.0,0.14
68,2068-01-01,52257846,1120474.7500000051,0.0,2.04,0.02144127314394101,0.08516880108180862,0.0,0.0,0.0,0.0,0.15
69,2069-01-01,52115065,1947517.1600000013,0.0,2.69,0.037369562141004745,0.131335713482591,0.0,0.0,0.0,0.0,0.27
70,2070-01-01,52115065,1187147.5300000056,0.0,2.13,0.022779354299951572,0.09341813896473891,0.0,0.0,0.0,0.0,0.15
71,2071-01-01,52115065,2040260.4800000086,0.0,3.41,0.03914914967485906,0.14528278969883313,0.0,0.0,0.0,0.0,0.26
72,2072-01-01,52257846,315198.85000000184,0.0,2.56,0.006031608153156597,0.04075876121396241,0.0,0.0,0.0,0.0,0.02
73,2073-01-01,52115065,1987690.7500000054,0.0,3.24,0.03814042542209255,0.12667252624522443,0.0,0.0,0.0,0.0,0.26
74,2074-01-01,52115065,629201.2600000023,0.0,1.95,0.012073308552910802,0.058679523438167736,0.0,0.0,0.0,0.0,0.07
75,2075-01-01,52115065,991404.3399999996,0.0,3.66,0.019023373375817523,0.10830019625442218,0.0,0.0,0.0,0.0,0.07
76,2076-01-01,52257846,2065955.1900000083,0.0,2.39,0.03953387573609537,0.12704352459570983,0.0,0.0,0.0,0.0,0.26
77,2077-01-01,52115065,4742461.889999957,0.0,6.2700000000000005,0.09099982682550539,0.265986679886567,0.0,0.0,0.0,0.0,0.71
78,2078-01-01,52115065,853570.7200000002,0.0,3.3200000000000003,0.01637857920737507,0.06262352269088026,0.0,0.0,0.0,0.0,0.11
79,2079-01-01,52115065,2186054.1400000034,0.0,2.17,0.04194668355493759,0.13270932721515943,0.0,0.0,0.0,0.0,0.31
80,2080-01-01,52257846,2068763.4100000004,0.0,3.35,0.03958761350400857,0.16825490218967934,0.0,0.0,0.0,0.0,0.23
81,2081-01-01,52115065,759904.0800000018,0.0,1.23,0.01458127472353727,0.056641860194784066,0.0,0.0,0.0,0.0,0.11
82,2082-01-01,52115065,3254056.200000011,0.0,4.0,0.06243983769376496,0.16510819610478042,0.0,0.0,0.0,0.02,0.41000000000000003
83,2083-01-01,52115065,1289792.2000000011,0.0,2.57,0.024748932002675257,0.1074637754392261,0.0,0.0,0.0,0.0,0.16
84,2084-01-01,52257846,1416664.6300000125,0.0,2.93,0.02710912788100781,0.09444239234858638,0.0,0.0,0.0,0.0,0.19
85,2085-01-01,52115065,1336008.9700000074,0.0,1.93,0.025635753692334597,0.08789422452722602,0.0,0.0,0.0,0.0,0.2
86,2086-01-01,52115065,114656.45999999945,0.0,1.41,0.0022000636476228025,0.017786210928628424,0.0,0.0,0.0,0.0,0.0
87,2087-01-01,52115065,1139753.070000002,0.0,2.61,0.02186993473000565,0.08814730109908893,0.0,0.0,0.0,0.0,0.13
88,2088-01-01,52257846,2541933.249999969,0.0,4.17,0.048642135957918525,0.16478980071941918,0.0,0.0,0.0,0.0,0.31
89,2089-01-01,52115065,1667226.4500000023,0.0,2.18,0.031991257230514866,0.0893031730609414,0.0,0.0,0.0,0.0,0.21
90,2090-01-01,52115065,9689884.069999976,0.0,4.69,0.18593249514319854,0.38514776846249804,0.0,0.0,0.0,0.2,1.0
91,2091-01-01,52115065,1218666.2899999996,0.0,3.65,0.02338414602380328,0.1122375757006756,0.0,0.0,0.0,0.0,0.11
92,2092-01-01,52257846,1559605.5900000108,0.0,1.7,0.029844429293928623,0.09525262532578058,0.0,0.0,0.0,0.0,0.23
93,2093-01-01,52115065,1431540.5799999984,0.0,2.4,0.027468843797853814,0.09262797850968846,0.0,0.0,0.0,0.0,0.2
94,2094-01-01,52115065,710830.0300000026,0.0,1.82,0.013639626660736249,0.051025925546702496,0.0,0.0,0.0,0.0,0.1
95,2095-01-01,52115065,1267132.2000000034,0.0,3.37,0.0243141249080281,0.08522358752019882,0.0,0.0,0.0,0.0,0.17
96,2096-01-01,52257846,1924873.4700000077,0.0,3.62,0.0368341525213268,0.13157501539201638,0.0,0.0,0.0,0.0,0.25
97,2097-01-01,52115065,856253.1499999991,0.0,1.59,0.016430050504590163,0.06470074919311526,0.0,0.0,0.0,0.0,0.11
98,2098-01-01,52115065,970559.7500000029,0.0,3.23,0.018623400930230113,0.0882900486167259,0.0,0.0,0.0,0.0,0.11
99,2099-01-01,47688854,722642.4500000048,0.0,1.75,0.015153277744942347,0.05619859633247837,0.0,0.0,0.0,0.0,0.1
