,time,n,sum,min,max,mean,std,q0.05,q0.25,q0.50,q0.75,q0.95
0,2000-01-01,1690554,16332.300000000003,0.0,0.35000000000000003,0.009660915889110909,0.03165296068794639,0.0,0.0,0.0,0.0,0.08
1,2001-01-01,1685935,30089.529999999984,0.0,0.75,0.01784738438907786,0.05634970502240497,0.0,0.0,0.0,0.0,0.13
2,2002-01-01,1685935,42011.14000000001,0.0,0.92,0.024918600064652557,0.07378769722224898,0.0,0.0,0.0,0.0,0.2
3,2003-01-01,1685935,50952.23,0.0,1.0,0.030221942127068958,0.07817168256602161,0.0,0.0,0.0,0.0,0.19
4,2004-01-01,1690554,59086.749999999985,0.0,0.97,0.034951116616209824,0.10037290475575428,0.0,0.0,0.0,0.0,0.3
5,2005-01-01,1685935,23710.47,0.0,0.42,0.014063691660710526,0.04542209621772239,0.0,0.0,0.0,0.0,0.13
6,2006-01-01,1685935,13459.11,0.0,0.43,0.007983172542239174,0.02873124081451003,0.0,0.0,0.0,0.0,0.06
7,2007-01-01,1685935,91717.06999999998,0.0,1.03,0.054401308472746567,0.1225293286993196,0.0,0.0,0.0,0.0,0.35000000000000003
8,2008-01-01,1690554,19729.760000000013,0.0,0.5700000000000001,0.011670588457984786,0.03835839827272974,0.0,0.0,0.0,0.0,0.1
9,2009-01-01,1685935,23420.060000000005,0.0,0.76,0.013891437095736196,0.045700726312243645,0.0,0.0,0.0,0.0,0.09
10,2010-01-01,1685935,17940.060000000005,0.0,0.62,0.010641015223006822,0.039991705140160226,0.0,0.0,0.0,0.0,0.09
11,2011-01-01,1685935,60969.439999999966,0.0,1.12,0.03616357688760241,0.08370822138504624,0.0,0.0,0.0,0.02,0.21
12,2012-01-01,1690554,101151.86,0.0,1.29,0.05983355752019752,0.11035471282008957,0.0,0.0,0.0,0.08,0.31
13,2013-01-01,1685935,163861.1499999999,0.0,1.54,0.09719304125010746,0.21144284373020414,0.0,0.0,0.0,0.03,0.63
14,2014-01-01,1685935,96956.13,0.0,1.3,0.05750881854875781,0.147787709811996,0.0,0.0,0.0,0.0,0.41000000000000003
15,2015-01-01,1685935,94764.43,0.0,1.69,0.05620882774246931,0.16652670927095758,0.0,0.0,0.0,0.0,0.41000000000000003
16,2016-01-01,1690554,58921.78,0.0,1.31,0.034853533220470925,0.1311465116640666,0.0,0.0,0.0,0.0,0.24
17,2017-01-01,1685935,12593.610000000004,0.0,0.61,0.007469807554858286,0.026387482612588133,0.0,0.0,0.0,0.0,0.05
18,2018-01-01,1685935,3971.629999999999,0.0,0.5700000000000001,0.0023557432522606147,0.014732881941806445,0.0,0.0,0.0,0.0,0.01
19,2019-01-01,1685935,24389.370000000003,0.0,0.66,0.014466376224468917,0.04625161179234906,0.0,0.0,0.0,0.0,0.09
20,2020-01-01,1690554,8369.83,0.0,0.42,0.004950939159589105,0.021144830041781196,0.0,0.0,0.0,0.0,0.03
21,2021-01-01,1685935,29476.71000000001,0.0,0.97,0.01748389469344904,0.06532011848180706,0.0,0.0,0.0,0.0,0.14
22,2022-01-01,1685935,209431.73999999996,0.0,2.0100000000000002,0.12422290301820649,0.23935670808762866,0.0,0.0,0.0,0.11,0.6900000000000001
23,2023-01-01,1685935,33463.27999999999,0.0,0.67,0.019848499497311576,0.05475089902522658,0.0,0.0,0.0,0.0,0.16
24,2024-01-01,1690554,167403.55999999994,0.0,1.42,0.09902290018538298,0.18780337153541807,0.0,0.0,0.0,0.11,0.55
25,2025-01-01,1685935,251702.88999999987,0.0,2.17,0.14929572611043715,0.29908033785986177,0.0,0.0,0.0,0.13,0.88
26,2026-01-01,1685935,37874.51000000001,0.0,1.16,0.02246498827060356,0.07324407506934481,0.0,0.0,0.0,0.0,0.16
27,2027-01-01,1685935,77107.54999999999,0.0,0.96,0.04573577866287846,0.10852895122058215,0.0,0.0,0.0,0.01,0.29
28,2028-01-01,1690554,118160.06,0.0,1.25,0.069894283175811,0.16607502631854099,0.0,0.0,0.0,0.0,0.49
29,2029-01-01,1685935,27806.819999999996,0.0,0.89,0.016493411667709606,0.055035937534388416,0.0,0.0,0.0,0.0,0.13
30,2030-01-01,1685935,7967.889999999999,0.0,0.3,0.004726095608668187,0.018515303745669818,0.0,0.0,0.0,0.0,0.04
31,2031-01-01,1685935,32187.649999999994,0.0,0.8200000000000001,0.019091868903605414,0.06274201438512887,0.0,0.0,0.0,0.0,0.16
32,2032-01-01,1690554,44317.31000000001,0.0,0.85,0.026214666908007677,0.07514111612643971,0.0,0.0,0.0,0.0,0.21
33,2033-01-01,1685935,62405.500000000015,0.0,0.81,0.03701536536106079,0.09650071119453552,0.0,0.0,0.0,0.0,0.28
34,2034-01-01,1685935,28156.930000000004,0.0,0.67,0.016701076850531012,0.0612996698423742,0.0,0.0,0.0,0.0,0.11
35,2035-01-01,1685935,78018.49000000002,0.0,0.78,0.04627609605352521,0.10481912093904647,0.0,0.0,0.0,0.0,0.32
36,2036-01-01,1690554,29908.21999999999,0.0,0.67,0.01769137217740456,0.05454229711570392,0.0,0.0,0.0,0.0,0.14
37,2037-01-01,1685935,12503.96,0.0,0.37,0.007416632313819927,0.02465618435093607,0.0,0.0,0.0,0.0,0.06
38,2038-01-01,1685935,8109.930000000001,0.0,0.64,0.004810345594581049,0.021261537477725127,0.0,0.0,0.0,0.0,0.04
39,2039-01-01,1685935,128277.06000000001,0.0,1.4000000000000001,0.07608659883091579,0.16132900954492108,0.0,0.0,0.0,0.05,0.47000000000000003
40,2040-01-01,1690554,31711.520000000008,0.0,1.3900000000000001,0.01875806392460697,0.08049349197349423,0.0,0.0,0.0,0.0,0.11
41,2041-01-01,1685935,17430.989999999998,0.0,0.42,0.010339064080169163,0.0325550584495154,0.0,0.0,0.0,0.0,0.09
42,2042-01-01,1685935,18827.07999999999,0.0,0.56,0.011167144640807617,0.041313724766815746,0.0,0.0,0.0,0.0,0.1
43,2043-01-01,1685935,63786.38000000001,0.0,0.85,0.03783442422157438,0.10490956516334699,0.0,0.0,0.0,0.0,0.29
44,2044-01-01,1690554,36389.98999999998,0.0,0.79,0.021525482179214614,0.07192825404446923,0.0,0.0,0.0,0.0,0.18
45,2045-01-01,1685935,3894.0600000000004,0.0,0.25,0.0023097331747665246,0.012318076466498587,0.0,0.0,0.0,0.0,0.01
46,2046-01-01,1685935,6297.66,0.0,0.48,0.003735410914418409,0.020656961927422047,0.0,0.0,0.0,0.0,0.01
47,2047-01-01,1685935,38510.099999999984,0.0,0.61,0.022841983824999176,0.058628160254087174,0.0,0.0,0.0,0.0,0.16
48,2048-01-01,1690554,16963.940000000002,0.0,0.55,0.010034544888835258,0.0431696867681826,0.0,0.0,0.0,0.0,0.06
49,2049-01-01,1685935,21123.970000000005,0.0,0.54,0.012529528125342913,0.044133722778087595,0.0,0.0,0.0,0.0,0.08
50,2050-01-01,1685935,66375.53999999996,0.0,1.04,0.039370165516464134,0.11326960498260948,0.0,0.0,0.0,0.0,0.33
51,2051-01-01,1685935,10322.780000000004,0.0,0.39,0.006122881368498788,0.021664112670382867,0.0,0.0,0.0,0.0,0.05
52,2052-01-01,1690554,28366.85,0.0,0.7000000000000001,0.016779617805760715,0.048454886450243206,0.0,0.0,0.0,0.0,0.13
53,2053-01-01,1685935,82894.52000000002,0.0,1.07,0.04916827754332167,0.10910956286886139,0.0,0.0,0.0,0.03,0.31
54,2054-01-01,1685935,176544.63999999996,0.0,1.99,0.10471616046881994,0.2048912746948459,0.0,0.0,0.0,0.12,0.56
55,2055-01-01,1685935,17699.63999999999,0.0,0.66,0.010498411860480972,0.042082169794119176,0.0,0.0,0.0,0.0,0.08
56,2056-01-01,1690554,12091.43,0.0,1.11,0.007152347691940039,0.0328915488996212,0.0,0.0,0.0,0.0,0.04
57,2057-01-01,1685935,101529.85000000002,0.0,1.02,0.06022168707571764,0.149939848698083,0.0,0.0,0.0,0.0,0.46
58,2058-01-01,1685935,31341.570000000003,0.0,0.5,0.018590022747021685,0.04634173305962799,0.0,0.0,0.0,0.0,0.13
59,2059-01-01,1685935,27785.69000000001,0.0,0.5,0.016480878562933926,0.05229279203253712,0.0,0.0,0.0,0.0,0.14
60,2060-01-01,1690554,44229.479999999996,0.0,1.04,0.02616271352467889,0.07618639384618763,0.0,0.0,0.0,0.0,0.19
61,2061-01-01,1685935,78008.90000000002,0.0,1.29,0.04627040781524793,0.13455869277384933,0.0,0.0,0.0,0.0,0.38
62,2062-01-01,1685935,28518.2,0.0,1.16,0.016915361505633372,0.07944090868988526,0.0,0.0,0.0,0.0,0.11
63,2063-01-01,1685935,167963.13999999993,0.0,1.25,0.09962610658180768,0.22242899058178323,0.0,0.0,0.0,0.0,0.66
64,2064-01-01,1690554,57361.160000000025,0.0,0.96,0.03393039204899697,0.09490041114520252,0.0,0.0,0.0,0.0,0.21
65,2065-01-01,1685935,31557.50999999999,0.0,1.07,0.018718105976802183,0.06340040226385889,0.0,0.0,0.0,0.0,0.13
66,2066-01-01,1685935,25555.28,0.0,0.53,0.01515792720359919,0.05226407122500314,0.0,0.0,0.0,0.0,0.09
67,2067-01-01,1685935,17435.24,0.0,0.56,0.010341584936548564,0.03815129394728595,0.0,0.0,0.0,0.0,0.08
68,2068-01-01,1690554,16019.690000000006,0.0,0.51,0.009476000175090536,0.031652034616239506,0.0,0.0,0.0,0.0,0.07
69,2069-01-01,1685935,50120.91000000001,0.0,0.89,0.029728850756405207,0.08700230174436982,0.0,0.0,0.0,0.0,0.26
70,2070-01-01,1685935,7278.350000000004,0.0,0.44,0.004317100006821143,0.018245465701549207,0.0,0.0,0.0,0.0,0.03
71,2071-01-01,1685935,12117.52,0.0,0.75,0.007187418257524757,0.030437060786443648,0.0,0.0,0.0,0.0,0.05
72,2072-01-01,1690554,43676.88999999999,0.0,1.1,0.025835844344516645,0.08238150798414717,0.0,0.0,0.0,0.0,0.2
73,2073-01-01,1685935,90745.79,0.0,1.22,0.05382520085293917,0.1441184837486806,0.0,0.0,0.0,0.0,0.38
74,2074-01-01,1685935,27878.390000000003,0.0,0.5,0.01653586288913867,0.04544656708844505,0.0,0.0,0.0,0.0,0.12
75,2075-01-01,1685935,53170.20000000001,0.0,1.16,0.031537514791495525,0.09473234491910773,0.0,0.0,0.0,0.0,0.21
76,2076-01-01,1690554,71435.08999999998,0.0,1.24,0.04225543224292154,0.12755358303455847,0.0,0.0,0.0,0.0,0.26
77,2077-01-01,1685935,9775.199999999999,0.0,0.46,0.0057980883011504,0.02551791235702954,0.0,0.0,0.0,0.0,0.03
78,2078-01-01,1685935,18978.120000000003,0.0,0.78,0.011256732910818034,0.04127181611957937,0.0,0.0,0.0,0.0,0.1
79,2079-01-01,1685935,17125.06,0.0,0.5,0.01015760394083995,0.0355999786856521,0.0,0.0,0.0,0.0,0.08
80,2080-01-01,1690554,6216.93,0.0,0.6,0.003677451297030441,0.023635701015601154,0.0,0.0,0.0,0.0,0.01
81,2081-01-01,1685935,82467.70999999992,0.0,0.87,0.04891511831713555,0.11330935369341963,0.0,0.0,0.0,0.01,0.32
82,2082-01-01,1685935,16206.319999999996,0.0,0.5,0.009612660037308672,0.03944536359242311,0.0,0.0,0.0,0.0,0.06
83,2083-01-01,1685935,24832.890000000003,0.0,0.51,0.014729446864796094,0.050137637144497,0.0,0.0,0.0,0.0,0.13
84,2084-01-01,1690554,9860.330000000002,0.0,0.48,0.005832602803577999,0.026894666225305137,0.0,0.0,0.0,0.0,0.03
85,2085-01-01,1685935,66699.83,0.0,1.33,0.03956251575535237,0.09298320556122386,0.0,0.0,0.0,0.0,0.25
86,2086-01-01,1685935,54317.08999999997,0.0,1.28,0.03221778419689962,0.10941965272650621,0.0,0.0,0.0,0.0,0.29
87,2087-01-01,1685935,26664.920000000002,0.0,0.5700000000000001,0.01581610204426624,0.06209820197287259,0.0,0.0,0.0,0.0,0.12
88,2088-01-01,1690554,23942.750000000022,0.0,0.48,0.01416266501986924,0.039581169821246764,0.0,0.0,0.0,0.0,0.11
89,2089-01-01,1685935,42362.370000000024,0.0,0.77,0.025126929567272773,0.07992609814806294,0.0,0.0,0.0,0.0,0.23
90,2090-01-01,1685935,51522.82999999994,0.0,0.96,0.03056038933885348,0.07983849235817492,0.0,0.0,0.0,0.0,0.21
91,2091-01-01,1685935,33122.23,0.0,0.73,0.01964620818714838,0.06374286543351079,0.0,0.0,0.0,0.0,0.17
92,2092-01-01,1690554,51448.43999999999,0.0,0.84,0.03043288768060647,0.09566843860965765,0.0,0.0,0.0,0.0,0.25
93,2093-01-01,1685935,7392.570000000002,0.0,0.35000000000000003,0.004384848763445804,0.02144241486987673,0.0,0.0,0.0,0.0,0.02
94,2094-01-01,1685935,21982.52,0.0,0.6,0.013038770771115139,0.05286754209595999,0.0,0.0,0.0,0.0,0.09
95,2095-01-01,1685935,39444.34000000001,0.0,0.6900000000000001,0.023396121440031798,0.06610585745014638,0.0,0.0,0.0,0.0,0.19
96,2096-01-01,1690554,91900.20999999995,0.0,1.3,0.054361002369637375,0.11884328754737407,0.0,0.0,0.0,0.03,0.35000000000000003
97,2097-01-01,1685935,103195.99999999991,0.0,1.52,0.06120995174784313,0.14914496855481732,0.0,0.0,0.0,0.01,0.41000000000000003
98,2098-01-01,1685935,24096.569999999996,0.0,0.67,0.014292704048495343,0.047655999545969954,0.0,0.0,0.0,0.0,0.1
99,2099-01-01,1685935,89704.16000000002,0.0,1.08,0.05320736564576927,0.12585331210188,0.0,0.0,0.0,0.01,0.38
100,2100-01-01,1681316,65150.03000000004,0.0,1.3,0.03874942604483633,0.11666261655921993,0.0,0.0,0.0,0.0,0.32
