,time,n,sum,min,max,mean,std,q0.05,q0.25,q0.50,q0.75,q0.95
0,2000-01-01,14122476,3060924.3000000007,0.0,10.39,0.21674133487640557,0.3803575310887913,0.0,0.0,0.0,0.3,1.01
1,2001-01-01,14083890,2193472.5000000056,0.0,10.02,0.15574337061706714,0.31657576305593876,0.0,0.0,0.0,0.21,0.72
2,2002-01-01,14083890,2649301.629999999,0.0,11.620000000000001,0.18810865677025304,0.45634928628841154,0.0,0.0,0.0,0.1,1.2
3,2003-01-01,14083890,2633188.610000001,0.0,10.24,0.18696458222834747,0.3349576094626871,0.0,0.0,0.0,0.28,0.85
4,2004-01-01,14122476,2773380.6800000025,0.0,9.88,0.1963806261734842,0.355547096288459,0.0,0.0,0.0,0.29,0.89
5,2005-01-01,14083890,2067288.859999999,0.0,9.15,0.14678393966439662,0.34679617427389653,0.0,0.0,0.0,0.1,0.86
6,2006-01-01,14083890,1779581.3800000038,0.0,9.39,0.1263558136281953,0.31057983100211817,0.0,0.0,0.0,0.06,0.76
7,2007-01-01,14083890,3398445.5900000012,0.0,9.23,0.24130020825212362,0.4344857633429702,0.0,0.0,0.0,0.31,1.17
8,2008-01-01,14122476,1822188.7300000074,0.0,9.22,0.12902756782875804,0.29294867342406483,0.0,0.0,0.0,0.12,0.74
9,2009-01-01,14083890,3975693.0100000054,0.0,10.31,0.28228657068466206,0.5596419740354941,0.0,0.0,0.0,0.3,1.53
10,2010-01-01,14083890,4906561.709999995,0.0,12.01,0.34838114398791775,0.6410252870559738,0.0,0.0,0.0,0.39,1.8
11,2011-01-01,14083890,3695908.1600000137,0.0,11.36,0.26242097602296055,0.5680007557077025,0.0,0.0,0.0,0.18,1.59
12,2012-01-01,14122476,3070598.76999999,0.0,11.71,0.21742637551658717,0.4568528668923566,0.0,0.0,0.0,0.23,1.16
13,2013-01-01,14083890,2584854.650000003,0.0,10.82,0.1835327207184949,0.3189848056216845,0.0,0.0,0.0,0.3,0.8200000000000001
14,2014-01-01,14083890,3501454.1899999976,0.0,10.01,0.2486141392754415,0.41280085237212716,0.0,0.0,0.0,0.41000000000000003,1.05
15,2015-01-01,14083890,4020324.009999994,0.0,11.1,0.2854555105159153,0.5492008803691169,0.0,0.0,0.0,0.36,1.44
16,2016-01-01,14122476,1678586.1899999967,0.0,9.39,0.11885919933586693,0.25630314708630997,0.0,0.0,0.0,0.14,0.61
17,2017-01-01,14083890,1377164.0999999996,0.0,7.91,0.09778293497038103,0.23511016534288934,0.0,0.0,0.0,0.08,0.58
18,2018-01-01,14083890,1300489.1399999987,0.0,7.3,0.09233877430170206,0.2593317981986055,0.0,0.0,0.0,0.06,0.49
19,2019-01-01,14083890,2049890.769999998,0.0,7.58,0.14554862115509265,0.31411509803121296,0.0,0.0,0.0,0.15,0.77
20,2020-01-01,14122476,1657692.6,0.0,7.01,0.1173797427589893,0.2697093668206927,0.0,0.0,0.0,0.09,0.64
21,2021-01-01,14083890,2170832.600000005,0.0,7.9,0.15413586729234643,0.3500189636312596,0.0,0.0,0.0,0.11,0.9500000000000001
22,2022-01-01,14083890,867680.0600000006,0.0,5.49,0.06160798330574867,0.15918994888447832,0.0,0.0,0.0,0.04,0.37
23,2023-01-01,14083890,1632248.6300000015,0.0,4.93,0.11589473007812483,0.23250232411003494,0.0,0.0,0.0,0.14,0.59
24,2024-01-01,14122476,907288.4,0.0,4.5600000000000005,0.06424428690832967,0.16129832351449766,0.0,0.0,0.0,0.02,0.4
25,2025-01-01,14083890,5393969.449999994,0.0,10.040000000000001,0.3829886096809897,0.7219718416343588,0.0,0.0,0.0,0.42,2.05
26,2026-01-01,14083890,3069906.4099999974,0.0,7.5600000000000005,0.2179729045029461,0.5050897339775617,0.0,0.0,0.0,0.13,1.45
27,2027-01-01,14083890,2526160.1600000015,0.0,6.5600000000000005,0.17936522935069796,0.34280577716326505,0.0,0.0,0.0,0.22,0.91
28,2028-01-01,14122476,693468.36,0.0,4.5,0.049103879518010866,0.14179424264151075,0.0,0.0,0.0,0.01,0.32
29,2029-01-01,14083890,1820953.6700000053,0.0,4.79,0.1292933749127553,0.24746494606943772,0.0,0.0,0.0,0.16,0.65
30,2030-01-01,14083890,3203053.879999999,0.0,6.03,0.22742678904762811,0.4021913267668403,0.0,0.0,0.0,0.34,1.08
31,2031-01-01,14083890,3163907.4899999956,0.0,6.74,0.22464727358705552,0.44029595413287226,0.0,0.0,0.0,0.25,1.19
32,2032-01-01,14122476,2934613.7699999902,0.0,5.39,0.20779739827491936,0.35355160938788266,0.0,0.0,0.0,0.34,0.9500000000000001
33,2033-01-01,14083890,6630407.370000006,0.0,9.33,0.4707795481220036,0.8066898909651379,0.0,0.0,0.02,0.67,2.25
34,2034-01-01,14083890,1149670.5400000024,0.0,6.69,0.08163018455838567,0.20346626695590098,0.0,0.0,0.0,0.04,0.54
35,2035-01-01,14083890,1851735.6500000015,0.0,6.41,0.13147899124460655,0.2719680195231322,0.0,0.0,0.0,0.15,0.6900000000000001
36,2036-01-01,14122476,3195894.4799999967,0.0,7.1000000000000005,0.22629845361394113,0.40142388867594386,0.0,0.0,0.0,0.35000000000000003,1.07
37,2037-01-01,14083890,815145.4700000006,0.0,4.72,0.057877863999221846,0.16203147496348763,0.0,0.0,0.0,0.01,0.35000000000000003
38,2038-01-01,14083890,1062239.979999999,0.0,3.72,0.07542234283283944,0.20339207931426503,0.0,0.0,0.0,0.02,0.51
39,2039-01-01,14083890,2144088.1000000057,0.0,4.71,0.15223692459966712,0.2888167241440329,0.0,0.0,0.0,0.2,0.74
40,2040-01-01,14122476,2236341.770000002,0.0,5.0600000000000005,0.15835337726897195,0.2995969149114949,0.0,0.0,0.0,0.2,0.78
41,2041-01-01,14083890,2320685.2900000024,0.0,6.01,0.16477587442105857,0.4141953741270459,0.0,0.0,0.0,0.08,1.08
42,2042-01-01,14083890,773879.5100000013,0.0,3.2,0.05494785247541704,0.13836976653658462,0.0,0.0,0.0,0.03,0.35000000000000003
43,2043-01-01,14083890,682524.38,0.0,3.13,0.04846135407192189,0.14140383759417216,0.0,0.0,0.0,0.01,0.3
44,2044-01-01,14122476,2481423.429999995,0.0,6.3,0.17570739224481563,0.40598069136278986,0.0,0.0,0.0,0.11,1.11
45,2045-01-01,14083890,705603.950000001,0.0,3.69,0.05010007533430047,0.12351919067747509,0.0,0.0,0.0,0.02,0.3
46,2046-01-01,14083890,685427.030000001,0.0,3.8000000000000003,0.04866745125103938,0.17702342468703486,0.0,0.0,0.0,0.0,0.33
47,2047-01-01,14083890,842248.36,0.0,3.1,0.05980225349672569,0.16419967276451505,0.0,0.0,0.0,0.01,0.42
48,2048-01-01,14122476,1353600.6200000006,0.0,5.6000000000000005,0.09584725936160207,0.25322679123924907,0.0,0.0,0.0,0.04,0.66
49,2049-01-01,14083890,1495607.9700000028,0.0,4.57,0.10619281817736455,0.27265461275034786,0.0,0.0,0.0,0.05,0.67
50,2050-01-01,14083890,1635165.3599999985,0.0,5.13,0.11610182698103994,0.29333172704749566,0.0,0.0,0.0,0.05,0.73
51,2051-01-01,14083890,2095566.1399999992,0.0,6.3,0.1487917145050124,0.3280312664408424,0.0,0.0,0.0,0.13,0.84
52,2052-01-01,14122476,2419754.849999999,0.0,7.0200000000000005,0.17134069479034691,0.43907645788389393,0.0,0.0,0.0,0.09,1.16
53,2053-01-01,14083890,1307162.2800000005,0.0,6.5200000000000005,0.09281258799948029,0.2514954960764388,0.0,0.0,0.0,0.03,0.55
54,2054-01-01,14083890,1627394.6099999994,0.0,4.66,0.11555007955898544,0.26503873515206,0.0,0.0,0.0,0.08,0.66
55,2055-01-01,14083890,599539.7499999997,0.0,3.27,0.04256918720609147,0.11452466598562297,0.0,0.0,0.0,0.02,0.26
56,2056-01-01,14122476,902336.8400000004,0.0,3.38,0.06389367133638608,0.1523177211864082,0.0,0.0,0.0,0.06,0.35000000000000003
57,2057-01-01,14083890,1734835.0200000084,0.0,4.07,0.12317868287809748,0.27478030281930305,0.0,0.0,0.0,0.09,0.74
58,2058-01-01,14083890,1844285.359999999,0.0,4.95,0.13094999747938948,0.2977823336885682,0.0,0.0,0.0,0.11,0.8
59,2059-01-01,14083890,689938.6699999988,0.0,4.15,0.04898779172515539,0.1699539330027444,0.0,0.0,0.0,0.0,0.28
60,2060-01-01,14122476,445072.3699999994,0.0,3.34,0.031515179774424786,0.09790674607061912,0.0,0.0,0.0,0.0,0.21
61,2061-01-01,14083890,862738.6700000018,0.0,3.42,0.06125712924483234,0.1575926174410512,0.0,0.0,0.0,0.03,0.37
62,2062-01-01,14083890,1525117.0500000024,0.0,3.94,0.10828805464967436,0.21366625177422857,0.0,0.0,0.0,0.14,0.55
63,2063-01-01,14083890,534950.7200000002,0.0,2.5300000000000002,0.03798316516246578,0.10894356910824324,0.0,0.0,0.0,0.0,0.25
64,2064-01-01,14122476,1286858.8800000018,0.0,4.95,0.09112133594703944,0.2473685079954817,0.0,0.0,0.0,0.03,0.62
65,2065-01-01,14083890,1766102.4699999986,0.0,5.3,0.12539876909007375,0.3293508155205965,0.0,0.0,0.0,0.06,0.84
66,2066-01-01,14083890,2319378.0899999966,0.0,7.4,0.16468305915482134,0.40407249732533873,0.0,0.0,0.0,0.08,1.1
67,2067-01-01,14083890,1865131.3200000012,0.0,4.61,0.13243012548379754,0.30057722082033306,0.0,0.0,0.0,0.1,0.77
68,2068-01-01,14122476,2831732.600000001,0.0,8.44,0.2005124738749778,0.5192285704093451,0.0,0.0,0.0,0.09,1.36
69,2069-01-01,14083890,1302660.6199999982,0.0,4.44,0.0924929561364082,0.19731833847310845,0.0,0.0,0.0,0.11,0.48
70,2070-01-01,14083890,1807596.9100000043,0.0,4.8,0.12834500340459945,0.2986795195663864,0.0,0.0,0.0,0.09,0.78
71,2071-01-01,14083890,299580.27,0.0,3.09,0.021271131058251663,0.07131324386763552,0.0,0.0,0.0,0.0,0.14
72,2072-01-01,14122476,2352623.350000001,0.0,4.15,0.16658717281587174,0.32205639532693014,0.0,0.0,0.0,0.19,0.89
73,2073-01-01,14083890,1137424.54,0.0,4.01,0.0807606804654112,0.23274934587105373,0.0,0.0,0.0,0.01,0.5700000000000001
74,2074-01-01,14083890,2028443.3799999987,0.0,5.29,0.14402578974984884,0.3169979264585404,0.0,0.0,0.0,0.13,0.8300000000000001
75,2075-01-01,14083890,1514305.3600000036,0.0,4.44,0.1075203910283312,0.26432991157008456,0.0,0.0,0.0,0.07,0.68
76,2076-01-01,14122476,2855170.9299999974,0.0,4.43,0.20217212123426498,0.35782672412809136,0.0,0.0,0.0,0.29,0.98
77,2077-01-01,14083890,1710089.6900000004,0.0,5.22,0.12142168747412826,0.35866231655632874,0.0,0.0,0.0,0.0,0.92
78,2078-01-01,14083890,4453822.529999996,0.0,8.17,0.3162352538964729,0.6207464394956255,0.0,0.0,0.0,0.37,1.7
79,2079-01-01,14083890,2941846.1499999976,0.0,6.9,0.20888022769277506,0.5191494336297254,0.0,0.0,0.0,0.08,1.49
80,2080-01-01,14122476,1704425.3700000017,0.0,5.25,0.12068884875428372,0.29219238114147317,0.0,0.0,0.0,0.07,0.78
81,2081-01-01,14083890,1484667.7699999986,0.0,4.5200000000000005,0.10541602994627185,0.24095602548624298,0.0,0.0,0.0,0.09,0.58
82,2082-01-01,14083890,1443797.27,0.0,4.63,0.10251409731260326,0.21820244642741524,0.0,0.0,0.0,0.09,0.56
83,2083-01-01,14083890,2511272.840000001,0.0,4.46,0.17830818332151138,0.35159310464548593,0.0,0.0,0.0,0.21,0.91
84,2084-01-01,14122476,1156473.1799999985,0.0,3.86,0.081888840172219,0.21065489078150765,0.0,0.0,0.0,0.02,0.55
85,2085-01-01,14083890,1238508.699999999,0.0,2.88,0.08793797026247713,0.1846825843800438,0.0,0.0,0.0,0.09,0.48
86,2086-01-01,14083890,1279510.7600000002,0.0,3.39,0.09084924406538253,0.23708175417058255,0.0,0.0,0.0,0.03,0.62
87,2087-01-01,14083890,2074625.7800000024,0.0,5.49,0.14730488380695975,0.38890028881835303,0.0,0.0,0.0,0.07,0.97
88,2088-01-01,14122476,380926.55,0.0,2.44,0.02697307115267889,0.09172630052095891,0.0,0.0,0.0,0.0,0.18
89,2089-01-01,14083890,557707.0599999997,0.0,3.09,0.03959893608939005,0.13055979918399138,0.0,0.0,0.0,0.0,0.25
90,2090-01-01,14083890,1720132.1100000015,0.0,7.07,0.12213473053254474,0.3486354427576123,0.0,0.0,0.0,0.03,0.86
91,2091-01-01,14083890,2108741.2000000007,0.0,5.8500000000000005,0.14972718474796384,0.35812194262385194,0.0,0.0,0.0,0.08,0.92
92,2092-01-01,14122476,1355111.790000001,0.0,5.48,0.09595426396900947,0.23515813736369626,0.0,0.0,0.0,0.07,0.53
93,2093-01-01,14083890,812238.520000002,0.0,3.44,0.05767146150672875,0.15263138204717153,0.0,0.0,0.0,0.03,0.35000000000000003
94,2094-01-01,14083890,735016.2700000001,0.0,3.73,0.052188441545624124,0.14764624701243867,0.0,0.0,0.0,0.01,0.32
95,2095-01-01,14083890,2503127.6100000055,0.0,3.73,0.17772984665458233,0.30742933140863904,0.0,0.0,0.0,0.28,0.81
96,2096-01-01,14122476,1571818.53,0.0,3.8200000000000003,0.11129907602604529,0.2703393026834219,0.0,0.0,0.0,0.06,0.71
97,2097-01-01,14083890,1825371.8800000015,0.0,4.1,0.12960708156624354,0.3028123971475733,0.0,0.0,0.0,0.09,0.79
98,2098-01-01,14083890,3187120.229999998,0.0,7.8,0.22629545033367898,0.5488359181819282,0.0,0.0,0.0,0.08,1.53
99,2099-01-01,14083890,1732596.4300000016,0.0,3.47,0.12301973602463535,0.23631815320707766,0.0,0.0,0.0,0.15,0.62
100,2100-01-01,14045304,2014278.8600000043,0.0,4.97,0.14341297703488684,0.31443101751612346,0.0,0.0,0.0,0.13,0.8300000000000001
