,time,n,sum,min,max,mean,std,q0.05,q0.25,q0.50,q0.75,q0.95
0,2000-01-01,538752,504952.5499999998,0.0,8.03,0.9372634347529101,0.7377846549131201,0.0,0.0,0.91,1.3900000000000001,2.17
1,2001-01-01,537280,786087.2600000002,0.0,7.7700000000000005,1.4630867703990476,0.7348171560458558,0.17,0.17,1.46,1.85,2.64
2,2002-01-01,537280,813778.8299999996,0.0,9.33,1.5146270659618812,0.8650646506633424,0.12,0.12,1.5,1.98,2.93
3,2003-01-01,537280,763981.1400000001,0.0,8.59,1.4219422647409174,0.7957311362433845,0.04,0.04,1.42,1.86,2.67
4,2004-01-01,538752,800391.0,0.0,8.48,1.485639032430506,0.8140612469504487,0.15,0.15,1.45,1.92,2.82
5,2005-01-01,537280,725539.2000000003,0.0,8.26,1.3503930911256705,0.8547965081760853,0.03,0.03,1.36,1.85,2.74
6,2006-01-01,537280,873112.1999999996,0.0,8.3,1.6250599315068486,0.8002562618501468,0.25,0.25,1.62,2.06,2.88
7,2007-01-01,537280,863587.2099999998,0.0,9.96,1.60733176369863,0.8927666952871663,0.08,0.08,1.62,2.1,3.0300000000000002
8,2008-01-01,538752,863142.1600000003,0.0,10.3,1.6021140710382518,0.9560014201469125,0.08,0.08,1.57,2.1,3.2
9,2009-01-01,537280,865673.7,0.0,10.05,1.6112151950565812,0.9509796373715143,0.09,0.09,1.61,2.14,3.13
10,2010-01-01,537280,861899.5099999998,0.0,9.63,1.6041905710244189,0.9733535461845292,0.01,0.01,1.6300000000000001,2.18,3.15
11,2011-01-01,537280,746756.4,0.0,8.15,1.3898831149493747,0.8568572058718431,0.0,0.0,1.46,1.92,2.69
12,2012-01-01,538752,862750.0800000001,0.0,10.41,1.6013863150392018,1.0641497268827245,0.08,0.08,1.48,2.15,3.5500000000000003
13,2013-01-01,537280,1012778.6700000003,0.0,11.31,1.8850109254020255,0.9388213550289958,0.46,0.46,1.78,2.36,3.48
14,2014-01-01,537280,683332.2199999999,0.0,10.790000000000001,1.2718363237045858,1.0047829971880406,0.0,0.0,1.2,1.84,2.96
15,2015-01-01,537280,674260.5300000003,0.0,8.67,1.2549518500595598,0.8702827787640798,0.0,0.0,1.35,1.82,2.58
16,2016-01-01,538752,661659.9099999998,0.0,7.42,1.2281344848835825,0.8652616840692016,0.0,0.0,1.28,1.82,2.61
17,2017-01-01,537280,940370.17,0.0,8.21,1.7502422759082787,0.9135409975009717,0.21,0.21,1.74,2.3000000000000003,3.25
18,2018-01-01,537280,745084.5599999998,0.0,9.48,1.3867714413341272,1.0180512935119377,0.0,0.0,1.34,2.02,3.11
19,2019-01-01,537280,539936.2200000002,0.0,7.48,1.004943828171531,0.6400924118307606,0.0,0.0,1.03,1.36,2.02
20,2020-01-01,538752,534749.67,0.0,7.8100000000000005,0.9925711087847471,0.8752379046740777,0.0,0.0,0.88,1.6,2.52
21,2021-01-01,537280,733330.71,0.0,7.63,1.3648948592912447,0.8995840951165411,0.01,0.01,1.32,1.87,2.97
22,2022-01-01,537280,926551.5999999999,0.0,8.9,1.7245227814175101,0.8406380599450858,0.27,0.27,1.73,2.2,3.09
23,2023-01-01,537280,976915.6700000003,0.0,10.86,1.8182617443418707,0.9803257037855861,0.18,0.18,1.8,2.35,3.42
24,2024-01-01,538752,911220.9800000002,0.0,11.89,1.6913551689831319,1.112141559930311,0.1,0.1,1.59,2.22,3.71
25,2025-01-01,537280,689528.9699999999,0.0,9.01,1.2833698816259675,0.8776308968416602,0.0,0.0,1.34,1.79,2.66
26,2026-01-01,537280,769612.7599999999,0.0,9.52,1.4324239874925548,0.9684354522056108,0.0,0.0,1.48,2.05,2.98
27,2027-01-01,537280,748179.7199999997,0.0,8.53,1.3925322364502675,0.9047693315193723,0.0,0.0,1.42,1.93,2.87
28,2028-01-01,538752,1049369.5599999998,0.0,10.950000000000001,1.9477784954858632,0.9184187622161818,0.28,0.28,1.87,2.41,3.46
29,2029-01-01,537280,867755.7999999997,0.0,10.88,1.6150904556283496,1.1264667893104208,0.0,0.0,1.6400000000000001,2.27,3.45
30,2030-01-01,537280,959926.0800000004,0.0,11.69,1.7866402620607513,1.1131494036423117,0.1,0.1,1.73,2.37,3.68
31,2031-01-01,537280,770783.44,0.0,11.51,1.434602888624181,1.06827905674352,0.0,0.0,1.45,2.05,3.16
32,2032-01-01,538752,942584.2200000001,0.0,10.59,1.7495697834996438,0.9313594758071776,0.27,0.27,1.71,2.19,3.27
33,2033-01-01,537280,626045.84,0.0,10.64,1.165213371054199,1.0389191888504972,0.0,0.0,1.06,1.83,2.94
34,2034-01-01,537280,653260.6400000001,0.0,9.75,1.215866289458011,0.9471921205234162,0.0,0.0,1.22,1.84,2.8000000000000003
35,2035-01-01,537280,714393.8800000004,0.0,8.78,1.329649121500894,0.9757380377477067,0.0,0.0,1.36,1.93,2.99
36,2036-01-01,538752,850408.4600000002,0.0,8.92,1.5784785207293897,0.921936887289547,0.03,0.03,1.61,2.12,3.06
37,2037-01-01,537280,857342.6000000001,0.0,8.93,1.5957091274568198,0.7670291079962176,0.19,0.19,1.58,1.98,2.82
38,2038-01-01,537280,873603.81,0.0,10.450000000000001,1.6259749292733772,1.0012390380080056,0.05,0.05,1.6500000000000001,2.21,3.2600000000000002
39,2039-01-01,537280,737789.9000000001,0.0,9.83,1.3731944237641456,1.006202674161943,0.0,0.0,1.31,1.8900000000000001,3.13
40,2040-01-01,538752,810743.4200000003,0.0,11.700000000000001,1.5048545898669523,1.1028304822382813,0.01,0.01,1.3900000000000001,2.1,3.43
41,2041-01-01,537280,794001.2200000003,0.0,9.64,1.4778164458010727,0.9574077283618067,0.02,0.02,1.51,2.06,2.97
42,2042-01-01,537280,700694.0499999997,0.0,8.28,1.3041506290946987,0.773625746528871,0.02,0.02,1.3,1.72,2.56
43,2043-01-01,537280,817287.5399999999,0.0,11.46,1.5211575714711136,0.8630221303513455,0.12,0.12,1.47,1.93,3.0100000000000002
44,2044-01-01,538752,822718.1699999997,0.0,12.44,1.5270814215074835,1.220940928365299,0.0,0.0,1.42,2.22,3.7
45,2045-01-01,537280,870456.4900000001,0.0,11.14,1.6201170525610484,0.9703279201345404,0.17,0.17,1.56,2.12,3.23
46,2046-01-01,537280,884635.74,0.0,11.16,1.6465078543776057,1.1255926099706592,0.0,0.0,1.72,2.32,3.42
47,2047-01-01,537280,680151.4299999999,0.0,9.370000000000001,1.2659161517272184,0.9860599339916447,0.0,0.0,1.3,1.9100000000000001,2.86
48,2048-01-01,538752,751899.3799999998,0.0,7.5200000000000005,1.3956317192325964,0.8745571918196949,0.0,0.0,1.41,1.9100000000000001,2.83
49,2049-01-01,537280,671161.52,0.0,8.98,1.2491838892197737,0.808291356672649,0.0,0.0,1.24,1.72,2.59
50,2050-01-01,537280,975529.5499999999,0.0,10.040000000000001,1.8156818604824299,1.0383094535675057,0.08,0.08,1.8,2.39,3.5100000000000002
51,2051-01-01,537280,707500.23,0.0,9.55,1.3168184745384157,0.9117148836067879,0.0,0.0,1.36,1.84,2.73
52,2052-01-01,538752,846720.3600000001,0.0,8.91,1.5716328848895227,0.9692295582224222,0.06,0.06,1.59,2.12,3.16
53,2053-01-01,537280,779825.94,0.0,10.09,1.45143303305539,1.1105410866249543,0.0,0.0,1.44,2.13,3.3200000000000003
54,2054-01-01,537280,675488.53,0.0,8.27,1.2572374367182848,0.8261538152162033,0.0,0.0,1.27,1.79,2.58
55,2055-01-01,537280,725747.4099999998,0.0,8.75,1.3507806171828465,0.8525629948017023,0.0,0.0,1.37,1.84,2.74
56,2056-01-01,538752,937868.8100000003,0.0,10.23,1.7408173148313144,0.9014195358308708,0.37,0.37,1.6500000000000001,2.2,3.3000000000000003
57,2057-01-01,537280,979280.7599999998,0.0,11.13,1.822663713519952,1.07245335707276,0.14,0.14,1.75,2.41,3.5700000000000003
58,2058-01-01,537280,686840.94,0.0,9.52,1.2783668478260868,0.8694168672037369,0.0,0.0,1.29,1.77,2.66
59,2059-01-01,537280,766562.93,0.0,8.28,1.4267475617927339,0.8795546581046532,0.01,0.01,1.46,1.95,2.8000000000000003
60,2060-01-01,538752,1094438.7100000002,0.0,10.9,2.0314332197374676,0.941050607323596,0.61,0.61,1.93,2.46,3.65
61,2061-01-01,537280,810840.4500000002,0.0,11.51,1.5091580740023827,0.9325648036285464,0.05,0.05,1.46,1.95,3.04
62,2062-01-01,537280,874865.46,0.0,11.0,1.6283231462179868,1.001702297234998,0.08,0.08,1.57,2.17,3.2600000000000002
63,2063-01-01,537280,803743.56,0.0,11.24,1.4959491512805243,1.0973416426564857,0.0,0.0,1.44,2.13,3.3200000000000003
64,2064-01-01,538752,871472.41,0.0,10.64,1.6175761946127347,0.8112473720220861,0.24,0.24,1.59,2.04,2.87
65,2065-01-01,537280,885079.8800000001,0.0,10.57,1.647334499702204,0.8341859138432152,0.23,0.23,1.6,2.0300000000000002,2.96
66,2066-01-01,537280,852706.14,0.0,10.620000000000001,1.5870796232876712,1.0601201748520157,0.0,0.0,1.6300000000000001,2.22,3.22
67,2067-01-01,537280,834988.3199999998,0.0,9.9,1.5541027397260272,1.0237726136789347,0.0,0.0,1.62,2.18,3.14
68,2068-01-01,538752,679910.0200000004,0.0,9.24,1.262009273283441,0.9259418634689571,0.0,0.0,1.3,1.81,2.8000000000000003
69,2069-01-01,537280,688338.5200000001,0.0,8.49,1.2811541840381182,0.8612678035913347,0.0,0.0,1.31,1.8,2.66
70,2070-01-01,537280,727558.9300000002,0.0,8.98,1.3541522669743897,1.0613322632897577,0.0,0.0,1.3900000000000001,2.06,3.13
71,2071-01-01,537280,579602.87,0.0,7.63,1.0787724650089339,0.8155303478002264,0.0,0.0,1.03,1.56,2.52
72,2072-01-01,538752,601221.4800000001,0.0,7.28,1.1159522006414828,0.8338535469264102,0.0,0.0,1.19,1.68,2.45
73,2073-01-01,537280,553275.0799999998,0.0,6.21,1.0297704734961284,0.6586451837408763,0.0,0.0,1.1,1.45,2.07
74,2074-01-01,537280,769425.8300000001,0.0,9.08,1.4320760683442526,0.8058273154233468,0.08,0.08,1.42,1.9000000000000001,2.77
75,2075-01-01,537280,813591.1400000002,0.0,9.43,1.5142777322811203,0.9810545626329829,0.0,0.0,1.51,2.11,3.14
76,2076-01-01,538752,626887.5799999998,0.0,8.0,1.1635921165953906,0.8816715647480494,0.0,0.0,1.19,1.78,2.57
77,2077-01-01,537280,1036351.8699999996,0.0,10.0,1.9288859998511012,0.8930664606453632,0.46,0.46,1.8800000000000001,2.39,3.4
78,2078-01-01,537280,883004.3299999997,0.0,11.0,1.6434714301667654,1.0950856940200362,0.0,0.0,1.7,2.27,3.42
79,2079-01-01,537280,615025.0500000002,0.0,9.01,1.1447011800178681,0.8809791945166359,0.0,0.0,1.19,1.7,2.58
80,2080-01-01,538752,690297.36,0.0,7.6000000000000005,1.2812896471846045,0.8647850824800971,0.0,0.0,1.4000000000000001,1.86,2.6
81,2081-01-01,537280,665903.7699999999,0.0,8.09,1.2393980233770099,0.8361716292738031,0.0,0.0,1.34,1.79,2.5500000000000003
82,2082-01-01,537280,1072054.17,0.0,10.5,1.9953360817450863,0.8998931448727815,0.56,0.56,1.93,2.47,3.5
83,2083-01-01,537280,1036000.73,0.0,10.82,1.928232448630137,1.0142428399531165,0.28,0.28,1.85,2.4,3.61
84,2084-01-01,538752,925928.5199999999,0.0,11.77,1.7186544458303634,1.0271986343663921,0.1,0.1,1.6600000000000001,2.22,3.42
85,2085-01-01,537280,933923.7100000003,0.0,11.23,1.738243951012508,1.1018497956463875,0.09,0.09,1.69,2.35,3.52
86,2086-01-01,537280,864083.8200000002,0.0,10.64,1.6082560675997621,0.9379857036148189,0.14,0.14,1.58,2.1,3.1
87,2087-01-01,537280,929367.85,0.0,10.99,1.7297644617331744,0.915857377070085,0.22,0.22,1.67,2.17,3.21
88,2088-01-01,538752,653920.8400000001,0.0,8.66,1.2137696751009743,0.8326915312137632,0.0,0.0,1.29,1.69,2.42
89,2089-01-01,537280,705009.6599999997,0.0,8.06,1.3121829586063127,0.8761486741468557,0.0,0.0,1.4000000000000001,1.8800000000000001,2.67
90,2090-01-01,537280,706017.1799999998,0.0,9.35,1.3140581819535435,1.0646359520665312,0.0,0.0,1.27,2.02,3.13
91,2091-01-01,537280,660769.9099999998,0.0,7.97,1.2298427449374625,0.8619579314594571,0.0,0.0,1.22,1.77,2.7
92,2092-01-01,538752,730015.5199999997,0.0,8.07,1.355012176288904,0.810373428411569,0.01,0.01,1.3800000000000001,1.82,2.67
93,2093-01-01,537280,1139719.15,0.0,11.39,2.121275964115545,0.9835838923209979,0.64,0.64,2.04,2.61,3.8000000000000003
94,2094-01-01,537280,862859.96,0.0,11.25,1.6059781864204883,1.0784890833564547,0.04,0.04,1.56,2.15,3.42
95,2095-01-01,537280,814583.0700000002,0.0,8.38,1.5161239391006556,0.7505336768707068,0.15,0.15,1.5,1.8800000000000001,2.66
96,2096-01-01,538752,762509.0499999996,0.0,9.120000000000001,1.415324769095984,0.9618229646116919,0.0,0.0,1.45,1.98,2.96
97,2097-01-01,537280,754453.8300000002,0.0,8.540000000000001,1.4042097788862422,0.8374927736256532,0.02,0.02,1.46,1.8900000000000001,2.69
98,2098-01-01,537280,914772.8500000001,0.0,9.06,1.7025998548243004,0.9512509884726843,0.09,0.09,1.68,2.19,3.29
99,2099-01-01,537280,844128.9799999994,0.0,10.88,1.5711155821917797,1.001147937886675,0.04,0.04,1.59,2.15,3.21
100,2100-01-01,535808,592755.92,0.0,8.81,1.1062841913521262,0.7683746531777641,0.0,0.0,1.1,1.52,2.34
