,time,n,sum,min,max,mean,std,q0.05,q0.25,q0.50,q0.75,q0.95
0,2000-01-01,732,452.9,0.0,2.22,0.6187158469945355,0.6257161939111399,0.0,0.0,0.28500000000000003,1.17,1.69
1,2001-01-01,730,370.45,0.0,1.77,0.5074657534246575,0.5036480773451573,0.0,0.0,0.365,1.04,1.2354999999999996
2,2002-01-01,730,734.92,0.0,2.89,1.0067397260273971,0.9808693659603082,0.0,0.0,0.62,1.92,2.54
3,2003-01-01,730,385.50000000000006,0.0,2.06,0.5280821917808219,0.561292191956525,0.0,0.0,0.31,0.92,1.6600000000000001
4,2004-01-01,732,732.6400000000001,0.0,2.58,1.0008743169398908,0.7779121563528768,0.0,0.0,1.16,1.68,2.12
5,2005-01-01,730,417.83,0.0,1.95,0.5723698630136986,0.5706528346743746,0.0,0.0,0.39,1.19,1.4854999999999996
6,2006-01-01,730,479.61999999999995,0.0,2.5,0.6570136986301369,0.7396988371461464,0.0,0.0,0.16999999999999998,1.35,1.93
7,2007-01-01,730,985.04,0.0,3.62,1.3493698630136985,0.9411085784074206,0.07,0.07,1.23,2.12,2.95
8,2008-01-01,732,615.99,0.0,2.32,0.841516393442623,0.7443273789126762,0.0,0.0,0.71,1.5125,2.0
9,2009-01-01,730,872.2400000000001,0.0,2.88,1.1948493150684933,0.9362796045209981,0.0,0.0,1.18,2.08,2.56
10,2010-01-01,730,1000.9300000000001,0.0,3.7,1.37113698630137,1.044835935407892,0.0,0.0,1.6,2.15,3.3009999999999993
11,2011-01-01,730,966.49,0.0,3.33,1.3239589041095892,0.9963781388465937,0.0,0.0,1.3650000000000002,2.18,2.9054999999999995
12,2012-01-01,732,718.4999999999999,0.0,2.99,0.9815573770491802,0.8651452265956953,0.0,0.0,0.625,1.6125,2.538999999999999
13,2013-01-01,730,458.55,0.0,2.21,0.6281506849315068,0.6633650242334482,0.0,0.0,0.37,1.27,1.72
14,2014-01-01,730,361.91,0.0,1.86,0.49576712328767125,0.51772582315374,0.0,0.0,0.37,0.6900000000000001,1.5
15,2015-01-01,730,446.5,0.0,2.11,0.6116438356164383,0.7397628529646403,0.0,0.0,0.11,1.335,1.8900000000000001
16,2016-01-01,732,303.14000000000004,0.0,1.6300000000000001,0.41412568306010933,0.41374991198579036,0.0,0.0,0.34500000000000003,0.6900000000000001,1.2144999999999992
17,2017-01-01,730,439.03999999999996,0.0,1.58,0.6014246575342466,0.5806747590780592,0.0,0.0,0.495,1.21,1.43
18,2018-01-01,730,219.95000000000005,0.0,1.02,0.30130136986301376,0.3145888024956669,0.0,0.0,0.215,0.51,0.9
19,2019-01-01,730,518.5799999999999,0.0,2.65,0.7103835616438355,0.7472219715708803,0.0,0.0,0.45,1.36,2.0355
20,2020-01-01,732,572.49,0.0,1.83,0.7820901639344262,0.5415098579866247,0.0,0.0,0.78,1.24,1.6300000000000001
21,2021-01-01,730,632.94,0.0,2.7800000000000002,0.867041095890411,0.8929630595429959,0.0,0.0,0.535,1.73,2.3854999999999995
22,2022-01-01,730,169.82000000000002,0.0,1.29,0.2326301369863014,0.3316210705522612,0.0,0.0,0.08,0.2775,0.9964999999999986
23,2023-01-01,730,578.35,0.0,2.2800000000000002,0.7922602739726028,0.7305925260408666,0.0,0.0,0.6,1.55,1.9054999999999997
24,2024-01-01,732,218.7,0.0,1.8,0.2987704918032787,0.4109782635594459,0.0,0.0,0.01,0.68,1.1344999999999994
25,2025-01-01,730,1205.01,0.0,4.04,1.6506986301369864,1.06985631073269,0.07,0.07,1.93,2.4075,3.2455
26,2026-01-01,730,751.22,0.0,2.88,1.029068493150685,0.8697358806890765,0.0,0.0,1.005,1.8475000000000001,2.4854999999999996
27,2027-01-01,730,621.64,0.0,2.66,0.8515616438356164,0.8402406861034517,0.0,0.0,0.425,1.6300000000000001,2.27
28,2028-01-01,732,149.57999999999998,0.0,1.03,0.20434426229508196,0.27922116810593867,0.0,0.0,0.02,0.41000000000000003,0.7844999999999993
29,2029-01-01,730,469.15,0.0,2.34,0.6426712328767124,0.5925513573440372,0.0,0.0,0.545,1.1400000000000001,1.6500000000000001
30,2030-01-01,730,640.3100000000001,0.0,2.37,0.8771369863013699,0.7106012467760556,0.0,0.0,0.785,1.47,2.0100000000000002
31,2031-01-01,730,672.91,0.0,3.0500000000000003,0.9217945205479452,0.9121472102246767,0.0,0.0,0.5,1.6300000000000001,2.64
32,2032-01-01,732,283.59999999999997,0.0,2.13,0.387431693989071,0.4806475760147183,0.0,0.0,0.06,0.87,1.2444999999999993
33,2033-01-01,730,1424.0900000000001,0.25,4.49,1.9508082191780824,1.1832293997932881,0.36,0.36,1.84,2.88,4.0055
34,2034-01-01,730,463.59,0.0,2.4,0.6350547945205479,0.7464478877003773,0.0,0.0,0.22,1.4000000000000001,1.9000000000000001
35,2035-01-01,730,438.11000000000007,0.0,2.0,0.6001506849315069,0.6282145644108286,0.0,0.0,0.385,1.1300000000000001,1.79
36,2036-01-01,732,455.02000000000004,0.0,2.14,0.6216120218579235,0.6901234325866654,0.0,0.0,0.215,1.27,1.84
37,2037-01-01,730,287.87,0.0,1.45,0.3943424657534247,0.48890811303473003,0.0,0.0,0.01,0.92,1.2954999999999997
38,2038-01-01,730,407.18000000000006,0.0,1.78,0.5577808219178083,0.6211613128797563,0.0,0.0,0.13,1.21,1.5254999999999996
39,2039-01-01,730,493.95,0.0,2.17,0.6766438356164384,0.6602764856713387,0.0,0.0,0.58,1.23,1.8654999999999997
40,2040-01-01,732,501.18,0.0,1.96,0.684672131147541,0.6556392839390363,0.0,0.0,0.5,1.26,1.7344999999999993
41,2041-01-01,730,518.22,0.0,2.5500000000000003,0.7098904109589042,0.7579281341152291,0.0,0.0,0.435,1.3275000000000001,2.15
42,2042-01-01,730,420.32,0.0,2.07,0.5757808219178082,0.4942017292778752,0.0,0.0,0.65,0.9275,1.3354999999999997
43,2043-01-01,730,310.99,0.0,2.21,0.426013698630137,0.39786364405962293,0.0,0.0,0.49,0.71,1.0454999999999997
44,2044-01-01,732,736.62,0.0,3.0100000000000002,1.0063114754098361,1.0116778798072368,0.0,0.0,0.5800000000000001,1.98,2.7800000000000002
45,2045-01-01,730,95.47000000000001,0.0,0.79,0.13078082191780824,0.19460974271851933,0.0,0.0,0.0,0.18,0.59
46,2046-01-01,730,358.82,0.0,2.23,0.49153424657534245,0.6741845217558151,0.0,0.0,0.11,0.79,1.95
47,2047-01-01,730,545.4100000000001,0.0,2.15,0.7471369863013699,0.6320520139656554,0.0,0.0,0.87,1.21,1.8554999999999997
48,2048-01-01,732,562.08,0.0,2.39,0.7678688524590165,0.778004378780361,0.0,0.0,0.53,1.51,2.08
49,2049-01-01,730,579.74,0.0,2.46,0.7941643835616439,0.7910375883159596,0.0,0.0,0.45,1.57,2.1254999999999997
50,2050-01-01,730,496.08000000000004,0.0,2.25,0.6795616438356165,0.68528512186887,0.0,0.0,0.425,1.2275,1.97
51,2051-01-01,730,699.4200000000001,0.0,2.94,0.958109589041096,0.8766067761801962,0.0,0.0,0.9,1.5375,2.6109999999999993
52,2052-01-01,732,701.6299999999999,0.0,2.84,0.9585109289617485,0.924755969074855,0.0,0.0,0.64,1.9000000000000001,2.46
53,2053-01-01,730,563.34,0.0,3.0100000000000002,0.7716986301369864,0.7980763633756769,0.0,0.0,0.55,1.455,2.22
54,2054-01-01,730,640.23,0.0,2.9,0.877027397260274,0.8900769933235612,0.0,0.0,0.465,1.67,2.48
55,2055-01-01,730,215.26999999999998,0.0,1.72,0.29489041095890406,0.41680855503682496,0.0,0.0,0.07,0.5075000000000001,1.2864999999999986
56,2056-01-01,732,425.28000000000003,0.0,1.9100000000000001,0.5809836065573771,0.5569620119822933,0.0,0.0,0.46,1.08,1.57
57,2057-01-01,730,520.98,0.0,2.33,0.7136712328767123,0.7215101752630166,0.0,0.0,0.445,1.36,1.9100000000000001
58,2058-01-01,730,374.72,0.0,2.07,0.5133150684931507,0.6124460026902753,0.0,0.0,0.245,1.0575,1.7
59,2059-01-01,730,166.42000000000002,0.0,1.12,0.22797260273972605,0.3146631150321227,0.0,0.0,0.005,0.42,0.9054999999999995
60,2060-01-01,732,215.63,0.0,1.81,0.29457650273224045,0.4453692652156165,0.0,0.0,0.02,0.46,1.3444999999999994
61,2061-01-01,730,241.55,0.0,1.28,0.33089041095890415,0.42430817379165164,0.0,0.0,0.025,0.67,1.1254999999999997
62,2062-01-01,730,307.38,0.0,2.02,0.42106849315068495,0.520292286894433,0.0,0.0,0.14,0.81,1.44
63,2063-01-01,730,348.25000000000006,0.0,1.52,0.477054794520548,0.4772190671939366,0.0,0.0,0.41000000000000003,0.96,1.2054999999999996
64,2064-01-01,732,539.27,0.0,2.45,0.736707650273224,0.7839506625468172,0.0,0.0,0.395,1.43,2.17
65,2065-01-01,730,837.54,0.0,2.91,1.1473150684931506,0.8796225354329171,0.0,0.0,1.1300000000000001,1.95,2.52
66,2066-01-01,730,912.9199999999998,0.0,3.65,1.2505753424657533,1.0814565003418917,0.0,0.0,1.19,2.22,3.0155
67,2067-01-01,730,570.14,0.0,2.58,0.7810136986301369,0.7721787800150288,0.0,0.0,0.615,1.44,2.16
68,2068-01-01,732,867.04,0.0,3.94,1.18448087431694,1.1626772752382837,0.0,0.0,0.685,2.2225,3.35
69,2069-01-01,730,281.69,0.0,1.37,0.38587671232876714,0.41085258647579276,0.0,0.0,0.22,0.8574999999999999,1.05
70,2070-01-01,730,443.66,0.0,2.24,0.6077534246575342,0.5979855631377303,0.0,0.0,0.51,0.9475,1.72
71,2071-01-01,730,94.71000000000001,0.0,0.93,0.12973972602739728,0.20164613840629708,0.0,0.0,0.01,0.18,0.6154999999999995
72,2072-01-01,732,421.85,0.0,2.2,0.5762978142076502,0.6523702759020127,0.0,0.0,0.12,1.16,1.7144999999999992
73,2073-01-01,730,445.25,0.0,2.29,0.6099315068493151,0.6704820353240272,0.0,0.0,0.35000000000000003,1.2775,1.79
74,2074-01-01,730,622.86,0.0,2.96,0.8532328767123288,0.9072669861317568,0.0,0.0,0.555,1.3975000000000002,2.600999999999999
75,2075-01-01,730,459.39,0.0,1.85,0.6293013698630137,0.6212602566046532,0.0,0.0,0.4,1.24,1.59
76,2076-01-01,732,460.0,0.0,2.2600000000000002,0.6284153005464481,0.6319619482438704,0.0,0.0,0.425,1.22,1.76
77,2077-01-01,730,467.59,0.0,2.49,0.6405342465753424,0.7658195463647395,0.0,0.0,0.10500000000000001,1.43,2.0054999999999996
78,2078-01-01,730,1272.4699999999998,0.2,3.96,1.7431095890410957,1.006400095575216,0.36,0.36,1.8250000000000002,2.49,3.5119999999999982
79,2079-01-01,730,812.88,0.0,3.49,1.1135342465753424,1.0254018134195777,0.0,0.0,0.97,2.05,2.8055
80,2080-01-01,732,460.49999999999994,0.0,2.24,0.6290983606557377,0.7412535580486053,0.0,0.0,0.18,1.42,1.9389999999999985
81,2081-01-01,730,494.59000000000003,0.0,2.6,0.6775205479452056,0.7483466819777429,0.0,0.0,0.39,1.08,2.25
82,2082-01-01,730,360.69000000000005,0.0,1.41,0.49409589041095897,0.4686945631696138,0.0,0.0,0.43,0.9500000000000001,1.2854999999999996
83,2083-01-01,730,475.51,0.0,2.17,0.6513835616438356,0.6772582747288397,0.0,0.0,0.4,1.35,1.7
84,2084-01-01,732,429.41,0.0,2.29,0.5866256830601093,0.7375005468527736,0.0,0.0,0.11,1.41,1.9144999999999994
85,2085-01-01,730,348.7,0.0,1.6,0.4776712328767123,0.44909016255531525,0.0,0.0,0.4,0.8875,1.1854999999999996
86,2086-01-01,730,414.26000000000005,0.0,1.85,0.5674794520547946,0.6023328645481402,0.0,0.0,0.28,1.1500000000000001,1.5354999999999996
87,2087-01-01,730,715.02,0.0,2.88,0.9794794520547945,0.9034362120835147,0.0,0.0,0.71,1.8,2.33
88,2088-01-01,732,183.26999999999998,0.0,0.98,0.25036885245901636,0.3133317355713741,0.0,0.0,0.05,0.5025,0.88
89,2089-01-01,730,236.09000000000003,0.0,1.9100000000000001,0.32341095890410965,0.5118192193583199,0.0,0.0,0.07,0.39,1.56
90,2090-01-01,730,779.12,0.0,3.16,1.0672876712328767,1.103089204895774,0.0,0.0,0.53,2.23,2.98
91,2091-01-01,730,624.83,0.0,3.18,0.8559315068493151,0.9464717586009823,0.0,0.0,0.385,1.6375000000000002,2.6654999999999998
92,2092-01-01,732,266.72,0.0,1.71,0.3643715846994536,0.46792328508274234,0.0,0.0,0.13,0.75,1.37
93,2093-01-01,730,341.34000000000003,0.0,2.15,0.46758904109589045,0.5602767866761228,0.0,0.0,0.26,0.6975,1.6554999999999997
94,2094-01-01,730,346.15,0.0,1.98,0.4741780821917808,0.6037233295953469,0.0,0.0,0.10500000000000001,1.06,1.69
95,2095-01-01,730,359.06,0.0,1.6600000000000001,0.4918630136986301,0.5232627699733975,0.0,0.0,0.38,0.8175000000000001,1.46
96,2096-01-01,732,273.45000000000005,0.0,1.6500000000000001,0.3735655737704919,0.5496889257561841,0.0,0.0,0.0,0.7025,1.4444999999999992
97,2097-01-01,730,579.4200000000001,0.0,2.5100000000000002,0.7937260273972604,0.7708691636099905,0.0,0.0,0.65,1.47,2.14
98,2098-01-01,730,828.96,0.0,3.08,1.1355616438356164,1.0465952755757937,0.0,0.0,0.9550000000000001,2.09,2.8754999999999997
99,2099-01-01,730,349.67,0.0,2.07,0.47900000000000004,0.581779473825249,0.0,0.0,0.11,0.92,1.59
100,2100-01-01,728,472.63,0.0,2.15,0.6492170329670329,0.6996288789646312,0.0,0.0,0.3,1.37,1.83
