,time,n,sum,min,max,mean,std,q0.05,q0.25,q0.50,q0.75,q0.95
0,2000-01-01,2720478,2225901.980000001,0.0,6.9,0.8182025291143692,0.6630964591569274,0.0,0.0,0.86,1.29,1.8900000000000001
1,2001-01-01,2713045,2670922.87,0.0,7.96,0.9844742236122144,0.7639040983230366,0.0,0.0,1.05,1.53,2.18
2,2002-01-01,2713045,2697438.5300000003,0.0,8.17,0.9942476184508552,0.6532770582751932,0.0,0.0,1.06,1.41,2.0100000000000002
3,2003-01-01,2713045,2929184.7399999974,0.0,9.02,1.079666846661223,0.8511052615856404,0.0,0.0,1.11,1.68,2.46
4,2004-01-01,2720478,4215546.169999999,0.0,10.33,1.5495608382056385,0.8662721344930706,0.16,0.16,1.54,2.04,2.96
5,2005-01-01,2713045,3024505.9599999995,0.0,10.700000000000001,1.114801250992888,0.8379595512432363,0.0,0.0,1.1500000000000001,1.6300000000000001,2.47
6,2006-01-01,2713045,2581844.7899999996,0.0,8.57,0.9516409753616323,0.766181808620942,0.0,0.0,1.01,1.48,2.13
7,2007-01-01,2713045,2680701.760000004,0.0,8.22,0.9880786201482114,0.7494989489016702,0.0,0.0,1.09,1.52,2.12
8,2008-01-01,2720478,2951795.510000002,0.0,9.24,1.0850282597396494,0.7660535637717882,0.0,0.0,1.1300000000000001,1.62,2.29
9,2009-01-01,2713045,2651677.3899999997,0.0,9.73,0.977380541052581,0.7816807753755521,0.0,0.0,0.99,1.51,2.2600000000000002
10,2010-01-01,2713045,2163832.5300000007,0.0,8.71,0.7975660300511052,0.7611788750492113,0.0,0.0,0.61,1.41,2.06
11,2011-01-01,2713045,1562418.5799999975,0.0,7.69,0.5758911407661862,0.5880370559121745,0.0,0.0,0.44,0.98,1.6500000000000001
12,2012-01-01,2720478,2719618.010000001,0.0,6.86,0.9996838827588391,0.7095199975259475,0.0,0.0,0.99,1.51,2.16
13,2013-01-01,2713045,1637236.2799999993,0.0,6.58,0.6034681621572806,0.5884016282551736,0.0,0.0,0.47000000000000003,1.05,1.6300000000000001
14,2014-01-01,2713045,2968671.1199999987,0.0,10.57,1.0942211131772597,0.8335421106258326,0.0,0.0,1.19,1.68,2.4
15,2015-01-01,2713045,2732497.090000001,0.0,9.5,1.0071698368438418,0.7668004309986298,0.0,0.0,1.12,1.51,2.16
16,2016-01-01,2720478,2678601.400000002,0.0,9.52,0.9846068962880794,0.7331500275475368,0.0,0.0,1.05,1.48,2.14
17,2017-01-01,2713045,2190704.859999998,0.0,9.31,0.8074708897198528,0.7239513745501533,0.0,0.0,0.85,1.33,1.99
18,2018-01-01,2713045,2355384.5900000012,0.0,6.34,0.8681701151289423,0.6650440665789104,0.0,0.0,0.93,1.4000000000000001,1.87
19,2019-01-01,2713045,2722309.180000003,0.0,9.56,1.0034146798154853,0.8973125948854467,0.0,0.0,0.88,1.67,2.5300000000000002
20,2020-01-01,2720478,2378003.220000004,0.0,9.42,0.8741122773277358,0.8425042623937705,0.0,0.0,0.74,1.5,2.33
21,2021-01-01,2713045,2578743.790000003,0.0,8.0,0.9504979792078653,0.741517542059394,0.0,0.0,0.97,1.49,2.15
22,2022-01-01,2713045,1983181.620000001,0.0,8.34,0.7309799948028879,0.7308872945499288,0.0,0.0,0.48,1.3,2.0
23,2023-01-01,2713045,1623207.8399999992,0.0,7.68,0.5982974259549692,0.6900985115123943,0.0,0.0,0.28,1.1,1.9000000000000001
24,2024-01-01,2720478,1467289.0299999998,0.0,5.62,0.5393497135429876,0.6006158642702673,0.0,0.0,0.33,0.9400000000000001,1.7
25,2025-01-01,2713045,2479166.7399999993,0.0,7.63,0.9137949204675925,0.7690819489409491,0.0,0.0,0.88,1.46,2.23
26,2026-01-01,2713045,1670195.7799999993,0.0,7.09,0.6156166889970492,0.6255063463160231,0.0,0.0,0.44,1.1300000000000001,1.68
27,2027-01-01,2713045,2585597.010000001,0.0,7.09,0.9530240043935877,0.7393856968891247,0.0,0.0,0.96,1.49,2.18
28,2028-01-01,2720478,2341838.680000002,0.0,7.5600000000000005,0.8608188266914866,0.7403428890981769,0.0,0.0,0.8300000000000001,1.4000000000000001,2.07
29,2029-01-01,2713045,2590399.7999999984,0.0,8.48,0.9547942625352688,0.808714198232247,0.0,0.0,0.92,1.53,2.33
30,2030-01-01,2713045,2887138.5399999986,0.0,9.22,1.0641690572769706,0.8303618428696353,0.0,0.0,1.09,1.6600000000000001,2.38
31,2031-01-01,2713045,2410779.0399999986,0.0,9.72,0.8885879297984363,0.8600286615258604,0.0,0.0,0.75,1.55,2.31
32,2032-01-01,2720478,1420726.4800000007,0.0,7.59,0.5222341367950781,0.6028724595964565,0.0,0.0,0.3,0.88,1.71
33,2033-01-01,2713045,1654531.1800000006,0.0,5.6000000000000005,0.6098428813381277,0.6696052939007444,0.0,0.0,0.33,1.17,1.83
34,2034-01-01,2713045,2107601.969999999,0.0,6.09,0.7768400339839548,0.7369783070851207,0.0,0.0,0.64,1.33,2.08
35,2035-01-01,2713045,2380033.149999999,0.0,7.3,0.8772553164433318,0.7723904107410272,0.0,0.0,0.89,1.49,2.1
36,2036-01-01,2720478,2863493.330000001,0.0,8.21,1.052569927049585,0.7880309737187432,0.0,0.0,1.12,1.62,2.29
37,2037-01-01,2713045,1698353.0400000021,0.0,8.13,0.625995160419382,0.6261169335467153,0.0,0.0,0.56,1.11,1.6300000000000001
38,2038-01-01,2713045,2175339.3400000003,0.0,6.67,0.8018073198196124,0.6452853736846004,0.0,0.0,0.85,1.3,1.8
39,2039-01-01,2713045,2236554.6300000004,0.0,7.38,0.8243706352087785,0.7967815114922988,0.0,0.0,0.68,1.45,2.18
40,2040-01-01,2720478,1687357.8700000027,0.0,7.18,0.6202431594741816,0.6814593218497402,0.0,0.0,0.37,1.1,1.92
41,2041-01-01,2713045,2290817.6000000006,0.0,6.5200000000000005,0.8443713981891198,0.6997147935794192,0.0,0.0,0.89,1.36,1.99
42,2042-01-01,2713045,2344209.1400000006,0.0,7.140000000000001,0.864050961189365,0.7706518171295896,0.0,0.0,0.85,1.46,2.13
43,2043-01-01,2713045,2265398.609999998,0.0,6.07,0.8350022244378541,0.7049292756189806,0.0,0.0,0.79,1.35,2.02
44,2044-01-01,2720478,2620286.240000002,0.0,7.21,0.9631712662260096,0.7337155793903262,0.0,0.0,0.96,1.47,2.18
45,2045-01-01,2713045,2177871.6999999983,0.0,8.120000000000001,0.8027407212191461,0.7630825914245388,0.0,0.0,0.66,1.41,2.06
46,2046-01-01,2713045,2476371.779999998,0.0,7.55,0.9127647274556809,0.7855537518507618,0.0,0.0,0.79,1.46,2.29
47,2047-01-01,2713045,1991652.4399999997,0.0,6.72,0.7341022504234171,0.667978588040876,0.0,0.0,0.73,1.26,1.8
48,2048-01-01,2720478,2217558.030000001,0.0,6.11,0.8151354394338058,0.7125058384130335,0.0,0.0,0.81,1.3800000000000001,1.96
49,2049-01-01,2713045,2633137.3299999977,0.0,7.32,0.970546868924031,0.7321974066402304,0.0,0.0,1.05,1.51,2.11
50,2050-01-01,2713045,1846706.949999999,0.0,7.58,0.680676859395992,0.6935970189741804,0.0,0.0,0.45,1.27,1.84
51,2051-01-01,2713045,1938260.529999999,0.0,5.99,0.7144225510450432,0.7159673937930275,0.0,0.0,0.54,1.28,1.99
52,2052-01-01,2720478,2278244.589999998,0.0,6.0200000000000005,0.8374427545453402,0.7789347486255828,0.0,0.0,0.71,1.47,2.14
53,2053-01-01,2713045,1232545.5199999998,0.0,4.8500000000000005,0.45430338236188483,0.4834321931229331,0.0,0.0,0.37,0.78,1.34
54,2054-01-01,2713045,1811750.1200000017,0.0,5.17,0.6677921376165901,0.6850101301143064,0.0,0.0,0.52,1.2,1.8900000000000001
55,2055-01-01,2713045,2310769.839999997,0.0,5.7700000000000005,0.851725585089815,0.7969116770788092,0.0,0.0,0.72,1.47,2.21
56,2056-01-01,2720478,1865905.7100000004,0.0,5.8100000000000005,0.6858742140168016,0.6397511974513685,0.0,0.0,0.62,1.18,1.77
57,2057-01-01,2713045,1449305.0099999981,0.0,5.48,0.5341986623885701,0.5955952802324268,0.0,0.0,0.31,0.97,1.6300000000000001
58,2058-01-01,2713045,2122553.2200000007,0.0,4.72,0.7823509082967665,0.6683963248504533,0.0,0.0,0.79,1.31,1.8800000000000001
59,2059-01-01,2713045,2491350.3200000003,0.0,7.140000000000001,0.9182856605769533,0.8099304587695078,0.0,0.0,0.97,1.48,2.2800000000000002
60,2060-01-01,2720478,2292933.4599999995,0.0,6.49,0.8428421255382325,0.6877289599651659,0.0,0.0,0.86,1.3900000000000001,1.92
61,2061-01-01,2713045,2537134.6100000036,0.0,8.41,0.9351612708230065,0.8215167703413931,0.0,0.0,0.8,1.58,2.29
62,2062-01-01,2713045,2463151.83,0.0,8.27,0.9078919922080172,0.7291249765343498,0.0,0.0,0.98,1.42,2.07
63,2063-01-01,2713045,2251558.6899999967,0.0,8.07,0.829900974735029,0.7107239117010173,0.0,0.0,0.8,1.35,2.0
64,2064-01-01,2720478,2813062.9199999953,0.0,8.55,1.0340325928017045,0.8466049628767391,0.0,0.0,1.03,1.6400000000000001,2.43
65,2065-01-01,2713045,1932442.62,0.0,7.72,0.7122781302927155,0.73107581183135,0.0,0.0,0.55,1.25,1.97
66,2066-01-01,2713045,2356272.020000001,0.0,8.19,0.8684972125416279,0.7292992748334918,0.0,0.0,0.86,1.4000000000000001,2.07
67,2067-01-01,2713045,2163357.8699999996,0.0,8.36,0.7973910753415442,0.6931642463691198,0.0,0.0,0.8200000000000001,1.31,1.93
68,2068-01-01,2720478,2453562.4899999998,0.0,8.08,0.9018865397919041,0.8003100752574097,0.0,0.0,0.86,1.49,2.23
69,2069-01-01,2713045,1742619.0200000019,0.0,7.95,0.6423111374857409,0.6786211374527724,0.0,0.0,0.47000000000000003,1.1500000000000001,1.86
70,2070-01-01,2713045,2437568.8300000005,0.0,7.0200000000000005,0.8984623660868141,0.6789076332553642,0.0,0.0,0.92,1.3800000000000001,2.0
71,2071-01-01,2713045,1797639.1900000016,0.0,7.08,0.6625909964633839,0.7085789795533562,0.0,0.0,0.35000000000000003,1.26,1.86
72,2072-01-01,2720478,1914747.5100000016,0.0,7.99,0.7038276030903399,0.7820056181020545,0.0,0.0,0.4,1.23,2.19
73,2073-01-01,2713045,1924214.019999999,0.0,6.51,0.7092451544298009,0.7697336836979759,0.0,0.0,0.4,1.37,2.06
74,2074-01-01,2713045,1577105.139999998,0.0,5.2700000000000005,0.5813044531144888,0.6499346288294433,0.0,0.0,0.35000000000000003,0.98,1.87
75,2075-01-01,2713045,2198454.6699999976,0.0,4.95,0.810327388598419,0.7166946102479496,0.0,0.0,0.8200000000000001,1.3800000000000001,1.98
76,2076-01-01,2720478,3261134.059999999,0.0,7.890000000000001,1.1987356854199884,0.9157617986216816,0.0,0.0,1.22,1.79,2.74
77,2077-01-01,2713045,1763655.6399999987,0.0,6.890000000000001,0.6500650155084043,0.7028864652617567,0.0,0.0,0.32,1.23,1.8
78,2078-01-01,2713045,1292685.4599999979,0.0,5.47,0.4764703349925998,0.5356981965474937,0.0,0.0,0.28,0.86,1.48
79,2079-01-01,2713045,1831083.1100000006,0.0,6.4,0.6749180754465925,0.6588422539025572,0.0,0.0,0.51,1.1400000000000001,1.8900000000000001
80,2080-01-01,2720478,1874696.2000000014,0.0,6.05,0.6891054439697735,0.6623282387149516,0.0,0.0,0.58,1.21,1.82
81,2081-01-01,2713045,1960647.4000000004,0.0,6.42,0.7226741170898383,0.7800659375693526,0.0,0.0,0.4,1.36,2.07
82,2082-01-01,2713045,1822192.0399999986,0.0,6.71,0.6716409200732014,0.7909626691208729,0.0,0.0,0.32,1.22,2.21
83,2083-01-01,2713045,1725795.3400000008,0.0,4.67,0.6361101050664477,0.5608418505974653,0.0,0.0,0.56,1.07,1.59
84,2084-01-01,2720478,2627933.669999997,0.0,8.02,0.9659823273704096,0.7559341231364022,0.0,0.0,0.98,1.51,2.19
85,2085-01-01,2713045,3002796.980000001,0.0,9.74,1.106799548109228,0.8420901731608557,0.0,0.0,1.17,1.6600000000000001,2.45
86,2086-01-01,2713045,2603881.360000002,0.0,8.97,0.9597634244916697,0.7782048296471954,0.0,0.0,1.01,1.49,2.17
87,2087-01-01,2713045,1800502.8099999994,0.0,8.44,0.6636464968328941,0.7079881772944666,0.0,0.0,0.37,1.27,1.86
88,2088-01-01,2720478,1990542.3800000004,0.0,7.41,0.731688467982465,0.6821912639158383,0.0,0.0,0.68,1.26,1.85
89,2089-01-01,2713045,2603945.5200000005,0.0,7.73,0.9597870731963534,0.8248121831169103,0.0,0.0,0.9500000000000001,1.55,2.33
90,2090-01-01,2713045,2400982.649999999,0.0,7.71,0.884977082945546,0.7368616417301753,0.0,0.0,0.89,1.41,2.1
91,2091-01-01,2713045,2578071.860000001,0.0,7.67,0.9502503128403696,0.7818426408664265,0.0,0.0,0.98,1.52,2.23
92,2092-01-01,2720478,2099126.1000000006,0.0,8.07,0.7716019390710017,0.750205744119445,0.0,0.0,0.66,1.29,2.13
93,2093-01-01,2713045,1853134.1699999992,0.0,6.09,0.6830458654390175,0.6999906333868163,0.0,0.0,0.47000000000000003,1.23,1.9100000000000001
94,2094-01-01,2713045,2186306.9499999997,0.0,6.48,0.8058498661098507,0.6719350554682286,0.0,0.0,0.77,1.28,1.94
95,2095-01-01,2713045,2248565.980000001,0.0,7.2700000000000005,0.8287978931422078,0.8101581284711813,0.0,0.0,0.6,1.48,2.24
96,2096-01-01,2720478,1773277.4100000006,0.0,6.23,0.6518256754879108,0.6286496865055962,0.0,0.0,0.51,1.1300000000000001,1.77
97,2097-01-01,2713045,1926517.5600000003,0.0,5.63,0.710094215171514,0.6264172230786034,0.0,0.0,0.62,1.18,1.79
98,2098-01-01,2713045,2243352.3199999994,0.0,5.87,0.8268761926175199,0.7400196608373555,0.0,0.0,0.8200000000000001,1.4000000000000001,2.04
99,2099-01-01,2705612,2469425.470000003,0.0,6.13,0.9127049517817052,0.7948371550442557,0.0,0.0,0.8300000000000001,1.53,2.25
