,time,n,sum,min,max,mean,std,q0.05,q0.25,q0.50,q0.75,q0.95
0,2000-01-01,4785084,116574.4299999999,0.0,2.38,0.024362044637042925,0.12812490924792633,0.0,0.0,0.0,0.0,0.09
1,2001-01-01,4772010,213155.87000000005,0.0,2.21,0.044667942858460076,0.13910703361203777,0.0,0.0,0.0,0.0,0.33
2,2002-01-01,4772010,43753.96999999996,0.0,2.21,0.009168876427333546,0.05023624514939662,0.0,0.0,0.0,0.0,0.05
3,2003-01-01,4772010,148747.6699999998,0.0,3.24,0.031170863011603038,0.11517472677251919,0.0,0.0,0.0,0.0,0.22
4,2004-01-01,4785084,65263.520000000026,0.0,2.91,0.013638949702868336,0.07125975793083357,0.0,0.0,0.0,0.0,0.07
5,2005-01-01,4772010,681379.3800000006,0.0,2.8000000000000003,0.14278666222409436,0.2845830391847359,0.0,0.0,0.0,0.16,0.8200000000000001
6,2006-01-01,4772010,299205.93000000017,0.0,3.17,0.06270018922843837,0.16607733207526745,0.0,0.0,0.0,0.03,0.39
7,2007-01-01,4772010,484835.03000000026,0.0,3.88,0.10159975146741106,0.2699400306228592,0.0,0.0,0.0,0.01,0.64
8,2008-01-01,4785084,192949.3399999998,0.0,4.65,0.04032308314754763,0.1728817204402046,0.0,0.0,0.0,0.0,0.21
9,2009-01-01,4772010,309049.48999999993,0.0,3.0500000000000003,0.06476295942380672,0.16990220650747073,0.0,0.0,0.0,0.01,0.41000000000000003
10,2010-01-01,4772010,137483.47999999998,0.0,2.4,0.028810392266571106,0.1089603360774628,0.0,0.0,0.0,0.0,0.18
11,2011-01-01,4772010,180880.67999999993,0.0,3.15,0.03790450564856317,0.1467856263868965,0.0,0.0,0.0,0.0,0.21
12,2012-01-01,4785084,971137.0699999993,0.0,6.08,0.20295089281609252,0.5197772279332072,0.0,0.0,0.0,0.1,1.49
13,2013-01-01,4772010,83796.44000000002,0.0,1.85,0.017559988348725172,0.06132433850881476,0.0,0.0,0.0,0.0,0.12
14,2014-01-01,4772010,124338.26999999989,0.0,2.22,0.026055743806069117,0.10553576005299282,0.0,0.0,0.0,0.0,0.18
15,2015-01-01,4772010,236014.4800000002,0.0,3.98,0.049458085796132076,0.1957671946455509,0.0,0.0,0.0,0.0,0.26
16,2016-01-01,4785084,249643.23000000024,0.0,3.27,0.052171128030354376,0.14348028639323998,0.0,0.0,0.0,0.01,0.35000000000000003
17,2017-01-01,4772010,229466.8599999999,0.0,2.67,0.04808599730511878,0.16476701546522238,0.0,0.0,0.0,0.0,0.4
18,2018-01-01,4772010,254810.02999999997,0.0,2.88,0.053396792965647595,0.16523460870287923,0.0,0.0,0.0,0.0,0.41000000000000003
19,2019-01-01,4772010,201674.33999999994,0.0,1.61,0.042261927363940965,0.11946294863935283,0.0,0.0,0.0,0.0,0.29
20,2020-01-01,4785084,376145.32999999955,0.0,2.65,0.07860788441749393,0.20001840806437177,0.0,0.0,0.0,0.02,0.53
21,2021-01-01,4772010,82564.23000000003,0.0,2.12,0.017301772209194873,0.07190304327288229,0.0,0.0,0.0,0.0,0.12
22,2022-01-01,4772010,52392.329999999994,0.0,1.19,0.010979090571897375,0.05295547387271354,0.0,0.0,0.0,0.0,0.06
23,2023-01-01,4772010,102305.99999999994,0.0,3.52,0.0214387647972238,0.10328493114410668,0.0,0.0,0.0,0.0,0.12
24,2024-01-01,4785084,653495.4299999997,0.0,6.7,0.13656927025732457,0.5024954700099581,0.0,0.0,0.0,0.0,1.01
25,2025-01-01,4772010,67028.46999999997,0.0,3.42,0.014046171319842158,0.07013627845674629,0.0,0.0,0.0,0.0,0.08
26,2026-01-01,4772010,542192.0399999997,0.0,4.09,0.11361921705947801,0.30577701078996045,0.0,0.0,0.0,0.05,0.75
27,2027-01-01,4772010,323632.9100000003,0.0,4.66,0.06781899241619366,0.22711451300202756,0.0,0.0,0.0,0.0,0.47000000000000003
28,2028-01-01,4785084,129477.88999999988,0.0,2.68,0.027058645156490438,0.09569395989759888,0.0,0.0,0.0,0.0,0.18
29,2029-01-01,4772010,99145.94000000006,0.0,2.71,0.020776557467398447,0.09262437401691401,0.0,0.0,0.0,0.0,0.11
30,2030-01-01,4772010,320283.94000000064,0.0,6.0200000000000005,0.06711719799413678,0.26901526266173537,0.0,0.0,0.0,0.0,0.4
31,2031-01-01,4772010,272742.75999999995,0.0,3.5100000000000002,0.05715469162889431,0.206264551625422,0.0,0.0,0.0,0.0,0.37
32,2032-01-01,4785084,78049.76000000005,0.0,3.45,0.01631105326468669,0.10644288864618946,0.0,0.0,0.0,0.0,0.06
33,2033-01-01,4772010,69309.45999999996,0.0,2.96,0.014524164869729938,0.0736761474658018,0.0,0.0,0.0,0.0,0.08
34,2034-01-01,4772010,60757.399999999965,0.0,2.94,0.01273203534778845,0.06610648990944532,0.0,0.0,0.0,0.0,0.06
35,2035-01-01,4772010,35518.99000000001,0.0,1.94,0.0074431927007697,0.03915095681211486,0.0,0.0,0.0,0.0,0.05
36,2036-01-01,4785084,242064.3999999997,0.0,3.34,0.050587283316238484,0.1652991934882652,0.0,0.0,0.0,0.0,0.32
37,2037-01-01,4772010,28048.36000000001,0.0,1.32,0.00587768256981859,0.036989748927973985,0.0,0.0,0.0,0.0,0.01
38,2038-01-01,4772010,397415.4500000004,0.0,3.34,0.08328051491928987,0.21938647385968835,0.0,0.0,0.0,0.02,0.5700000000000001
39,2039-01-01,4772010,384411.21,0.0,3.33,0.08055540746980833,0.2852287799150924,0.0,0.0,0.0,0.0,0.55
40,2040-01-01,4785084,93313.37999999987,0.0,4.89,0.019500886504813682,0.09920286625964926,0.0,0.0,0.0,0.0,0.1
41,2041-01-01,4772010,85545.21999999997,0.0,2.0100000000000002,0.017926454470967156,0.07333347931959562,0.0,0.0,0.0,0.0,0.11
42,2042-01-01,4772010,119045.03000000007,0.0,1.93,0.02494651729564692,0.09516647393171897,0.0,0.0,0.0,0.0,0.17
43,2043-01-01,4772010,288140.9900000001,0.0,3.63,0.0603814723774678,0.21479571968351677,0.0,0.0,0.0,0.0,0.48
44,2044-01-01,4785084,133464.09999999995,0.0,3.69,0.027891694273287564,0.14180643036104798,0.0,0.0,0.0,0.0,0.11
45,2045-01-01,4772010,181917.44999999995,0.0,3.43,0.03812176629973532,0.16129643929284487,0.0,0.0,0.0,0.0,0.23
46,2046-01-01,4772010,125561.91000000006,0.0,2.99,0.026312164056655384,0.12758160837973956,0.0,0.0,0.0,0.0,0.12
47,2047-01-01,4772010,179633.35999999996,0.0,3.24,0.037643123128409194,0.14185693571011163,0.0,0.0,0.0,0.0,0.21
48,2048-01-01,4785084,13633.38000000002,0.0,2.24,0.0028491412062985767,0.028887624586876815,0.0,0.0,0.0,0.0,0.0
49,2049-01-01,4772010,94768.37999999998,0.0,2.8000000000000003,0.01985921655654535,0.09338532443774776,0.0,0.0,0.0,0.0,0.12
50,2050-01-01,4772010,244598.59999999986,0.0,5.05,0.051256933661077794,0.21170510476170754,0.0,0.0,0.0,0.0,0.25
51,2051-01-01,4772010,137101.38,0.0,2.32,0.02873032118541244,0.09449860274935046,0.0,0.0,0.0,0.0,0.21
52,2052-01-01,4785084,450634.33000000054,0.0,5.29,0.0941748002751886,0.30102900852872166,0.0,0.0,0.0,0.0,0.62
53,2053-01-01,4772010,228395.26999999984,0.0,4.0600000000000005,0.04786143993830689,0.22665308156095856,0.0,0.0,0.0,0.0,0.19
54,2054-01-01,4772010,37054.530000000006,0.0,2.6,0.007764973250265613,0.054271586632522795,0.0,0.0,0.0,0.0,0.02
55,2055-01-01,4772010,131169.21000000008,0.0,3.37,0.02748720350544112,0.1105438140008686,0.0,0.0,0.0,0.0,0.17
56,2056-01-01,4785084,184502.61999999988,0.0,3.58,0.03855786439694682,0.13091933771621284,0.0,0.0,0.0,0.0,0.25
57,2057-01-01,4772010,398038.47000000026,0.0,5.49,0.0834110720639731,0.3199173648160619,0.0,0.0,0.0,0.0,0.48
58,2058-01-01,4772010,73608.32999999993,0.0,2.63,0.015425015873814164,0.09613265909503504,0.0,0.0,0.0,0.0,0.03
59,2059-01-01,4772010,205711.6699999998,0.0,2.24,0.043107971274159065,0.1480012129371431,0.0,0.0,0.0,0.0,0.31
60,2060-01-01,4785084,87003.57999999994,0.0,2.04,0.018182247166402918,0.08271381072849397,0.0,0.0,0.0,0.0,0.1
61,2061-01-01,4772010,442997.48000000085,0.0,4.09,0.09283247101326293,0.27714379008727125,0.0,0.0,0.0,0.02,0.61
62,2062-01-01,4772010,233668.36000000007,0.0,3.09,0.04896644390937992,0.16434277593853006,0.0,0.0,0.0,0.0,0.33
63,2063-01-01,4772010,78092.30999999998,0.0,3.37,0.016364657659979753,0.09322254160061903,0.0,0.0,0.0,0.0,0.03
64,2064-01-01,4785084,115883.27999999994,0.0,2.97,0.024217606211301607,0.10520217932492923,0.0,0.0,0.0,0.0,0.13
65,2065-01-01,4772010,204625.56999999975,0.0,2.82,0.042880373259905104,0.13404366102173831,0.0,0.0,0.0,0.0,0.27
66,2066-01-01,4772010,324551.49999999994,0.0,3.93,0.06801148782169357,0.21927870631532095,0.0,0.0,0.0,0.0,0.51
67,2067-01-01,4772010,50466.54999999998,0.0,1.86,0.01057553316107887,0.057438294518141385,0.0,0.0,0.0,0.0,0.05
68,2068-01-01,4785084,71755.49000000003,0.0,1.82,0.014995659428340241,0.07144969686284268,0.0,0.0,0.0,0.0,0.08
69,2069-01-01,4772010,50122.95000000002,0.0,3.04,0.010503529959073853,0.05580149498925939,0.0,0.0,0.0,0.0,0.05
70,2070-01-01,4772010,208018.0099999999,0.0,3.5300000000000002,0.043591277050970115,0.15598344266362368,0.0,0.0,0.0,0.0,0.25
71,2071-01-01,4772010,139295.59,0.0,2.37,0.029190129526132595,0.13211106849911805,0.0,0.0,0.0,0.0,0.15
72,2072-01-01,4785084,160549.7599999999,0.0,3.22,0.0335521299103631,0.10160701168496193,0.0,0.0,0.0,0.0,0.21
73,2073-01-01,4772010,260558.0199999997,0.0,3.18,0.05460131474996903,0.15196039157510233,0.0,0.0,0.0,0.0,0.33
74,2074-01-01,4772010,45509.75,0.0,2.33,0.009536809436694391,0.05898180828662091,0.0,0.0,0.0,0.0,0.03
75,2075-01-01,4772010,69566.44999999995,0.0,3.67,0.014578018486968793,0.08550836318002465,0.0,0.0,0.0,0.0,0.06
76,2076-01-01,4785084,103476.86,0.0,3.2800000000000002,0.02162487847653249,0.12821085157890197,0.0,0.0,0.0,0.0,0.06
77,2077-01-01,4772010,255191.87,0.0,5.12,0.05347680956242757,0.23264542100985106,0.0,0.0,0.0,0.0,0.29
78,2078-01-01,4772010,154552.04,0.0,3.7600000000000002,0.03238719952389035,0.146327808287027,0.0,0.0,0.0,0.0,0.18
79,2079-01-01,4772010,175868.60999999996,0.0,3.71,0.036854199802598894,0.1414246143430736,0.0,0.0,0.0,0.0,0.22
80,2080-01-01,4785084,200079.57999999987,0.0,3.71,0.04181318029108786,0.1817951607692253,0.0,0.0,0.0,0.0,0.2
81,2081-01-01,4772010,168205.31999999975,0.0,2.73,0.03524831674703107,0.16154832879467856,0.0,0.0,0.0,0.0,0.15
82,2082-01-01,4772010,166994.01999999993,0.0,2.82,0.034994482408880104,0.11562268191072578,0.0,0.0,0.0,0.0,0.23
83,2083-01-01,4772010,492662.4500000006,0.0,3.68,0.10324002883480977,0.250198192589779,0.0,0.0,0.0,0.06,0.62
84,2084-01-01,4785084,262769.77,0.0,4.63,0.05491434842105176,0.1718997119819372,0.0,0.0,0.0,0.0,0.37
85,2085-01-01,4772010,955223.8399999999,0.0,6.32,0.20017222092996448,0.5047414868735322,0.0,0.0,0.0,0.06,1.44
86,2086-01-01,4772010,111020.52999999994,0.0,4.14,0.023264940769193682,0.1402906650869403,0.0,0.0,0.0,0.0,0.06
87,2087-01-01,4772010,34886.919999999955,0.0,2.21,0.007310739080597055,0.03839907162864782,0.0,0.0,0.0,0.0,0.03
88,2088-01-01,4785084,55568.82000000003,0.0,2.2,0.011612924663391495,0.041093177077649805,0.0,0.0,0.0,0.0,0.09
89,2089-01-01,4772010,70647.60000000002,0.0,3.0,0.014804579202474433,0.07908224319181152,0.0,0.0,0.0,0.0,0.06
90,2090-01-01,4772010,173119.59999999986,0.0,4.5200000000000005,0.036278130179945106,0.1732222543549614,0.0,0.0,0.0,0.0,0.17
91,2091-01-01,4772010,51776.96,0.0,2.25,0.010850136525279703,0.057333370289013294,0.0,0.0,0.0,0.0,0.05
92,2092-01-01,4785084,56476.35,0.0,1.94,0.011802582775976346,0.06429527018096236,0.0,0.0,0.0,0.0,0.04
93,2093-01-01,4772010,159525.06,0.0,2.99,0.033429322235284505,0.14198546299828524,0.0,0.0,0.0,0.0,0.17
94,2094-01-01,4772010,411046.56000000064,0.0,5.86,0.08613698630137,0.2978503146936547,0.0,0.0,0.0,0.0,0.64
95,2095-01-01,4772010,413671.52000000025,0.0,4.23,0.08668706058872472,0.2331233910801942,0.0,0.0,0.0,0.03,0.62
96,2096-01-01,4785084,46862.85999999999,0.0,1.84,0.009793529225401266,0.0525839786017013,0.0,0.0,0.0,0.0,0.05
97,2097-01-01,4772010,47181.100000000035,0.0,2.69,0.009887049691848934,0.06028572853140848,0.0,0.0,0.0,0.0,0.05
98,2098-01-01,4772010,80942.43999999987,0.0,2.97,0.016961917514841728,0.09014815985674902,0.0,0.0,0.0,0.0,0.08
99,2099-01-01,4772010,30881.870000000017,0.0,2.12,0.006471459615549845,0.03886278929680128,0.0,0.0,0.0,0.0,0.02
100,2100-01-01,4758936,127912.59999999998,0.0,3.3200000000000003,0.02687840307161096,0.11523576247225562,0.0,0.0,0.0,0.0,0.21
