,time,n,sum,min,max,mean,std,q0.05,q0.25,q0.50,q0.75,q0.95
0,2000-01-01,4785084,66922.44999999997,0.0,1.94,0.013985637451714529,0.07146714693775827,0.0,0.0,0.0,0.0,0.06
1,2001-01-01,4772010,325579.1200000008,0.0,2.48,0.06822683104184626,0.17004782598938617,0.0,0.0,0.0,0.02,0.39
2,2002-01-01,4772010,67147.62999999999,0.0,3.17,0.014071141929710958,0.06574687713335699,0.0,0.0,0.0,0.0,0.08
3,2003-01-01,4772010,95921.48000000005,0.0,3.77,0.02010085477607969,0.10897223331818959,0.0,0.0,0.0,0.0,0.1
4,2004-01-01,4785084,123439.31000000011,0.0,4.5200000000000005,0.0257966861187808,0.13093736425589095,0.0,0.0,0.0,0.0,0.14
5,2005-01-01,4772010,477260.6200000006,0.0,4.29,0.10001249368714663,0.2383778607330244,0.0,0.0,0.0,0.06,0.5700000000000001
6,2006-01-01,4772010,98742.8599999999,0.0,2.73,0.020692089915989257,0.08860564863941048,0.0,0.0,0.0,0.0,0.13
7,2007-01-01,4772010,430605.65000000055,0.0,4.5,0.09023569732670311,0.26438033325073657,0.0,0.0,0.0,0.01,0.56
8,2008-01-01,4785084,318374.91,0.0,3.95,0.06653486333782228,0.19618244468514062,0.0,0.0,0.0,0.0,0.43
9,2009-01-01,4772010,190636.58000000007,0.0,2.92,0.03994890622609761,0.12232164695421822,0.0,0.0,0.0,0.0,0.28
10,2010-01-01,4772010,527164.0200000004,0.0,4.94,0.11047001577951437,0.2599128968825067,0.0,0.0,0.0,0.09,0.63
11,2011-01-01,4772010,217058.05999999988,0.0,4.9,0.04548566746507234,0.16610556293155132,0.0,0.0,0.0,0.0,0.27
12,2012-01-01,4785084,397666.46000000054,0.0,5.3,0.0831054292881798,0.2408440423054199,0.0,0.0,0.0,0.0,0.55
13,2013-01-01,4772010,324492.9799999999,0.0,4.65,0.06799922464538002,0.2258735989088892,0.0,0.0,0.0,0.0,0.43
14,2014-01-01,4772010,199150.38999999964,0.0,3.2,0.041733020257711036,0.13986674610693095,0.0,0.0,0.0,0.0,0.26
15,2015-01-01,4772010,737729.8700000006,0.0,5.98,0.15459520621289574,0.39647792303693125,0.0,0.0,0.0,0.1,1.06
16,2016-01-01,4785084,689927.4199999996,0.0,4.5600000000000005,0.1441829276142278,0.38824430789890796,0.0,0.0,0.0,0.07,1.03
17,2017-01-01,4772010,273162.2600000002,0.0,3.43,0.05724260007837372,0.19573966485770541,0.0,0.0,0.0,0.0,0.34
18,2018-01-01,4772010,170376.71000000005,0.0,4.04,0.03570334303574386,0.13006695822476394,0.0,0.0,0.0,0.0,0.23
19,2019-01-01,4772010,383164.7599999997,0.0,6.2700000000000005,0.08029420726276762,0.2845609020163341,0.0,0.0,0.0,0.0,0.5700000000000001
20,2020-01-01,4785084,293525.1700000006,0.0,2.45,0.06134169640491172,0.16487504466920658,0.0,0.0,0.0,0.0,0.39
21,2021-01-01,4772010,726209.6800000006,0.0,5.08,0.15218108931037458,0.3407600948117956,0.0,0.0,0.0,0.12,0.93
22,2022-01-01,4772010,219352.97999999992,0.0,4.04,0.04596658012032664,0.1825142131565447,0.0,0.0,0.0,0.0,0.31
23,2023-01-01,4772010,349099.0500000005,0.0,4.24,0.07315555709229454,0.21507928177498697,0.0,0.0,0.0,0.0,0.55
24,2024-01-01,4785084,208672.42000000016,0.0,2.86,0.04360893560071258,0.15171612314837676,0.0,0.0,0.0,0.0,0.33
25,2025-01-01,4772010,289035.90999999974,0.0,5.19,0.060569007608952986,0.24045001210353942,0.0,0.0,0.0,0.0,0.38
26,2026-01-01,4772010,685856.6699999997,0.0,3.45,0.14372490208528474,0.33227964957265865,0.0,0.0,0.0,0.07,0.9500000000000001
27,2027-01-01,4772010,582863.4799999999,0.0,4.07,0.12214213297960395,0.3029777913128395,0.0,0.0,0.0,0.08,0.79
28,2028-01-01,4785084,558187.58,0.0,3.52,0.1166515739326624,0.2798259196241975,0.0,0.0,0.0,0.06,0.77
29,2029-01-01,4772010,98884.21000000002,0.0,2.19,0.02072171055802482,0.10153595053514158,0.0,0.0,0.0,0.0,0.1
30,2030-01-01,4772010,116387.94999999997,0.0,3.11,0.024389712091969624,0.1058017321764145,0.0,0.0,0.0,0.0,0.15
31,2031-01-01,4772010,65723.58999999984,0.0,3.16,0.013772726796465186,0.07910908448586988,0.0,0.0,0.0,0.0,0.06
32,2032-01-01,4785084,184649.73000000016,0.0,2.7800000000000002,0.03858860784889046,0.13784468550255433,0.0,0.0,0.0,0.0,0.24
33,2033-01-01,4772010,218935.28000000012,0.0,3.19,0.04587904887039217,0.1636967484250165,0.0,0.0,0.0,0.0,0.31
34,2034-01-01,4772010,202209.12000000002,0.0,5.3100000000000005,0.042373993348714695,0.1889459580974797,0.0,0.0,0.0,0.0,0.25
35,2035-01-01,4772010,184321.85000000018,0.0,2.99,0.03862562106952839,0.15121879635302338,0.0,0.0,0.0,0.0,0.24
36,2036-01-01,4785084,361093.97000000003,0.0,7.67,0.075462409855292,0.2751163011470065,0.0,0.0,0.0,0.0,0.5
37,2037-01-01,4772010,72002.04999999992,0.0,3.66,0.015088411382205803,0.07192918075032632,0.0,0.0,0.0,0.0,0.1
38,2038-01-01,4772010,129089.74,0.0,3.93,0.027051439540151843,0.1189696608832415,0.0,0.0,0.0,0.0,0.15
39,2039-01-01,4772010,76709.00000000003,0.0,2.68,0.016074777714212677,0.07597770185944402,0.0,0.0,0.0,0.0,0.09
40,2040-01-01,4785084,95622.33999999978,0.0,3.08,0.019983419308835494,0.08604481781908545,0.0,0.0,0.0,0.0,0.12
41,2041-01-01,4772010,310762.4000000007,0.0,3.95,0.06512190879734131,0.22266005919404866,0.0,0.0,0.0,0.0,0.47000000000000003
42,2042-01-01,4772010,105013.09999999998,0.0,3.62,0.022006051957141743,0.095833895380202,0.0,0.0,0.0,0.0,0.13
43,2043-01-01,4772010,168334.60999999996,0.0,3.2,0.03527541015211619,0.1552142294888244,0.0,0.0,0.0,0.0,0.19
44,2044-01-01,4785084,445975.2899999998,0.0,5.64,0.09320114129657908,0.29166888855629725,0.0,0.0,0.0,0.0,0.6900000000000001
45,2045-01-01,4772010,201080.09000000008,0.0,3.06,0.04213739912531619,0.1388022772776097,0.0,0.0,0.0,0.0,0.25
46,2046-01-01,4772010,147082.96000000008,0.0,2.54,0.030822014203658432,0.13390126820708595,0.0,0.0,0.0,0.0,0.16
47,2047-01-01,4772010,291422.19000000006,0.0,4.24,0.061069065236661293,0.2181457050601948,0.0,0.0,0.0,0.0,0.44
48,2048-01-01,4785084,327551.5200000002,0.0,3.29,0.06845261650579179,0.18471733716328298,0.0,0.0,0.0,0.0,0.44
49,2049-01-01,4772010,511768.5799999999,0.0,3.45,0.10724381969023533,0.28147633446491893,0.0,0.0,0.0,0.0,0.75
50,2050-01-01,4772010,49858.48999999997,0.0,2.75,0.010448110963723875,0.07562214086358397,0.0,0.0,0.0,0.0,0.04
51,2051-01-01,4772010,100365.82000000002,0.0,3.2800000000000002,0.021032189790046545,0.10437589907261997,0.0,0.0,0.0,0.0,0.12
52,2052-01-01,4785084,397784.23999999993,0.0,2.5,0.08313004327614729,0.18300848349694374,0.0,0.0,0.0,0.03,0.5
53,2053-01-01,4772010,82919.53999999992,0.0,3.0100000000000002,0.017376229303794403,0.08331612110465236,0.0,0.0,0.0,0.0,0.11
54,2054-01-01,4772010,170517.53000000006,0.0,2.58,0.03573285261346897,0.10809437399779358,0.0,0.0,0.0,0.0,0.24
55,2055-01-01,4772010,338020.7900000003,0.0,4.24,0.0708340489646921,0.25645412305181814,0.0,0.0,0.0,0.0,0.52
56,2056-01-01,4785084,155696.41999999987,0.0,2.32,0.032537865583968824,0.1141832418277209,0.0,0.0,0.0,0.0,0.24
57,2057-01-01,4772010,209640.22000000006,0.0,2.54,0.04393121975855039,0.11932562361343182,0.0,0.0,0.0,0.0,0.29
58,2058-01-01,4772010,183326.6099999999,0.0,2.85,0.03841706325007699,0.12165274354234872,0.0,0.0,0.0,0.0,0.28
59,2059-01-01,4772010,513099.7099999997,0.0,4.0200000000000005,0.10752276504030789,0.2718491242929937,0.0,0.0,0.0,0.07,0.67
60,2060-01-01,4785084,166968.49999999988,0.0,3.88,0.034893535829256056,0.13566760426597943,0.0,0.0,0.0,0.0,0.2
61,2061-01-01,4772010,63554.84000000001,0.0,3.2800000000000002,0.013318253733751608,0.062203473309913083,0.0,0.0,0.0,0.0,0.09
62,2062-01-01,4772010,145170.0399999999,0.0,1.81,0.030421151674032514,0.09749127279396576,0.0,0.0,0.0,0.0,0.22
63,2063-01-01,4772010,89512.20000000003,0.0,1.58,0.018757756165640897,0.09398052719505172,0.0,0.0,0.0,0.0,0.08
64,2064-01-01,4785084,176839.30999999982,0.0,3.85,0.03695636482034585,0.13791672368016283,0.0,0.0,0.0,0.0,0.24
65,2065-01-01,4772010,253602.6600000001,0.0,6.3500000000000005,0.05314378217983619,0.24575240068456558,0.0,0.0,0.0,0.0,0.31
66,2066-01-01,4772010,283181.5899999999,0.0,4.71,0.05934220380929627,0.21108451354279595,0.0,0.0,0.0,0.0,0.37
67,2067-01-01,4772010,171869.30000000002,0.0,3.8000000000000003,0.03601612318498914,0.13515283706392095,0.0,0.0,0.0,0.0,0.23
68,2068-01-01,4785084,229683.5499999999,0.0,4.5,0.04799989927031582,0.1869148502287359,0.0,0.0,0.0,0.0,0.3
69,2069-01-01,4772010,183840.2299999998,0.0,3.75,0.038524695044645715,0.14951722066932804,0.0,0.0,0.0,0.0,0.24
70,2070-01-01,4772010,452683.6600000005,0.0,4.34,0.09486226139509357,0.2752705123740244,0.0,0.0,0.0,0.01,0.71
71,2071-01-01,4772010,396762.7100000001,0.0,4.74,0.0831437297910105,0.27458535743917,0.0,0.0,0.0,0.0,0.63
72,2072-01-01,4785084,308189.7800000002,0.0,3.44,0.06440634688962622,0.2182245461319063,0.0,0.0,0.0,0.0,0.43
73,2073-01-01,4772010,248381.81999999966,0.0,2.48,0.052049727473328776,0.14484977270389066,0.0,0.0,0.0,0.01,0.33
74,2074-01-01,4772010,151996.20999999993,0.0,3.52,0.03185161179461064,0.14406801436755412,0.0,0.0,0.0,0.0,0.18
75,2075-01-01,4772010,131458.56000000014,0.0,4.74,0.02754783833227511,0.15391368099049,0.0,0.0,0.0,0.0,0.08
76,2076-01-01,4785084,140008.96000000005,0.0,2.5300000000000002,0.02925945709625997,0.10400664232237496,0.0,0.0,0.0,0.0,0.21
77,2077-01-01,4772010,85353.32,0.0,2.04,0.017886240808380537,0.07218784673783886,0.0,0.0,0.0,0.0,0.11
78,2078-01-01,4772010,165452.83999999997,0.0,4.37,0.03467151996747701,0.15800215184924185,0.0,0.0,0.0,0.0,0.2
79,2079-01-01,4772010,336051.64000000065,0.0,5.55,0.0704214031403959,0.2949685040510275,0.0,0.0,0.0,0.0,0.44
80,2080-01-01,4785084,251594.9499999998,0.0,3.56,0.05257900383775913,0.2158303662178784,0.0,0.0,0.0,0.0,0.31
81,2081-01-01,4772010,265374.22000000015,0.0,2.9,0.05561057499879509,0.16729588854649038,0.0,0.0,0.0,0.0,0.42
82,2082-01-01,4772010,200209.70000000024,0.0,4.42,0.041955004285405995,0.1741316522208256,0.0,0.0,0.0,0.0,0.27
83,2083-01-01,4772010,172321.32999999984,0.0,5.13,0.03611084846846504,0.13788647852229108,0.0,0.0,0.0,0.0,0.23
84,2084-01-01,4785084,189741.86,0.0,4.91,0.03965277516549343,0.12885660936874288,0.0,0.0,0.0,0.0,0.25
85,2085-01-01,4772010,383976.319999999,0.0,6.92,0.08046427396422032,0.286301093972784,0.0,0.0,0.0,0.0,0.52
86,2086-01-01,4772010,132723.3899999998,0.0,3.84,0.02781289016577916,0.12195693736636783,0.0,0.0,0.0,0.0,0.16
87,2087-01-01,4772010,614999.9800000007,0.0,5.2700000000000005,0.12887650696457062,0.35731246503324604,0.0,0.0,0.0,0.03,0.9
88,2088-01-01,4785084,354885.1400000002,0.0,4.71,0.07416487150486809,0.266879968440543,0.0,0.0,0.0,0.0,0.55
89,2089-01-01,4772010,94906.68999999997,0.0,1.97,0.0198882001504607,0.08818077748017994,0.0,0.0,0.0,0.0,0.12
90,2090-01-01,4772010,92578.35000000006,0.0,2.48,0.019400284156990463,0.08892923116572975,0.0,0.0,0.0,0.0,0.11
91,2091-01-01,4772010,79576.75999999998,0.0,2.29,0.016675732029061124,0.09381279273590126,0.0,0.0,0.0,0.0,0.06
92,2092-01-01,4785084,261177.86,0.0,3.15,0.05458166669592425,0.18004056054705356,0.0,0.0,0.0,0.0,0.4
93,2093-01-01,4772010,135708.99999999994,0.0,2.52,0.02843854057304992,0.132928812192046,0.0,0.0,0.0,0.0,0.13
94,2094-01-01,4772010,165002.1799999999,0.0,4.32,0.03457708177476575,0.1355304123612526,0.0,0.0,0.0,0.0,0.22
95,2095-01-01,4772010,153329.1699999999,0.0,4.99,0.03213094063088717,0.14952520824617535,0.0,0.0,0.0,0.0,0.19
96,2096-01-01,4785084,57693.03,0.0,2.41,0.012056847904864366,0.055262274026696076,0.0,0.0,0.0,0.0,0.07
97,2097-01-01,4772010,43976.79000000003,0.0,2.88,0.009215569539879427,0.052615179704929446,0.0,0.0,0.0,0.0,0.05
98,2098-01-01,4772010,307525.27000000025,0.0,6.23,0.06444355104033735,0.2359143600344739,0.0,0.0,0.0,0.0,0.4
99,2099-01-01,4772010,305481.42000000004,0.0,7.88,0.06401525143492995,0.31311498503878576,0.0,0.0,0.0,0.0,0.32
100,2100-01-01,4758936,91091.81999999999,0.0,2.12,0.01914121559945332,0.083193895239768,0.0,0.0,0.0,0.0,0.12
