,time,n,sum,min,max,mean,std,q0.05,q0.25,q0.50,q0.75,q0.95
0,2000-01-01,27301770,8707300.069999991,0.0,7.99,0.3189280427605972,0.5207015692829136,0.0,0.0,0.0,0.5,1.47
1,2001-01-01,27227175,8214502.620000008,0.0,7.640000000000001,0.3017023477463236,0.47318377372578685,0.0,0.0,0.01,0.45,1.36
2,2002-01-01,27227175,8550028.939999988,0.0,7.28,0.3140255623288126,0.49487484513543867,0.0,0.0,0.02,0.47000000000000003,1.43
3,2003-01-01,27227175,8899780.599999974,0.0,6.87,0.3268712453642353,0.5323479060442387,0.0,0.0,0.0,0.54,1.5
4,2004-01-01,27301770,9700383.680000009,0.0,7.25,0.3553023734358618,0.5823386456101417,0.0,0.0,0.03,0.48,1.69
5,2005-01-01,27227175,11036063.83,0.0,6.75,0.4053326806765667,0.5265303670310332,0.0,0.0,0.13,0.71,1.49
6,2006-01-01,27227175,14591336.239999978,0.0,7.42,0.5359107670920681,0.6877586588545972,0.0,0.0,0.22,0.9,1.98
7,2007-01-01,27227175,16735432.79999998,0.0,9.22,0.6146591704794927,0.7982741406778029,0.0,0.0,0.21,1.09,2.2800000000000002
8,2008-01-01,27301770,13673843.899999984,0.0,7.92,0.500840930826096,0.6520910542640596,0.0,0.0,0.09,0.96,1.79
9,2009-01-01,27227175,14972889.010000035,0.0,8.88,0.5499244416653595,0.8203301189018307,0.0,0.0,0.05,0.92,2.35
10,2010-01-01,27227175,9932040.550000029,0.0,7.2,0.3647841008110474,0.5062773160808448,0.0,0.0,0.08,0.61,1.44
11,2011-01-01,27227175,14597758.259999985,0.0,8.44,0.5361466351173041,0.6624152836588932,0.0,0.0,0.24,0.9500000000000001,1.85
12,2012-01-01,27301770,13400810.76999996,0.0,7.87,0.49084036566127254,0.7212092862685133,0.0,0.0,0.02,0.92,1.99
13,2013-01-01,27227175,13922203.969999993,0.0,7.9,0.5113348692987794,0.6662147475321573,0.0,0.0,0.12,0.96,1.84
14,2014-01-01,27227175,13606917.92999996,0.0,8.44,0.4997550399554842,0.71783084129875,0.0,0.0,0.07,0.89,2.0100000000000002
15,2015-01-01,27227175,12217356.669999992,0.0,7.55,0.4487192178402641,0.6914521885454677,0.0,0.0,0.0,0.8200000000000001,1.9100000000000001
16,2016-01-01,27301770,15498664.979999997,0.0,9.03,0.5676798603167486,0.8040284292584091,0.0,0.0,0.07,1.06,2.2600000000000002
17,2017-01-01,27227175,7054322.399999975,0.0,8.14,0.25909123513548415,0.42954975400913115,0.0,0.0,0.0,0.42,1.21
18,2018-01-01,27227175,9342220.619999997,0.0,7.79,0.3431211875635279,0.5196222238748976,0.0,0.0,0.0,0.59,1.44
19,2019-01-01,27227175,19990651.95,0.0,9.24,0.7342168972726697,0.923659988644472,0.0,0.0,0.22,1.42,2.56
20,2020-01-01,27301770,20825793.069999978,0.0,9.82,0.7628001067330059,1.0523883269825434,0.0,0.0,0.1,1.49,2.92
21,2021-01-01,27227175,18005383.469999984,0.0,11.120000000000001,0.6613019334543515,0.8771450180879203,0.0,0.0,0.24,1.1,2.5100000000000002
22,2022-01-01,27227175,10440935.639999947,0.0,9.4,0.3834748055940415,0.593529818048673,0.0,0.0,0.01,0.64,1.6400000000000001
23,2023-01-01,27227175,7319825.120000018,0.0,7.73,0.2688426221229348,0.4367226856619266,0.0,0.0,0.03,0.36,1.27
24,2024-01-01,27301770,8772327.099999996,0.0,7.390000000000001,0.321309830827818,0.4877139745464146,0.0,0.0,0.06,0.47000000000000003,1.42
25,2025-01-01,27227175,14729733.640000027,0.0,7.5,0.540993828408567,0.7218053416011625,0.0,0.0,0.05,1.09,1.95
26,2026-01-01,27227175,10545265.469999976,0.0,6.72,0.3873066328034391,0.5878362171953262,0.0,0.0,0.0,0.6900000000000001,1.6400000000000001
27,2027-01-01,27227175,16202668.010000026,0.0,8.66,0.5950917790773382,0.8365011054605208,0.0,0.0,0.11,1.04,2.39
28,2028-01-01,27301770,11337546.629999975,0.0,8.45,0.4152678243938021,0.6188562996039724,0.0,0.0,0.01,0.73,1.71
29,2029-01-01,27227175,14586929.380000008,0.0,10.15,0.5357489118867458,0.8601631730226322,0.0,0.0,0.01,0.8300000000000001,2.45
30,2030-01-01,27227175,13713202.139999999,0.0,9.17,0.5036586476562478,0.6884432774331481,0.0,0.0,0.06,0.98,1.8800000000000001
31,2031-01-01,27227175,13220624.630000042,0.0,9.950000000000001,0.4855672551412345,0.6814689889723263,0.0,0.0,0.07,0.86,1.9000000000000001
32,2032-01-01,27301770,11522922.970000016,0.0,9.49,0.42205772629393684,0.6570297714428178,0.0,0.0,0.01,0.7000000000000001,1.84
33,2033-01-01,27227175,16064109.62,0.0,10.950000000000001,0.590002804918248,0.7694860200973905,0.0,0.0,0.17,1.08,2.12
34,2034-01-01,27227175,14939811.509999964,0.0,10.31,0.5487095708607288,0.9131109536445622,0.0,0.0,0.0,0.76,2.61
35,2035-01-01,27227175,12970464.670000004,0.0,9.63,0.47637937722147095,0.6727565347057975,0.0,0.0,0.04,0.87,1.87
36,2036-01-01,27301770,11226391.139999978,0.0,8.41,0.411196458691139,0.6347983357128388,0.0,0.0,0.01,0.68,1.77
37,2037-01-01,27227175,14072283.70000002,0.0,9.34,0.5168469993673607,0.7032353862024885,0.0,0.0,0.16,0.85,2.0100000000000002
38,2038-01-01,27227175,7047793.970000016,0.0,7.71,0.25885145888253247,0.4468897090961907,0.0,0.0,0.0,0.34,1.28
39,2039-01-01,27227175,13086701.66,0.0,7.78,0.48064853074180486,0.6363916388708457,0.0,0.0,0.08,0.91,1.75
40,2040-01-01,27301770,13314626.050000042,0.0,8.1,0.48768362087879435,0.644756635023583,0.0,0.0,0.04,0.96,1.75
41,2041-01-01,27227175,12734717.76999999,0.0,8.3,0.4677208623369847,0.7050075699339574,0.0,0.0,0.0,0.92,1.93
42,2042-01-01,27227175,10906799.110000003,0.0,7.95,0.4005850445373052,0.611639472036445,0.0,0.0,0.0,0.71,1.69
43,2043-01-01,27227175,9440288.77999998,0.0,9.08,0.3467230360843525,0.595749436719864,0.0,0.0,0.0,0.48,1.7
44,2044-01-01,27301770,10431386.640000012,0.0,8.76,0.3820773026803761,0.6584935762218546,0.0,0.0,0.0,0.52,1.8900000000000001
45,2045-01-01,27227175,6734351.219999998,0.0,6.5600000000000005,0.24733932991579177,0.4531359692754126,0.0,0.0,0.0,0.29,1.31
46,2046-01-01,27227175,12976037.820000004,0.0,7.29,0.47658406793947605,0.6907018555767924,0.0,0.0,0.05,0.88,1.93
47,2047-01-01,27227175,10244259.939999947,0.0,7.3,0.3762512981974791,0.591413339031139,0.0,0.0,0.0,0.59,1.67
48,2048-01-01,27301770,11500630.820000017,0.0,7.01,0.4212412169613918,0.6330715736328737,0.0,0.0,0.03,0.67,1.81
49,2049-01-01,27227175,16394984.630000008,0.0,8.84,0.6021551861329723,0.8385482511863739,0.0,0.0,0.09,1.1,2.35
50,2050-01-01,27227175,8939713.710000012,0.0,7.53,0.32833790909266247,0.5207179725234797,0.0,0.0,0.0,0.54,1.48
51,2051-01-01,27227175,12332060.190000001,0.0,6.87,0.4529320500566071,0.6174114368302879,0.0,0.0,0.07,0.8200000000000001,1.74
52,2052-01-01,27301770,13257698.060000008,0.0,7.07,0.48559848171016046,0.7329794992350093,0.0,0.0,0.02,0.93,2.02
53,2053-01-01,27227175,7005144.990000006,0.0,5.37,0.25728504664916596,0.44497961524683083,0.0,0.0,0.0,0.36,1.26
54,2054-01-01,27227175,10763184.010000031,0.0,6.13,0.39531034747453714,0.6357287161993591,0.0,0.0,0.0,0.62,1.79
55,2055-01-01,27227175,7531353.300000009,0.0,4.48,0.2766116315776429,0.5015801270769261,0.0,0.0,0.0,0.36,1.42
56,2056-01-01,27301770,12684111.390000006,0.0,5.61,0.46458934310852396,0.7324603056333697,0.0,0.0,0.0,0.76,2.09
57,2057-01-01,27227175,11838339.839999959,0.0,5.11,0.43479868330078164,0.6206164302211937,0.0,0.0,0.0,0.81,1.71
58,2058-01-01,27227175,11805658.67000005,0.0,5.1000000000000005,0.43359836890900544,0.6452683545828409,0.0,0.0,0.01,0.81,1.79
59,2059-01-01,27227175,4851603.989999991,0.0,3.8000000000000003,0.17818976775960013,0.34069972526986425,0.0,0.0,0.0,0.22,0.92
60,2060-01-01,27301770,9808244.319999987,0.0,4.34,0.3592530564868134,0.5734756102769483,0.0,0.0,0.0,0.62,1.61
61,2061-01-01,27227175,7541030.390000001,0.0,4.43,0.27696705185168863,0.47728829727751443,0.0,0.0,0.0,0.41000000000000003,1.35
62,2062-01-01,27227175,9027792.66000002,0.0,5.98,0.3315728737924526,0.6056064378389815,0.0,0.0,0.0,0.4,1.73
63,2063-01-01,27227175,7952932.360000015,0.0,3.91,0.29209539219548175,0.4940416877349742,0.0,0.0,0.0,0.42,1.42
64,2064-01-01,27301770,5760087.960000016,0.0,3.67,0.21097855413769934,0.40281588161643767,0.0,0.0,0.0,0.24,1.17
65,2065-01-01,27227175,7886835.480000014,0.0,3.95,0.2896677852182613,0.4674283533309734,0.0,0.0,0.0,0.48,1.31
66,2066-01-01,27227175,12333854.90999998,0.0,5.32,0.45299796655363544,0.6838017533627193,0.0,0.0,0.03,0.76,1.92
67,2067-01-01,27227175,6171063.009999999,0.0,3.87,0.22665087398894665,0.4007461772055195,0.0,0.0,0.0,0.3,1.1400000000000001
68,2068-01-01,27301770,5952048.959999998,0.0,3.8000000000000003,0.2180096367378378,0.4000859296297943,0.0,0.0,0.0,0.28,1.1500000000000001
69,2069-01-01,27227175,7930408.790000007,0.0,4.45,0.29126814625461533,0.49564130474116386,0.0,0.0,0.0,0.4,1.43
70,2070-01-01,27227175,6386110.87000001,0.0,4.2700000000000005,0.23454915429162262,0.4405778282080581,0.0,0.0,0.0,0.27,1.28
71,2071-01-01,27227175,6142758.780000001,0.0,4.76,0.22561131590038266,0.4590473818749781,0.0,0.0,0.0,0.18,1.33
72,2072-01-01,27301770,9410497.219999986,0.0,4.0200000000000005,0.3446845101984225,0.5603425455395883,0.0,0.0,0.0,0.56,1.58
73,2073-01-01,27227175,6785939.240000002,0.0,4.92,0.249234055314222,0.45291907633781403,0.0,0.0,0.0,0.32,1.29
74,2074-01-01,27227175,11881577.420000048,0.0,6.25,0.4363867136417953,0.6912309791118827,0.0,0.0,0.0,0.6900000000000001,1.96
75,2075-01-01,27227175,10603427.320000036,0.0,6.86,0.3894428019065524,0.7149749832843426,0.0,0.0,0.0,0.47000000000000003,2.04
76,2076-01-01,27301770,8152011.739999979,0.0,5.12,0.29858912956925426,0.5467864839172586,0.0,0.0,0.0,0.34,1.57
77,2077-01-01,27227175,3948392.6699999967,0.0,4.38,0.1450166118960192,0.3471325907270478,0.0,0.0,0.0,0.05,1.0
78,2078-01-01,27227175,7034136.179999999,0.0,4.63,0.2583498354125979,0.4882074089203702,0.0,0.0,0.0,0.28,1.43
79,2079-01-01,27227175,8571979.420000004,0.0,4.72,0.3148317598134953,0.5782199215118337,0.0,0.0,0.0,0.36,1.6400000000000001
80,2080-01-01,27301770,5156971.969999992,0.0,3.81,0.18888782558786454,0.37813404669100925,0.0,0.0,0.0,0.2,1.07
81,2081-01-01,27227175,6552539.080000003,0.0,3.99,0.24066173152374432,0.45634572015617786,0.0,0.0,0.0,0.25,1.33
82,2082-01-01,27227175,9508017.379999997,0.0,4.86,0.3492105728927073,0.6320389230335532,0.0,0.0,0.0,0.42,1.8
83,2083-01-01,27227175,4546463.299999992,0.0,3.35,0.16698255694907724,0.3533159657001736,0.0,0.0,0.0,0.15,0.99
84,2084-01-01,27301770,6259789.430000008,0.0,3.93,0.22928145061657204,0.4380642849471574,0.0,0.0,0.0,0.24,1.26
85,2085-01-01,27227175,2866249.959999999,0.0,3.0500000000000003,0.10527166185988811,0.2994845591894955,0.0,0.0,0.0,0.0,0.8
86,2086-01-01,27227175,2132666.0300000045,0.0,3.27,0.07832858274866947,0.23474001640875705,0.0,0.0,0.0,0.0,0.54
87,2087-01-01,27227175,5366271.9799999865,0.0,3.41,0.1970924996809249,0.36387257979360993,0.0,0.0,0.0,0.24,1.06
88,2088-01-01,27301770,3231820.959999998,0.0,3.08,0.11837404534577788,0.24845218121074675,0.0,0.0,0.0,0.1,0.6900000000000001
89,2089-01-01,27227175,4583741.19,0.0,3.97,0.16835169972646816,0.3491209124883779,0.0,0.0,0.0,0.15,1.01
90,2090-01-01,27227175,5908322.649999985,0.0,3.64,0.21700094299169798,0.40955449047467146,0.0,0.0,0.0,0.25,1.19
91,2091-01-01,27227175,2947164.5799999926,0.0,3.7,0.10824349496413023,0.2626040842408464,0.0,0.0,0.0,0.02,0.74
92,2092-01-01,27301770,3286466.2499999898,0.0,2.39,0.12037557455066063,0.24670064388878268,0.0,0.0,0.0,0.13,0.6900000000000001
93,2093-01-01,27227175,3542634.22,0.0,4.66,0.13011391082622417,0.3468895058843079,0.0,0.0,0.0,0.02,0.9400000000000001
94,2094-01-01,27227175,3284376.09999998,0.0,3.0500000000000003,0.12062860359181517,0.28129085465875786,0.0,0.0,0.0,0.06,0.76
95,2095-01-01,27227175,6232420.729999993,0.0,3.94,0.22890442104257944,0.4389044721973022,0.0,0.0,0.0,0.25,1.24
96,2096-01-01,27301770,5165464.609999998,0.0,4.34,0.18919889113416447,0.42433463071558164,0.0,0.0,0.0,0.08,1.24
97,2097-01-01,27227175,2642458.419999998,0.0,3.2800000000000002,0.09705224357650025,0.2436787873280091,0.0,0.0,0.0,0.04,0.63
98,2098-01-01,27227175,7113741.64999999,0.0,4.61,0.261273586040417,0.49594424103550455,0.0,0.0,0.0,0.26,1.43
99,2099-01-01,27227175,5436114.349999989,0.0,4.43,0.19965767105841828,0.433977559496359,0.0,0.0,0.0,0.14,1.25
100,2100-01-01,27227175,6994036.12999998,0.0,4.71,0.25687704030991027,0.5018186296181505,0.0,0.0,0.0,0.26,1.44
