,time,n,sum,min,max,mean,std,q0.05,q0.25,q0.50,q0.75,q0.95
0,2000-01-01,52257846,2246736.8100000005,0.0,7.23,0.042993291571948845,0.14593036028830728,0.0,0.0,0.0,0.0,0.31
1,2001-01-01,52115065,5961673.37999996,0.0,7.3,0.11439443431568126,0.23996955450138738,0.0,0.0,0.0,0.14,0.61
2,2002-01-01,52115065,3322676.6900000023,0.0,6.58,0.06375654889809698,0.17038599474500432,0.0,0.0,0.0,0.03,0.37
3,2003-01-01,52115065,4607228.639999992,0.0,5.94,0.08840492936159616,0.2346920733411213,0.0,0.0,0.0,0.04,0.51
4,2004-01-01,52257846,4406423.249999995,0.0,6.0200000000000005,0.08432079749326055,0.24329478932756057,0.0,0.0,0.0,0.03,0.53
5,2005-01-01,52115065,10564163.849999998,0.0,6.32,0.2027084462045667,0.3886071657841593,0.0,0.0,0.0,0.25,1.09
6,2006-01-01,52115065,6484136.009999989,0.0,5.24,0.12441960899405936,0.2502944447757613,0.0,0.0,0.0,0.15,0.64
7,2007-01-01,52115065,10304398.889999941,0.0,5.93,0.19772399573904284,0.40971599275315296,0.0,0.0,0.0,0.17,1.1300000000000001
8,2008-01-01,52257846,10504886.240000017,0.0,6.74,0.20102026861191363,0.4243641951314035,0.0,0.0,0.0,0.15,1.23
9,2009-01-01,52115065,13273567.749999953,0.0,7.0600000000000005,0.25469732696294156,0.45436635207778897,0.0,0.0,0.0,0.34,1.3
10,2010-01-01,52115065,10019663.55999998,0.0,8.9,0.19226040608411368,0.37227748195124444,0.0,0.0,0.0,0.24,0.98
11,2011-01-01,52115065,10445130.769999944,0.0,7.41,0.20042440261755298,0.4023985651821908,0.0,0.0,0.0,0.2,1.1
12,2012-01-01,52257846,26606275.679999966,0.0,9.74,0.5091345647886054,0.9835373357158019,0.0,0.0,0.0,0.4,2.88
13,2013-01-01,52115065,5960707.210000002,0.0,7.0600000000000005,0.11437589514663374,0.2328222068177344,0.0,0.0,0.0,0.14,0.59
14,2014-01-01,52115065,7896595.439999997,0.0,7.98,0.15152231777893777,0.34384026186748995,0.0,0.0,0.0,0.07,0.9500000000000001
15,2015-01-01,52115065,8742973.579999952,0.0,6.13,0.16776288353473132,0.4101087520303351,0.0,0.0,0.0,0.08,1.1400000000000001
16,2016-01-01,52257846,7817367.319999918,0.0,6.66,0.14959222238130362,0.3062684121463936,0.0,0.0,0.0,0.15,0.8200000000000001
17,2017-01-01,52115065,5185096.219999996,0.0,7.01,0.09949323137177313,0.23790819774268385,0.0,0.0,0.0,0.06,0.58
18,2018-01-01,52115065,10829515.489999969,0.0,7.08,0.20780009561534593,0.43666382804436576,0.0,0.0,0.0,0.17,1.21
19,2019-01-01,52115065,4346342.119999979,0.0,6.140000000000001,0.08339895805560213,0.1847738959510592,0.0,0.0,0.0,0.07,0.49
20,2020-01-01,52257846,6731948.429999985,0.0,5.71,0.12882177405475123,0.32363981020517685,0.0,0.0,0.0,0.05,0.88
21,2021-01-01,52115065,4267247.119999973,0.0,7.15,0.08188125871089239,0.22737498328650427,0.0,0.0,0.0,0.0,0.54
22,2022-01-01,52115065,4000724.819999969,0.0,4.11,0.0767671463136421,0.18991596553837353,0.0,0.0,0.0,0.04,0.47000000000000003
23,2023-01-01,52115065,10990194.459999967,0.0,7.11,0.21088325343161268,0.4165758432978766,0.0,0.0,0.0,0.24,1.11
24,2024-01-01,52257846,23459659.359999992,0.0,8.49,0.44892128466221115,0.9235467268289822,0.0,0.0,0.0,0.35000000000000003,2.7600000000000002
25,2025-01-01,52115065,4511613.740000009,0.0,4.7700000000000005,0.08657024106177376,0.21468325157900794,0.0,0.0,0.0,0.04,0.54
26,2026-01-01,52115065,18018469.939999957,0.0,6.41,0.34574397902026904,0.5983325782833272,0.0,0.0,0.0,0.46,1.71
27,2027-01-01,52115065,17979687.729999945,0.0,7.23,0.34499981396933777,0.633356128056893,0.0,0.0,0.0,0.41000000000000003,1.79
28,2028-01-01,52257846,7552707.029999962,0.0,6.91,0.144527714173293,0.3227600730932833,0.0,0.0,0.0,0.12,0.8300000000000001
29,2029-01-01,52115065,8727638.399999978,0.0,6.92,0.1674686273537216,0.3437832743864855,0.0,0.0,0.0,0.16,0.9500000000000001
30,2030-01-01,52115065,22252140.489999913,0.0,8.700000000000001,0.426980960112012,0.8356436719858531,0.0,0.0,0.0,0.43,2.4
31,2031-01-01,52115065,13656540.110000014,0.0,8.99,0.262045919159844,0.5267386387859913,0.0,0.0,0.0,0.26,1.47
32,2032-01-01,52257846,8570336.239999937,0.0,9.06,0.16400094714963828,0.4120507129503324,0.0,0.0,0.0,0.07,1.06
33,2033-01-01,52115065,4957058.260000001,0.0,7.7,0.09511756840368521,0.23844626357311427,0.0,0.0,0.0,0.04,0.58
34,2034-01-01,52115065,6205706.869999974,0.0,6.75,0.11907702446499825,0.26796132432978853,0.0,0.0,0.0,0.08,0.7000000000000001
35,2035-01-01,52115065,2229596.700000006,0.0,5.2,0.042782191675286324,0.1514796698172966,0.0,0.0,0.0,0.0,0.29
36,2036-01-01,52257846,7906562.369999994,0.0,5.92,0.15129904837639105,0.35216998393647847,0.0,0.0,0.0,0.1,0.91
37,2037-01-01,52115065,1933967.2500000054,0.0,4.48,0.03710956227340416,0.11832648741117577,0.0,0.0,0.0,0.0,0.24
38,2038-01-01,52115065,12195223.16999992,0.0,6.0200000000000005,0.2340057173487152,0.43873086655499083,0.0,0.0,0.0,0.29,1.22
39,2039-01-01,52115065,15148198.52999994,0.0,7.3,0.29066832268174164,0.6509027335955212,0.0,0.0,0.0,0.17,1.79
40,2040-01-01,52257846,13086531.089999896,0.0,9.05,0.2504223210807406,0.6325986175279628,0.0,0.0,0.0,0.12,1.68
41,2041-01-01,52115065,4663238.329999991,0.0,5.15,0.08947966063171926,0.2250064212915965,0.0,0.0,0.0,0.04,0.56
42,2042-01-01,52115065,5591319.56999994,0.0,5.1000000000000005,0.1072879707623878,0.2614347939331293,0.0,0.0,0.0,0.05,0.64
43,2043-01-01,52115065,12516057.66999989,0.0,6.61,0.24016198905249164,0.47172407524824517,0.0,0.0,0.0,0.28,1.27
44,2044-01-01,52257846,7566571.879999967,0.0,8.25,0.1447930303135718,0.3781685614467991,0.0,0.0,0.0,0.03,1.0
45,2045-01-01,52115065,12918391.199999973,0.0,7.53,0.24788208937281328,0.5541589924881716,0.0,0.0,0.0,0.17,1.53
46,2046-01-01,52115065,14099628.609999927,0.0,8.01,0.2705480384606625,0.5194870475388724,0.0,0.0,0.0,0.32,1.41
47,2047-01-01,52115065,5643804.519999985,0.0,6.21,0.10829506823027055,0.2841105313144381,0.0,0.0,0.0,0.03,0.71
48,2048-01-01,52257846,1870668.0800000106,0.0,5.83,0.035796884548207564,0.16044022753819712,0.0,0.0,0.0,0.0,0.21
49,2049-01-01,52115065,4353207.120000007,0.0,4.67,0.0835306858007374,0.26181098270152176,0.0,0.0,0.0,0.0,0.62
50,2050-01-01,52115065,16014992.28999995,0.0,7.74,0.3073006296739714,0.6519391247299258,0.0,0.0,0.0,0.26,1.8800000000000001
51,2051-01-01,52115065,7190775.449999972,0.0,5.89,0.13797882531663297,0.298618428513134,0.0,0.0,0.0,0.12,0.77
52,2052-01-01,52257846,19851750.229999956,0.0,7.59,0.3798807595322615,0.6513712238440285,0.0,0.0,0.0,0.5700000000000001,1.8
53,2053-01-01,52115065,7385816.79000002,0.0,6.15,0.14172133892570257,0.3751671048495809,0.0,0.0,0.0,0.05,0.98
54,2054-01-01,52115065,2626380.73,0.0,5.51,0.05039580647169873,0.16719112342568784,0.0,0.0,0.0,0.0,0.31
55,2055-01-01,52115065,4781153.989999992,0.0,5.41,0.09174226281786259,0.22170792904496012,0.0,0.0,0.0,0.05,0.56
56,2056-01-01,52257846,7660619.779999977,0.0,5.33,0.1465927198759776,0.3102916208294511,0.0,0.0,0.0,0.13,0.8
57,2057-01-01,52115065,23867603.15999995,0.0,8.42,0.45797895790785165,0.8115247397580232,0.0,0.0,0.0,0.61,2.34
58,2058-01-01,52115065,5740200.9699999625,0.0,5.15,0.11014475315343006,0.3109063156064132,0.0,0.0,0.0,0.01,0.88
59,2059-01-01,52115065,5856865.259999984,0.0,5.5200000000000005,0.1123833436646387,0.26525676688568894,0.0,0.0,0.0,0.08,0.66
60,2060-01-01,52257846,3445419.9199999827,0.0,8.27,0.06593115070223106,0.17122750102581089,0.0,0.0,0.0,0.05,0.36
61,2061-01-01,52115065,9660455.189999955,0.0,6.23,0.18536780468373118,0.4421646270482434,0.0,0.0,0.0,0.1,1.31
62,2062-01-01,52115065,7558012.319999996,0.0,6.15,0.14502548006032412,0.3243411566662023,0.0,0.0,0.0,0.11,0.89
63,2063-01-01,52115065,6430590.819999991,0.0,6.63,0.12339216731284881,0.3419653826766466,0.0,0.0,0.0,0.02,0.8300000000000001
64,2064-01-01,52257846,6000832.009999992,0.0,5.03,0.11483121615843088,0.2528576402564982,0.0,0.0,0.0,0.11,0.62
65,2065-01-01,52115065,3908892.1299999836,0.0,5.7,0.07500503223012354,0.2042463374305694,0.0,0.0,0.0,0.01,0.53
66,2066-01-01,52115065,7970824.249999959,0.0,5.95,0.15294664316354512,0.3581979982563904,0.0,0.0,0.0,0.09,0.89
67,2067-01-01,52115065,7047372.099999985,0.0,6.45,0.13522715744478078,0.33354099596656445,0.0,0.0,0.0,0.09,0.8
68,2068-01-01,52257846,1815385.850000012,0.0,4.99,0.03473901029139265,0.11743239626612736,0.0,0.0,0.0,0.0,0.22
69,2069-01-01,52115065,2710395.0399999735,0.0,4.83,0.05200789905951328,0.1757424447115685,0.0,0.0,0.0,0.0,0.34
70,2070-01-01,52115065,3260994.0099999933,0.0,5.68,0.06257296253971847,0.18115844760521488,0.0,0.0,0.0,0.0,0.44
71,2071-01-01,52115065,1663053.3500000127,0.0,3.5,0.03191118249588699,0.13700749653878389,0.0,0.0,0.0,0.0,0.18
72,2072-01-01,52257846,4687977.859999982,0.0,4.88,0.08970859342346375,0.20833123550477542,0.0,0.0,0.0,0.05,0.5700000000000001
73,2073-01-01,52115065,4431964.5899999635,0.0,3.06,0.08504190851532016,0.2102379260576094,0.0,0.0,0.0,0.01,0.56
74,2074-01-01,52115065,4124075.8299999763,0.0,3.92,0.07913404367815671,0.22125104449627186,0.0,0.0,0.0,0.0,0.54
75,2075-01-01,52115065,9288339.529999971,0.0,6.8500000000000005,0.17822753420723875,0.3877040789074525,0.0,0.0,0.0,0.15,1.02
76,2076-01-01,52257846,4668205.869999966,0.0,4.6000000000000005,0.08933023894631947,0.2756791431008242,0.0,0.0,0.0,0.0,0.67
77,2077-01-01,52115065,11772942.579999989,0.0,7.29,0.2259028666662891,0.5177427822001405,0.0,0.0,0.0,0.15,1.3900000000000001
78,2078-01-01,52115065,14740646.800000012,0.0,6.390000000000001,0.2828480939244729,0.4899134070853151,0.0,0.0,0.0,0.44,1.35
79,2079-01-01,52115065,9320215.219999995,0.0,8.02,0.17883917481442257,0.40528792747573256,0.0,0.0,0.0,0.08,1.16
80,2080-01-01,52257846,6655944.019999994,0.0,4.65,0.1273673625966136,0.2995575640492097,0.0,0.0,0.0,0.03,0.84
81,2081-01-01,52115065,8636349.41000003,0.0,4.79,0.16571694595411193,0.3545380831430519,0.0,0.0,0.0,0.1,1.01
82,2082-01-01,52115065,7962517.44,0.0,5.47,0.15278724952180334,0.32432628084975235,0.0,0.0,0.0,0.11,0.91
83,2083-01-01,52115065,11866607.259999873,0.0,6.3,0.22770013354103796,0.4735004402797612,0.0,0.0,0.0,0.21,1.36
84,2084-01-01,52257846,6618875.109999966,0.0,5.63,0.12665801629098847,0.2724755619311316,0.0,0.0,0.0,0.13,0.7000000000000001
85,2085-01-01,52115065,21030160.479999963,0.0,7.59,0.4035332294030519,0.7197999993036968,0.0,0.0,0.0,0.5,2.0300000000000002
86,2086-01-01,52115065,7832735.769999975,0.0,5.47,0.1502969586625283,0.34747437514551965,0.0,0.0,0.0,0.07,0.93
87,2087-01-01,52115065,4379728.779999976,0.0,5.11,0.08403959162288248,0.23789245182489752,0.0,0.0,0.0,0.0,0.59
88,2088-01-01,52257846,2811957.7799999905,0.0,4.61,0.053809293632194305,0.16293090385423717,0.0,0.0,0.0,0.0,0.35000000000000003
89,2089-01-01,52115065,3832435.210000011,0.0,4.21,0.07353795318110054,0.20658059163763912,0.0,0.0,0.0,0.0,0.52
90,2090-01-01,52115065,13085532.969999978,0.0,9.6,0.25108925739610954,0.5550869831259146,0.0,0.0,0.0,0.18,1.46
91,2091-01-01,52115065,3020873.0000000084,0.0,4.3,0.0579654462677924,0.1520357725248011,0.0,0.0,0.0,0.01,0.37
92,2092-01-01,52257846,3480016.290000009,0.0,4.53,0.06659318277297555,0.18205263370596933,0.0,0.0,0.0,0.01,0.46
93,2093-01-01,52115065,8740880.779999984,0.0,6.09,0.16772272624048315,0.37092255224259574,0.0,0.0,0.0,0.14,0.97
94,2094-01-01,52115065,14796512.590000011,0.0,8.71,0.28392006399685027,0.5249332722723993,0.0,0.0,0.0,0.33,1.48
95,2095-01-01,52115065,9597469.189999927,0.0,5.45,0.18415920981773556,0.3649689286247927,0.0,0.0,0.0,0.19,1.02
96,2096-01-01,52257846,5499802.8599999575,0.0,5.44,0.10524358122223326,0.2745090724834156,0.0,0.0,0.0,0.03,0.68
97,2097-01-01,52115065,3441533.6,0.0,5.08,0.0660372120806143,0.16789651290552152,0.0,0.0,0.0,0.03,0.41000000000000003
98,2098-01-01,52115065,8678148.080000022,0.0,6.22,0.16651899177330054,0.3908906985103151,0.0,0.0,0.0,0.09,1.06
99,2099-01-01,52115065,5727624.86000001,0.0,7.5200000000000005,0.10990343886168058,0.2770669437532083,0.0,0.0,0.0,0.07,0.65
100,2100-01-01,51972284,4385190.539999978,0.0,5.55,0.0843755594808952,0.27074849658520045,0.0,0.0,0.0,0.0,0.5700000000000001
