,time,n,sum,min,max,mean,std,q0.05,q0.25,q0.50,q0.75,q0.95
0,2000-01-01,1690554,104034.34999999998,0.0,1.25,0.06153861396914856,0.15538728130050408,0.0,0.0,0.0,0.0,0.45
1,2001-01-01,1685935,58462.81000000003,0.0,0.6,0.03467678765788718,0.07935797239467136,0.0,0.0,0.0,0.0,0.23
2,2002-01-01,1685935,38329.51000000002,0.0,1.23,0.022734868188868503,0.07791840477554655,0.0,0.0,0.0,0.0,0.17
3,2003-01-01,1685935,79682.76,0.0,1.0,0.047263245617417037,0.09910849526841109,0.0,0.0,0.0,0.02,0.27
4,2004-01-01,1690554,40462.42999999999,0.0,0.89,0.0239344203142875,0.06846756346965967,0.0,0.0,0.0,0.0,0.18
5,2005-01-01,1685935,8467.310000000003,0.0,0.49,0.005022322924667916,0.025029316798788382,0.0,0.0,0.0,0.0,0.03
6,2006-01-01,1685935,47619.679999999986,0.0,0.77,0.028245264497148457,0.08170645995764603,0.0,0.0,0.0,0.0,0.22
7,2007-01-01,1685935,15092.120000000003,0.0,0.97,0.008951780466032204,0.0427072923154745,0.0,0.0,0.0,0.0,0.05
8,2008-01-01,1690554,51486.88000000001,0.0,1.3800000000000001,0.030455625788942568,0.10239850714292063,0.0,0.0,0.0,0.0,0.2
9,2009-01-01,1685935,183401.40999999997,0.0,1.35,0.10878320338565839,0.20133334697901592,0.0,0.0,0.0,0.13,0.5700000000000001
10,2010-01-01,1685935,40195.290000000015,0.0,1.04,0.02384154193370445,0.06673622453705472,0.0,0.0,0.0,0.0,0.17
11,2011-01-01,1685935,51137.599999999984,0.0,1.11,0.030331892985198117,0.07946256464989992,0.0,0.0,0.0,0.01,0.19
12,2012-01-01,1690554,33232.23999999999,0.0,0.67,0.019657603365523958,0.05531957947241643,0.0,0.0,0.0,0.0,0.14
13,2013-01-01,1685935,49469.03999999999,0.0,0.9,0.029342198839219777,0.08542774848269998,0.0,0.0,0.0,0.0,0.23
14,2014-01-01,1685935,18979.86000000001,0.0,0.7000000000000001,0.0112577649790769,0.04452511159427543,0.0,0.0,0.0,0.0,0.08
15,2015-01-01,1685935,25493.730000000007,0.0,0.5700000000000001,0.015121419271798739,0.04131000070940542,0.0,0.0,0.0,0.0,0.11
16,2016-01-01,1690554,26859.59999999999,0.0,0.62,0.015888046167114443,0.050573793203116134,0.0,0.0,0.0,0.0,0.14
17,2017-01-01,1685935,19022.410000000003,0.0,0.46,0.011283003200004747,0.03382271960595595,0.0,0.0,0.0,0.0,0.09
18,2018-01-01,1685935,51606.98,0.0,2.24,0.030610302295165592,0.10608086453233435,0.0,0.0,0.0,0.0,0.18
19,2019-01-01,1685935,184334.7099999999,0.0,2.32,0.1093367834465741,0.26575381924794694,0.0,0.0,0.0,0.01,0.74
20,2020-01-01,1690554,33905.71000000001,0.0,0.84,0.02005597573339864,0.06039632208181237,0.0,0.0,0.0,0.0,0.14
21,2021-01-01,1685935,32967.090000000004,0.0,0.72,0.019554188032160198,0.05642177604608294,0.0,0.0,0.0,0.0,0.14
22,2022-01-01,1685935,97213.40000000001,0.0,1.25,0.05766141636539962,0.14277339768132963,0.0,0.0,0.0,0.02,0.4
23,2023-01-01,1685935,30845.219999999994,0.0,1.04,0.018295616379041892,0.06527822591526071,0.0,0.0,0.0,0.0,0.15
24,2024-01-01,1690554,20859.749999999993,0.0,0.72,0.012339002480843554,0.04046354579409468,0.0,0.0,0.0,0.0,0.09
25,2025-01-01,1685935,73821.73999999998,0.0,1.12,0.043786824521704557,0.11868156346039543,0.0,0.0,0.0,0.0,0.32
26,2026-01-01,1685935,55567.71999999999,0.0,0.77,0.032959586223668166,0.08809929167996021,0.0,0.0,0.0,0.0,0.24
27,2027-01-01,1685935,24663.159999999993,0.0,0.9,0.014628772758143104,0.05582685600955359,0.0,0.0,0.0,0.0,0.1
28,2028-01-01,1690554,45639.94999999999,0.0,1.07,0.026997037657477956,0.06543666456353148,0.0,0.0,0.0,0.01,0.17
29,2029-01-01,1685935,21146.06,0.0,0.71,0.012542630647089005,0.036324585768464174,0.0,0.0,0.0,0.0,0.09
30,2030-01-01,1685935,49447.17,0.0,0.63,0.029329226808862737,0.06945946886529125,0.0,0.0,0.0,0.0,0.2
31,2031-01-01,1685935,25695.93000000002,0.0,0.54,0.01524135272119033,0.046063411646846866,0.0,0.0,0.0,0.0,0.12
32,2032-01-01,1690554,2982.359999999999,0.0,0.35000000000000003,0.0017641317579917585,0.011165443795846169,0.0,0.0,0.0,0.0,0.0
33,2033-01-01,1685935,24919.370000000006,0.0,0.8,0.01478074184354676,0.05154299135750977,0.0,0.0,0.0,0.0,0.12
34,2034-01-01,1685935,72071.76999999999,0.0,1.08,0.04274884263035051,0.11277252530288782,0.0,0.0,0.0,0.0,0.31
35,2035-01-01,1685935,39017.54,0.0,1.04,0.023142968145272506,0.06564128489809777,0.0,0.0,0.0,0.0,0.17
36,2036-01-01,1690554,92045.89999999992,0.0,1.18,0.05444718121988409,0.12351223732831093,0.0,0.0,0.0,0.03,0.35000000000000003
37,2037-01-01,1685935,33381.37,0.0,0.84,0.01979991518059712,0.07399435268704406,0.0,0.0,0.0,0.0,0.15
38,2038-01-01,1685935,97607.60999999997,0.0,1.1300000000000001,0.05789523914029899,0.15430196237294402,0.0,0.0,0.0,0.0,0.47000000000000003
39,2039-01-01,1685935,89278.44000000003,0.0,1.34,0.052954852945101695,0.15436258164124486,0.0,0.0,0.0,0.0,0.44
40,2040-01-01,1690554,84185.59,0.0,1.16,0.04979763438494127,0.14380987168925985,0.0,0.0,0.0,0.0,0.41000000000000003
41,2041-01-01,1685935,19569.740000000005,0.0,0.45,0.011607647981683757,0.03670638950429779,0.0,0.0,0.0,0.0,0.09
42,2042-01-01,1685935,33053.6,0.0,1.12,0.019605500805191182,0.06975035406764202,0.0,0.0,0.0,0.0,0.15
43,2043-01-01,1685935,33447.799999999996,0.0,1.03,0.019839317648663795,0.06710412300079079,0.0,0.0,0.0,0.0,0.18
44,2044-01-01,1690554,34642.789999999964,0.0,1.23,0.020491974820088542,0.07330778959508367,0.0,0.0,0.0,0.0,0.15
45,2045-01-01,1685935,7256.919999999998,0.0,0.5,0.0043043889592422,0.020502308929913685,0.0,0.0,0.0,0.0,0.03
46,2046-01-01,1685935,28074.380000000012,0.0,0.88,0.01665211292250295,0.05667048834569769,0.0,0.0,0.0,0.0,0.14
47,2047-01-01,1685935,49085.039999999986,0.0,1.01,0.029114432051057713,0.08980496845890573,0.0,0.0,0.0,0.0,0.21
48,2048-01-01,1690554,5070.379999999999,0.0,0.53,0.0029992416687074173,0.020605460942829966,0.0,0.0,0.0,0.0,0.0
49,2049-01-01,1685935,20157.589999999997,0.0,0.81,0.011956326904655278,0.04293397217943254,0.0,0.0,0.0,0.0,0.1
50,2050-01-01,1685935,6545.560000000002,0.0,0.38,0.003882450984171989,0.018186790852244537,0.0,0.0,0.0,0.0,0.03
51,2051-01-01,1685935,50503.11000000001,0.0,0.91,0.029955549887747752,0.10082581567274258,0.0,0.0,0.0,0.0,0.23
52,2052-01-01,1690554,16519.929999999997,0.0,0.66,0.009771903174935552,0.04275930317297551,0.0,0.0,0.0,0.0,0.06
53,2053-01-01,1685935,68592.85000000003,0.0,0.84,0.04068534670672359,0.09687069126116543,0.0,0.0,0.0,0.0,0.28
54,2054-01-01,1685935,16642.460000000006,0.0,1.08,0.009871353284675866,0.04188791210698471,0.0,0.0,0.0,0.0,0.07
55,2055-01-01,1685935,14063.27,0.0,1.1400000000000001,0.008341525622280813,0.03682446994852713,0.0,0.0,0.0,0.0,0.05
56,2056-01-01,1690554,35935.450000000004,0.0,0.92,0.021256611737927332,0.07983871268801428,0.0,0.0,0.0,0.0,0.2
57,2057-01-01,1685935,5113.830000000001,0.0,0.59,0.003033230818507238,0.017146642383573017,0.0,0.0,0.0,0.0,0.01
58,2058-01-01,1685935,46113.480000000025,0.0,1.36,0.027351872996289908,0.08602833476384832,0.0,0.0,0.0,0.0,0.19
59,2059-01-01,1685935,20845.410000000014,0.0,0.55,0.012364302301097026,0.041472735032925125,0.0,0.0,0.0,0.0,0.1
60,2060-01-01,1690554,8763.059999999998,0.0,0.46,0.005183543382820068,0.02544520515315949,0.0,0.0,0.0,0.0,0.03
61,2061-01-01,1685935,19561.940000000006,0.0,0.84,0.011603021468799216,0.04745031327624709,0.0,0.0,0.0,0.0,0.07
62,2062-01-01,1685935,61876.03999999996,0.0,1.1400000000000001,0.03670132003902876,0.12222668668098818,0.0,0.0,0.0,0.0,0.34
63,2063-01-01,1685935,17000.720000000005,0.0,0.51,0.010083852580318936,0.0349580114161993,0.0,0.0,0.0,0.0,0.08
64,2064-01-01,1690554,7809.110000000001,0.0,0.81,0.004619260905005106,0.02946654464271269,0.0,0.0,0.0,0.0,0.01
65,2065-01-01,1685935,3663.73,0.0,0.43,0.0021731146218567144,0.01859266594199144,0.0,0.0,0.0,0.0,0.0
66,2066-01-01,1685935,1072.5399999999997,0.0,0.11,0.0006361692473315992,0.004598123380259941,0.0,0.0,0.0,0.0,0.0
67,2067-01-01,1685935,2269.2500000000005,0.0,0.22,0.0013459890209290397,0.008188869031330023,0.0,0.0,0.0,0.0,0.0
68,2068-01-01,1690554,16797.26000000001,0.0,0.52,0.009935949990358196,0.037598191107368305,0.0,0.0,0.0,0.0,0.07
69,2069-01-01,1685935,3359.430000000002,0.0,0.34,0.0019926213050918346,0.014776869917008998,0.0,0.0,0.0,0.0,0.0
70,2070-01-01,1685935,17855.62,0.0,0.74,0.010590930255318265,0.045335719946699285,0.0,0.0,0.0,0.0,0.07
71,2071-01-01,1685935,28956.76000000001,0.0,0.85,0.01717549015828013,0.0748076125005867,0.0,0.0,0.0,0.0,0.11
72,2072-01-01,1690554,15285.280000000004,0.0,0.54,0.009041580452325098,0.03738254126417005,0.0,0.0,0.0,0.0,0.08
73,2073-01-01,1685935,10324.679999999998,0.0,0.44,0.006124008339586044,0.027850901456206462,0.0,0.0,0.0,0.0,0.04
74,2074-01-01,1685935,119.54000000000005,0.0,0.13,7.090427566899083e-05,0.001385539812562868,0.0,0.0,0.0,0.0,0.0
75,2075-01-01,1685935,45490.85000000001,0.0,0.58,0.026982564570994738,0.07481205988667293,0.0,0.0,0.0,0.0,0.22
76,2076-01-01,1690554,61336.659999999974,0.0,1.12,0.03628198803469157,0.09991651036214201,0.0,0.0,0.0,0.0,0.26
77,2077-01-01,1685935,6990.330000000001,0.0,0.48,0.004146263052846048,0.024094223496524306,0.0,0.0,0.0,0.0,0.01
78,2078-01-01,1685935,2252.8799999999997,0.0,0.51,0.0013362792752982765,0.008748783963140326,0.0,0.0,0.0,0.0,0.0
79,2079-01-01,1685935,14799.990000000007,0.0,0.38,0.008778505695652566,0.029590142309959804,0.0,0.0,0.0,0.0,0.07
80,2080-01-01,1690554,2164.85,0.0,0.37,0.0012805565512843719,0.009646237807977756,0.0,0.0,0.0,0.0,0.0
81,2081-01-01,1685935,8274.230000000001,0.0,0.45,0.00490779893649518,0.022046419749877696,0.0,0.0,0.0,0.0,0.03
82,2082-01-01,1685935,10723.120000000006,0.0,0.42,0.006360340108011286,0.03166535133300462,0.0,0.0,0.0,0.0,0.03
83,2083-01-01,1685935,11957.479999999998,0.0,0.47000000000000003,0.007092491703416797,0.031159654526455523,0.0,0.0,0.0,0.0,0.05
84,2084-01-01,1690554,12366.050000000001,0.0,0.42,0.007314791482555423,0.03382294528958484,0.0,0.0,0.0,0.0,0.04
85,2085-01-01,1685935,438.04999999999995,0.0,0.21,0.00025982614988122316,0.0040391282841878325,0.0,0.0,0.0,0.0,0.0
86,2086-01-01,1685935,2076.92,0.0,0.29,0.0012319098897644334,0.008983610606082593,0.0,0.0,0.0,0.0,0.0
87,2087-01-01,1685935,6317.879999999998,0.0,0.62,0.003747404259357566,0.02212250965712741,0.0,0.0,0.0,0.0,0.01
88,2088-01-01,1690554,10490.630000000001,0.0,0.64,0.00620543916372976,0.03045519444712375,0.0,0.0,0.0,0.0,0.03
89,2089-01-01,1685935,28566.730000000003,0.0,0.8300000000000001,0.01694414671977271,0.06389923876889766,0.0,0.0,0.0,0.0,0.13
90,2090-01-01,1685935,1111.7499999999998,0.0,0.22,0.0006594263717165844,0.006928627117439983,0.0,0.0,0.0,0.0,0.0
91,2091-01-01,1685935,14906.26,0.0,0.44,0.008841538967991055,0.03310907219101623,0.0,0.0,0.0,0.0,0.08
92,2092-01-01,1690554,24850.299999999992,0.0,0.66,0.01469950087367809,0.050253403542825675,0.0,0.0,0.0,0.0,0.12
93,2093-01-01,1685935,3064.979999999999,0.0,0.27,0.0018179704437003793,0.01121523844595413,0.0,0.0,0.0,0.0,0.0
94,2094-01-01,1685935,9610.190000000004,0.0,0.54,0.005700213827935243,0.02971134900400984,0.0,0.0,0.0,0.0,0.03
95,2095-01-01,1685935,2587.29,0.0,0.4,0.0015346321180828443,0.013028857365587962,0.0,0.0,0.0,0.0,0.0
96,2096-01-01,1690554,7649.720000000004,0.0,0.61,0.0045249782024117564,0.02775271068130817,0.0,0.0,0.0,0.0,0.01
97,2097-01-01,1685935,7464.6900000000005,0.0,0.39,0.00442762621334749,0.02572460750310716,0.0,0.0,0.0,0.0,0.0
98,2098-01-01,1685935,16914.57,0.0,0.78,0.010032753338651846,0.04566324284030725,0.0,0.0,0.0,0.0,0.07
99,2099-01-01,1685935,9396.17,0.0,0.45,0.005573269432095544,0.028564319917536662,0.0,0.0,0.0,0.0,0.02
100,2100-01-01,1681316,3327.93,0.0,0.51,0.001979360215450278,0.013679669922664754,0.0,0.0,0.0,0.0,0.0
