,time,n,sum,min,max,mean,std,q0.05,q0.25,q0.50,q0.75,q0.95
0,2000-01-01,14122476,831365.0400000005,0.0,3.0500000000000003,0.05886822112496424,0.17875340395892356,0.0,0.0,0.0,0.0,0.41000000000000003
1,2001-01-01,14083890,1287612.2400000016,0.0,2.73,0.09142447434622122,0.18310893713331106,0.0,0.0,0.0,0.09,0.5
2,2002-01-01,14083890,817423.1599999998,0.0,3.0700000000000003,0.058039587074309715,0.13946274433901598,0.0,0.0,0.0,0.05,0.31
3,2003-01-01,14083890,1156129.0400000047,0.0,3.61,0.08208875814849483,0.1901120847838218,0.0,0.0,0.0,0.04,0.49
4,2004-01-01,14122476,760941.6000000001,0.0,4.23,0.05388159979878883,0.1515336669663905,0.0,0.0,0.0,0.02,0.31
5,2005-01-01,14083890,2237111.9700000044,0.0,3.0300000000000002,0.15884190873402196,0.28355161860459577,0.0,0.0,0.0,0.22,0.8
6,2006-01-01,14083890,2277734.8400000026,0.0,3.34,0.16172625886740116,0.2666673052902714,0.0,0.0,0.0,0.26,0.72
7,2007-01-01,14083890,2813581.930000005,0.0,5.29,0.1997730690881571,0.3858869694895074,0.0,0.0,0.0,0.26,1.0
8,2008-01-01,14122476,2883287.7999999924,0.0,5.32,0.2041630518614436,0.42164962800892813,0.0,0.0,0.0,0.19,1.18
9,2009-01-01,14083890,1913149.8100000033,0.0,3.87,0.13583958764233484,0.2659053500773856,0.0,0.0,0.0,0.17,0.71
10,2010-01-01,14083890,1269518.2000000044,0.0,2.9,0.09013974122206325,0.2012594923005781,0.0,0.0,0.0,0.07,0.52
11,2011-01-01,14083890,1431232.300000001,0.0,3.0500000000000003,0.10162194535742618,0.20568354409119724,0.0,0.0,0.0,0.13,0.5
12,2012-01-01,14122476,5208193.719999993,0.0,8.41,0.3687875780422635,0.6709738349268862,0.0,0.0,0.0,0.42,1.94
13,2013-01-01,14083890,741252.3500000015,0.0,4.3,0.05263122262386326,0.1219668194260828,0.0,0.0,0.0,0.04,0.29
14,2014-01-01,14083890,1165186.9200000018,0.0,2.95,0.08273189580435532,0.1948535914761306,0.0,0.0,0.0,0.03,0.5
15,2015-01-01,14083890,2024264.5700000024,0.0,4.45,0.14372908124104933,0.34740482331049166,0.0,0.0,0.0,0.09,0.97
16,2016-01-01,14122476,1758844.110000003,0.0,2.96,0.12454219146840843,0.21778957513623617,0.0,0.0,0.0,0.19,0.58
17,2017-01-01,14083890,1681056.370000002,0.0,3.69,0.1193602314417396,0.2562652573463264,0.0,0.0,0.0,0.05,0.73
18,2018-01-01,14083890,1449173.3600000022,0.0,3.44,0.10289581642571777,0.21325356451653063,0.0,0.0,0.0,0.11,0.54
19,2019-01-01,14083890,1084454.8900000025,0.0,2.13,0.07699967054556678,0.14911019676415044,0.0,0.0,0.0,0.09,0.41000000000000003
20,2020-01-01,14122476,1522686.869999998,0.0,3.0300000000000002,0.10782010675748346,0.23764010945685893,0.0,0.0,0.0,0.1,0.63
21,2021-01-01,14083890,975432.7600000005,0.0,2.32,0.0692587601862838,0.16349907090859184,0.0,0.0,0.0,0.04,0.42
22,2022-01-01,14083890,646053.7199999995,0.0,1.99,0.04587182376459909,0.10182490760964481,0.0,0.0,0.0,0.03,0.28
23,2023-01-01,14083890,1149255.4100000001,0.0,3.43,0.08160070903706293,0.19417726723925818,0.0,0.0,0.0,0.05,0.48
24,2024-01-01,14122476,4552261.0399999935,0.0,7.82,0.3223415667337649,0.6805749515528426,0.0,0.0,0.0,0.26,1.98
25,2025-01-01,14083890,1233295.0499999998,0.0,4.3,0.08756778489465622,0.20324263310805707,0.0,0.0,0.0,0.08,0.5
26,2026-01-01,14083890,2405541.650000003,0.0,4.98,0.17080093993917897,0.3465924176051651,0.0,0.0,0.0,0.19,0.92
27,2027-01-01,14083890,2437887.9400000013,0.0,5.08,0.1730976271470454,0.32557347151441374,0.0,0.0,0.0,0.23,0.86
28,2028-01-01,14122476,1208837.1400000015,0.0,4.0600000000000005,0.08559668573697711,0.20700474051257067,0.0,0.0,0.0,0.05,0.52
29,2029-01-01,14083890,1017206.7100000004,0.0,3.0700000000000003,0.07222484058026585,0.17133826190187665,0.0,0.0,0.0,0.05,0.42
30,2030-01-01,14083890,3962068.779999993,0.0,7.42,0.28131920797450083,0.5725611493172048,0.0,0.0,0.0,0.29,1.54
31,2031-01-01,14083890,2584238.0099999993,0.0,5.57,0.18348893736034572,0.3707448471607987,0.0,0.0,0.0,0.18,1.01
32,2032-01-01,14122476,2003865.809999996,0.0,6.36,0.1418919607298321,0.38214451256936366,0.0,0.0,0.0,0.06,0.9500000000000001
33,2033-01-01,14083890,1143190.3899999994,0.0,3.66,0.081170073750931,0.19382520514314633,0.0,0.0,0.0,0.04,0.5
34,2034-01-01,14083890,997595.7100000016,0.0,4.24,0.07083239857738179,0.19926538653047873,0.0,0.0,0.0,0.0,0.49
35,2035-01-01,14083890,256611.96999999977,0.0,2.07,0.018220248099069202,0.07507810057397003,0.0,0.0,0.0,0.0,0.1
36,2036-01-01,14122476,1554950.590000001,0.0,4.3,0.11010467215522271,0.27861077277831825,0.0,0.0,0.0,0.05,0.6900000000000001
37,2037-01-01,14083890,391907.2000000003,0.0,2.46,0.027826630284672794,0.09426013023462512,0.0,0.0,0.0,0.0,0.18
38,2038-01-01,14083890,2168580.880000004,0.0,3.64,0.15397598816804192,0.28483141254861066,0.0,0.0,0.0,0.23,0.76
39,2039-01-01,14083890,1933524.3700000031,0.0,4.7700000000000005,0.13728624478038406,0.3226195883508125,0.0,0.0,0.0,0.08,0.89
40,2040-01-01,14122476,1475187.04,0.0,7.83,0.10445668592391306,0.32889387686690635,0.0,0.0,0.0,0.02,0.6900000000000001
41,2041-01-01,14083890,921597.5700000024,0.0,2.21,0.06543629423405056,0.14138413027568586,0.0,0.0,0.0,0.06,0.38
42,2042-01-01,14083890,952117.7100000011,0.0,2.0100000000000002,0.06760331911141035,0.1540351430553502,0.0,0.0,0.0,0.04,0.42
43,2043-01-01,14083890,1724843.0299999984,0.0,4.19,0.12246922050655028,0.27990228324180527,0.0,0.0,0.0,0.09,0.74
44,2044-01-01,14122476,1586131.319999999,0.0,6.66,0.1123125519915912,0.32705258977612844,0.0,0.0,0.0,0.0,0.8300000000000001
45,2045-01-01,14083890,1972836.7199999979,0.0,4.26,0.14007754391719887,0.32387383043903,0.0,0.0,0.0,0.08,0.86
46,2046-01-01,14083890,1770777.550000002,0.0,3.87,0.12573071431259417,0.27934667740654867,0.0,0.0,0.0,0.07,0.75
47,2047-01-01,14083890,1511801.1600000018,0.0,5.38,0.10734258503865067,0.2992175581045651,0.0,0.0,0.0,0.02,0.77
48,2048-01-01,14122476,395863.01000000146,0.0,3.15,0.028030708637777218,0.10767527642017206,0.0,0.0,0.0,0.0,0.18
49,2049-01-01,14083890,919957.9200000005,0.0,3.33,0.06531987398367926,0.19458648120274938,0.0,0.0,0.0,0.02,0.4
50,2050-01-01,14083890,2612890.909999998,0.0,6.17,0.18552338238938232,0.42829539171917397,0.0,0.0,0.0,0.14,1.18
51,2051-01-01,14083890,952750.9099999998,0.0,2.57,0.06764827828107148,0.140372600823145,0.0,0.0,0.0,0.06,0.37
52,2052-01-01,14122476,4481228.319999998,0.0,7.4,0.3173118028311748,0.5232011159596657,0.0,0.0,0.0,0.51,1.3900000000000001
53,2053-01-01,14083890,1617042.6899999985,0.0,4.58,0.11481506103782396,0.33134916262587927,0.0,0.0,0.0,0.02,0.8200000000000001
54,2054-01-01,14083890,674041.4799999995,0.0,3.45,0.04785904178462055,0.1389804789429371,0.0,0.0,0.0,0.01,0.3
55,2055-01-01,14083890,1315096.3299999984,0.0,5.61,0.09337593022950325,0.23654579801991973,0.0,0.0,0.0,0.05,0.59
56,2056-01-01,14122476,1421728.380000003,0.0,3.46,0.10067132562307084,0.21837958528353055,0.0,0.0,0.0,0.11,0.52
57,2057-01-01,14083890,3353000.7500000056,0.0,7.3500000000000005,0.23807348324930155,0.5167512498951943,0.0,0.0,0.0,0.2,1.43
58,2058-01-01,14083890,1071273.7999999993,0.0,3.71,0.07606377215385801,0.21857922748144765,0.0,0.0,0.0,0.01,0.58
59,2059-01-01,14083890,1200946.11,0.0,3.43,0.08527090952854645,0.18654861591849758,0.0,0.0,0.0,0.07,0.49
60,2060-01-01,14122476,793231.0099999998,0.0,2.68,0.056167984282642774,0.13985401315943388,0.0,0.0,0.0,0.04,0.33
61,2061-01-01,14083890,2096921.0099999981,0.0,4.12,0.14888791448953365,0.36007801499842823,0.0,0.0,0.0,0.1,0.96
62,2062-01-01,14083890,1292561.150000001,0.0,4.66,0.09177586235052965,0.22276834542828797,0.0,0.0,0.0,0.05,0.56
63,2063-01-01,14083890,1421551.1199999957,0.0,5.32,0.10093455146269928,0.28089249212459766,0.0,0.0,0.0,0.01,0.7000000000000001
64,2064-01-01,14122476,1639379.7000000044,0.0,4.15,0.11608302255213636,0.2428539980992119,0.0,0.0,0.0,0.1,0.68
65,2065-01-01,14083890,1089052.3200000008,0.0,4.45,0.07732610237654516,0.19366196290404183,0.0,0.0,0.0,0.04,0.48
66,2066-01-01,14083890,1776714.2400000028,0.0,4.13,0.12615223776953688,0.26538543687242716,0.0,0.0,0.0,0.09,0.74
67,2067-01-01,14083890,795443.82,0.0,3.49,0.05647898556435757,0.13571098374372417,0.0,0.0,0.0,0.04,0.33
68,2068-01-01,14122476,727202.919999999,0.0,2.42,0.05149259379162684,0.13753871162472442,0.0,0.0,0.0,0.0,0.35000000000000003
69,2069-01-01,14083890,980366.6200000021,0.0,4.17,0.06960907959377716,0.1841499056623897,0.0,0.0,0.0,0.03,0.45
70,2070-01-01,14083890,2380371.0599999935,0.0,5.14,0.16901374975237618,0.32716515125944756,0.0,0.0,0.0,0.2,0.89
71,2071-01-01,14083890,1288097.3000000033,0.0,2.74,0.09145891511507143,0.23896585167276185,0.0,0.0,0.0,0.02,0.65
72,2072-01-01,14122476,1297635.8399999996,0.0,3.41,0.09188444292629704,0.19147944340483358,0.0,0.0,0.0,0.09,0.52
73,2073-01-01,14083890,1522723.0900000024,0.0,4.3500000000000005,0.10811807604291161,0.25147440562087253,0.0,0.0,0.0,0.09,0.6
74,2074-01-01,14083890,630936.9399999994,0.0,2.5500000000000003,0.04479848536164365,0.13226599129229058,0.0,0.0,0.0,0.0,0.31
75,2075-01-01,14083890,1306137.5700000005,0.0,4.0600000000000005,0.09273983040196995,0.21213071203519424,0.0,0.0,0.0,0.07,0.56
76,2076-01-01,14122476,1076295.4900000005,0.0,3.48,0.07621152905482016,0.22193460585676225,0.0,0.0,0.0,0.01,0.53
77,2077-01-01,14083890,3021425.7599999947,0.0,5.71,0.21453062754679245,0.4647612509237646,0.0,0.0,0.0,0.18,1.29
78,2078-01-01,14083890,2360985.279999995,0.0,5.42,0.1676372990700719,0.3548448777808293,0.0,0.0,0.0,0.15,0.9400000000000001
79,2079-01-01,14083890,1606846.3300000017,0.0,5.13,0.1140910877605549,0.2903275592519574,0.0,0.0,0.0,0.05,0.75
80,2080-01-01,14122476,1803997.0200000084,0.0,4.93,0.12773942897831855,0.32902608414688955,0.0,0.0,0.0,0.04,0.8200000000000001
81,2081-01-01,14083890,1475096.4199999985,0.0,2.75,0.10473643432318759,0.23257490325138003,0.0,0.0,0.0,0.08,0.65
82,2082-01-01,14083890,1422648.6600000032,0.0,3.72,0.10101248021675852,0.21712807432268122,0.0,0.0,0.0,0.1,0.58
83,2083-01-01,14083890,2412415.4699999946,0.0,5.26,0.17128900254120094,0.33957108977623646,0.0,0.0,0.0,0.21,0.92
84,2084-01-01,14122476,1598745.0900000012,0.0,4.71,0.11320572185783861,0.23036120030622828,0.0,0.0,0.0,0.13,0.6
85,2085-01-01,14083890,4771855.470000002,0.0,5.61,0.33881658192445424,0.5412885470353127,0.0,0.0,0.0,0.58,1.49
86,2086-01-01,14083890,1713729.630000004,0.0,5.69,0.12168013453669434,0.3276731646009287,0.0,0.0,0.0,0.04,0.8300000000000001
87,2087-01-01,14083890,572334.4000000004,0.0,3.0500000000000003,0.04063752272987082,0.12403827712877857,0.0,0.0,0.0,0.0,0.27
88,2088-01-01,14122476,465892.83000000025,0.0,2.7600000000000002,0.03298945808086346,0.09795223954091159,0.0,0.0,0.0,0.01,0.2
89,2089-01-01,14083890,987543.6300000004,0.0,3.08,0.07011866962891647,0.1801288989998756,0.0,0.0,0.0,0.02,0.46
90,2090-01-01,14083890,2845555.679999994,0.0,8.59,0.20204330479718274,0.4138616046158052,0.0,0.0,0.0,0.24,1.02
91,2091-01-01,14083890,758778.9099999997,0.0,3.4,0.05387566290279175,0.1494190597277026,0.0,0.0,0.0,0.02,0.35000000000000003
92,2092-01-01,14122476,670559.7100000002,0.0,2.64,0.04748173832973766,0.131194792441706,0.0,0.0,0.0,0.01,0.32
93,2093-01-01,14083890,1289403.260000001,0.0,3.56,0.09155164233745088,0.21925938406634807,0.0,0.0,0.0,0.06,0.56
94,2094-01-01,14083890,2835743.739999998,0.0,6.65,0.20134662653570837,0.4140251206864745,0.0,0.0,0.0,0.2,1.1300000000000001
95,2095-01-01,14083890,2148864.5300000045,0.0,4.13,0.15257606598745121,0.2886273617946484,0.0,0.0,0.0,0.19,0.78
96,2096-01-01,14122476,847828.7400000009,0.0,2.93,0.060034001119916997,0.1519625970454442,0.0,0.0,0.0,0.01,0.4
97,2097-01-01,14083890,709707.7699999994,0.0,3.84,0.050391459319832764,0.14144315913045183,0.0,0.0,0.0,0.02,0.31
98,2098-01-01,14083890,1152766.0899999999,0.0,3.23,0.08184997823754657,0.20214557558478102,0.0,0.0,0.0,0.04,0.52
99,2099-01-01,14083890,612120.760000001,0.0,3.39,0.043462478051163496,0.11716685136490378,0.0,0.0,0.0,0.01,0.28
100,2100-01-01,14045304,1257115.9900000007,0.0,3.91,0.08950436316650752,0.24948124068223707,0.0,0.0,0.0,0.0,0.63
