,time,n,sum,min,max,mean,std,q0.05,q0.25,q0.50,q0.75,q0.95
0,2000-01-01,52257846,5865097.489999989,0.0,5.34,0.11223381633448859,0.24606105037718284,0.0,0.0,0.0,0.1,0.64
1,2001-01-01,52115065,3862489.0299999774,0.0,5.16,0.07411463518274375,0.16355343782128043,0.0,0.0,0.0,0.06,0.43
2,2002-01-01,52115065,10158665.989999987,0.0,7.21,0.194927627740654,0.4224362453307893,0.0,0.0,0.0,0.16,1.1400000000000001
3,2003-01-01,52115065,13101831.26,0.0,7.0200000000000005,0.25140199402994123,0.5082205960434334,0.0,0.0,0.0,0.26,1.41
4,2004-01-01,52257846,6963811.85000001,0.0,5.58,0.13325868521255183,0.2928278571109719,0.0,0.0,0.0,0.08,0.76
5,2005-01-01,52115065,1548195.3300000068,0.0,4.0200000000000005,0.029707251252588995,0.10086499136360216,0.0,0.0,0.0,0.0,0.21
6,2006-01-01,52115065,3322268.5700000105,0.0,3.73,0.06374871776519919,0.1629460768694835,0.0,0.0,0.0,0.02,0.39
7,2007-01-01,52115065,14815322.009999922,0.0,8.36,0.2842809849704672,0.5475078167066528,0.0,0.0,0.0,0.33,1.51
8,2008-01-01,52257846,5056103.889999979,0.0,4.51,0.0967530098733878,0.21073735222232398,0.0,0.0,0.0,0.08,0.5700000000000001
9,2009-01-01,52115065,7470606.019999954,0.0,5.48,0.1433483009183612,0.30536440197458453,0.0,0.0,0.0,0.14,0.8300000000000001
10,2010-01-01,52115065,5399063.799999953,0.0,4.2700000000000005,0.10359890753278257,0.23342431310511688,0.0,0.0,0.0,0.07,0.58
11,2011-01-01,52115065,12785252.50999997,0.0,4.89,0.24532738297457693,0.4379096726949534,0.0,0.0,0.0,0.33,1.24
12,2012-01-01,52257846,10266985.009999972,0.0,4.5600000000000005,0.19646781863148305,0.3481099705540521,0.0,0.0,0.0,0.29,0.96
13,2013-01-01,52115065,17103225.93999998,0.0,6.34,0.32818199382462593,0.5286148588284081,0.0,0.0,0.0,0.52,1.5
14,2014-01-01,52115065,15720761.98999998,0.0,6.62,0.3016548475954118,0.558360338600149,0.0,0.0,0.0,0.36,1.59
15,2015-01-01,52115065,10538845.619999977,0.0,5.25,0.20222263216979539,0.34933949146878535,0.0,0.0,0.0,0.28,0.99
16,2016-01-01,52257846,9916749.539999979,0.0,7.67,0.1897657538353184,0.36329427920854485,0.0,0.0,0.0,0.23,0.9500000000000001
17,2017-01-01,52115065,5697314.749999978,0.0,5.99,0.10932183908817877,0.26676486787361975,0.0,0.0,0.0,0.05,0.72
18,2018-01-01,52115065,3091248.0200000103,0.0,4.28,0.05931582393689829,0.1528985144959657,0.0,0.0,0.0,0.01,0.4
19,2019-01-01,52115065,7889313.789999955,0.0,5.37,0.15138259522462372,0.3104140003254828,0.0,0.0,0.0,0.15,0.86
20,2020-01-01,52257846,5232076.0799999805,0.0,5.29,0.10012039302193934,0.2261415507553422,0.0,0.0,0.0,0.06,0.62
21,2021-01-01,52115065,12465909.30000005,0.0,7.5,0.23919972660496633,0.5265575755433455,0.0,0.0,0.0,0.17,1.48
22,2022-01-01,52115065,17649293.00999999,0.0,7.5,0.3386600978047325,0.5651932064222174,0.0,0.0,0.01,0.49,1.6300000000000001
23,2023-01-01,52115065,6345373.259999961,0.0,5.72,0.12175698639155416,0.29072663487499273,0.0,0.0,0.0,0.07,0.79
24,2024-01-01,52257846,14629126.420000022,0.0,6.3,0.2799412440382641,0.49152400689899167,0.0,0.0,0.0,0.36,1.41
25,2025-01-01,52115065,28112614.73999997,0.0,8.870000000000001,0.5394335541939739,0.8982514188494158,0.0,0.0,0.0,0.72,2.62
26,2026-01-01,52115065,15075033.590000002,0.0,6.47,0.2892644111640272,0.5906309859852101,0.0,0.0,0.0,0.26,1.69
27,2027-01-01,52115065,8430192.239999961,0.0,5.3500000000000005,0.16176113835797692,0.3084340698827249,0.0,0.0,0.0,0.2,0.8300000000000001
28,2028-01-01,52257846,16139309.379999984,0.0,6.61,0.3088399276923887,0.5429088432103577,0.0,0.0,0.0,0.45,1.55
29,2029-01-01,52115065,11308368.410000004,0.0,6.54,0.21698847367838847,0.47220087091736096,0.0,0.0,0.0,0.16,1.31
30,2030-01-01,52115065,2748768.3200000054,0.0,4.51,0.052744217435016255,0.13562625158561112,0.0,0.0,0.0,0.03,0.3
31,2031-01-01,52115065,11152787.039999958,0.0,6.98,0.21400313018893785,0.44265328512881086,0.0,0.0,0.0,0.22,1.24
32,2032-01-01,52257846,10008558.629999967,0.0,6.08,0.1915226017926565,0.4110366505070285,0.0,0.0,0.0,0.15,1.18
33,2033-01-01,52115065,4545026.879999964,0.0,4.18,0.08721138273549046,0.19774001290020082,0.0,0.0,0.0,0.04,0.52
34,2034-01-01,52115065,6001279.1599999275,0.0,4.67,0.11515440228271667,0.2649331802486046,0.0,0.0,0.0,0.07,0.68
35,2035-01-01,52115065,5976029.779999946,0.0,4.39,0.11466990936305935,0.2576248226561309,0.0,0.0,0.0,0.08,0.68
36,2036-01-01,52257846,5839001.569999973,0.0,4.7,0.11173444787601795,0.23980831249090076,0.0,0.0,0.0,0.1,0.65
37,2037-01-01,52115065,7138262.940000016,0.0,5.25,0.13697119901894042,0.262593053509029,0.0,0.0,0.0,0.16,0.71
38,2038-01-01,52115065,7298147.469999986,0.0,5.34,0.14003911287455914,0.329180323891659,0.0,0.0,0.0,0.07,0.9400000000000001
39,2039-01-01,52115065,11806775.849999964,0.0,7.3100000000000005,0.22655206992450194,0.4289833001178324,0.0,0.0,0.0,0.29,1.1500000000000001
40,2040-01-01,52257846,14489377.249999965,0.0,8.31,0.27726702034370043,0.568101088510472,0.0,0.0,0.0,0.26,1.41
41,2041-01-01,52115065,2791338.430000008,0.0,4.42,0.05356106588373262,0.13477709942856222,0.0,0.0,0.0,0.03,0.32
42,2042-01-01,52115065,2967345.0499999905,0.0,4.04,0.05693833539303828,0.1498093725308119,0.0,0.0,0.0,0.0,0.38
43,2043-01-01,52115065,5058112.429999954,0.0,4.44,0.09705662710005167,0.22012231510558408,0.0,0.0,0.0,0.07,0.56
44,2044-01-01,52257846,6331275.639999984,0.0,5.16,0.12115454663018418,0.26176899084035354,0.0,0.0,0.0,0.09,0.66
45,2045-01-01,52115065,4358823.909999964,0.0,5.12,0.08363846250599445,0.22416457831542905,0.0,0.0,0.0,0.01,0.55
46,2046-01-01,52115065,4147059.02999998,0.0,4.05,0.07957505243445402,0.22253763162462764,0.0,0.0,0.0,0.0,0.6
47,2047-01-01,52115065,3482291.3500000117,0.0,3.17,0.06681928440461528,0.1654291175175488,0.0,0.0,0.0,0.04,0.37
48,2048-01-01,52257846,8135660.399999973,0.0,5.7700000000000005,0.15568304135612426,0.38202672892672684,0.0,0.0,0.0,0.04,1.07
49,2049-01-01,52115065,4429829.4999999795,0.0,3.45,0.08500093974746034,0.20157519574759533,0.0,0.0,0.0,0.04,0.56
50,2050-01-01,52115065,7121317.679999952,0.0,3.85,0.13664604812447134,0.3160498149533556,0.0,0.0,0.0,0.04,0.9
51,2051-01-01,52115065,5229134.259999986,0.0,4.84,0.10033824691574281,0.23872503130300607,0.0,0.0,0.0,0.05,0.65
52,2052-01-01,52257846,10302031.179999972,0.0,8.13,0.197138458022169,0.42714032529783574,0.0,0.0,0.0,0.19,1.1500000000000001
53,2053-01-01,52115065,9732082.209999958,0.0,5.11,0.18674220611640718,0.32163629937432114,0.0,0.0,0.0,0.29,0.87
54,2054-01-01,52115065,19485918.65999996,0.0,6.86,0.37390183932419463,0.6924891709838052,0.0,0.0,0.0,0.44,2.05
55,2055-01-01,52115065,9088732.689999968,0.0,5.54,0.17439741637087025,0.3589623242362434,0.0,0.0,0.0,0.15,1.01
56,2056-01-01,52257846,1649886.8500000061,0.0,4.24,0.03157204087592906,0.11042986436300284,0.0,0.0,0.0,0.0,0.21
57,2057-01-01,52115065,9893262.569999898,0.0,5.17,0.18983498475920346,0.4039150376530435,0.0,0.0,0.0,0.16,1.11
58,2058-01-01,52115065,4113598.02999996,0.0,4.37,0.0789329924082405,0.18942704227578347,0.0,0.0,0.0,0.04,0.53
59,2059-01-01,52115065,10673718.449999943,0.0,6.04,0.20481061378317275,0.45165139218413325,0.0,0.0,0.0,0.15,1.32
60,2060-01-01,52257846,6177493.479999999,0.0,4.9,0.1182117892880621,0.2884651440394769,0.0,0.0,0.0,0.09,0.75
61,2061-01-01,52115065,14199847.30999995,0.0,6.26,0.27247106590004155,0.5528320247275197,0.0,0.0,0.0,0.25,1.59
62,2062-01-01,52115065,3892967.649999965,0.0,4.66,0.0746994683782888,0.20236558624730394,0.0,0.0,0.0,0.0,0.53
63,2063-01-01,52115065,10090418.98999992,0.0,4.71,0.1936180831780584,0.3784590485631862,0.0,0.0,0.0,0.21,1.09
64,2064-01-01,52257846,5179921.309999937,0.0,3.61,0.09912236547216158,0.21497957235362763,0.0,0.0,0.0,0.07,0.59
65,2065-01-01,52115065,14762015.740000008,0.0,6.04,0.2832581277601785,0.497687276128417,0.0,0.0,0.0,0.38,1.41
66,2066-01-01,52115065,13436736.759999977,0.0,8.71,0.2578282644375475,0.5558906619371558,0.0,0.0,0.0,0.2,1.6
67,2067-01-01,52115065,2079581.4100000046,0.0,3.84,0.03990365185191661,0.10946589138407466,0.0,0.0,0.0,0.0,0.28
68,2068-01-01,52257846,4987722.529999989,0.0,5.11,0.09544447220423109,0.24648576761652272,0.0,0.0,0.0,0.05,0.5700000000000001
69,2069-01-01,52115065,7202248.500000003,0.0,5.23,0.1381989737516398,0.31666660363160376,0.0,0.0,0.0,0.06,0.89
70,2070-01-01,52115065,5103298.589999972,0.0,4.8500000000000005,0.0979236731259948,0.21145692973375665,0.0,0.0,0.0,0.08,0.58
71,2071-01-01,52115065,2674390.940000004,0.0,3.88,0.05131704124325671,0.14102280207179366,0.0,0.0,0.0,0.0,0.33
72,2072-01-01,52257846,6424001.179999994,0.0,3.88,0.1229289316670265,0.32041358798267167,0.0,0.0,0.0,0.03,0.85
73,2073-01-01,52115065,6289752.989999968,0.0,5.15,0.12068972743294032,0.3015717128068322,0.0,0.0,0.0,0.06,0.81
74,2074-01-01,52115065,10098825.419999983,0.0,5.7,0.1937793883592006,0.4261633318084654,0.0,0.0,0.0,0.14,1.22
75,2075-01-01,52115065,9312045.009999983,0.0,5.75,0.1786824022957658,0.3530209904962382,0.0,0.0,0.0,0.19,1.02
76,2076-01-01,52257846,8699827.139999963,0.0,6.57,0.16647886979497706,0.35376632799207025,0.0,0.0,0.0,0.15,0.99
77,2077-01-01,52115065,3836936.7299999804,0.0,5.53,0.07362432974035397,0.21557563949549258,0.0,0.0,0.0,0.01,0.45
78,2078-01-01,52115065,4524374.039999945,0.0,4.96,0.08681508964826092,0.21427799506680514,0.0,0.0,0.0,0.03,0.55
79,2079-01-01,52115065,2121850.4000000064,0.0,3.5700000000000003,0.04071472231685802,0.11234661908465902,0.0,0.0,0.0,0.0,0.28
80,2080-01-01,52257846,3956340.7899999646,0.0,3.67,0.07570807242992687,0.18402788761569433,0.0,0.0,0.0,0.03,0.47000000000000003
81,2081-01-01,52115065,12286507.42999996,0.0,5.93,0.2357573079876224,0.42981763793383737,0.0,0.0,0.0,0.3,1.24
82,2082-01-01,52115065,5996461.949999957,0.0,5.8,0.11506196816601798,0.32233652523598894,0.0,0.0,0.0,0.02,0.85
83,2083-01-01,52115065,4598016.51999997,0.0,4.76,0.0882281643513247,0.22216607489462986,0.0,0.0,0.0,0.01,0.59
84,2084-01-01,52257846,3188787.249999978,0.0,5.8500000000000005,0.06102025808717753,0.15236621677755297,0.0,0.0,0.0,0.03,0.37
85,2085-01-01,52115065,6733250.879999934,0.0,5.15,0.12919970223581095,0.2566431777882031,0.0,0.0,0.0,0.15,0.7000000000000001
86,2086-01-01,52115065,11076542.35999993,0.0,5.09,0.21254012366673494,0.4137918581557074,0.0,0.0,0.0,0.22,1.17
87,2087-01-01,52115065,5965805.369999968,0.0,6.13,0.11447372021890347,0.2907963491172198,0.0,0.0,0.0,0.03,0.78
88,2088-01-01,52257846,2739264.6099999566,0.0,3.88,0.052418245673577064,0.13035836240131954,0.0,0.0,0.0,0.01,0.34
89,2089-01-01,52115065,8608322.279999945,0.0,5.97,0.16517915270757016,0.38061326694947656,0.0,0.0,0.0,0.09,1.04
90,2090-01-01,52115065,10533720.40000001,0.0,7.61,0.20212428786186892,0.4209292786614518,0.0,0.0,0.0,0.19,1.1400000000000001
91,2091-01-01,52115065,4058286.3299999707,0.0,4.83,0.07787165438630789,0.19828877919861101,0.0,0.0,0.0,0.01,0.54
92,2092-01-01,52257846,9101294.509999963,0.0,5.32,0.17416130220904938,0.33703073940174627,0.0,0.0,0.0,0.21,0.9500000000000001
93,2093-01-01,52115065,1718738.5500000142,0.0,5.09,0.03297968735144078,0.12365322553283402,0.0,0.0,0.0,0.0,0.23
94,2094-01-01,52115065,2960106.520000012,0.0,4.36,0.056799440238633724,0.16026840963916816,0.0,0.0,0.0,0.0,0.38
95,2095-01-01,52115065,8952945.459999941,0.0,5.53,0.17179188896722936,0.38239168613471325,0.0,0.0,0.0,0.11,1.07
96,2096-01-01,52257846,13662762.879999911,0.0,6.78,0.26144902489857524,0.5040478948280597,0.0,0.0,0.0,0.28,1.43
97,2097-01-01,52115065,22029520.40999999,0.0,8.0,0.4227092571025286,0.7535573409438716,0.0,0.0,0.0,0.51,2.25
98,2098-01-01,52115065,10211487.839999985,0.0,6.19,0.1959411897500269,0.40250083270874454,0.0,0.0,0.0,0.18,1.12
99,2099-01-01,52115065,19589242.590000015,0.0,7.34,0.3758844508780717,0.6458822854113279,0.0,0.0,0.0,0.51,1.86
100,2100-01-01,51972284,8815517.960000008,0.0,5.7700000000000005,0.1696195987846139,0.37355784726735225,0.0,0.0,0.0,0.13,0.92
