,time,n,sum,min,max,mean,std,q0.05,q0.25,q0.50,q0.75,q0.95
0,2000-01-01,366,3.5100000000000007,0.0,0.2,0.009590163934426231,0.0275422439862525,0.0,0.0,0.0,0.0,0.08
1,2001-01-01,365,7.66,0.0,0.28,0.020986301369863014,0.05379425369085208,0.0,0.0,0.0,0.01,0.1580000000000001
2,2002-01-01,365,1.4700000000000002,0.0,0.11,0.004027397260273973,0.013031019475398375,0.0,0.0,0.0,0.0,0.03
3,2003-01-01,365,9.120000000000001,0.0,0.33,0.024986301369863018,0.05702498686905614,0.0,0.0,0.0,0.01,0.16
4,2004-01-01,366,13.34,0.0,0.28,0.03644808743169399,0.07574371718541012,0.0,0.0,0.0,0.0,0.2375
5,2005-01-01,365,1.6,0.0,0.14,0.004383561643835617,0.019130861631582306,0.0,0.0,0.0,0.0,0.02
6,2006-01-01,365,1.1,0.0,0.09,0.0030136986301369864,0.01113859531081982,0.0,0.0,0.0,0.0,0.02
7,2007-01-01,365,6.74,0.0,0.33,0.018465753424657536,0.05502031559834913,0.0,0.0,0.0,0.0,0.16800000000000012
8,2008-01-01,366,1.2400000000000002,0.0,0.12,0.003387978142076503,0.012544881949432816,0.0,0.0,0.0,0.0,0.02
9,2009-01-01,365,14.05,0.0,0.34,0.03849315068493151,0.08275514688917257,0.0,0.0,0.0,0.0,0.24
10,2010-01-01,365,1.7300000000000002,0.0,0.15,0.004739726027397261,0.01870464552747527,0.0,0.0,0.0,0.0,0.05
11,2011-01-01,365,1.6900000000000004,0.0,0.1,0.004630136986301371,0.015445446950091283,0.0,0.0,0.0,0.0,0.03800000000000012
12,2012-01-01,366,0.99,0.0,0.06,0.0027049180327868854,0.009782069459821815,0.0,0.0,0.0,0.0,0.03
13,2013-01-01,365,21.11,0.0,0.76,0.05783561643835616,0.14306038706751661,0.0,0.0,0.0,0.0,0.3580000000000001
14,2014-01-01,365,42.05,0.0,0.72,0.11520547945205478,0.24125760454501227,0.0,0.0,0.0,0.02,0.7000000000000001
15,2015-01-01,365,13.6,0.0,0.27,0.03726027397260274,0.07152852240703117,0.0,0.0,0.0,0.0,0.2
16,2016-01-01,366,4.460000000000001,0.0,0.21,0.012185792349726778,0.033667100824456134,0.0,0.0,0.0,0.0,0.09
17,2017-01-01,365,4.27,0.0,0.19,0.0116986301369863,0.030464299758361606,0.0,0.0,0.0,0.0,0.09
18,2018-01-01,365,1.96,0.0,0.12,0.00536986301369863,0.019463704788421552,0.0,0.0,0.0,0.0,0.03
19,2019-01-01,365,7.470000000000001,0.0,0.28,0.020465753424657535,0.047166880123628435,0.0,0.0,0.0,0.0,0.1280000000000001
20,2020-01-01,366,1.2600000000000002,0.0,0.09,0.0034426229508196728,0.012724733357590183,0.0,0.0,0.0,0.0,0.0375
21,2021-01-01,365,2.1700000000000004,0.0,0.23,0.005945205479452056,0.025812755905240566,0.0,0.0,0.0,0.0,0.03
22,2022-01-01,365,9.21,0.0,0.37,0.02523287671232877,0.07772634125315071,0.0,0.0,0.0,0.0,0.2580000000000001
23,2023-01-01,365,2.6400000000000006,0.0,0.23,0.007232876712328769,0.02717297234332493,0.0,0.0,0.0,0.0,0.058000000000000114
24,2024-01-01,366,2.5199999999999996,0.0,0.1,0.006885245901639343,0.019491428712271025,0.0,0.0,0.0,0.0,0.06
25,2025-01-01,365,9.139999999999999,0.0,0.23,0.025041095890410956,0.05857028054553424,0.0,0.0,0.0,0.0,0.18
26,2026-01-01,365,4.19,0.0,0.16,0.011479452054794522,0.03636199641468273,0.0,0.0,0.0,0.0,0.13
27,2027-01-01,365,10.230000000000002,0.0,0.36,0.02802739726027398,0.07666650294651287,0.0,0.0,0.0,0.0,0.24
28,2028-01-01,366,1.32,0.0,0.19,0.0036065573770491803,0.021541632347942458,0.0,0.0,0.0,0.0,0.01
29,2029-01-01,365,6.949999999999999,0.0,0.36,0.019041095890410958,0.054530734919436205,0.0,0.0,0.0,0.0,0.11
30,2030-01-01,365,4.73,0.0,0.2,0.012958904109589043,0.029208948880256463,0.0,0.0,0.0,0.0,0.08
31,2031-01-01,365,10.660000000000002,0.0,0.34,0.0292054794520548,0.07028064269127661,0.0,0.0,0.0,0.0,0.18
32,2032-01-01,366,13.940000000000001,0.0,0.29,0.03808743169398907,0.07066547843210066,0.0,0.0,0.0,0.0475,0.21
33,2033-01-01,365,2.7800000000000002,0.0,0.14,0.007616438356164384,0.0218479365735113,0.0,0.0,0.0,0.0,0.058000000000000114
34,2034-01-01,365,1.4100000000000001,0.0,0.13,0.0038630136986301375,0.015157000343431124,0.0,0.0,0.0,0.0,0.03
35,2035-01-01,365,2.3200000000000003,0.0,0.14,0.006356164383561644,0.017877336891414852,0.0,0.0,0.0,0.0,0.05
36,2036-01-01,366,6.5200000000000005,0.0,0.36,0.017814207650273226,0.05461868227887211,0.0,0.0,0.0,0.0,0.14
37,2037-01-01,365,0.9300000000000002,0.0,0.09,0.0025479452054794527,0.0119508595390886,0.0,0.0,0.0,0.0,0.008000000000000115
38,2038-01-01,365,0.8600000000000001,0.0,0.12,0.0023561643835616443,0.012361417951885504,0.0,0.0,0.0,0.0,0.0
39,2039-01-01,365,8.879999999999999,0.0,0.31,0.02432876712328767,0.06002192631202403,0.0,0.0,0.0,0.0,0.15
40,2040-01-01,366,5.9799999999999995,0.0,0.2,0.016338797814207648,0.038965235629029475,0.0,0.0,0.0,0.0,0.11
41,2041-01-01,365,1.1300000000000001,0.0,0.11,0.0030958904109589045,0.013629304029067564,0.0,0.0,0.0,0.0,0.02
42,2042-01-01,365,1.4700000000000002,0.0,0.24,0.004027397260273973,0.020459095577661367,0.0,0.0,0.0,0.0,0.01
43,2043-01-01,365,0.45000000000000007,0.0,0.05,0.0012328767123287673,0.006813605542710076,0.0,0.0,0.0,0.0,0.0
44,2044-01-01,366,1.35,0.0,0.14,0.0036885245901639345,0.014364544599081893,0.0,0.0,0.0,0.0,0.0375
45,2045-01-01,365,5.05,0.0,0.19,0.013835616438356164,0.039980479380184,0.0,0.0,0.0,0.0,0.1280000000000001
46,2046-01-01,365,0.09,0.0,0.03,0.0002465753424657534,0.0022681887162541593,0.0,0.0,0.0,0.0,0.0
47,2047-01-01,365,0.59,0.0,0.06,0.0016164383561643836,0.007824496372232322,0.0,0.0,0.0,0.0,0.0
48,2048-01-01,366,0.7100000000000001,0.0,0.1,0.0019398907103825138,0.008796838353373226,0.0,0.0,0.0,0.0,0.01
49,2049-01-01,365,0.36,0.0,0.06,0.0009863013698630137,0.0054508844341680605,0.0,0.0,0.0,0.0,0.0
50,2050-01-01,365,0.62,0.0,0.12,0.0016986301369863014,0.011244097302623834,0.0,0.0,0.0,0.0,0.0
51,2051-01-01,365,2.59,0.0,0.16,0.007095890410958904,0.0263236777542299,0.0,0.0,0.0,0.0,0.058000000000000114
52,2052-01-01,366,1.8,0.0,0.13,0.004918032786885246,0.020760640894195024,0.0,0.0,0.0,0.0,0.035
53,2053-01-01,365,1.0699999999999998,0.0,0.21,0.002931506849315068,0.018428929585697883,0.0,0.0,0.0,0.0,0.0
54,2054-01-01,365,3.0700000000000003,0.0,0.23,0.00841095890410959,0.03053308810034643,0.0,0.0,0.0,0.0,0.07800000000000011
55,2055-01-01,365,1.6800000000000002,0.0,0.23,0.004602739726027398,0.028034587114592613,0.0,0.0,0.0,0.0,0.0
56,2056-01-01,366,0.5,0.0,0.08,0.001366120218579235,0.008511795077367604,0.0,0.0,0.0,0.0,0.0
57,2057-01-01,365,3.42,0.0,0.36,0.00936986301369863,0.04248948519382212,0.0,0.0,0.0,0.0,0.04
58,2058-01-01,365,3.26,0.0,0.25,0.008931506849315068,0.03840245738681111,0.0,0.0,0.0,0.0,0.03
59,2059-01-01,365,0.81,0.0,0.1,0.0022191780821917808,0.011165316374174537,0.0,0.0,0.0,0.0,0.01
60,2060-01-01,366,0.48000000000000004,0.0,0.06,0.0013114754098360656,0.005953024625747026,0.0,0.0,0.0,0.0,0.01
61,2061-01-01,365,0.24000000000000005,0.0,0.03,0.0006575342465753426,0.003642290330488071,0.0,0.0,0.0,0.0,0.0
62,2062-01-01,365,4.22,0.0,0.19,0.011561643835616437,0.03560859766172759,0.0,0.0,0.0,0.0,0.10800000000000011
63,2063-01-01,365,0.8600000000000001,0.0,0.08,0.0023561643835616443,0.009061993283728913,0.0,0.0,0.0,0.0,0.02
64,2064-01-01,366,0.08,0.0,0.02,0.0002185792349726776,0.001638433262356825,0.0,0.0,0.0,0.0,0.0
65,2065-01-01,365,0.24,0.0,0.03,0.0006575342465753425,0.0034091704614361163,0.0,0.0,0.0,0.0,0.0
66,2066-01-01,365,0.91,0.0,0.09,0.002493150684931507,0.012434070832613296,0.0,0.0,0.0,0.0,0.0
67,2067-01-01,365,0.35000000000000003,0.0,0.11,0.0009589041095890412,0.008270161510016834,0.0,0.0,0.0,0.0,0.0
68,2068-01-01,366,2.6700000000000004,0.0,0.27,0.007295081967213116,0.031924694997389425,0.0,0.0,0.0,0.0,0.0475
69,2069-01-01,365,8.38,0.0,0.4,0.022958904109589045,0.05719479772208532,0.0,0.0,0.0,0.0,0.17
70,2070-01-01,365,4.960000000000001,0.0,0.24,0.013589041095890413,0.040692578037028825,0.0,0.0,0.0,0.0,0.10800000000000011
71,2071-01-01,365,0.08,0.0,0.04,0.00021917808219178083,0.00265993395397698,0.0,0.0,0.0,0.0,0.0
72,2072-01-01,366,2.16,0.0,0.1,0.005901639344262295,0.01928024974162512,0.0,0.0,0.0,0.0,0.06
73,2073-01-01,365,1.02,0.0,0.1,0.0027945205479452057,0.013744198182296241,0.0,0.0,0.0,0.0,0.01
74,2074-01-01,365,1.63,0.0,0.24,0.004465753424657534,0.023502889470732046,0.0,0.0,0.0,0.0,0.026000000000000228
75,2075-01-01,365,5.33,0.0,0.3,0.014602739726027398,0.041993717640392655,0.0,0.0,0.0,0.0,0.11
76,2076-01-01,366,4.64,0.0,0.19,0.0126775956284153,0.03768491589512011,0.0,0.0,0.0,0.0,0.12
77,2077-01-01,365,0.03,0.0,0.02,8.219178082191781e-05,0.0011675219590500006,0.0,0.0,0.0,0.0,0.0
78,2078-01-01,365,3.040000000000001,0.0,0.18,0.008328767123287674,0.0275522193097212,0.0,0.0,0.0,0.0,0.058000000000000114
79,2079-01-01,365,1.53,0.0,0.15,0.004191780821917808,0.017956307347029958,0.0,0.0,0.0,0.0,0.04
80,2080-01-01,366,3.67,0.0,0.25,0.010027322404371585,0.0392031184905979,0.0,0.0,0.0,0.0,0.0475
81,2081-01-01,365,1.88,0.0,0.11,0.005150684931506849,0.017369214801439357,0.0,0.0,0.0,0.0,0.03
82,2082-01-01,365,4.51,0.0,0.28,0.012356164383561644,0.04111373128720549,0.0,0.0,0.0,0.0,0.0880000000000001
83,2083-01-01,365,3.56,0.0,0.12,0.009753424657534246,0.028404022878264643,0.0,0.0,0.0,0.0,0.09800000000000011
84,2084-01-01,366,8.75,0.0,0.44,0.02390710382513661,0.08213864131834114,0.0,0.0,0.0,0.0,0.2175
85,2085-01-01,365,8.97,0.0,0.29,0.024575342465753425,0.06733394954901294,0.0,0.0,0.0,0.0,0.2380000000000001
86,2086-01-01,365,3.5200000000000005,0.0,0.27,0.009643835616438357,0.03625834617684358,0.0,0.0,0.0,0.0,0.05
87,2087-01-01,365,3.25,0.0,0.24,0.008904109589041096,0.03478945060678936,0.0,0.0,0.0,0.0,0.09600000000000024
88,2088-01-01,366,0.7000000000000001,0.0,0.08,0.0019125683060109292,0.010796326306193933,0.0,0.0,0.0,0.0,0.0
89,2089-01-01,365,0.4,0.0,0.09,0.0010958904109589042,0.007756860654985815,0.0,0.0,0.0,0.0,0.0
90,2090-01-01,365,0.39,0.0,0.07,0.0010684931506849315,0.007527718217695293,0.0,0.0,0.0,0.0,0.0
91,2091-01-01,365,3.8200000000000003,0.0,0.22,0.010465753424657534,0.03781066102894857,0.0,0.0,0.0,0.0,0.10800000000000011
92,2092-01-01,366,0.66,0.0,0.08,0.0018032786885245902,0.00884132065920219,0.0,0.0,0.0,0.0,0.0
93,2093-01-01,365,0.45999999999999996,0.0,0.04,0.0012602739726027396,0.005972602739726027,0.0,0.0,0.0,0.0,0.008000000000000115
94,2094-01-01,365,2.5200000000000005,0.0,0.14,0.0069041095890410974,0.020766255810125037,0.0,0.0,0.0,0.0,0.06
95,2095-01-01,365,19.759999999999998,0.0,0.42,0.05413698630136986,0.10930481635586263,0.0,0.0,0.0,0.02,0.32
96,2096-01-01,366,3.0800000000000005,0.0,0.19,0.008415300546448089,0.033554493412780946,0.0,0.0,0.0,0.0,0.07
97,2097-01-01,365,1.8400000000000003,0.0,0.09,0.00504109589041096,0.01861832824783766,0.0,0.0,0.0,0.0,0.07
98,2098-01-01,365,1.33,0.0,0.07,0.0036438356164383563,0.011987858998596801,0.0,0.0,0.0,0.0,0.04
99,2099-01-01,365,8.39,0.0,0.44,0.022986301369863016,0.07131725245183691,0.0,0.0,0.0,0.0,0.22
100,2100-01-01,364,0.91,0.0,0.1,0.0025,0.012669184731396166,0.0,0.0,0.0,0.0,0.0
