,time,n,sum,min,max,mean,std,q0.05,q0.25,q0.50,q0.75,q0.95
0,2000-01-01,215543256,54799382.750000216,0.0,13.0,0.2542384473861721,0.4957160044591012,0.0,0.0,0.0,0.25,1.3900000000000001
1,2001-01-01,214954340,42044478.689999916,0.0,11.84,0.1955972542354805,0.43262881202342934,0.0,0.0,0.0,0.18,1.12
2,2002-01-01,214954340,54202644.62000013,0.0,13.59,0.25215887532208064,0.6095489347895062,0.0,0.0,0.0,0.07,1.75
3,2003-01-01,214954340,45657694.37000015,0.0,12.280000000000001,0.21240647837117477,0.45036237773064364,0.0,0.0,0.0,0.22,1.21
4,2004-01-01,215543256,58918040.57000006,0.0,11.870000000000001,0.2733467131534844,0.5727736997602073,0.0,0.0,0.0,0.26,1.57
5,2005-01-01,214954340,43358642.60000017,0.0,11.28,0.20171094289140742,0.5273322823787887,0.0,0.0,0.0,0.04,1.44
6,2006-01-01,214954340,55186899.18000018,0.0,11.4,0.2567377759388351,0.573584900060795,0.0,0.0,0.0,0.17,1.59
7,2007-01-01,214954340,45768445.83000008,0.0,11.32,0.21292171086194436,0.47811687549966914,0.0,0.0,0.0,0.14,1.36
8,2008-01-01,215543256,27066677.92999992,0.0,10.35,0.12557422780140207,0.3505735177076139,0.0,0.0,0.0,0.04,0.86
9,2009-01-01,214954340,36539119.030000314,0.0,10.84,0.1699854910117205,0.4082489236685609,0.0,0.0,0.0,0.12,1.02
10,2010-01-01,214954340,44079614.910000525,0.0,10.19,0.2050650147840724,0.42892377547161525,0.0,0.0,0.0,0.19,1.2
11,2011-01-01,214954340,58880861.26999979,0.0,10.36,0.2739226445486041,0.5362969031361238,0.0,0.0,0.0,0.3,1.54
12,2012-01-01,215543256,70933995.45000054,0.0,11.4,0.32909401466033594,0.6977962183431355,0.0,0.0,0.0,0.22,2.02
13,2013-01-01,214954340,36450348.499999665,0.0,10.93,0.16957251712154156,0.4292725046784089,0.0,0.0,0.0,0.08,1.1400000000000001
14,2014-01-01,214954340,32322557.97000017,0.0,10.98,0.15036941319724073,0.4082482185542579,0.0,0.0,0.0,0.03,1.02
15,2015-01-01,214954340,28869291.01000002,0.0,10.82,0.13430429462368623,0.3817424909956009,0.0,0.0,0.0,0.01,0.96
16,2016-01-01,215543256,51443450.98999903,0.0,11.94,0.23866880339786198,0.5788249192660752,0.0,0.0,0.0,0.1,1.6
17,2017-01-01,214954340,35549787.96999963,0.0,10.85,0.1653829737515401,0.41652014843517304,0.0,0.0,0.0,0.06,1.1300000000000001
18,2018-01-01,214954340,56494644.47999969,0.0,11.02,0.26282160425325535,0.628848102370123,0.0,0.0,0.0,0.1,1.8
19,2019-01-01,214954340,27280679.71,0.0,10.22,0.12691383532893544,0.34841742918617885,0.0,0.0,0.0,0.03,0.87
20,2020-01-01,215543256,56251698.18999992,0.0,11.57,0.26097637770675564,0.5722200737734077,0.0,0.0,0.0,0.19,1.6
21,2021-01-01,214954340,25897663.14000029,0.0,9.540000000000001,0.12047983371724567,0.29201761085220584,0.0,0.0,0.0,0.06,0.76
22,2022-01-01,214954340,39253784.81000009,0.0,10.8,0.18261452553132954,0.46306666027402993,0.0,0.0,0.0,0.08,1.19
23,2023-01-01,214954340,38928492.4000002,0.0,10.77,0.18110121619317013,0.4515743618795805,0.0,0.0,0.0,0.05,1.24
24,2024-01-01,215543256,26276681.3299998,0.0,10.21,0.121909085988753,0.31819504150888683,0.0,0.0,0.0,0.02,0.81
25,2025-01-01,214954340,25245996.50999988,0.0,10.36,0.11744818229769112,0.39416797098512313,0.0,0.0,0.0,0.0,0.8300000000000001
26,2026-01-01,214954340,49170365.69999961,0.0,11.57,0.22874795503082007,0.5067326328718991,0.0,0.0,0.0,0.14,1.45
27,2027-01-01,214954340,54539906.160000555,0.0,10.82,0.25372786685768034,0.531306668570031,0.0,0.0,0.0,0.2,1.5
28,2028-01-01,215543256,74543017.70999818,0.0,11.28,0.3458378568337029,0.7243563115897345,0.0,0.0,0.0,0.26,2.11
29,2029-01-01,214954340,73455122.89000055,0.0,12.370000000000001,0.34172430707842677,0.6447167790826764,0.0,0.0,0.0,0.4,1.85
30,2030-01-01,214954340,66998254.459999315,0.0,12.94,0.3116859815903197,0.6871377426760653,0.0,0.0,0.0,0.17,1.98
31,2031-01-01,214954340,27018033.02999997,0.0,11.790000000000001,0.1256919633723142,0.3563544222692735,0.0,0.0,0.0,0.03,0.85
32,2032-01-01,215543256,45879577.02000003,0.0,12.42,0.21285554403984708,0.5282287384838429,0.0,0.0,0.0,0.09,1.41
33,2033-01-01,214954340,75800834.00000001,0.0,11.53,0.3526369088430595,0.6485694974691267,0.0,0.0,0.0,0.39,1.86
34,2034-01-01,214954340,33636054.609999724,0.0,9.93,0.15647999761251494,0.37612580883558755,0.0,0.0,0.0,0.07,1.01
35,2035-01-01,214954340,80591397.09000137,0.0,11.26,0.37492333064780814,0.7421018633128729,0.0,0.0,0.0,0.33,2.12
36,2036-01-01,215543256,43466256.970000386,0.0,11.03,0.20165909050757025,0.49695174349569804,0.0,0.0,0.0,0.09,1.34
37,2037-01-01,214954340,58837092.99000072,0.0,10.58,0.273719027910768,0.5712559057648384,0.0,0.0,0.0,0.19,1.6
38,2038-01-01,214954340,37331756.399999425,0.0,9.86,0.1736729595689923,0.4170031989674989,0.0,0.0,0.0,0.09,1.1400000000000001
39,2039-01-01,214954340,36100533.9500001,0.0,10.38,0.1679451270907119,0.43223885090599307,0.0,0.0,0.0,0.06,1.1
40,2040-01-01,215543256,34447948.49000042,0.0,10.1,0.15981918956443908,0.422081688396666,0.0,0.0,0.0,0.01,1.1500000000000001
41,2041-01-01,214954340,33378132.739999812,0.0,10.48,0.1552801061844102,0.3929713570029085,0.0,0.0,0.0,0.05,1.05
42,2042-01-01,214954340,63907521.03999997,0.0,11.23,0.29730742370682056,0.5888544463134352,0.0,0.0,0.0,0.28,1.6500000000000001
43,2043-01-01,214954340,50746326.69000039,0.0,12.25,0.23607956317606982,0.5684838706509789,0.0,0.0,0.0,0.1,1.57
44,2044-01-01,215543256,40552630.15999936,0.0,11.4,0.1881414937890674,0.4207327209254435,0.0,0.0,0.0,0.17,1.18
45,2045-01-01,214954340,43917723.17000063,0.0,11.88,0.20431186999992942,0.5106491960927293,0.0,0.0,0.0,0.07,1.3900000000000001
46,2046-01-01,214954340,33413512.999999996,0.0,10.950000000000001,0.15544470048848513,0.38382936624169484,0.0,0.0,0.0,0.09,1.01
47,2047-01-01,214954340,52342747.52999988,0.0,11.33,0.2435063536284026,0.5706611523670962,0.0,0.0,0.0,0.1,1.6300000000000001
48,2048-01-01,215543256,50696361.14000001,0.0,10.700000000000001,0.23520272487671806,0.47576449544515653,0.0,0.0,0.0,0.25,1.32
49,2049-01-01,214954340,28128191.91999999,0.0,9.43,0.13085658991579324,0.3240114306469398,0.0,0.0,0.0,0.07,0.8200000000000001
50,2050-01-01,214954340,33911931.88999969,0.0,11.31,0.15776342031521526,0.4000446524809142,0.0,0.0,0.0,0.07,1.06
51,2051-01-01,214954340,65450805.86000002,0.0,11.43,0.3044870173823893,0.7335569025807029,0.0,0.0,0.0,0.09,2.06
52,2052-01-01,215543256,37298969.190000184,0.0,12.16,0.17304632899300817,0.4514584178612462,0.0,0.0,0.0,0.05,1.17
53,2053-01-01,214954340,36879691.789999895,0.0,12.25,0.17156988684201444,0.41519772420578954,0.0,0.0,0.0,0.1,1.11
54,2054-01-01,214954340,56091313.060000375,0.0,11.32,0.26094524567403654,0.5526193368005314,0.0,0.0,0.0,0.24,1.5
55,2055-01-01,214954340,49498531.25999996,0.0,11.74,0.23027463069598855,0.5132877330676309,0.0,0.0,0.0,0.19,1.35
56,2056-01-01,215543256,46821449.91000022,0.0,11.63,0.21722530678482568,0.5214800280703873,0.0,0.0,0.0,0.11,1.37
57,2057-01-01,214954340,62097576.46999955,0.0,11.66,0.2888872886679076,0.5995906122979944,0.0,0.0,0.0,0.24,1.7
58,2058-01-01,214954340,45529607.83000041,0.0,12.89,0.21181060047450267,0.5490616833207421,0.0,0.0,0.0,0.04,1.51
59,2059-01-01,214954340,50702487.92000031,0.0,13.41,0.23587561860812073,0.5729625208748195,0.0,0.0,0.0,0.07,1.57
60,2060-01-01,215543256,29815967.030000024,0.0,10.93,0.1383293895773757,0.33620512920999907,0.0,0.0,0.0,0.09,0.8200000000000001
61,2061-01-01,214954340,53642002.119999856,0.0,10.85,0.24955068187969526,0.4903323274032715,0.0,0.0,0.0,0.29,1.3900000000000001
62,2062-01-01,214954340,37195103.470000125,0.0,11.0,0.17303722953442172,0.42126490673065736,0.0,0.0,0.0,0.09,1.1500000000000001
63,2063-01-01,214954340,42310236.27000015,0.0,11.01,0.19683359856795704,0.5022227897220883,0.0,0.0,0.0,0.03,1.34
64,2064-01-01,215543256,20420828.77999984,0.0,9.66,0.09474120953243761,0.2899257242184626,0.0,0.0,0.0,0.01,0.62
65,2065-01-01,214954340,36220127.28000022,0.0,10.700000000000001,0.16850149329387915,0.4161331187451304,0.0,0.0,0.0,0.06,1.1
66,2066-01-01,214954340,34384438.86999977,0.0,10.450000000000001,0.15996159402968912,0.41225263574047183,0.0,0.0,0.0,0.03,1.1400000000000001
67,2067-01-01,214954340,30243220.859999854,0.0,10.21,0.14069602344386187,0.3626390514676544,0.0,0.0,0.0,0.05,0.9500000000000001
68,2068-01-01,215543256,50081406.619999826,0.0,11.94,0.23234968028876685,0.5610445337271162,0.0,0.0,0.0,0.12,1.56
69,2069-01-01,214954340,24716119.689999886,0.0,9.5,0.1149831154374454,0.3446403121376092,0.0,0.0,0.0,0.02,0.75
70,2070-01-01,214954340,59630861.36000059,0.0,10.620000000000001,0.27741175805057294,0.5928924349604884,0.0,0.0,0.0,0.2,1.6600000000000001
71,2071-01-01,214954340,83403810.44000077,0.0,11.55,0.38800710160120877,0.8101297004608449,0.0,0.0,0.0,0.27,2.29
72,2072-01-01,215543256,49956958.90000056,0.0,11.71,0.23177231256078157,0.5266138670375724,0.0,0.0,0.0,0.17,1.37
73,2073-01-01,214954340,62575038.43000025,0.0,11.83,0.2911085136964448,0.5947304535339295,0.0,0.0,0.0,0.23,1.7
74,2074-01-01,214954340,81048238.30000006,0.0,12.950000000000001,0.37704862483818685,0.6971455756420853,0.0,0.0,0.0,0.41000000000000003,2.0
75,2075-01-01,214954340,43491482.720000215,0.0,12.96,0.20232893515897477,0.526619147248858,0.0,0.0,0.0,0.06,1.41
76,2076-01-01,215543256,40157288.20000024,0.0,11.84,0.18630732849280257,0.44913347768804707,0.0,0.0,0.0,0.1,1.23
77,2077-01-01,214954340,40645580.040000245,0.0,10.72,0.1890893667929675,0.44738025535063813,0.0,0.0,0.0,0.06,1.3
78,2078-01-01,214954340,31411940.56999996,0.0,10.49,0.1461330837516468,0.36441333939630743,0.0,0.0,0.0,0.06,0.97
79,2079-01-01,214954340,36077911.51999991,0.0,11.03,0.16783988413539316,0.43786922190107574,0.0,0.0,0.0,0.06,1.2
80,2080-01-01,215543256,48142606.03000046,0.0,12.05,0.2233547313120317,0.5506198293091127,0.0,0.0,0.0,0.07,1.54
81,2081-01-01,214954340,45377484.869999826,0.0,11.27,0.21110290152783062,0.45673103735012066,0.0,0.0,0.0,0.21,1.2
82,2082-01-01,214954340,39753024.350000024,0.0,11.26,0.18493706314559652,0.45539022257937,0.0,0.0,0.0,0.05,1.28
83,2083-01-01,214954340,44893801.28000032,0.0,10.22,0.20885273253845593,0.4689608583992241,0.0,0.0,0.0,0.13,1.34
84,2084-01-01,215543256,70831979.93000019,0.0,12.450000000000001,0.3286207197779372,0.7887358656547976,0.0,0.0,0.0,0.09,2.23
85,2085-01-01,214954340,41881646.209999815,0.0,10.99,0.19483973298701396,0.3980855330353571,0.0,0.0,0.0,0.2,1.1
86,2086-01-01,214954340,63449229.580001,0.0,11.34,0.29517538273477517,0.6452786047381295,0.0,0.0,0.0,0.18,1.84
87,2087-01-01,214954340,39082625.32999997,0.0,11.02,0.18181826582333704,0.4075005359922113,0.0,0.0,0.0,0.09,1.1300000000000001
88,2088-01-01,215543256,28561923.559999887,0.0,9.85,0.1325113301619601,0.3642404335443793,0.0,0.0,0.0,0.01,0.97
89,2089-01-01,214954340,33002952.790000163,0.0,9.97,0.1535347124882436,0.4145357255397517,0.0,0.0,0.0,0.04,1.1400000000000001
90,2090-01-01,214954340,37173344.71999991,0.0,9.94,0.17293600454868652,0.38905697722767485,0.0,0.0,0.0,0.12,1.07
91,2091-01-01,214954340,43182902.69999988,0.0,10.65,0.2008933743789489,0.5021693152542394,0.0,0.0,0.0,0.12,1.33
92,2092-01-01,215543256,39793308.43000063,0.0,10.23,0.18461866619478287,0.4616914450329775,0.0,0.0,0.0,0.04,1.3
93,2093-01-01,214954340,20014346.67999993,0.0,9.74,0.09310975847242689,0.2869539168666019,0.0,0.0,0.0,0.0,0.64
94,2094-01-01,214954340,47373424.12000039,0.0,10.58,0.22038831186195354,0.5522411274749204,0.0,0.0,0.0,0.06,1.53
95,2095-01-01,214954340,54197462.50000101,0.0,10.77,0.25213476731849666,0.5462487696369697,0.0,0.0,0.0,0.15,1.58
96,2096-01-01,215543256,61099525.58000037,0.0,12.01,0.2834675819316767,0.6018623082415446,0.0,0.0,0.0,0.22,1.72
97,2097-01-01,214954340,36347982.44999975,0.0,10.83,0.16909629482242483,0.4068341655596458,0.0,0.0,0.0,0.1,1.1
98,2098-01-01,214954340,31953708.959999934,0.0,10.56,0.14865347198851595,0.3913262627817284,0.0,0.0,0.0,0.04,1.08
99,2099-01-01,214954340,51567364.34999972,0.0,10.99,0.2398991541645529,0.5674160833742509,0.0,0.0,0.0,0.08,1.6500000000000001
100,2100-01-01,214365424,18182119.86999976,0.0,9.52,0.08481834211285752,0.24106040290595343,0.0,0.0,0.0,0.01,0.52
