,time,n,sum,min,max,mean,std,q0.05,q0.25,q0.50,q0.75,q0.95
0,2000-01-01,12127776,395045.20999999996,0.0,8.77,0.03257359057423224,0.12931970302916126,0.0,0.0,0.0,0.0,0.24
1,2001-01-01,12094640,1158364.3099999982,0.0,8.700000000000001,0.09577501355972548,0.23061084108116825,0.0,0.0,0.0,0.08,0.54
2,2002-01-01,12094640,709438.8900000012,0.0,10.26,0.058657296951376905,0.23499902187176866,0.0,0.0,0.0,0.0,0.35000000000000003
3,2003-01-01,12094640,765131.2999999996,0.0,10.26,0.06326201523980868,0.24114692796770987,0.0,0.0,0.0,0.0,0.38
4,2004-01-01,12127776,630421.270000001,0.0,10.28,0.05198160569588364,0.19964073166489954,0.0,0.0,0.0,0.0,0.33
5,2005-01-01,12094640,1803973.1799999976,0.0,10.65,0.14915476442457135,0.33644612296142207,0.0,0.0,0.0,0.15,0.8300000000000001
6,2006-01-01,12094640,796764.4800000008,0.0,11.17,0.06587748622530318,0.24769801432318386,0.0,0.0,0.0,0.01,0.31
7,2007-01-01,12094640,990924.8200000006,0.0,10.15,0.0819309065834122,0.2346227390127596,0.0,0.0,0.0,0.06,0.42
8,2008-01-01,12127776,1499131.9400000009,0.0,10.59,0.12361144697923188,0.32491606347909163,0.0,0.0,0.0,0.08,0.72
9,2009-01-01,12094640,1681734.9299999983,0.0,10.290000000000001,0.13904795264679215,0.4043588014104364,0.0,0.0,0.0,0.06,0.92
10,2010-01-01,12094640,1860553.4500000002,0.0,10.32,0.153832892091042,0.3409205550045258,0.0,0.0,0.0,0.14,0.89
11,2011-01-01,12094640,1707564.8399999996,0.0,10.96,0.14118360199228747,0.37086130045190346,0.0,0.0,0.0,0.09,0.81
12,2012-01-01,12127776,927471.3599999996,0.0,10.26,0.07647497447182398,0.27637949698254194,0.0,0.0,0.0,0.0,0.52
13,2013-01-01,12094640,1369396.880000002,0.0,10.88,0.11322345104939063,0.2912584648071969,0.0,0.0,0.0,0.07,0.67
14,2014-01-01,12094640,2638233.539999998,0.0,11.18,0.2181324570222841,0.4899726899853732,0.0,0.0,0.0,0.19,1.2
15,2015-01-01,12094640,913173.4100000008,0.0,10.56,0.07550232251642057,0.29371101176028447,0.0,0.0,0.0,0.0,0.46
16,2016-01-01,12127776,1889934.5000000012,0.0,11.42,0.1558352083679647,0.4418750143011122,0.0,0.0,0.0,0.05,1.01
17,2017-01-01,12094640,545243.8599999998,0.0,10.13,0.04508144599591222,0.1870587874795288,0.0,0.0,0.0,0.0,0.27
18,2018-01-01,12094640,791014.6600000017,0.0,11.35,0.06540208389832204,0.24086434047855174,0.0,0.0,0.0,0.0,0.41000000000000003
19,2019-01-01,12094640,2006464.6600000001,0.0,11.58,0.16589701388383615,0.4712447791448931,0.0,0.0,0.0,0.06,1.11
20,2020-01-01,12127776,2308454.43,0.0,11.620000000000001,0.1903444151672986,0.5500598640388445,0.0,0.0,0.0,0.1,1.28
21,2021-01-01,12094640,4034293.3100000042,0.0,12.36,0.33356042924799784,0.6494407814474363,0.0,0.0,0.0,0.38,1.71
22,2022-01-01,12094640,2762887.1199999955,0.0,11.03,0.2284389713129118,0.468717734342895,0.0,0.0,0.0,0.21,1.2
23,2023-01-01,12094640,676337.8199999983,0.0,9.48,0.0559204589801762,0.1712103536493738,0.0,0.0,0.0,0.0,0.34
24,2024-01-01,12127776,832035.8200000005,0.0,10.02,0.06860580373516138,0.19978635338037304,0.0,0.0,0.0,0.03,0.41000000000000003
25,2025-01-01,12094640,1449523.2400000005,0.0,10.33,0.1198483989602006,0.338997581624504,0.0,0.0,0.0,0.0,0.8200000000000001
26,2026-01-01,12094640,557222.8500000009,0.0,9.34,0.046071883908905174,0.16703528574120782,0.0,0.0,0.0,0.0,0.28
27,2027-01-01,12094640,1796319.929999997,0.0,11.18,0.1485219841185845,0.43045614583073005,0.0,0.0,0.0,0.09,0.8
28,2028-01-01,12127776,700251.4700000006,0.0,10.22,0.05773947919222787,0.22097928712302053,0.0,0.0,0.0,0.0,0.39
29,2029-01-01,12094640,1051430.5100000007,0.0,11.1,0.08693359289734963,0.32060065840018487,0.0,0.0,0.0,0.0,0.5
30,2030-01-01,12094640,1222169.4900000023,0.0,10.84,0.10105050584391122,0.3481236246431387,0.0,0.0,0.0,0.0,0.73
31,2031-01-01,12094640,2052224.0400000028,0.0,10.97,0.16968045679739147,0.37642840533686506,0.0,0.0,0.0,0.18,0.92
32,2032-01-01,12127776,1490885.8000000003,0.0,9.77,0.122931508629447,0.3189178181453383,0.0,0.0,0.0,0.01,0.72
33,2033-01-01,12094640,1258956.5999999964,0.0,10.94,0.10409211022403282,0.2763766089398729,0.0,0.0,0.0,0.07,0.58
34,2034-01-01,12094640,1355474.560000002,0.0,11.19,0.11207233617536379,0.38244216216897475,0.0,0.0,0.0,0.0,0.67
35,2035-01-01,12094640,2659199.459999998,0.0,10.68,0.21986594557589131,0.5054014932622816,0.0,0.0,0.0,0.17,1.3800000000000001
36,2036-01-01,12127776,1166954.4500000025,0.0,9.64,0.09622163618457354,0.34151462057194343,0.0,0.0,0.0,0.0,0.72
37,2037-01-01,12094640,677089.2899999988,0.0,9.950000000000001,0.0559825914620029,0.19186460671741173,0.0,0.0,0.0,0.01,0.32
38,2038-01-01,12094640,734950.7900000004,0.0,10.44,0.060766652831336886,0.20864145272601123,0.0,0.0,0.0,0.0,0.39
39,2039-01-01,12094640,1183303.1600000004,0.0,11.290000000000001,0.09783698894717002,0.3486999110675287,0.0,0.0,0.0,0.0,0.68
40,2040-01-01,12127776,916212.4499999998,0.0,10.43,0.07554661712089668,0.2472787264137868,0.0,0.0,0.0,0.0,0.5
41,2041-01-01,12094640,1100226.309999998,0.0,10.53,0.09096809082370355,0.29977023804519226,0.0,0.0,0.0,0.0,0.6900000000000001
42,2042-01-01,12094640,764281.8300000003,0.0,10.6,0.0631917799951053,0.2206993439719354,0.0,0.0,0.0,0.0,0.42
43,2043-01-01,12094640,1068853.7299999988,0.0,11.42,0.08837416657296115,0.3193748739043127,0.0,0.0,0.0,0.0,0.52
44,2044-01-01,12127776,937002.1400000004,0.0,10.8,0.07726083826086501,0.2964154949961491,0.0,0.0,0.0,0.0,0.43
45,2045-01-01,12094640,503463.5800000012,0.0,9.92,0.0416270000595306,0.1727243974045231,0.0,0.0,0.0,0.0,0.25
46,2046-01-01,12094640,1637571.9299999992,0.0,10.13,0.13539650043324972,0.3677223903107978,0.0,0.0,0.0,0.09,0.76
47,2047-01-01,12094640,1122971.2400000007,0.0,9.92,0.09284867015471322,0.26336725948235123,0.0,0.0,0.0,0.02,0.59
48,2048-01-01,12127776,1076331.43,0.0,10.85,0.08874928346301911,0.320038471677644,0.0,0.0,0.0,0.0,0.56
49,2049-01-01,12094640,1720066.4800000053,0.0,11.15,0.1422172532626027,0.3712624625016112,0.0,0.0,0.0,0.09,0.75
50,2050-01-01,12094640,1142072.5899999987,0.0,10.77,0.0944279937228391,0.25925803714795914,0.0,0.0,0.0,0.01,0.56
51,2051-01-01,12094640,1310577.4700000016,0.0,10.41,0.1083601884801864,0.2707778973398752,0.0,0.0,0.0,0.04,0.64
52,2052-01-01,12127776,899988.6199999988,0.0,9.99,0.07420887555970682,0.3107397631861484,0.0,0.0,0.0,0.0,0.35000000000000003
53,2053-01-01,12094640,581914.8300000003,0.0,9.52,0.04811344777521285,0.1639795192494333,0.0,0.0,0.0,0.0,0.31
54,2054-01-01,12094640,1469790.0300000028,0.0,11.19,0.12152408256880758,0.41312871793452244,0.0,0.0,0.0,0.01,0.7000000000000001
55,2055-01-01,12094640,637708.6800000012,0.0,10.790000000000001,0.05272655325003483,0.22952130603604654,0.0,0.0,0.0,0.0,0.32
56,2056-01-01,12127776,1881447.4799999997,0.0,12.31,0.15513540817376573,0.491249345424337,0.0,0.0,0.0,0.03,0.86
57,2057-01-01,12094640,590192.4900000001,0.0,9.66,0.04879785508291277,0.15898666957515747,0.0,0.0,0.0,0.0,0.33
58,2058-01-01,12094640,1045742.9499999982,0.0,10.44,0.08646333830523259,0.29469132316572855,0.0,0.0,0.0,0.0,0.52
59,2059-01-01,12094640,367582.20999999973,0.0,9.65,0.030392158013797826,0.1304746019752476,0.0,0.0,0.0,0.0,0.22
60,2060-01-01,12127776,314347.79999999964,0.0,9.56,0.025919657487077568,0.1303175870719343,0.0,0.0,0.0,0.0,0.14
61,2061-01-01,12094640,420318.33000000013,0.0,9.86,0.03475244653830128,0.1603342287186323,0.0,0.0,0.0,0.0,0.21
62,2062-01-01,12094640,948700.4100000021,0.0,10.71,0.07843973942176057,0.28000689307347554,0.0,0.0,0.0,0.0,0.49
63,2063-01-01,12094640,704343.9999999992,0.0,10.25,0.05823604505797603,0.2263102012663433,0.0,0.0,0.0,0.0,0.33
64,2064-01-01,12127776,563879.9100000003,0.0,10.31,0.04649491464881939,0.16305574451570348,0.0,0.0,0.0,0.0,0.31
65,2065-01-01,12094640,1446206.3900000006,0.0,11.05,0.11957415764338589,0.34221030394655677,0.0,0.0,0.0,0.05,0.64
66,2066-01-01,12094640,1586423.0400000021,0.0,10.71,0.1311674460752864,0.3399846156432614,0.0,0.0,0.0,0.06,0.71
67,2067-01-01,12094640,554236.2199999997,0.0,10.3,0.045824945595734946,0.20827040607092576,0.0,0.0,0.0,0.0,0.21
68,2068-01-01,12127776,771045.2700000005,0.0,9.63,0.06357680666265608,0.18185242343014163,0.0,0.0,0.0,0.0,0.42
69,2069-01-01,12094640,826454.2100000001,0.0,9.48,0.06833227032801308,0.20085379289335975,0.0,0.0,0.0,0.0,0.45
70,2070-01-01,12094640,372983.4900000005,0.0,9.09,0.030838742616564073,0.15024971817818134,0.0,0.0,0.0,0.0,0.18
71,2071-01-01,12094640,521859.9800000002,0.0,9.47,0.04314803747775876,0.19716508530465768,0.0,0.0,0.0,0.0,0.2
72,2072-01-01,12127776,387155.35999999987,0.0,8.5,0.03192303024066406,0.16727399118077432,0.0,0.0,0.0,0.0,0.16
73,2073-01-01,12094640,445768.9200000001,0.0,9.56,0.03685673323058811,0.15906703687911677,0.0,0.0,0.0,0.0,0.26
74,2074-01-01,12094640,378597.4099999996,0.0,9.290000000000001,0.031302908561147716,0.16264701411026206,0.0,0.0,0.0,0.0,0.15
75,2075-01-01,12094640,562911.2200000007,0.0,9.96,0.04654220547283761,0.2085020751098638,0.0,0.0,0.0,0.0,0.25
76,2076-01-01,12127776,584916.0700000012,0.0,10.07,0.048229458558601446,0.23927422138581048,0.0,0.0,0.0,0.0,0.18
77,2077-01-01,12094640,310021.60000000003,0.0,9.56,0.025632974606933322,0.15141402706734955,0.0,0.0,0.0,0.0,0.1
78,2078-01-01,12094640,341764.14999999985,0.0,8.69,0.0282574884411607,0.13817904616458163,0.0,0.0,0.0,0.0,0.16
79,2079-01-01,12094640,762989.9199999991,0.0,8.25,0.06308496325645072,0.2681743265776339,0.0,0.0,0.0,0.0,0.32
80,2080-01-01,12127776,309073.6799999997,0.0,7.930000000000001,0.025484778082972483,0.13072676780790804,0.0,0.0,0.0,0.0,0.12
81,2081-01-01,12094640,514039.64000000054,0.0,8.89,0.042501441961067095,0.18961892848612907,0.0,0.0,0.0,0.0,0.23
82,2082-01-01,12094640,806823.7099999998,0.0,10.68,0.0667091959744151,0.2740187078769004,0.0,0.0,0.0,0.0,0.39
83,2083-01-01,12094640,391516.99000000005,0.0,8.17,0.03237111563469438,0.11955219806980026,0.0,0.0,0.0,0.0,0.22
84,2084-01-01,12127776,538847.71,0.0,7.98,0.04443087586710044,0.19079442003035332,0.0,0.0,0.0,0.0,0.25
85,2085-01-01,12094640,173468.65999999995,0.0,7.11,0.01434260631155619,0.10806061076036529,0.0,0.0,0.0,0.0,0.03
86,2086-01-01,12094640,115145.37999999993,0.0,4.58,0.009520364392821938,0.0621748739187052,0.0,0.0,0.0,0.0,0.03
87,2087-01-01,12094640,136570.13999999996,0.0,3.12,0.01129179041294325,0.058887737871375266,0.0,0.0,0.0,0.0,0.06
88,2088-01-01,12127776,150343.84999999995,0.0,2.29,0.012396654588607173,0.0606520198224102,0.0,0.0,0.0,0.0,0.07
89,2089-01-01,12094640,327139.90000000043,0.0,2.8000000000000003,0.027048337114622713,0.1294144467748769,0.0,0.0,0.0,0.0,0.12
90,2090-01-01,12094640,246578.79999999993,0.0,3.21,0.020387444355516156,0.09534333110628895,0.0,0.0,0.0,0.0,0.1
91,2091-01-01,12094640,124191.64999999995,0.0,3.74,0.010268321339039438,0.06657016098297398,0.0,0.0,0.0,0.0,0.03
92,2092-01-01,12127776,308946.91999999963,0.0,3.2,0.025474326042961185,0.08790144537962774,0.0,0.0,0.0,0.0,0.19
93,2093-01-01,12094640,218380.5500000002,0.0,4.1,0.01805597768929048,0.11745881662510484,0.0,0.0,0.0,0.0,0.05
94,2094-01-01,12094640,168484.5000000002,0.0,2.74,0.013930509713393718,0.08138698904547194,0.0,0.0,0.0,0.0,0.05
95,2095-01-01,12094640,671420.9000000021,0.0,4.39,0.055513921869522545,0.2055086348306349,0.0,0.0,0.0,0.0,0.32
96,2096-01-01,12127776,274950.0500000001,0.0,5.36,0.02267110226969892,0.1196789255229996,0.0,0.0,0.0,0.0,0.11
97,2097-01-01,12094640,273305.90999999986,0.0,3.2,0.02259727532196079,0.08620919955532909,0.0,0.0,0.0,0.0,0.16
98,2098-01-01,12094640,256042.37000000023,0.0,3.54,0.021169904188963064,0.12224723173392522,0.0,0.0,0.0,0.0,0.08
99,2099-01-01,12094640,230495.84999999986,0.0,3.84,0.019057685883994882,0.10613384592729766,0.0,0.0,0.0,0.0,0.08
100,2100-01-01,12061504,314573.3100000007,0.0,3.46,0.02608076986087313,0.12403160643540445,0.0,0.0,0.0,0.0,0.14
