,time,n,sum,min,max,mean,std,q0.05,q0.25,q0.50,q0.75,q0.95
0,2000-01-01,366,1.2300000000000004,0.0,0.09,0.003360655737704919,0.013944307007903398,0.0,0.0,0.0,0.0,0.02
1,2001-01-01,365,14.700000000000001,0.0,0.3,0.04027397260273973,0.0872811957456689,0.0,0.0,0.0,0.0,0.26
2,2002-01-01,365,7.3900000000000015,0.0,0.26,0.020246575342465756,0.05473917753095009,0.0,0.0,0.0,0.0,0.16800000000000012
3,2003-01-01,365,5.82,0.0,0.19,0.015945205479452055,0.03879693901601739,0.0,0.0,0.0,0.0,0.11
4,2004-01-01,366,5.45,0.0,0.27,0.014890710382513661,0.04407351125764005,0.0,0.0,0.0,0.0,0.1175
5,2005-01-01,365,29.34,0.0,0.7000000000000001,0.08038356164383562,0.15887227834229248,0.0,0.0,0.0,0.0,0.39
6,2006-01-01,365,1.9200000000000002,0.0,0.19,0.00526027397260274,0.023854598015902125,0.0,0.0,0.0,0.0,0.03
7,2007-01-01,365,1.6600000000000001,0.0,0.08,0.004547945205479452,0.012480166287848092,0.0,0.0,0.0,0.0,0.03
8,2008-01-01,366,8.87,0.0,0.49,0.024234972677595626,0.08281482062177484,0.0,0.0,0.0,0.0,0.235
9,2009-01-01,365,8.31,0.0,0.32,0.022767123287671234,0.07157533066788918,0.0,0.0,0.0,0.0,0.25
10,2010-01-01,365,22.73,0.0,0.29,0.06227397260273973,0.09633862371066447,0.0,0.0,0.0,0.14,0.26
11,2011-01-01,365,6.580000000000001,0.0,0.19,0.018027397260273977,0.04441953556489632,0.0,0.0,0.0,0.0,0.1480000000000001
12,2012-01-01,366,12.040000000000003,0.0,0.31,0.032896174863387986,0.07207559128918242,0.0,0.0,0.0,0.0,0.23
13,2013-01-01,365,3.93,0.0,0.16,0.010767123287671234,0.030734622192465085,0.0,0.0,0.0,0.0,0.1
14,2014-01-01,365,3.35,0.0,0.26,0.009178082191780823,0.03893631697892927,0.0,0.0,0.0,0.0,0.04
15,2015-01-01,365,23.259999999999998,0.0,0.41000000000000003,0.06372602739726027,0.1068673816830003,0.0,0.0,0.0,0.11,0.28
16,2016-01-01,366,11.93,0.0,0.43,0.032595628415300545,0.0690298532276214,0.0,0.0,0.0,0.0,0.19
17,2017-01-01,365,10.559999999999999,0.0,0.4,0.028931506849315065,0.08059510314624618,0.0,0.0,0.0,0.0,0.2680000000000001
18,2018-01-01,365,6.28,0.0,0.47000000000000003,0.017205479452054796,0.04958870808939879,0.0,0.0,0.0,0.0,0.1
19,2019-01-01,365,2.4499999999999997,0.0,0.12,0.006712328767123287,0.01875982259755972,0.0,0.0,0.0,0.0,0.05
20,2020-01-01,366,3.52,0.0,0.19,0.009617486338797814,0.02931580674020499,0.0,0.0,0.0,0.0,0.0775
21,2021-01-01,365,15.830000000000002,0.0,0.53,0.043369863013698634,0.07825065220951269,0.0,0.0,0.0,0.07,0.16800000000000012
22,2022-01-01,365,3.1400000000000006,0.0,0.41000000000000003,0.0086027397260274,0.041650450087530884,0.0,0.0,0.0,0.0,0.06
23,2023-01-01,365,13.690000000000001,0.0,0.45,0.037506849315068494,0.10872147691292638,0.0,0.0,0.0,0.0,0.38
24,2024-01-01,366,5.890000000000001,0.0,0.17,0.01609289617486339,0.04166981982156747,0.0,0.0,0.0,0.0,0.14
25,2025-01-01,365,0.9500000000000001,0.0,0.12,0.0026027397260273972,0.012993928746715644,0.0,0.0,0.0,0.0,0.01
26,2026-01-01,365,25.47,0.0,0.59,0.06978082191780821,0.15501111286502406,0.0,0.0,0.0,0.01,0.4480000000000001
27,2027-01-01,365,11.38,0.0,0.3,0.031178082191780823,0.0656598420807988,0.0,0.0,0.0,0.02,0.21
28,2028-01-01,366,9.14,0.0,0.32,0.024972677595628417,0.06053382125540483,0.0,0.0,0.0,0.0,0.18
29,2029-01-01,365,1.9000000000000001,0.0,0.16,0.0052054794520547945,0.02271379938064903,0.0,0.0,0.0,0.0,0.02
30,2030-01-01,365,5.29,0.0,0.29,0.014493150684931507,0.04536099443465257,0.0,0.0,0.0,0.0,0.11
31,2031-01-01,365,5.800000000000001,0.0,0.27,0.015890410958904113,0.04637062179424099,0.0,0.0,0.0,0.0,0.1480000000000001
32,2032-01-01,366,2.2,0.0,0.18,0.006010928961748634,0.023398189895670576,0.0,0.0,0.0,0.0,0.03
33,2033-01-01,365,2.53,0.0,0.21,0.0069315068493150675,0.028427426833245777,0.0,0.0,0.0,0.0,0.03800000000000012
34,2034-01-01,365,1.75,0.0,0.15,0.004794520547945206,0.020878617825526004,0.0,0.0,0.0,0.0,0.03800000000000012
35,2035-01-01,365,2.1800000000000006,0.0,0.13,0.005972602739726029,0.02122157896514044,0.0,0.0,0.0,0.0,0.05
36,2036-01-01,366,8.73,0.0,0.39,0.023852459016393445,0.06643679014008107,0.0,0.0,0.0,0.0,0.2
37,2037-01-01,365,2.75,0.0,0.19,0.007534246575342466,0.030049312070980935,0.0,0.0,0.0,0.0,0.05
38,2038-01-01,365,0.33,0.0,0.03,0.0009041095890410959,0.004121990420790195,0.0,0.0,0.0,0.0,0.01
39,2039-01-01,365,4.94,0.0,0.21,0.013534246575342466,0.044584560934783475,0.0,0.0,0.0,0.0,0.15
40,2040-01-01,366,4.05,0.0,0.3,0.011065573770491803,0.03727333780344316,0.0,0.0,0.0,0.0,0.11
41,2041-01-01,365,8.91,0.0,0.41000000000000003,0.02441095890410959,0.0680088301310413,0.0,0.0,0.0,0.0,0.19600000000000023
42,2042-01-01,365,1.22,0.0,0.15,0.0033424657534246575,0.0181562617434152,0.0,0.0,0.0,0.0,0.0
43,2043-01-01,365,1.3000000000000003,0.0,0.15,0.003561643835616439,0.015942522016817434,0.0,0.0,0.0,0.0,0.03
44,2044-01-01,366,3.5200000000000005,0.0,0.2,0.009617486338797816,0.0300612511368209,0.0,0.0,0.0,0.0,0.0875
45,2045-01-01,365,5.34,0.0,0.21,0.014630136986301369,0.03535631033921883,0.0,0.0,0.0,0.0,0.10600000000000023
46,2046-01-01,365,0.4,0.0,0.06,0.0010958904109589042,0.006816909643224023,0.0,0.0,0.0,0.0,0.0
47,2047-01-01,365,1.03,0.0,0.1,0.002821917808219178,0.010726158609390057,0.0,0.0,0.0,0.0,0.03
48,2048-01-01,366,6.19,0.0,0.21,0.01691256830601093,0.046577135100485,0.0,0.0,0.0,0.0,0.15
49,2049-01-01,365,12.18,0.0,0.39,0.03336986301369863,0.08497469516149767,0.0,0.0,0.0,0.0,0.24600000000000022
50,2050-01-01,365,2.51,0.0,0.3,0.006876712328767123,0.027480476359991284,0.0,0.0,0.0,0.0,0.05
51,2051-01-01,365,4.42,0.0,0.42,0.012109589041095891,0.04827080051151932,0.0,0.0,0.0,0.0,0.1
52,2052-01-01,366,36.12,0.0,0.71,0.09868852459016393,0.19420266083365684,0.0,0.0,0.0,0.0275,0.58
53,2053-01-01,365,1.21,0.0,0.27,0.003315068493150685,0.021459663795148052,0.0,0.0,0.0,0.0,0.008000000000000115
54,2054-01-01,365,5.33,0.0,0.18,0.014602739726027398,0.03438968455006247,0.0,0.0,0.0,0.0,0.09
55,2055-01-01,365,4.26,0.0,0.2,0.011671232876712328,0.03466001398893098,0.0,0.0,0.0,0.0,0.08
56,2056-01-01,366,5.3,0.0,0.25,0.01448087431693989,0.04721336773864623,0.0,0.0,0.0,0.0,0.145
57,2057-01-01,365,6.689999999999999,0.0,0.34,0.018328767123287668,0.05215573486494015,0.0,0.0,0.0,0.0,0.15600000000000022
58,2058-01-01,365,2.69,0.0,0.25,0.00736986301369863,0.02753205198096583,0.0,0.0,0.0,0.0,0.07800000000000011
59,2059-01-01,365,11.89,0.0,0.25,0.03257534246575343,0.061643677320953535,0.0,0.0,0.0,0.03,0.17
60,2060-01-01,366,5.350000000000001,0.0,0.24,0.014617486338797819,0.04438087906371834,0.0,0.0,0.0,0.0,0.14
61,2061-01-01,365,1.0899999999999999,0.0,0.08,0.0029863013698630133,0.011638967556110375,0.0,0.0,0.0,0.0,0.03
62,2062-01-01,365,2.0,0.0,0.13,0.005479452054794521,0.019489448911599278,0.0,0.0,0.0,0.0,0.04
63,2063-01-01,365,1.8600000000000003,0.0,0.14,0.005095890410958905,0.01766675105106536,0.0,0.0,0.0,0.0,0.04
64,2064-01-01,366,5.23,0.0,0.21,0.014289617486338798,0.04087717509950973,0.0,0.0,0.0,0.0,0.12
65,2065-01-01,365,2.16,0.0,0.14,0.005917808219178083,0.021595124655688535,0.0,0.0,0.0,0.0,0.058000000000000114
66,2066-01-01,365,14.860000000000001,0.0,0.36,0.04071232876712329,0.09050565402031707,0.0,0.0,0.0,0.0,0.27800000000000014
67,2067-01-01,365,10.75,0.0,0.56,0.02945205479452055,0.10533820822577236,0.0,0.0,0.0,0.0,0.2
68,2068-01-01,366,13.889999999999999,0.0,0.5,0.037950819672131146,0.08711783231335826,0.0,0.0,0.0,0.0,0.24
69,2069-01-01,365,0.95,0.0,0.07,0.0026027397260273972,0.01122953508598312,0.0,0.0,0.0,0.0,0.018000000000000113
70,2070-01-01,365,7.890000000000001,0.0,0.28,0.021616438356164384,0.05462064192501763,0.0,0.0,0.0,0.0,0.1780000000000001
71,2071-01-01,365,10.850000000000001,0.0,0.9400000000000001,0.02972602739726028,0.11268786569990245,0.0,0.0,0.0,0.0,0.22800000000000012
72,2072-01-01,366,20.47,0.0,0.72,0.055928961748633876,0.15978327323946884,0.0,0.0,0.0,0.0,0.5175000000000001
73,2073-01-01,365,0.43,0.0,0.06,0.001178082191780822,0.006012185037467772,0.0,0.0,0.0,0.0,0.01
74,2074-01-01,365,0.08,0.0,0.02,0.00021917808219178083,0.0016406361557895742,0.0,0.0,0.0,0.0,0.0
75,2075-01-01,365,0.56,0.0,0.05,0.001534246575342466,0.0062681674405274355,0.0,0.0,0.0,0.0,0.02
76,2076-01-01,366,2.29,0.0,0.17,0.0062568306010928965,0.02741962212333723,0.0,0.0,0.0,0.0,0.03
77,2077-01-01,365,0.87,0.0,0.04,0.0023835616438356165,0.00790808522793144,0.0,0.0,0.0,0.0,0.02
78,2078-01-01,365,4.550000000000001,0.0,0.13,0.012465753424657536,0.031846413183458024,0.0,0.0,0.0,0.0,0.1
79,2079-01-01,365,1.5799999999999998,0.0,0.08,0.004328767123287671,0.01334069353367609,0.0,0.0,0.0,0.0,0.04
80,2080-01-01,366,0.71,0.0,0.09,0.0019398907103825136,0.009072066898026239,0.0,0.0,0.0,0.0,0.01
81,2081-01-01,365,4.25,0.0,0.19,0.011643835616438357,0.037270345133684185,0.0,0.0,0.0,0.0,0.12
82,2082-01-01,365,1.6200000000000003,0.0,0.14,0.004438356164383562,0.01670123143796229,0.0,0.0,0.0,0.0,0.04800000000000012
83,2083-01-01,365,1.8400000000000003,0.0,0.23,0.00504109589041096,0.024322287178502454,0.0,0.0,0.0,0.0,0.03
84,2084-01-01,366,4.609999999999999,0.0,0.17,0.012595628415300545,0.036087104435965876,0.0,0.0,0.0,0.0,0.12
85,2085-01-01,365,3.08,0.0,0.13,0.008438356164383562,0.0225260800457894,0.0,0.0,0.0,0.0,0.06
86,2086-01-01,365,4.09,0.0,0.17,0.011205479452054794,0.028277954482275276,0.0,0.0,0.0,0.0,0.07800000000000011
87,2087-01-01,365,8.65,0.0,0.3,0.023698630136986303,0.05623109969995199,0.0,0.0,0.0,0.0,0.17
88,2088-01-01,366,6.21,0.0,0.33,0.016967213114754097,0.0555285976279642,0.0,0.0,0.0,0.0,0.1725
89,2089-01-01,365,0.73,0.0,0.09,0.002,0.011157649872842016,0.0,0.0,0.0,0.0,0.0
90,2090-01-01,365,3.92,0.0,0.29,0.01073972602739726,0.03680009953726126,0.0,0.0,0.0,0.0,0.08
91,2091-01-01,365,1.09,0.0,0.11,0.0029863013698630137,0.01499268602570402,0.0,0.0,0.0,0.0,0.01
92,2092-01-01,366,6.48,0.0,0.27,0.017704918032786888,0.048278340614961744,0.0,0.0,0.0,0.0,0.16
93,2093-01-01,365,7.270000000000001,0.0,0.2,0.019917808219178088,0.049288013887803545,0.0,0.0,0.0,0.0,0.15
94,2094-01-01,365,17.770000000000003,0.0,0.47000000000000003,0.04868493150684932,0.10906286696682196,0.0,0.0,0.0,0.0,0.3180000000000001
95,2095-01-01,365,0.8400000000000001,0.0,0.08,0.002301369863013699,0.01091271086382517,0.0,0.0,0.0,0.0,0.008000000000000115
96,2096-01-01,366,4.320000000000001,0.0,0.27,0.011803278688524594,0.04620014181801068,0.0,0.0,0.0,0.0,0.11
97,2097-01-01,365,4.87,0.0,0.28,0.013342465753424657,0.04221024324753354,0.0,0.0,0.0,0.0,0.1180000000000001
98,2098-01-01,365,29.040000000000003,0.0,0.74,0.07956164383561645,0.17346216565109032,0.0,0.0,0.0,0.0,0.47000000000000003
99,2099-01-01,365,0.12000000000000001,0.0,0.04,0.00032876712328767124,0.0029426239084049425,0.0,0.0,0.0,0.0,0.0
100,2100-01-01,364,1.6700000000000002,0.0,0.16,0.004587912087912089,0.02024833372694025,0.0,0.0,0.0,0.0,0.04
