,time,n,sum,min,max,mean,std,q0.05,q0.25,q0.50,q0.75,q0.95
0,2000-01-01,34406196,114560.5,0.0,0.46,0.0033296473693284778,0.015943538396943038,0.0,0.0,0.0,0.0,0.02
1,2001-01-01,34312190,222672.71000000034,0.0,0.55,0.0064896093778916576,0.028220542054604704,0.0,0.0,0.0,0.0,0.05
2,2002-01-01,34312190,401575.7400000012,0.0,0.9,0.011703588141707109,0.0450433329482454,0.0,0.0,0.0,0.0,0.08
3,2003-01-01,34312190,393860.9299999994,0.0,0.73,0.011478746474649372,0.0384397554523681,0.0,0.0,0.0,0.0,0.08
4,2004-01-01,34406196,1379281.6900000023,0.0,1.21,0.04008817743176265,0.10495811647614683,0.0,0.0,0.0,0.0,0.29
5,2005-01-01,34312190,381866.8200000001,0.0,0.37,0.011129188198130172,0.03282864349152412,0.0,0.0,0.0,0.0,0.08
6,2006-01-01,34312190,430707.11000000016,0.0,0.5700000000000001,0.012552597487948165,0.048638698120066694,0.0,0.0,0.0,0.0,0.11
7,2007-01-01,34312190,730592.7400000021,0.0,0.86,0.021292512660952334,0.059004395725067584,0.0,0.0,0.0,0.0,0.16
8,2008-01-01,34406196,873724.8899999997,0.0,0.85,0.02539440541465263,0.07491332666824624,0.0,0.0,0.0,0.0,0.2
9,2009-01-01,34312190,330598.13000000006,0.0,0.76,0.009635005227005332,0.032378021092549045,0.0,0.0,0.0,0.0,0.08
10,2010-01-01,34312190,292344.2000000001,0.0,0.78,0.00852012652063305,0.034813424264406374,0.0,0.0,0.0,0.0,0.06
11,2011-01-01,34312190,1675136.7699999993,0.0,1.41,0.04882045622852984,0.1289265574907197,0.0,0.0,0.0,0.0,0.37
12,2012-01-01,34406196,1195327.7599999995,0.0,0.9,0.03474164246463048,0.07929610973785511,0.0,0.0,0.0,0.01,0.21
13,2013-01-01,34312190,2792565.13,0.0,2.19,0.08138696859629187,0.22099021268411914,0.0,0.0,0.0,0.0,0.63
14,2014-01-01,34312190,1106890.44,0.0,1.1300000000000001,0.03225939352748979,0.10067758803812914,0.0,0.0,0.0,0.0,0.25
15,2015-01-01,34312190,649818.9200000006,0.0,1.17,0.018938427421857966,0.06739079174061022,0.0,0.0,0.0,0.0,0.13
16,2016-01-01,34406196,350731.4099999991,0.0,1.2,0.010193844445924772,0.052742947758631545,0.0,0.0,0.0,0.0,0.04
17,2017-01-01,34312190,82490.88000000008,0.0,0.33,0.002404127512700299,0.010716245985985286,0.0,0.0,0.0,0.0,0.02
18,2018-01-01,34312190,123007.97,0.0,0.64,0.0035849641191658126,0.01929941007697732,0.0,0.0,0.0,0.0,0.02
19,2019-01-01,34312190,379322.8500000003,0.0,0.73,0.011055046326101608,0.03748049360977471,0.0,0.0,0.0,0.0,0.09
20,2020-01-01,34406196,23897.910000000014,0.0,0.21,0.0006945815805967046,0.005308406161963796,0.0,0.0,0.0,0.0,0.0
21,2021-01-01,34312190,119054.09999999995,0.0,0.81,0.003469731894116929,0.018942847167034742,0.0,0.0,0.0,0.0,0.01
22,2022-01-01,34312190,2587565.8199999994,0.0,1.59,0.07541243563876276,0.16403233368995668,0.0,0.0,0.0,0.07,0.46
23,2023-01-01,34312190,314539.15999999986,0.0,1.31,0.009166980014974267,0.04939121326215934,0.0,0.0,0.0,0.0,0.05
24,2024-01-01,34406196,3026331.179999998,0.0,1.98,0.08795890077473249,0.17740296151006793,0.0,0.0,0.0,0.07,0.5
25,2025-01-01,34312190,3910980.719999992,0.0,2.42,0.11398225295441625,0.2777799665459878,0.0,0.0,0.0,0.05,0.8200000000000001
26,2026-01-01,34312190,681872.0400000013,0.0,1.53,0.01987258872138448,0.07478926436952023,0.0,0.0,0.0,0.0,0.14
27,2027-01-01,34312190,1447059.3400000003,0.0,1.31,0.0421733308191637,0.10360245305370008,0.0,0.0,0.0,0.0,0.27
28,2028-01-01,34406196,1340263.000000002,0.0,1.9100000000000001,0.03895411745024071,0.12891331883204452,0.0,0.0,0.0,0.0,0.31
29,2029-01-01,34312190,377193.4500000008,0.0,0.8300000000000001,0.010992986749024205,0.0402407150077584,0.0,0.0,0.0,0.0,0.08
30,2030-01-01,34312190,85487.40000000007,0.0,0.46,0.002491458574926289,0.015552714351250755,0.0,0.0,0.0,0.0,0.0
31,2031-01-01,34312190,403208.28999999963,0.0,0.54,0.011751167442241361,0.042769837980594444,0.0,0.0,0.0,0.0,0.11
32,2032-01-01,34406196,455427.3699999994,0.0,0.65,0.013236783572354218,0.04279654732354673,0.0,0.0,0.0,0.0,0.11
33,2033-01-01,34312190,631768.4500000039,0.0,0.87,0.01841236161259319,0.05357092776395278,0.0,0.0,0.0,0.0,0.15
34,2034-01-01,34312190,659665.2700000014,0.0,0.85,0.019225391034498277,0.06053492921043242,0.0,0.0,0.0,0.0,0.15
35,2035-01-01,34312190,2112859.2400000016,0.0,1.81,0.06157751049991276,0.16470206780038263,0.0,0.0,0.0,0.0,0.43
36,2036-01-01,34406196,389127.9400000004,0.0,0.64,0.011309821637939876,0.03540023178679223,0.0,0.0,0.0,0.0,0.07
37,2037-01-01,34312190,444868.9800000016,0.0,0.8,0.012965333311572406,0.04447440365451489,0.0,0.0,0.0,0.0,0.1
38,2038-01-01,34312190,37412.76,0.0,0.49,0.0010903635122095092,0.011131175867079622,0.0,0.0,0.0,0.0,0.0
39,2039-01-01,34312190,644829.6400000007,0.0,1.36,0.018793019040754925,0.06979246623062123,0.0,0.0,0.0,0.0,0.16
40,2040-01-01,34406196,124224.63999999991,0.0,1.24,0.0036105310799252528,0.028087390534791524,0.0,0.0,0.0,0.0,0.0
41,2041-01-01,34312190,105949.34000000004,0.0,0.64,0.003087804654847156,0.01605767516393197,0.0,0.0,0.0,0.0,0.02
42,2042-01-01,34312190,250058.67999999961,0.0,0.53,0.007287750504995444,0.03330489549142828,0.0,0.0,0.0,0.0,0.05
43,2043-01-01,34312190,195605.60000000036,0.0,0.46,0.005700761158060746,0.023503716061570888,0.0,0.0,0.0,0.0,0.05
44,2044-01-01,34406196,447526.3600000005,0.0,0.56,0.013007144410849734,0.04863703148002397,0.0,0.0,0.0,0.0,0.13
45,2045-01-01,34312190,99069.85000000006,0.0,0.32,0.0028873076886086276,0.014968200527447914,0.0,0.0,0.0,0.0,0.01
46,2046-01-01,34312190,108551.51999999997,0.0,0.6,0.00316364300850514,0.0181496587230098,0.0,0.0,0.0,0.0,0.01
47,2047-01-01,34312190,898040.3500000004,0.0,0.97,0.026172632816500504,0.06710915871751429,0.0,0.0,0.0,0.0,0.16
48,2048-01-01,34406196,98300.19999999992,0.0,0.96,0.002857049352389899,0.022450308171099987,0.0,0.0,0.0,0.0,0.0
49,2049-01-01,34312190,62788.909999999974,0.0,0.37,0.0018299301210444444,0.010571829259308479,0.0,0.0,0.0,0.0,0.01
50,2050-01-01,34312190,485937.4299999994,0.0,0.71,0.014162238842813571,0.048580698253135324,0.0,0.0,0.0,0.0,0.1
51,2051-01-01,34312190,120866.24000000005,0.0,0.8300000000000001,0.003522545194579537,0.017690762843952525,0.0,0.0,0.0,0.0,0.02
52,2052-01-01,34406196,380365.3099999999,0.0,0.86,0.011055139893988859,0.03913057949590547,0.0,0.0,0.0,0.0,0.09
53,2053-01-01,34312190,996422.1600000001,0.0,0.8200000000000001,0.02903988815636659,0.07710840121792085,0.0,0.0,0.0,0.0,0.21
54,2054-01-01,34312190,1446563.4699999993,0.0,1.46,0.04215887910389862,0.11878132431486563,0.0,0.0,0.0,0.0,0.3
55,2055-01-01,34312190,52060.20000000006,0.0,0.44,0.0015172508662373361,0.015436389702120946,0.0,0.0,0.0,0.0,0.0
56,2056-01-01,34406196,200823.80000000008,0.0,0.8200000000000001,0.005836849851114028,0.029612361699369125,0.0,0.0,0.0,0.0,0.03
57,2057-01-01,34312190,1005532.7399999987,0.0,0.91,0.02930540836944534,0.07670513318966679,0.0,0.0,0.0,0.0,0.21
58,2058-01-01,34312190,616035.24,0.0,0.64,0.0179538304025479,0.050817186576502575,0.0,0.0,0.0,0.0,0.13
59,2059-01-01,34312190,82771.95999999995,0.0,0.63,0.0024123193535591854,0.01460835397816126,0.0,0.0,0.0,0.0,0.01
60,2060-01-01,34406196,1052797.2000000018,0.0,0.78,0.030599058378903667,0.07687890046682598,0.0,0.0,0.0,0.0,0.22
61,2061-01-01,34312190,610566.4200000018,0.0,1.0,0.017794446230333938,0.06079374840643162,0.0,0.0,0.0,0.0,0.16
62,2062-01-01,34312190,219686.57999999967,0.0,0.87,0.00640258112350158,0.0293672995624356,0.0,0.0,0.0,0.0,0.04
63,2063-01-01,34312190,1893914.0599999996,0.0,1.17,0.055196536857600745,0.13232073713053732,0.0,0.0,0.0,0.0,0.39
64,2064-01-01,34406196,1261247.450000003,0.0,1.11,0.03665756743349375,0.10494751631614717,0.0,0.0,0.0,0.0,0.3
65,2065-01-01,34312190,49660.569999999905,0.0,0.62,0.0014473156624511554,0.011747220245058277,0.0,0.0,0.0,0.0,0.0
66,2066-01-01,34312190,1308941.4900000007,0.0,1.27,0.03814800192001737,0.10785300038790967,0.0,0.0,0.0,0.0,0.33
67,2067-01-01,34312190,718782.7300000007,0.0,1.11,0.020948319824528855,0.0723888028114618,0.0,0.0,0.0,0.0,0.15
68,2068-01-01,34406196,171709.93000000005,0.0,0.43,0.004990668831858077,0.022287615262621355,0.0,0.0,0.0,0.0,0.03
69,2069-01-01,34312190,100257.09999999974,0.0,0.54,0.002921909094114941,0.015878565431159376,0.0,0.0,0.0,0.0,0.01
70,2070-01-01,34312190,341400.92000000016,0.0,0.73,0.00994984348128173,0.037087044628742495,0.0,0.0,0.0,0.0,0.09
71,2071-01-01,34312190,234472.38000000003,0.0,0.88,0.006833500863687221,0.03535401990982285,0.0,0.0,0.0,0.0,0.03
72,2072-01-01,34406196,714733.7000000009,0.0,1.1,0.020773400814202213,0.07840022437652194,0.0,0.0,0.0,0.0,0.13
73,2073-01-01,34312190,1057589.2900000003,0.0,1.31,0.030822552859493965,0.10266655565049511,0.0,0.0,0.0,0.0,0.22
74,2074-01-01,34312190,265346.3399999994,0.0,0.38,0.0077332965339723106,0.026282950772981848,0.0,0.0,0.0,0.0,0.06
75,2075-01-01,34312190,380660.6099999999,0.0,0.84,0.01109403421932555,0.039125352296849,0.0,0.0,0.0,0.0,0.08
76,2076-01-01,34406196,458817.6100000006,0.0,0.8200000000000001,0.013335319312835416,0.04561917500634862,0.0,0.0,0.0,0.0,0.09
77,2077-01-01,34312190,63795.41000000001,0.0,0.34,0.0018592637193953522,0.012310002075915023,0.0,0.0,0.0,0.0,0.0
78,2078-01-01,34312190,102176.30999999994,0.0,0.4,0.0029778428599282047,0.015311592839110006,0.0,0.0,0.0,0.0,0.02
79,2079-01-01,34312190,222068.58999999994,0.0,0.46,0.006472002807165615,0.026591091792834462,0.0,0.0,0.0,0.0,0.05
80,2080-01-01,34406196,24270.84999999999,0.0,0.35000000000000003,0.000705420907327273,0.006064952269556641,0.0,0.0,0.0,0.0,0.0
81,2081-01-01,34312190,334389.62999999925,0.0,0.46,0.009745505314583512,0.030279965694953084,0.0,0.0,0.0,0.0,0.07
82,2082-01-01,34312190,95597.13000000002,0.0,0.66,0.0027860981767704137,0.017317828695349462,0.0,0.0,0.0,0.0,0.01
83,2083-01-01,34312190,57753.65000000001,0.0,0.26,0.0016831816914047169,0.010917851447721937,0.0,0.0,0.0,0.0,0.0
84,2084-01-01,34406196,55416.02999999996,0.0,0.24,0.0016106410019869667,0.009259638157995652,0.0,0.0,0.0,0.0,0.0
85,2085-01-01,34312190,195821.42999999993,0.0,0.55,0.00570705134239464,0.02157922680554949,0.0,0.0,0.0,0.0,0.04
86,2086-01-01,34312190,180766.3099999997,0.0,0.73,0.005268282496687029,0.03170152745923138,0.0,0.0,0.0,0.0,0.01
87,2087-01-01,34312190,237141.0200000001,0.0,0.7000000000000001,0.006911276138305369,0.03538139838254986,0.0,0.0,0.0,0.0,0.03
88,2088-01-01,34406196,302465.48999999993,0.0,0.66,0.008791018048028324,0.030127166882768334,0.0,0.0,0.0,0.0,0.07
89,2089-01-01,34312190,641385.8200000017,0.0,1.18,0.018692651795178383,0.07667126150733236,0.0,0.0,0.0,0.0,0.13
90,2090-01-01,34312190,265939.23000000033,0.0,0.64,0.007750575815766943,0.0289137614028738,0.0,0.0,0.0,0.0,0.06
91,2091-01-01,34312190,550483.5400000006,0.0,0.78,0.016043381084098703,0.05125710443908133,0.0,0.0,0.0,0.0,0.13
92,2092-01-01,34406196,663950.9700000004,0.0,1.1500000000000001,0.019297424510399244,0.07995637001017762,0.0,0.0,0.0,0.0,0.14
93,2093-01-01,34312190,66678.55000000008,0.0,0.56,0.0019432904166128736,0.014398939836429902,0.0,0.0,0.0,0.0,0.0
94,2094-01-01,34312190,112132.22999999992,0.0,0.78,0.0032679997983224014,0.016632779675861242,0.0,0.0,0.0,0.0,0.02
95,2095-01-01,34312190,153962.81000000003,0.0,0.65,0.004487116969217064,0.023381017711897198,0.0,0.0,0.0,0.0,0.03
96,2096-01-01,34406196,595985.2699999996,0.0,1.3,0.017322033217505344,0.0641090173667479,0.0,0.0,0.0,0.0,0.11
97,2097-01-01,34312190,542996.8200000011,0.0,1.61,0.015825186908792505,0.06063803494028946,0.0,0.0,0.0,0.0,0.1
98,2098-01-01,34312190,363559.5799999999,0.0,0.9400000000000001,0.010595639042567667,0.0387170500513137,0.0,0.0,0.0,0.0,0.09
99,2099-01-01,34312190,344980.97,0.0,0.9,0.010054181035952528,0.041053966475749194,0.0,0.0,0.0,0.0,0.06
100,2100-01-01,34218184,680236.2299999994,0.0,0.78,0.01987937846146363,0.0586164278254304,0.0,0.0,0.0,0.0,0.15
