,time,n,sum,min,max,mean,std,q0.05,q0.25,q0.50,q0.75,q0.95
0,2000-01-01,12127776,910904.0099999995,0.0,11.21,0.07510890784922145,0.22780531313730615,0.0,0.0,0.0,0.02,0.43
1,2001-01-01,12094640,788421.4199999996,0.0,10.71,0.0651876715636017,0.20563139374008435,0.0,0.0,0.0,0.0,0.44
2,2002-01-01,12094640,1042383.620000001,0.0,10.3,0.08618558468875477,0.2435006439792095,0.0,0.0,0.0,0.04,0.51
3,2003-01-01,12094640,448453.97999999986,0.0,10.11,0.037078737358036275,0.16331052878378619,0.0,0.0,0.0,0.0,0.2
4,2004-01-01,12127776,1345783.3199999994,0.0,10.97,0.11096703303227232,0.32804952536538096,0.0,0.0,0.0,0.04,0.63
5,2005-01-01,12094640,924007.5400000004,0.0,10.52,0.07639810196913677,0.26609070798491863,0.0,0.0,0.0,0.0,0.54
6,2006-01-01,12094640,1341538.8799999978,0.0,11.200000000000001,0.11092011667978524,0.3960220612348817,0.0,0.0,0.0,0.01,0.6900000000000001
7,2007-01-01,12094640,877528.4,0.0,9.82,0.0725551483963144,0.18017952918193073,0.0,0.0,0.0,0.01,0.43
8,2008-01-01,12127776,1516038.2700000005,0.0,10.44,0.12500546431596365,0.29276071317067104,0.0,0.0,0.0,0.08,0.73
9,2009-01-01,12094640,2161836.9300000016,0.0,10.67,0.17874338798013018,0.37893361077348975,0.0,0.0,0.0,0.15,0.97
10,2010-01-01,12094640,544807.2400000003,0.0,9.07,0.04504534570685861,0.1706693099113932,0.0,0.0,0.0,0.0,0.27
11,2011-01-01,12094640,1292353.3099999987,0.0,10.16,0.10685339208112012,0.35876440199991994,0.0,0.0,0.0,0.0,0.72
12,2012-01-01,12127776,1135488.660000001,0.0,10.72,0.0936271134955,0.3546982758427848,0.0,0.0,0.0,0.0,0.55
13,2013-01-01,12094640,1119377.8100000008,0.0,10.69,0.09255156085671014,0.267218671556348,0.0,0.0,0.0,0.05,0.58
14,2014-01-01,12094640,2100048.050000004,0.0,12.83,0.173634605908072,0.6058110141034071,0.0,0.0,0.0,0.02,1.19
15,2015-01-01,12094640,548789.8700000008,0.0,10.25,0.045374634548858074,0.1963703747584806,0.0,0.0,0.0,0.0,0.23
16,2016-01-01,12127776,1016791.4200000005,0.0,10.43,0.0838398911721325,0.29164236567701357,0.0,0.0,0.0,0.01,0.52
17,2017-01-01,12094640,870251.0700000002,0.0,10.620000000000001,0.07195344962727292,0.21168985907943988,0.0,0.0,0.0,0.04,0.36
18,2018-01-01,12094640,1634511.6400000034,0.0,11.25,0.13514347181892172,0.34976910473741896,0.0,0.0,0.0,0.06,0.8300000000000001
19,2019-01-01,12094640,964152.7299999977,0.0,11.23,0.07971735661416939,0.3125392903330707,0.0,0.0,0.0,0.0,0.51
20,2020-01-01,12127776,1058933.7700000005,0.0,10.950000000000001,0.08731475333977148,0.3226875177197953,0.0,0.0,0.0,0.0,0.5700000000000001
21,2021-01-01,12094640,661353.2100000008,0.0,9.950000000000001,0.0546815126370029,0.18924955383851044,0.0,0.0,0.0,0.01,0.31
22,2022-01-01,12094640,1122444.5200000035,0.0,11.36,0.09280512028468839,0.39460845870931754,0.0,0.0,0.0,0.0,0.56
23,2023-01-01,12094640,639326.1900000002,0.0,9.98,0.052860291004941044,0.17438493779745196,0.0,0.0,0.0,0.01,0.33
24,2024-01-01,12127776,1213871.0199999982,0.0,11.52,0.10009015832746236,0.3243456475681621,0.0,0.0,0.0,0.02,0.67
25,2025-01-01,12094640,1173160.6100000027,0.0,11.05,0.09699839019598787,0.354830750475713,0.0,0.0,0.0,0.0,0.51
26,2026-01-01,12094640,1184259.1,0.0,11.78,0.09791602726497027,0.3065482675569,0.0,0.0,0.0,0.03,0.55
27,2027-01-01,12094640,2297905.729999996,0.0,10.77,0.18999372697327047,0.3803367246599689,0.0,0.0,0.0,0.28,0.9400000000000001
28,2028-01-01,12127776,1444036.459999999,0.0,10.94,0.11906852995965617,0.34191783827984323,0.0,0.0,0.0,0.05,0.67
29,2029-01-01,12094640,1632520.4499999983,0.0,11.27,0.1349788377330783,0.3874881961466429,0.0,0.0,0.0,0.04,0.89
30,2030-01-01,12094640,1259572.3300000024,0.0,11.52,0.1041430195524631,0.34924599721883814,0.0,0.0,0.0,0.01,0.62
31,2031-01-01,12094640,1270173.0400000005,0.0,11.53,0.10501949954690677,0.4034244883990972,0.0,0.0,0.0,0.0,0.55
32,2032-01-01,12127776,704318.1899999997,0.0,10.74,0.058074802008216485,0.25912827452129256,0.0,0.0,0.0,0.0,0.27
33,2033-01-01,12094640,841623.3700000002,0.0,10.11,0.06958647549658363,0.23771300689768574,0.0,0.0,0.0,0.01,0.35000000000000003
34,2034-01-01,12094640,1207616.1000000015,0.0,10.74,0.09984721331102055,0.3212380751974733,0.0,0.0,0.0,0.02,0.65
35,2035-01-01,12094640,1273331.899999998,0.0,11.36,0.10528067805242637,0.3937561821896858,0.0,0.0,0.0,0.0,0.72
36,2036-01-01,12127776,328216.5000000003,0.0,9.290000000000001,0.027063205982696275,0.1408146435699207,0.0,0.0,0.0,0.0,0.15
37,2037-01-01,12094640,210138.35999999993,0.0,9.040000000000001,0.017374503085664388,0.10786210331302155,0.0,0.0,0.0,0.0,0.07
38,2038-01-01,12094640,1069905.4499999997,0.0,11.75,0.08846112410125474,0.3217511143995169,0.0,0.0,0.0,0.0,0.5
39,2039-01-01,12094640,2253077.4200000004,0.0,11.49,0.1862872660947329,0.4220343876689801,0.0,0.0,0.0,0.14,1.16
40,2040-01-01,12127776,668689.5499999997,0.0,9.63,0.05513703007047621,0.19611571797510335,0.0,0.0,0.0,0.0,0.35000000000000003
41,2041-01-01,12094640,1035431.2800000029,0.0,10.52,0.08561075650040043,0.23639017499659112,0.0,0.0,0.0,0.02,0.5
42,2042-01-01,12094640,825620.6200000012,0.0,10.71,0.06826334806162078,0.28244058973788483,0.0,0.0,0.0,0.0,0.38
43,2043-01-01,12094640,1739682.9900000014,0.0,11.71,0.14383917090545906,0.4297293308503369,0.0,0.0,0.0,0.03,0.93
44,2044-01-01,12127776,1011323.7700000011,0.0,11.3,0.08338905418437817,0.36190631690475566,0.0,0.0,0.0,0.0,0.43
45,2045-01-01,12094640,744635.0699999995,0.0,10.86,0.06156736124431975,0.2095244199137881,0.0,0.0,0.0,0.0,0.37
46,2046-01-01,12094640,839946.810000001,0.0,10.65,0.06944785541363786,0.2531605112618057,0.0,0.0,0.0,0.0,0.46
47,2047-01-01,12094640,1278131.1599999995,0.0,10.540000000000001,0.10567748688675309,0.4050530622815051,0.0,0.0,0.0,0.0,0.76
48,2048-01-01,12127776,104854.60000000006,0.0,7.58,0.008645822614137997,0.06941968224298724,0.0,0.0,0.0,0.0,0.05
49,2049-01-01,12094640,763037.1500000004,0.0,8.59,0.0630888682920699,0.18861695232062117,0.0,0.0,0.0,0.01,0.4
50,2050-01-01,12094640,466537.5399999996,0.0,8.31,0.03857390877281172,0.12897402478440192,0.0,0.0,0.0,0.0,0.26
51,2051-01-01,12094640,1354884.7200000018,0.0,7.65,0.11202356746459603,0.2779689516936518,0.0,0.0,0.0,0.04,0.71
52,2052-01-01,12127776,294272.0700000001,0.0,6.83,0.024264306167923955,0.10608069126945645,0.0,0.0,0.0,0.0,0.15
53,2053-01-01,12094640,812764.6199999988,0.0,7.8500000000000005,0.06720039786219341,0.23897460670652346,0.0,0.0,0.0,0.0,0.4
54,2054-01-01,12094640,873400.3800000008,0.0,9.47,0.07221383852681856,0.25947633751049975,0.0,0.0,0.0,0.01,0.39
55,2055-01-01,12094640,1528469.6800000025,0.0,11.33,0.12637578960597443,0.45780967297271064,0.0,0.0,0.0,0.0,0.93
56,2056-01-01,12127776,252891.00999999963,0.0,9.450000000000001,0.020852216432757302,0.12068175441773091,0.0,0.0,0.0,0.0,0.1
57,2057-01-01,12094640,474423.2200000007,0.0,7.88,0.03922590668262972,0.12788489388341223,0.0,0.0,0.0,0.0,0.27
58,2058-01-01,12094640,572801.3300000007,0.0,8.74,0.0473599321682994,0.20832036646063115,0.0,0.0,0.0,0.0,0.23
59,2059-01-01,12094640,779046.8099999999,0.0,8.91,0.06441256705449687,0.20876468168157977,0.0,0.0,0.0,0.0,0.43
60,2060-01-01,12127776,1006007.4500000016,0.0,10.16,0.08295069516455462,0.2378858394923392,0.0,0.0,0.0,0.02,0.51
61,2061-01-01,12094640,2269231.240000001,0.0,11.72,0.18762288418671422,0.48449774242999855,0.0,0.0,0.0,0.1,1.19
62,2062-01-01,12094640,1844243.6400000006,0.0,11.27,0.15248437655027355,0.4924730010057937,0.0,0.0,0.0,0.0,1.22
63,2063-01-01,12094640,1523218.6399999994,0.0,11.370000000000001,0.12594162703478562,0.45123290733784643,0.0,0.0,0.0,0.01,0.87
64,2064-01-01,12127776,373326.1599999999,0.0,9.25,0.030782738731322208,0.1511754851602231,0.0,0.0,0.0,0.0,0.17
65,2065-01-01,12094640,612191.1299999997,0.0,9.97,0.050616730220990426,0.22303142234820397,0.0,0.0,0.0,0.0,0.22
66,2066-01-01,12094640,328431.8200000002,0.0,9.65,0.027155154680089708,0.1320913194110352,0.0,0.0,0.0,0.0,0.14
67,2067-01-01,12094640,854008.2900000003,0.0,9.790000000000001,0.07061047621094967,0.2314216969879109,0.0,0.0,0.0,0.0,0.5
68,2068-01-01,12127776,990225.2800000022,0.0,9.99,0.08164937083270686,0.28352824254436954,0.0,0.0,0.0,0.0,0.54
69,2069-01-01,12094640,1030500.4699999993,0.0,10.75,0.08520307094713024,0.2347651412807839,0.0,0.0,0.0,0.05,0.43
70,2070-01-01,12094640,1286071.1699999985,0.0,11.66,0.10633397686909231,0.3343108700021195,0.0,0.0,0.0,0.02,0.63
71,2071-01-01,12094640,2243182.519999998,0.0,11.53,0.185469143356065,0.5548998941725927,0.0,0.0,0.0,0.03,1.42
72,2072-01-01,12127776,1883753.4899999984,0.0,12.790000000000001,0.15532555103260468,0.5244926346428955,0.0,0.0,0.0,0.0,1.09
73,2073-01-01,12094640,800057.4500000001,0.0,11.85,0.06614975311377602,0.28601386341172813,0.0,0.0,0.0,0.0,0.39
74,2074-01-01,12094640,361413.3,0.0,9.67,0.02988210480014287,0.14078518828470749,0.0,0.0,0.0,0.0,0.14
75,2075-01-01,12094640,457752.0799999998,0.0,8.870000000000001,0.03784751592440947,0.18588615099331615,0.0,0.0,0.0,0.0,0.16
76,2076-01-01,12127776,898811.0299999997,0.0,9.77,0.0741117769655376,0.24777564820076073,0.0,0.0,0.0,0.0,0.48
77,2077-01-01,12094640,362228.3100000006,0.0,8.91,0.029949490848838873,0.1518323458969266,0.0,0.0,0.0,0.0,0.15
78,2078-01-01,12094640,1523224.8700000013,0.0,9.44,0.1259421421389972,0.30663111708496027,0.0,0.0,0.0,0.07,0.72
79,2079-01-01,12094640,1717796.529999999,0.0,11.41,0.14202957095043747,0.4948591229467894,0.0,0.0,0.0,0.0,1.08
80,2080-01-01,12127776,629461.0999999997,0.0,10.89,0.0519024345436459,0.2734210497978589,0.0,0.0,0.0,0.0,0.17
81,2081-01-01,12094640,442865.95000000007,0.0,9.3,0.036616712031114614,0.1624056426160196,0.0,0.0,0.0,0.0,0.22
82,2082-01-01,12094640,1269188.030000002,0.0,11.120000000000001,0.10493805768505735,0.35222111772931014,0.0,0.0,0.0,0.0,0.78
83,2083-01-01,12094640,1213763.4099999997,0.0,10.98,0.10035548060959232,0.3109598967009161,0.0,0.0,0.0,0.03,0.54
84,2084-01-01,12127776,595203.7200000002,0.0,9.31,0.04907773032747308,0.21793486959234667,0.0,0.0,0.0,0.0,0.27
85,2085-01-01,12094640,1244079.8900000001,0.0,10.83,0.10286208518814947,0.3596329080534207,0.0,0.0,0.0,0.0,0.61
86,2086-01-01,12094640,933910.8400000009,0.0,12.31,0.07721691923033681,0.3007061598313439,0.0,0.0,0.0,0.0,0.51
87,2087-01-01,12094640,309792.7499999996,0.0,10.15,0.02561405300199093,0.16033636835973303,0.0,0.0,0.0,0.0,0.07
88,2088-01-01,12127776,1051028.0700000005,0.0,11.59,0.08666288608892517,0.3125776756589587,0.0,0.0,0.0,0.0,0.55
89,2089-01-01,12094640,2315570.370000006,0.0,12.08,0.19145426155718617,0.5601173826631632,0.0,0.0,0.0,0.02,1.42
90,2090-01-01,12094640,943982.4199999983,0.0,10.51,0.07804965009293359,0.27180033588272823,0.0,0.0,0.0,0.0,0.48
91,2091-01-01,12094640,1810576.4200000027,0.0,10.57,0.1497007285872091,0.3928730186969289,0.0,0.0,0.0,0.07,0.96
92,2092-01-01,12127776,1324372.040000002,0.0,10.38,0.10920155847205637,0.2608068320763816,0.0,0.0,0.0,0.05,0.67
93,2093-01-01,12094640,1062120.33,0.0,10.55,0.0878174406183235,0.25916844461620847,0.0,0.0,0.0,0.03,0.55
94,2094-01-01,12094640,535794.1899999996,0.0,9.57,0.04430013543189376,0.17209651971265597,0.0,0.0,0.0,0.0,0.32
95,2095-01-01,12094640,1626894.2100000007,0.0,10.42,0.13451365315544742,0.3591599696252326,0.0,0.0,0.0,0.03,0.9
96,2096-01-01,12127776,612042.7400000002,0.0,10.74,0.05046619759467855,0.22033534835373444,0.0,0.0,0.0,0.0,0.27
97,2097-01-01,12094640,366246.31999999995,0.0,8.88,0.030281704953599275,0.1333473686392641,0.0,0.0,0.0,0.0,0.22
98,2098-01-01,12094640,1643907.3699999982,0.0,10.97,0.13592032255610736,0.2879367450174136,0.0,0.0,0.0,0.16,0.68
99,2099-01-01,12094640,1830556.05,0.0,10.61,0.15135266944696163,0.38936622710868135,0.0,0.0,0.0,0.02,0.9500000000000001
100,2100-01-01,12094640,399598.9699999998,0.0,10.23,0.033039343874641976,0.16609407050929823,0.0,0.0,0.0,0.0,0.17
