,time,n,sum,min,max,mean,std,q0.05,q0.25,q0.50,q0.75,q0.95
0,2000-01-01,34406196,209507.9300000002,0.0,0.51,0.00608925002926799,0.02239758973689332,0.0,0.0,0.0,0.0,0.05
1,2001-01-01,34312190,350815.86000000045,0.0,0.79,0.010224234011294542,0.03788208053043907,0.0,0.0,0.0,0.0,0.08
2,2002-01-01,34312190,355697.4599999996,0.0,0.9500000000000001,0.010366504149108512,0.04060678524779012,0.0,0.0,0.0,0.0,0.07
3,2003-01-01,34312190,561146.6499999997,0.0,1.23,0.016354148481924343,0.05579700595621837,0.0,0.0,0.0,0.0,0.12
4,2004-01-01,34406196,630442.5100000008,0.0,1.08,0.018323516787499577,0.06828486457966022,0.0,0.0,0.0,0.0,0.15
5,2005-01-01,34312190,349792.7799999997,0.0,0.43,0.010194417202749217,0.03389052166265696,0.0,0.0,0.0,0.0,0.09
6,2006-01-01,34312190,67713.53000000001,0.0,0.3,0.001973454040677672,0.009155261370765517,0.0,0.0,0.0,0.0,0.01
7,2007-01-01,34312190,450562.5699999996,0.0,0.79,0.013131268216922313,0.04712583145142799,0.0,0.0,0.0,0.0,0.1
8,2008-01-01,34406196,76721.65000000002,0.0,0.43,0.002229878885768134,0.011482416025248977,0.0,0.0,0.0,0.0,0.01
9,2009-01-01,34312190,1001102.6299999995,0.0,0.9,0.02917629652901781,0.06819712225154073,0.0,0.0,0.0,0.0,0.19
10,2010-01-01,34312190,864536.9399999997,0.0,1.03,0.02519620403127867,0.07367758424986422,0.0,0.0,0.0,0.0,0.19
11,2011-01-01,34312190,287450.26999999996,0.0,0.81,0.00837749703531019,0.030347753599182757,0.0,0.0,0.0,0.0,0.06
12,2012-01-01,34406196,640806.6599999993,0.0,1.43,0.018624745961454133,0.06327742064986537,0.0,0.0,0.0,0.0,0.13
13,2013-01-01,34312190,450218.92000000074,0.0,0.93,0.013121252825890762,0.045811937780076105,0.0,0.0,0.0,0.0,0.09
14,2014-01-01,34312190,74487.95999999998,0.0,0.56,0.0021708891213297657,0.010820976184912057,0.0,0.0,0.0,0.0,0.01
15,2015-01-01,34312190,153245.53000000014,0.0,0.9400000000000001,0.004466212445198052,0.01877110940367921,0.0,0.0,0.0,0.0,0.03
16,2016-01-01,34406196,978001.0100000016,0.0,1.1300000000000001,0.02842514208777982,0.06632300326831622,0.0,0.0,0.0,0.0,0.18
17,2017-01-01,34312190,364045.8000000003,0.0,0.61,0.010609809516676151,0.035283083486430694,0.0,0.0,0.0,0.0,0.08
18,2018-01-01,34312190,223907.59999999995,0.0,0.8200000000000001,0.006525599211242417,0.025148504473465033,0.0,0.0,0.0,0.0,0.05
19,2019-01-01,34312190,477041.97000000015,0.0,0.97,0.013902988121714182,0.05600660014363482,0.0,0.0,0.0,0.0,0.1
20,2020-01-01,34406196,457323.1,0.0,0.79,0.013291882078448893,0.03912705313127603,0.0,0.0,0.0,0.0,0.12
21,2021-01-01,34312190,718752.6900000009,0.0,1.01,0.020947444333923333,0.07994443662090975,0.0,0.0,0.0,0.0,0.15
22,2022-01-01,34312190,259722.87000000008,0.0,0.64,0.007569405217212894,0.032299922649536274,0.0,0.0,0.0,0.0,0.05
23,2023-01-01,34312190,378171.8800000003,0.0,0.66,0.011021502270767336,0.03918693779130332,0.0,0.0,0.0,0.0,0.1
24,2024-01-01,34406196,499001.04999999964,0.0,1.1300000000000001,0.014503232208524291,0.05059151606658261,0.0,0.0,0.0,0.0,0.1
25,2025-01-01,34312190,606374.6299999991,0.0,0.9400000000000001,0.0176722800264279,0.06048742286430133,0.0,0.0,0.0,0.0,0.12
26,2026-01-01,34312190,161462.53000000012,0.0,0.45,0.004705690018620208,0.02015275275637017,0.0,0.0,0.0,0.0,0.03
27,2027-01-01,34312190,248001.86999999956,0.0,0.73,0.007227806502586968,0.02960334310974398,0.0,0.0,0.0,0.0,0.04
28,2028-01-01,34406196,666104.2399999998,0.0,0.75,0.019360008296180134,0.05549507084448286,0.0,0.0,0.0,0.0,0.15
29,2029-01-01,34312190,2025205.629999999,0.0,0.88,0.05902291955133143,0.12641719388381728,0.0,0.0,0.0,0.01,0.39
30,2030-01-01,34312190,442142.47999999975,0.0,1.52,0.012885871755781247,0.04551213079537754,0.0,0.0,0.0,0.0,0.1
31,2031-01-01,34312190,352091.82999999984,0.0,0.64,0.0102614210867916,0.0380955009181816,0.0,0.0,0.0,0.0,0.08
32,2032-01-01,34406196,199188.45999999973,0.0,0.38,0.005789319458623084,0.021775770837364507,0.0,0.0,0.0,0.0,0.05
33,2033-01-01,34312190,665715.3400000004,0.0,1.1300000000000001,0.019401715250469305,0.06587740473154817,0.0,0.0,0.0,0.0,0.17
34,2034-01-01,34312190,976615.1100000007,0.0,1.58,0.028462628296241094,0.09897799433743998,0.0,0.0,0.0,0.0,0.24
35,2035-01-01,34312190,99379.52999999996,0.0,0.6900000000000001,0.002896333052480764,0.013058189223415806,0.0,0.0,0.0,0.0,0.02
36,2036-01-01,34406196,207485.69999999978,0.0,0.8300000000000001,0.006030474859818847,0.02896670503727786,0.0,0.0,0.0,0.0,0.03
37,2037-01-01,34312190,1290479.0900000005,0.0,1.2,0.037609930756387175,0.09218588382722682,0.0,0.0,0.0,0.0,0.26
38,2038-01-01,34312190,377825.82,0.0,0.7000000000000001,0.011011416642307006,0.04564370861330299,0.0,0.0,0.0,0.0,0.09
39,2039-01-01,34312190,294311.5300000002,0.0,0.64,0.008577462703488184,0.03649436172661141,0.0,0.0,0.0,0.0,0.07
40,2040-01-01,34406196,326584.4100000002,0.0,0.61,0.00949202318094102,0.03443508564620537,0.0,0.0,0.0,0.0,0.09
41,2041-01-01,34312190,1299579.2200000014,0.0,1.06,0.037875146412980384,0.10256146716030103,0.0,0.0,0.0,0.0,0.31
42,2042-01-01,34312190,51149.58999999993,0.0,0.41000000000000003,0.0014907119015137166,0.010074277526295052,0.0,0.0,0.0,0.0,0.0
43,2043-01-01,34312190,153420.71000000022,0.0,0.56,0.004471317919375016,0.01873205651176905,0.0,0.0,0.0,0.0,0.03
44,2044-01-01,34406196,709600.2900000018,0.0,0.56,0.020624200652696444,0.05671005791647634,0.0,0.0,0.0,0.0,0.16
45,2045-01-01,34312190,160043.1999999999,0.0,0.64,0.004664324836158808,0.020778470550545765,0.0,0.0,0.0,0.0,0.03
46,2046-01-01,34312190,1516867.1299999992,0.0,0.8,0.044207820311090586,0.09616389126573571,0.0,0.0,0.0,0.0,0.27
47,2047-01-01,34312190,529243.1800000007,0.0,0.97,0.015424348606136791,0.05752029456830434,0.0,0.0,0.0,0.0,0.12
48,2048-01-01,34406196,727636.3299999991,0.0,1.31,0.021148409722481356,0.08215071863187576,0.0,0.0,0.0,0.0,0.16
49,2049-01-01,34312190,366292.87999999954,0.0,0.87,0.010675298778655619,0.04139176845274082,0.0,0.0,0.0,0.0,0.08
50,2050-01-01,34312190,99275.25000000004,0.0,0.54,0.0028932938993401483,0.015079583724414052,0.0,0.0,0.0,0.0,0.01
51,2051-01-01,34312190,285121.3099999997,0.0,0.58,0.00830962144940325,0.03343818088037081,0.0,0.0,0.0,0.0,0.06
52,2052-01-01,34406196,255512.01999999984,0.0,0.67,0.007426337395741158,0.03001312593181634,0.0,0.0,0.0,0.0,0.06
53,2053-01-01,34312190,165741.60999999975,0.0,0.91,0.004830400216366246,0.030766111237281384,0.0,0.0,0.0,0.0,0.01
54,2054-01-01,34312190,202481.0499999996,0.0,0.75,0.005901140381887592,0.031447768140538186,0.0,0.0,0.0,0.0,0.02
55,2055-01-01,34312190,245468.91000000038,0.0,0.6900000000000001,0.0071539855077743615,0.025917132057906345,0.0,0.0,0.0,0.0,0.06
56,2056-01-01,34406196,934620.1200000016,0.0,0.74,0.027164296802820096,0.07902336079271663,0.0,0.0,0.0,0.0,0.21
57,2057-01-01,34312190,1843894.0700000015,0.0,0.86,0.05373874620069431,0.11615593993442101,0.0,0.0,0.0,0.0,0.35000000000000003
58,2058-01-01,34312190,349013.9799999998,0.0,0.66,0.01017171972992688,0.03668083291707101,0.0,0.0,0.0,0.0,0.08
59,2059-01-01,34312190,932107.4400000017,0.0,1.08,0.027165489582565313,0.07693318514830544,0.0,0.0,0.0,0.0,0.22
60,2060-01-01,34406196,215451.51,0.0,0.5700000000000001,0.006261997403025897,0.025049470044363725,0.0,0.0,0.0,0.0,0.05
61,2061-01-01,34312190,426269.9399999992,0.0,0.81,0.012423279889741786,0.047403161182173796,0.0,0.0,0.0,0.0,0.1
62,2062-01-01,34312190,90980.38999999998,0.0,0.5,0.0026515471615189815,0.014847145546552889,0.0,0.0,0.0,0.0,0.01
63,2063-01-01,34312190,187196.07,0.0,0.47000000000000003,0.00545567245926302,0.024719272264014866,0.0,0.0,0.0,0.0,0.05
64,2064-01-01,34406196,819367.4100000001,0.0,1.08,0.02381453067348684,0.071162386260615,0.0,0.0,0.0,0.0,0.17
65,2065-01-01,34312190,515513.3100000007,0.0,0.85,0.015024203060195246,0.05668261125856619,0.0,0.0,0.0,0.0,0.1
66,2066-01-01,34312190,4505.6500000000015,0.0,0.31,0.00013131339037234294,0.0022271004152994347,0.0,0.0,0.0,0.0,0.0
67,2067-01-01,34312190,69147.65999999989,0.0,0.74,0.002015250556726338,0.011844498518046781,0.0,0.0,0.0,0.0,0.01
68,2068-01-01,34406196,172195.30999999997,0.0,1.28,0.00500477617461692,0.025553887498310713,0.0,0.0,0.0,0.0,0.02
69,2069-01-01,34312190,116191.54999999978,0.0,0.6900000000000001,0.003386305275180622,0.0198062293011867,0.0,0.0,0.0,0.0,0.01
70,2070-01-01,34312190,315073.34,0.0,0.65,0.009182548243058808,0.03092018103340871,0.0,0.0,0.0,0.0,0.08
71,2071-01-01,34312190,232286.66,0.0,0.5700000000000001,0.006769799887445249,0.026846022097172656,0.0,0.0,0.0,0.0,0.05
72,2072-01-01,34406196,368346.39000000077,0.0,0.87,0.010705815603677919,0.04159535934423403,0.0,0.0,0.0,0.0,0.08
73,2073-01-01,34312190,126765.01999999997,0.0,0.74,0.0036944601903871476,0.023115178852457667,0.0,0.0,0.0,0.0,0.0
74,2074-01-01,34312190,602679.9199999992,0.0,0.86,0.01756460080222216,0.05222335387529382,0.0,0.0,0.0,0.0,0.13
75,2075-01-01,34312190,782606.9300000007,0.0,1.07,0.022808422604328103,0.0738561209794269,0.0,0.0,0.0,0.0,0.16
76,2076-01-01,34406196,134005.76999999984,0.0,0.49,0.003894815050172935,0.01765499412538472,0.0,0.0,0.0,0.0,0.03
77,2077-01-01,34312190,620589.9700000003,0.0,1.18,0.018086574188356977,0.0584661160377903,0.0,0.0,0.0,0.0,0.14
78,2078-01-01,34312190,938555.5899999995,0.0,1.1,0.027353415506267582,0.0863107968024043,0.0,0.0,0.0,0.0,0.23
79,2079-01-01,34312190,83661.47999999997,0.0,0.68,0.002438243667920933,0.019287567651685704,0.0,0.0,0.0,0.0,0.0
80,2080-01-01,34406196,92380.00000000007,0.0,0.74,0.0026849815074005876,0.01791396334800074,0.0,0.0,0.0,0.0,0.0
81,2081-01-01,34312190,455484.4499999994,0.0,0.62,0.013274712281553564,0.042239011469051034,0.0,0.0,0.0,0.0,0.11
82,2082-01-01,34312190,165685.31,0.0,0.9,0.004828759400084926,0.021273898971541864,0.0,0.0,0.0,0.0,0.04
83,2083-01-01,34312190,313637.09,0.0,0.78,0.009140689941388178,0.036907658306790436,0.0,0.0,0.0,0.0,0.08
84,2084-01-01,34406196,425976.0199999995,0.0,0.47000000000000003,0.012380793854688252,0.03650782615529631,0.0,0.0,0.0,0.0,0.1
85,2085-01-01,34312190,198607.15999999997,0.0,0.43,0.005788239106859689,0.02210868836343132,0.0,0.0,0.0,0.0,0.05
86,2086-01-01,34312190,37516.72,0.0,0.4,0.001093393339218511,0.00859352500997575,0.0,0.0,0.0,0.0,0.0
87,2087-01-01,34312190,150569.7699999998,0.0,0.71,0.004388229664151422,0.024696423133936756,0.0,0.0,0.0,0.0,0.01
88,2088-01-01,34406196,11521.029999999997,0.0,0.22,0.0003348533502512163,0.00330908280574866,0.0,0.0,0.0,0.0,0.0
89,2089-01-01,34312190,881618.4800000004,0.0,0.63,0.02569403118833279,0.06771248911723014,0.0,0.0,0.0,0.0,0.2
90,2090-01-01,34312190,240186.7400000001,0.0,0.48,0.007000041093267439,0.028522026019996694,0.0,0.0,0.0,0.0,0.05
91,2091-01-01,34312190,7197.410000000013,0.0,0.29,0.0002097624779998016,0.0029823686421249817,0.0,0.0,0.0,0.0,0.0
92,2092-01-01,34406196,88473.10999999996,0.0,0.47000000000000003,0.0025714295762309775,0.01853823012005825,0.0,0.0,0.0,0.0,0.0
93,2093-01-01,34312190,177415.98999999955,0.0,0.51,0.0051706402301922305,0.024771952337591368,0.0,0.0,0.0,0.0,0.03
94,2094-01-01,34312190,156393.25000000006,0.0,0.45,0.004557950104612968,0.02133085936578833,0.0,0.0,0.0,0.0,0.03
95,2095-01-01,34312190,399492.0899999996,0.0,1.04,0.01164286191000923,0.04714433946501152,0.0,0.0,0.0,0.0,0.08
96,2096-01-01,34406196,1913358.1799999997,0.0,1.44,0.055610860904239445,0.13961088328053758,0.0,0.0,0.0,0.01,0.36
97,2097-01-01,34312190,163588.92999999967,0.0,0.66,0.004767662163213705,0.021803260006967532,0.0,0.0,0.0,0.0,0.03
98,2098-01-01,34312190,381703.6299999997,0.0,0.74,0.011124432162447215,0.04673467108834129,0.0,0.0,0.0,0.0,0.06
99,2099-01-01,34312190,1033961.1500000014,0.0,1.1,0.030133930536057344,0.08824705198120623,0.0,0.0,0.0,0.0,0.24
100,2100-01-01,34312190,117156.30000000008,0.0,0.6,0.0034144221047971604,0.02539968115580486,0.0,0.0,0.0,0.0,0.0
