,time,n,sum,min,max,mean,std,q0.05,q0.25,q0.50,q0.75,q0.95
0,2000-01-01,732,353.21,0.0,1.72,0.4825273224043716,0.5373694077643677,0.0,0.0,0.245,0.8725,1.48
1,2001-01-01,730,400.51,0.0,1.54,0.5486438356164384,0.4611655237224695,0.0,0.0,0.73,0.9500000000000001,1.1554999999999995
2,2002-01-01,730,501.27,0.0,2.05,0.6866712328767123,0.6593059978200515,0.0,0.0,0.34500000000000003,1.4075,1.72
3,2003-01-01,730,388.53,0.0,1.54,0.5322328767123288,0.5257394797453938,0.0,0.0,0.385,1.17,1.3554999999999997
4,2004-01-01,732,726.2700000000001,0.0,2.5100000000000002,0.9921721311475411,0.7509961020100278,0.0,0.0,1.09,1.6525,2.1089999999999987
5,2005-01-01,730,470.92,0.0,2.42,0.6450958904109589,0.6549629742621671,0.0,0.0,0.46,1.1075000000000002,1.84
6,2006-01-01,730,595.4100000000001,0.0,2.77,0.8156301369863015,0.8033857806287211,0.0,0.0,0.5700000000000001,1.5,2.2655
7,2007-01-01,730,268.62,0.0,1.06,0.36797260273972604,0.32860935598127944,0.0,0.0,0.35000000000000003,0.67,0.8854999999999995
8,2008-01-01,732,432.77000000000004,0.0,1.47,0.5912158469945356,0.4686077185100918,0.0,0.0,0.68,0.97,1.29
9,2009-01-01,730,481.40000000000003,0.0,2.21,0.6594520547945206,0.6861246949471544,0.0,0.0,0.245,1.35,1.75
10,2010-01-01,730,248.87,0.0,1.8800000000000001,0.3409178082191781,0.4382632052547049,0.0,0.0,0.14,0.7075,1.070999999999999
11,2011-01-01,730,783.46,0.0,2.58,1.073232876712329,0.8296769221109536,0.0,0.0,1.185,1.78,2.33
12,2012-01-01,732,777.3500000000001,0.0,3.2600000000000002,1.0619535519125685,0.9413245713685834,0.0,0.0,1.1500000000000001,1.9100000000000001,2.5444999999999993
13,2013-01-01,730,417.23,0.0,1.93,0.5715479452054795,0.6320566027430773,0.0,0.0,0.33,1.18,1.67
14,2014-01-01,730,913.3599999999999,0.0,4.0200000000000005,1.2511780821917806,1.1312885045891257,0.0,0.0,1.1500000000000001,2.1475,3.3964999999999987
15,2015-01-01,730,306.89,0.0,1.31,0.42039726027397256,0.414433405583728,0.0,0.0,0.36,0.84,1.01
16,2016-01-01,732,599.12,0.0,2.58,0.8184699453551912,0.7993775638169218,0.0,0.0,0.6,1.57,2.074499999999999
17,2017-01-01,730,280.65000000000003,0.0,1.62,0.3844520547945206,0.48224507897375996,0.0,0.0,0.09,0.81,1.3954999999999997
18,2018-01-01,730,520.51,0.0,2.04,0.713027397260274,0.6863742433899426,0.0,0.0,0.595,1.44,1.74
19,2019-01-01,730,590.8000000000001,0.0,2.86,0.8093150684931508,0.7574886929254633,0.0,0.0,0.8200000000000001,1.4475,2.0309999999999993
20,2020-01-01,732,447.6,0.0,2.06,0.6114754098360656,0.6412144882074384,0.0,0.0,0.28,1.2525,1.61
21,2021-01-01,730,348.96000000000004,0.0,1.49,0.47802739726027405,0.45106291431910883,0.0,0.0,0.41000000000000003,0.84,1.33
22,2022-01-01,730,633.13,0.0,2.7600000000000002,0.8673013698630136,0.8548360282554796,0.0,0.0,0.455,1.6775,2.2809999999999993
23,2023-01-01,730,310.77000000000004,0.0,1.56,0.42571232876712334,0.4390317484526277,0.0,0.0,0.265,0.85,1.0754999999999997
24,2024-01-01,732,637.98,0.0,2.25,0.8715573770491803,0.6317060175505007,0.0,0.0,0.91,1.3025,1.9144999999999994
25,2025-01-01,730,603.4,0.0,2.41,0.8265753424657534,0.8054234301643822,0.0,0.0,0.445,1.6300000000000001,2.08
26,2026-01-01,730,504.74,0.0,1.79,0.6914246575342465,0.526906087595722,0.0,0.0,0.8250000000000001,1.06,1.47
27,2027-01-01,730,449.94000000000005,0.0,1.99,0.6163561643835617,0.6518079255248964,0.0,0.0,0.34500000000000003,1.3275000000000001,1.67
28,2028-01-01,732,454.96999999999997,0.0,1.85,0.6215437158469945,0.6117219666501829,0.0,0.0,0.54,1.3025,1.59
29,2029-01-01,730,807.77,0.0,2.7,1.1065342465753425,0.8563134841130013,0.0,0.0,1.155,1.82,2.4254999999999995
30,2030-01-01,730,685.3900000000001,0.0,2.96,0.9388904109589042,0.860367237004519,0.0,0.0,0.685,1.67,2.4454999999999996
31,2031-01-01,730,694.98,0.0,3.25,0.952027397260274,0.9747498445875038,0.0,0.0,0.6900000000000001,1.7575,2.7154999999999996
32,2032-01-01,732,473.18,0.0,2.24,0.6464207650273224,0.6204896515303421,0.0,0.0,0.49,1.21,1.7389999999999985
33,2033-01-01,730,423.67,0.0,1.93,0.5803698630136986,0.6130371283499864,0.0,0.0,0.295,1.1575,1.5254999999999996
34,2034-01-01,730,508.88,0.0,2.45,0.6970958904109589,0.6910540324291119,0.0,0.0,0.555,1.3,1.93
35,2035-01-01,730,517.2099999999999,0.0,2.61,0.7085068493150684,0.8454180067383651,0.0,0.0,0.14,1.57,2.19
36,2036-01-01,732,235.56000000000003,0.0,1.33,0.32180327868852465,0.36322331204849684,0.0,0.0,0.19,0.61,1.01
37,2037-01-01,730,180.53000000000003,0.0,1.19,0.24730136986301374,0.2900278297903806,0.0,0.0,0.15,0.37,0.88
38,2038-01-01,730,537.0,0.0,2.94,0.7356164383561644,0.7749916239960448,0.0,0.0,0.38,1.42,2.0454999999999997
39,2039-01-01,730,377.48,0.0,2.2,0.5170958904109589,0.662382419948691,0.0,0.0,0.055,1.21,1.680999999999999
40,2040-01-01,732,294.92,0.0,1.6300000000000001,0.402896174863388,0.5306584991991117,0.0,0.0,0.05,0.98,1.3900000000000001
41,2041-01-01,730,480.73,0.0,2.46,0.6585342465753425,0.7018975568656878,0.0,0.0,0.335,1.28,1.9554999999999996
42,2042-01-01,730,501.45000000000005,0.0,2.48,0.6869178082191781,0.7831221016682032,0.0,0.0,0.315,1.4275,2.160999999999999
43,2043-01-01,730,851.31,0.0,3.18,1.1661780821917807,0.9489603805761183,0.0,0.0,1.1300000000000001,2.0,2.7164999999999986
44,2044-01-01,732,650.9100000000001,0.0,3.0,0.88922131147541,0.9158450785213795,0.0,0.0,0.505,1.7525,2.364499999999999
45,2045-01-01,730,222.28,0.0,1.22,0.3044931506849315,0.36683702190212264,0.0,0.0,0.08,0.67,0.9654999999999995
46,2046-01-01,730,456.78,0.0,1.54,0.6257260273972602,0.5077274983790476,0.0,0.0,0.75,1.04,1.3900000000000001
47,2047-01-01,730,576.4000000000001,0.0,2.46,0.7895890410958906,0.8142751013642872,0.0,0.0,0.24,1.6,2.04
48,2048-01-01,732,57.03,0.0,0.54,0.07790983606557378,0.12253415966890815,0.0,0.0,0.0,0.12,0.34
49,2049-01-01,730,164.25,0.0,1.31,0.225,0.2798831703427269,0.0,0.0,0.07,0.41000000000000003,0.75
50,2050-01-01,730,224.14999999999998,0.0,1.05,0.3070547945205479,0.3230924372760183,0.0,0.0,0.18,0.63,0.8454999999999995
51,2051-01-01,730,325.01000000000005,0.0,1.61,0.44521917808219186,0.5200087129558594,0.0,0.0,0.1,0.97,1.43
52,2052-01-01,732,142.33,0.0,0.77,0.19443989071038253,0.22312996517624184,0.0,0.0,0.09,0.38,0.6444999999999993
53,2053-01-01,730,441.26,0.0,2.09,0.6044657534246575,0.5899949403588898,0.0,0.0,0.45,1.1,1.6154999999999997
54,2054-01-01,730,456.36,0.0,2.22,0.6251506849315068,0.6809391514511285,0.0,0.0,0.255,1.31,1.74
55,2055-01-01,730,643.6400000000001,0.0,2.84,0.8816986301369865,0.7899733771295498,0.0,0.0,0.68,1.49,2.4054999999999995
56,2056-01-01,732,299.17,0.0,1.53,0.40870218579234974,0.46432315608195857,0.0,0.0,0.14500000000000002,0.73,1.28
57,2057-01-01,730,300.77,0.0,1.68,0.412013698630137,0.4522951210489411,0.0,0.0,0.02,0.8375,1.05
58,2058-01-01,730,413.35999999999996,0.0,2.31,0.5662465753424657,0.6632678704473207,0.0,0.0,0.13,1.04,1.87
59,2059-01-01,730,487.9,0.0,1.7,0.6683561643835616,0.4981794629011928,0.0,0.0,0.8300000000000001,1.08,1.3564999999999987
60,2060-01-01,732,468.88,0.0,2.23,0.6405464480874317,0.6280692739418938,0.0,0.0,0.52,1.1925,1.7
61,2061-01-01,730,956.44,0.0,3.22,1.310191780821918,0.8970942232630289,0.0,0.0,1.45,2.07,2.63
62,2062-01-01,730,1030.95,0.0,3.58,1.412260273972603,0.9721737897428313,0.04,0.04,1.59,2.1375,2.996499999999999
63,2063-01-01,730,856.5600000000001,0.0,2.83,1.1733698630136986,0.9318597623172752,0.0,0.0,1.31,1.9775,2.5654999999999997
64,2064-01-01,732,186.59999999999997,0.0,0.89,0.2549180327868852,0.31046830281345594,0.0,0.0,0.0,0.48,0.84
65,2065-01-01,730,414.59000000000003,0.0,2.31,0.5679315068493151,0.6656151512362558,0.0,0.0,0.11,1.1975,1.7
66,2066-01-01,730,277.7,0.0,1.69,0.3804109589041096,0.5092593019201821,0.0,0.0,0.01,0.9075,1.3054999999999997
67,2067-01-01,730,527.42,0.0,2.07,0.7224931506849315,0.5933088807992668,0.0,0.0,0.87,1.17,1.6554999999999997
68,2068-01-01,732,313.62,0.0,1.74,0.4284426229508197,0.5348903475165206,0.0,0.0,0.02,0.99,1.37
69,2069-01-01,730,370.86,0.0,1.93,0.508027397260274,0.5525856525091646,0.0,0.0,0.36,0.78,1.7
70,2070-01-01,730,560.09,0.0,2.61,0.7672465753424658,0.7791109840722118,0.0,0.0,0.6950000000000001,1.35,2.18
71,2071-01-01,730,766.9599999999999,0.0,2.7600000000000002,1.0506301369863014,0.970380881397698,0.0,0.0,0.78,1.98,2.5555
72,2072-01-01,732,885.71,0.0,3.5300000000000002,1.2099863387978143,1.0593222004676084,0.0,0.0,1.22,2.12,2.93
73,2073-01-01,730,454.3,0.0,2.31,0.6223287671232877,0.7044063283885392,0.0,0.0,0.19,1.19,1.9000000000000001
74,2074-01-01,730,188.63,0.0,1.41,0.2583972602739726,0.35043852135969283,0.0,0.0,0.09,0.37,1.08
75,2075-01-01,730,254.66000000000003,0.0,1.3800000000000001,0.3488493150684932,0.4540672109815594,0.0,0.0,0.0,0.73,1.2
76,2076-01-01,732,408.72,0.0,1.7,0.558360655737705,0.5850036579060891,0.0,0.0,0.24,1.11,1.5044999999999993
77,2077-01-01,730,284.65999999999997,0.0,1.54,0.389945205479452,0.4788210375898875,0.0,0.0,0.0,0.8200000000000001,1.31
78,2078-01-01,730,375.57000000000005,0.0,1.78,0.5144794520547946,0.573915000378953,0.0,0.0,0.23,1.07,1.5354999999999996
79,2079-01-01,730,796.28,0.0,2.87,1.0907945205479452,0.8559451550555832,0.0,0.0,1.23,1.8,2.4409999999999994
80,2080-01-01,732,348.78999999999996,0.0,1.75,0.47648907103825133,0.5783940893181339,0.0,0.0,0.08,1.02,1.51
81,2081-01-01,730,266.91,0.0,1.51,0.3656301369863014,0.4187394000081188,0.0,0.0,0.18,0.6675,1.17
82,2082-01-01,730,591.95,0.0,2.68,0.8108904109589041,0.7646798248715501,0.0,0.0,0.555,1.4775,1.960999999999999
83,2083-01-01,730,567.31,0.0,2.35,0.7771369863013697,0.7679266841265886,0.0,0.0,0.495,1.61,2.0254999999999996
84,2084-01-01,732,219.26999999999998,0.0,1.1500000000000001,0.2995491803278688,0.3391526552123388,0.0,0.0,0.17,0.53,0.9944999999999993
85,2085-01-01,730,581.65,0.0,2.14,0.7967808219178082,0.6825971102888343,0.0,0.0,0.7000000000000001,1.49,1.8
86,2086-01-01,730,686.38,0.0,3.0300000000000002,0.9402465753424657,0.8777423995811746,0.0,0.0,0.85,1.74,2.32
87,2087-01-01,730,288.15999999999997,0.0,1.3800000000000001,0.3947397260273972,0.4496397348562166,0.0,0.0,0.08,0.8574999999999999,1.1754999999999995
88,2088-01-01,732,442.71,0.0,2.08,0.6047950819672131,0.6709475288157043,0.0,0.0,0.275,1.16,1.82
89,2089-01-01,730,996.69,0.0,3.5100000000000002,1.3653287671232877,1.1056714138810964,0.0,0.0,1.42,2.3875,3.0854999999999997
90,2090-01-01,730,395.13,0.0,1.83,0.5412739726027397,0.5467434288528831,0.0,0.0,0.405,0.96,1.59
91,2091-01-01,730,580.21,0.0,2.5500000000000003,0.7948082191780822,0.7951877723890771,0.0,0.0,0.51,1.4775,2.1909999999999994
92,2092-01-01,732,230.12,0.0,1.02,0.31437158469945353,0.38356184255139764,0.0,0.0,0.06,0.6325000000000001,0.98
93,2093-01-01,730,376.08000000000004,0.0,1.93,0.5151780821917809,0.48126492412271493,0.0,0.0,0.545,0.85,1.3909999999999991
94,2094-01-01,730,343.39,0.0,1.71,0.4703972602739726,0.552376168227206,0.0,0.0,0.11,1.07,1.4054999999999995
95,2095-01-01,730,519.12,0.0,2.36,0.7111232876712329,0.6642029716433646,0.0,0.0,0.67,1.28,1.8754999999999997
96,2096-01-01,732,477.51,0.0,2.09,0.6523360655737704,0.6273448966082112,0.0,0.0,0.43,1.17,1.8544999999999994
97,2097-01-01,730,192.42,0.0,1.3800000000000001,0.2635890410958904,0.36297287855270116,0.0,0.0,0.07,0.51,1.12
98,2098-01-01,730,422.69,0.0,1.93,0.579027397260274,0.5984608219539301,0.0,0.0,0.515,1.1400000000000001,1.6154999999999997
99,2099-01-01,730,594.2700000000001,0.0,2.33,0.8140684931506851,0.7110074047119788,0.0,0.0,0.71,1.46,1.8654999999999997
100,2100-01-01,730,429.70000000000005,0.0,1.79,0.5886301369863014,0.507644614846029,0.0,0.0,0.5,1.03,1.580999999999999
