,time,n,sum,min,max,mean,std,q0.05,q0.25,q0.50,q0.75,q0.95
0,2000-01-01,5249172,88946.43000000002,0.0,1.08,0.01694484958770641,0.0701493315329956,0.0,0.0,0.0,0.0,0.13
1,2001-01-01,5234830,250828.49999999977,0.0,1.34,0.04791530957070235,0.12267941971579889,0.0,0.0,0.0,0.0,0.32
2,2002-01-01,5234830,226503.39000000013,0.0,2.0300000000000002,0.04326852829986841,0.11961227937200206,0.0,0.0,0.0,0.0,0.32
3,2003-01-01,5234830,74033.92,0.0,2.2,0.014142564323960854,0.058250298359609855,0.0,0.0,0.0,0.0,0.09
4,2004-01-01,5249172,161601.48999999985,0.0,2.21,0.030786091596922305,0.11299105525905728,0.0,0.0,0.0,0.0,0.18
5,2005-01-01,5234830,108668.09999999993,0.0,2.05,0.020758668380826108,0.08673725908918582,0.0,0.0,0.0,0.0,0.11
6,2006-01-01,5234830,120908.1699999999,0.0,1.58,0.02309686656491231,0.07489820520966323,0.0,0.0,0.0,0.0,0.16
7,2007-01-01,5234830,166163.31,0.0,0.98,0.03174187318403845,0.07645277089656821,0.0,0.0,0.0,0.0,0.2
8,2008-01-01,5249172,76864.78999999992,0.0,1.09,0.014643221826223244,0.05648041460834277,0.0,0.0,0.0,0.0,0.11
9,2009-01-01,5234830,29278.839999999956,0.0,0.81,0.0055930832519871625,0.02885211420274023,0.0,0.0,0.0,0.0,0.03
10,2010-01-01,5234830,114786.75000000003,0.0,1.16,0.0219275028988525,0.06706571743799665,0.0,0.0,0.0,0.0,0.17
11,2011-01-01,5234830,139087.24999999997,0.0,0.97,0.026569582966400048,0.07620070690919897,0.0,0.0,0.0,0.0,0.23
12,2012-01-01,5249172,58690.009999999995,0.0,1.11,0.011180812897729393,0.041485361035644826,0.0,0.0,0.0,0.0,0.08
13,2013-01-01,5234830,31936.530000000006,0.0,0.81,0.006100776911571151,0.033372401328087276,0.0,0.0,0.0,0.0,0.02
14,2014-01-01,5234830,39383.73000000001,0.0,1.27,0.007523401906079092,0.03757912541893097,0.0,0.0,0.0,0.0,0.04
15,2015-01-01,5234830,61495.27000000004,0.0,1.07,0.011747328948600057,0.043883953334006756,0.0,0.0,0.0,0.0,0.08
16,2016-01-01,5249172,19628.92000000002,0.0,0.67,0.0037394316665561767,0.019753833104100074,0.0,0.0,0.0,0.0,0.02
17,2017-01-01,5234830,124804.39000000004,0.0,1.08,0.02384115434503127,0.06411893152739992,0.0,0.0,0.0,0.0,0.17
18,2018-01-01,5234830,45404.27000000002,0.0,1.04,0.008673494650256077,0.038345564857386806,0.0,0.0,0.0,0.0,0.05
19,2019-01-01,5234830,133999.29,0.0,1.3900000000000001,0.02559763927386372,0.09210817098819095,0.0,0.0,0.0,0.0,0.21
20,2020-01-01,5249172,74218.62000000002,0.0,1.83,0.014139109939624769,0.05420020234777633,0.0,0.0,0.0,0.0,0.1
21,2021-01-01,5234830,44503.75000000002,0.0,1.16,0.008501469961775266,0.04326443339024785,0.0,0.0,0.0,0.0,0.04
22,2022-01-01,5234830,104711.71000000002,0.0,0.56,0.02000288643566267,0.050688989043933694,0.0,0.0,0.0,0.0,0.14
23,2023-01-01,5234830,44127.74999999996,0.0,1.1400000000000001,0.008429643369507694,0.040019656517438634,0.0,0.0,0.0,0.0,0.05
24,2024-01-01,5249172,16927.650000000005,0.0,0.55,0.0032248228863523626,0.018246177353610695,0.0,0.0,0.0,0.0,0.01
25,2025-01-01,5234830,26844.95000000001,0.0,1.21,0.0051281416970560675,0.02781114602996607,0.0,0.0,0.0,0.0,0.02
26,2026-01-01,5234830,164095.95999999996,0.0,1.57,0.03134695109487796,0.0789138095988669,0.0,0.0,0.0,0.0,0.22
27,2027-01-01,5234830,144210.88000000003,0.0,1.21,0.027548340633793272,0.08944028809664327,0.0,0.0,0.0,0.0,0.27
28,2028-01-01,5249172,20452.739999999972,0.0,0.7000000000000001,0.0038963745139233333,0.020182348402856383,0.0,0.0,0.0,0.0,0.02
29,2029-01-01,5234830,15993.830000000014,0.0,0.66,0.003055272090975259,0.01890367957855038,0.0,0.0,0.0,0.0,0.01
30,2030-01-01,5234830,30471.449999999986,0.0,0.7000000000000001,0.005820905358913276,0.028384093757327054,0.0,0.0,0.0,0.0,0.03
31,2031-01-01,5234830,26899.019999999986,0.0,0.93,0.005138470590257942,0.026146868992870095,0.0,0.0,0.0,0.0,0.03
32,2032-01-01,5249172,40267.46,0.0,0.67,0.007671202239134096,0.03435852270058795,0.0,0.0,0.0,0.0,0.05
33,2033-01-01,5234830,72856.57999999993,0.0,1.06,0.013917659217204748,0.056860370501324815,0.0,0.0,0.0,0.0,0.11
34,2034-01-01,5234830,13513.500000000005,0.0,0.46,0.002581459187786424,0.013666013452273659,0.0,0.0,0.0,0.0,0.01
35,2035-01-01,5234830,15335.140000000014,0.0,1.29,0.002929443745069088,0.022948905919262897,0.0,0.0,0.0,0.0,0.01
36,2036-01-01,5249172,29058.61000000003,0.0,1.24,0.0055358464153965675,0.03375532561697558,0.0,0.0,0.0,0.0,0.02
37,2037-01-01,5234830,46258.54000000001,0.0,0.87,0.008836684285831634,0.03768620127784069,0.0,0.0,0.0,0.0,0.06
38,2038-01-01,5234830,299457.49000000034,0.0,1.32,0.05720481658430175,0.1429375912641261,0.0,0.0,0.0,0.0,0.4
39,2039-01-01,5234830,50101.33999999995,0.0,0.62,0.009570767341059777,0.036344067575421635,0.0,0.0,0.0,0.0,0.08
40,2040-01-01,5249172,50104.73999999999,0.0,0.59,0.00954526542471841,0.031642565648451366,0.0,0.0,0.0,0.0,0.08
41,2041-01-01,5234830,83588.28,0.0,0.93,0.01596771623911378,0.05421167483351087,0.0,0.0,0.0,0.0,0.13
42,2042-01-01,5234830,640544.900000001,0.0,2.17,0.12236212064193125,0.24487991908217457,0.0,0.0,0.0,0.06,0.7000000000000001
43,2043-01-01,5234830,80421.64000000007,0.0,1.95,0.015362798791937861,0.0528985521127906,0.0,0.0,0.0,0.0,0.14
44,2044-01-01,5249172,10971.62000000001,0.0,0.84,0.002090162029363871,0.015850022979154468,0.0,0.0,0.0,0.0,0.0
45,2045-01-01,5234830,16578.14000000001,0.0,0.63,0.0031668917615280743,0.024879634807431668,0.0,0.0,0.0,0.0,0.0
46,2046-01-01,5234830,39543.92999999999,0.0,1.1,0.007554004619061172,0.04517455563469132,0.0,0.0,0.0,0.0,0.03
47,2047-01-01,5234830,14362.25,0.0,0.45,0.002743594347858479,0.01664893785179988,0.0,0.0,0.0,0.0,0.0
48,2048-01-01,5249172,137080.92000000007,0.0,1.1400000000000001,0.026114770100884494,0.07376836885226473,0.0,0.0,0.0,0.0,0.21
49,2049-01-01,5234830,214105.31999999998,0.0,1.6,0.04090014766477612,0.12005857435971659,0.0,0.0,0.0,0.0,0.34
50,2050-01-01,5234830,16306.03000000001,0.0,0.47000000000000003,0.003114911085937845,0.01735183780677472,0.0,0.0,0.0,0.0,0.02
51,2051-01-01,5234830,44139.370000000075,0.0,0.89,0.008431863116853858,0.036002458061534216,0.0,0.0,0.0,0.0,0.06
52,2052-01-01,5249172,20867.72,0.0,0.64,0.003975430791751537,0.023735976775221566,0.0,0.0,0.0,0.0,0.0
53,2053-01-01,5234830,37737.149999999936,0.0,0.8200000000000001,0.007208858740398435,0.036529341775307936,0.0,0.0,0.0,0.0,0.04
54,2054-01-01,5234830,30906.200000000004,0.0,0.55,0.005903954856222648,0.027764421851627568,0.0,0.0,0.0,0.0,0.04
55,2055-01-01,5234830,14758.390000000012,0.0,0.84,0.0028192682474884596,0.02175207737744521,0.0,0.0,0.0,0.0,0.0
56,2056-01-01,5249172,32729.399999999998,0.0,1.5,0.006235154801557273,0.03203070676838467,0.0,0.0,0.0,0.0,0.04
57,2057-01-01,5234830,203302.8899999999,0.0,1.03,0.038836579220337605,0.10679792439757324,0.0,0.0,0.0,0.0,0.29
58,2058-01-01,5234830,28212.719999999976,0.0,0.8200000000000001,0.0053894242984012805,0.027001266456322972,0.0,0.0,0.0,0.0,0.03
59,2059-01-01,5234830,80089.53999999995,0.0,1.08,0.015299358336373855,0.05649535353224631,0.0,0.0,0.0,0.0,0.1
60,2060-01-01,5249172,115803.75999999992,0.0,1.1400000000000001,0.022061338435852344,0.07042447655265568,0.0,0.0,0.0,0.0,0.19
61,2061-01-01,5234830,352142.2200000002,0.0,2.02,0.06726908419184581,0.16588365280405995,0.0,0.0,0.0,0.0,0.46
62,2062-01-01,5234830,19660.09,0.0,0.96,0.003755631032908423,0.027962626785055133,0.0,0.0,0.0,0.0,0.0
63,2063-01-01,5234830,5680.28,0.0,0.32,0.0010850934987382589,0.0102761667029886,0.0,0.0,0.0,0.0,0.0
64,2064-01-01,5249172,89981.80999999997,0.0,0.8200000000000001,0.017142095934368308,0.057214423973262186,0.0,0.0,0.0,0.0,0.12
65,2065-01-01,5234830,72785.33000000007,0.0,0.9500000000000001,0.013904048460026415,0.05452153975513383,0.0,0.0,0.0,0.0,0.09
66,2066-01-01,5234830,91824.49000000002,0.0,1.32,0.01754106437076276,0.06263987983714157,0.0,0.0,0.0,0.0,0.14
67,2067-01-01,5234830,37761.83999999997,0.0,0.64,0.007213575225938563,0.029237822226113028,0.0,0.0,0.0,0.0,0.06
68,2068-01-01,5249172,59782.299999999996,0.0,0.77,0.011388900954283836,0.04746844244937064,0.0,0.0,0.0,0.0,0.08
69,2069-01-01,5234830,35433.940000000024,0.0,0.85,0.006768880746843742,0.03457373912776548,0.0,0.0,0.0,0.0,0.03
70,2070-01-01,5234830,95178.83999999997,0.0,1.25,0.018181839715902898,0.06401813422263124,0.0,0.0,0.0,0.0,0.16
71,2071-01-01,5234830,64583.62999999998,0.0,0.54,0.012337292710556022,0.03904291688007459,0.0,0.0,0.0,0.0,0.1
72,2072-01-01,5249172,53542.38,0.0,0.63,0.010200157281948466,0.04512403616417133,0.0,0.0,0.0,0.0,0.06
73,2073-01-01,5234830,7283.449999999999,0.0,0.35000000000000003,0.001391344131519075,0.01177253919713939,0.0,0.0,0.0,0.0,0.0
74,2074-01-01,5234830,87200.90000000002,0.0,0.89,0.016657828429958572,0.0637769259476315,0.0,0.0,0.0,0.0,0.12
75,2075-01-01,5234830,61468.58999999998,0.0,0.98,0.011742232316999784,0.049124432150757576,0.0,0.0,0.0,0.0,0.07
76,2076-01-01,5249172,43213.150000000016,0.0,2.29,0.008232374553548638,0.05083494181492487,0.0,0.0,0.0,0.0,0.03
77,2077-01-01,5234830,35717.01999999998,0.0,0.5,0.006822957001469003,0.030582098949966177,0.0,0.0,0.0,0.0,0.04
78,2078-01-01,5234830,10368.650000000018,0.0,0.5,0.001980704244454933,0.014155212295045466,0.0,0.0,0.0,0.0,0.0
79,2079-01-01,5234830,25583.529999999988,0.0,0.84,0.004887174941688648,0.02504153385253563,0.0,0.0,0.0,0.0,0.03
80,2080-01-01,5249172,175073.46,0.0,1.1400000000000001,0.03335258589354664,0.08938538444302699,0.0,0.0,0.0,0.0,0.26
81,2081-01-01,5234830,170190.7199999999,0.0,1.27,0.032511221949900936,0.11161598086436679,0.0,0.0,0.0,0.0,0.24
82,2082-01-01,5234830,1527.6100000000004,0.0,0.22,0.0002918165441857711,0.0038759137195314235,0.0,0.0,0.0,0.0,0.0
83,2083-01-01,5234830,31736.990000000016,0.0,0.56,0.006062659150344905,0.03125543962772718,0.0,0.0,0.0,0.0,0.03
84,2084-01-01,5249172,86636.17,0.0,1.25,0.016504730650853124,0.060948248792446105,0.0,0.0,0.0,0.0,0.13
85,2085-01-01,5234830,67258.79999999993,0.0,1.82,0.012848325542567748,0.06139854196981408,0.0,0.0,0.0,0.0,0.08
86,2086-01-01,5234830,26169.739999999954,0.0,0.58,0.004999157565766215,0.023701899258101893,0.0,0.0,0.0,0.0,0.03
87,2087-01-01,5234830,12689.170000000004,0.0,0.61,0.0024239889356483407,0.014887344996915877,0.0,0.0,0.0,0.0,0.01
88,2088-01-01,5249172,13181.039999999995,0.0,0.59,0.0025110703173757683,0.016457468092370697,0.0,0.0,0.0,0.0,0.0
89,2089-01-01,5234830,57677.319999999985,0.0,1.18,0.011017992943419362,0.05131594731702012,0.0,0.0,0.0,0.0,0.06
90,2090-01-01,5234830,24770.689999999988,0.0,0.88,0.004731899603234487,0.02977941200218871,0.0,0.0,0.0,0.0,0.02
91,2091-01-01,5234830,46368.340000000004,0.0,0.8200000000000001,0.008857659178999128,0.03723345211993186,0.0,0.0,0.0,0.0,0.06
92,2092-01-01,5249172,33601.31999999995,0.0,1.03,0.006401260998877527,0.03562390306280557,0.0,0.0,0.0,0.0,0.02
93,2093-01-01,5234830,9188.03,0.0,0.3,0.0017551725652982047,0.012274153687207376,0.0,0.0,0.0,0.0,0.0
94,2094-01-01,5234830,4630.19000000001,0.0,0.38,0.0008844967267322931,0.007279783487194442,0.0,0.0,0.0,0.0,0.0
95,2095-01-01,5234830,10072.77,0.0,0.56,0.0019241828292418284,0.011780418904934028,0.0,0.0,0.0,0.0,0.01
96,2096-01-01,5249172,2864.53,0.0,0.52,0.0005457108282982536,0.0075445246572941015,0.0,0.0,0.0,0.0,0.0
97,2097-01-01,5234830,127399.61999999997,0.0,1.16,0.024336916385059297,0.07238017705782471,0.0,0.0,0.0,0.0,0.19
98,2098-01-01,5234830,68641.25,0.0,1.34,0.013112412437462152,0.05548876470647997,0.0,0.0,0.0,0.0,0.08
99,2099-01-01,5220488,82918.95999999989,0.0,0.71,0.015883373355134595,0.05702571218379056,0.0,0.0,0.0,0.0,0.12
