,time,n,sum,min,max,mean,std,q0.05,q0.25,q0.50,q0.75,q0.95
0,2000-01-01,26985546,7488027.1099999985,0.0,13.0,0.2774828832442374,0.5186195633568917,0.0,0.0,0.0,0.3,1.3900000000000001
1,2001-01-01,26911815,5292647.12000001,0.0,11.84,0.19666630139959013,0.42261108205603165,0.0,0.0,0.0,0.23,0.98
2,2002-01-01,26911815,8055944.579999986,0.0,13.59,0.29934601512384007,0.6604289040035048,0.0,0.0,0.0,0.15,1.87
3,2003-01-01,26911815,6092925.859999988,0.0,12.280000000000001,0.2264033793335748,0.4614944115594512,0.0,0.0,0.0,0.26,1.16
4,2004-01-01,26985546,8096263.659999989,0.0,11.870000000000001,0.30002222893692754,0.5729188858924199,0.0,0.0,0.0,0.39,1.46
5,2005-01-01,26911815,5861101.300000007,0.0,11.28,0.21778914948694494,0.5316362967525081,0.0,0.0,0.0,0.09,1.36
6,2006-01-01,26911815,8089108.290000021,0.0,11.4,0.30057832554214653,0.5945860696373326,0.0,0.0,0.0,0.34,1.58
7,2007-01-01,26911815,6398377.020000019,0.0,11.32,0.23775345587059138,0.4976294143162823,0.0,0.0,0.0,0.2,1.37
8,2008-01-01,26985546,3370729.0999999987,0.0,10.35,0.12490868630191876,0.3215191169984807,0.0,0.0,0.0,0.07,0.76
9,2009-01-01,26911815,4240721.400000004,0.0,10.84,0.15757842419769919,0.35583107456791485,0.0,0.0,0.0,0.15,0.86
10,2010-01-01,26911815,5859326.009999996,0.0,10.19,0.21772318255011772,0.409998515823011,0.0,0.0,0.0,0.28,1.1
11,2011-01-01,26911815,8161332.409999989,0.0,10.22,0.30326205831899444,0.5620063840334155,0.0,0.0,0.0,0.38,1.59
12,2012-01-01,26985546,11002125.109999975,0.0,11.4,0.4077043729261574,0.795411308739476,0.0,0.0,0.0,0.37,2.29
13,2013-01-01,26911815,5178169.030000002,0.0,10.93,0.19241247868269018,0.4367873692386926,0.0,0.0,0.0,0.15,1.16
14,2014-01-01,26911815,4175317.010000008,0.0,10.98,0.15514810167950427,0.3758764467088743,0.0,0.0,0.0,0.07,0.91
15,2015-01-01,26911815,3587574.7500000033,0.0,10.82,0.13330853939059864,0.3568982211899698,0.0,0.0,0.0,0.05,0.84
16,2016-01-01,26985546,6967880.109999997,0.0,11.68,0.25820786097861415,0.5962294111649773,0.0,0.0,0.0,0.14,1.62
17,2017-01-01,26911815,4486029.199999994,0.0,10.72,0.16669366967631108,0.3839369495172956,0.0,0.0,0.0,0.1,1.02
18,2018-01-01,26911815,9100173.360000005,0.0,11.02,0.3381478863465732,0.714100516665712,0.0,0.0,0.0,0.2,2.02
19,2019-01-01,26911815,3115426.3699999964,0.0,10.22,0.11576426079028844,0.29581447382986714,0.0,0.0,0.0,0.06,0.74
20,2020-01-01,26985546,8389823.61,0.0,11.57,0.3109006432554672,0.6418106143164146,0.0,0.0,0.0,0.28,1.82
21,2021-01-01,26911815,3043957.0900000017,0.0,9.540000000000001,0.11310857666047429,0.2610446558519311,0.0,0.0,0.0,0.08,0.66
22,2022-01-01,26911815,4826664.970000004,0.0,10.8,0.1793511500432061,0.42048938232813565,0.0,0.0,0.0,0.14,0.99
23,2023-01-01,26911815,5181960.240000012,0.0,10.77,0.19255335398225695,0.41966102801049177,0.0,0.0,0.0,0.13,1.12
24,2024-01-01,26985546,3245337.949999998,0.0,10.21,0.12026208215316443,0.2826596246387179,0.0,0.0,0.0,0.06,0.7000000000000001
25,2025-01-01,26911815,2732167.950000005,0.0,10.36,0.10152299092424664,0.31839387069681585,0.0,0.0,0.0,0.01,0.62
26,2026-01-01,26911815,6482884.650000004,0.0,11.57,0.24089362423158767,0.5071609207364665,0.0,0.0,0.0,0.2,1.4000000000000001
27,2027-01-01,26911815,7513592.369999983,0.0,10.82,0.27919307449163067,0.5593913759054958,0.0,0.0,0.0,0.24,1.57
28,2028-01-01,26985546,11563846.629999984,0.0,11.28,0.42852001697501263,0.8182293765872996,0.0,0.0,0.0,0.42,2.36
29,2029-01-01,26911815,10713989.310000006,0.0,11.67,0.3981147057528452,0.7198724499939765,0.0,0.0,0.0,0.47000000000000003,2.07
30,2030-01-01,26911815,10131472.580000022,0.0,12.94,0.37646931580051446,0.7812797993748136,0.0,0.0,0.0,0.26,2.24
31,2031-01-01,26911815,3399050.5400000033,0.0,11.790000000000001,0.12630328129113563,0.3313030422185473,0.0,0.0,0.0,0.06,0.75
32,2032-01-01,26985546,6235256.139999976,0.0,12.42,0.23105910623412906,0.5270452775590879,0.0,0.0,0.0,0.17,1.34
33,2033-01-01,26911815,10702900.189999947,0.0,11.53,0.39770265179067066,0.6715265176160269,0.0,0.0,0.0,0.53,1.8800000000000001
34,2034-01-01,26911815,3976705.139999988,0.0,9.93,0.14776800226963466,0.32284982637172877,0.0,0.0,0.0,0.13,0.8300000000000001
35,2035-01-01,26911815,12672118.639999965,0.0,11.26,0.47087565963127964,0.8295409286629141,0.0,0.0,0.0,0.58,2.34
36,2036-01-01,26985546,5717860.730000023,0.0,11.03,0.21188604929468624,0.47929333331120133,0.0,0.0,0.0,0.18,1.19
37,2037-01-01,26911815,8899639.469999999,0.0,10.58,0.3306963677477717,0.6298672644620038,0.0,0.0,0.0,0.35000000000000003,1.75
38,2038-01-01,26911815,4676008.6099999985,0.0,9.86,0.17375300068018446,0.38854184830915206,0.0,0.0,0.0,0.14,1.0
39,2039-01-01,26911815,4442238.14000001,0.0,10.38,0.1650664639304339,0.3789392078871711,0.0,0.0,0.0,0.13,0.92
40,2040-01-01,26985546,4152952.850000005,0.0,10.1,0.15389545388483172,0.3850804753885545,0.0,0.0,0.0,0.05,0.99
41,2041-01-01,26911815,3859763.489999998,0.0,10.48,0.14342263760359522,0.3301126171594198,0.0,0.0,0.0,0.09,0.87
42,2042-01-01,26911815,9837913.589999989,0.0,11.23,0.3655611332791931,0.6499307934292167,0.0,0.0,0.0,0.48,1.81
43,2043-01-01,26911815,7374381.269999982,0.0,12.25,0.27402021268353627,0.6003041625565542,0.0,0.0,0.0,0.2,1.6
44,2044-01-01,26985546,5432855.519999991,0.0,11.4,0.20132464690542082,0.42293941875851593,0.0,0.0,0.0,0.22,1.17
45,2045-01-01,26911815,5949551.029999998,0.0,11.88,0.22107579997855956,0.522964499332286,0.0,0.0,0.0,0.11,1.4000000000000001
46,2046-01-01,26911815,3727562.1700000027,0.0,10.950000000000001,0.1385102480081705,0.3148803253232505,0.0,0.0,0.0,0.13,0.77
47,2047-01-01,26911815,7374691.660000008,0.0,11.33,0.27403174627946897,0.607314049974982,0.0,0.0,0.0,0.16,1.71
48,2048-01-01,26985546,7107593.45999998,0.0,10.700000000000001,0.26338520109987695,0.48073876152295797,0.0,0.0,0.0,0.35000000000000003,1.32
49,2049-01-01,26911815,3057416.5299999923,0.0,9.43,0.11360870792252371,0.27623126166076944,0.0,0.0,0.0,0.07,0.68
50,2050-01-01,26911815,4284046.779999993,0.0,11.31,0.1591883260196309,0.36787216315413945,0.0,0.0,0.0,0.13,0.9
51,2051-01-01,26911815,10600855.459999979,0.0,11.43,0.3939108328442351,0.8563268789748676,0.0,0.0,0.0,0.23,2.39
52,2052-01-01,26985546,4464112.129999983,0.0,12.16,0.1654260443720495,0.40984042566042983,0.0,0.0,0.0,0.09,1.01
53,2053-01-01,26911815,4878000.689999992,0.0,10.53,0.18125870328701324,0.4048427595417135,0.0,0.0,0.0,0.15,1.07
54,2054-01-01,26911815,7867815.90000001,0.0,11.32,0.2923554542865284,0.58035141633056,0.0,0.0,0.0,0.33,1.55
55,2055-01-01,26911815,5795484.530000024,0.0,10.200000000000001,0.2153509352676519,0.4445148971584248,0.0,0.0,0.0,0.22,1.11
56,2056-01-01,26985546,6609015.18999999,0.0,11.63,0.24490944856183344,0.5237900868421299,0.0,0.0,0.0,0.21,1.34
57,2057-01-01,26911815,9112957.660000023,0.0,11.66,0.33862293048610886,0.6426588050863739,0.0,0.0,0.0,0.41000000000000003,1.78
58,2058-01-01,26911815,7033898.480000016,0.0,12.89,0.2613684168087517,0.6097726702851294,0.0,0.0,0.0,0.11,1.69
59,2059-01-01,26911815,7811108.379999994,0.0,13.41,0.29024829354690473,0.6486782765408379,0.0,0.0,0.0,0.14,1.79
60,2060-01-01,26985546,3150277.5299999993,0.0,10.93,0.11673944006913921,0.27531950223249335,0.0,0.0,0.0,0.09,0.65
61,2061-01-01,26911815,6755209.889999991,0.0,10.85,0.2510127945662525,0.491021667664215,0.0,0.0,0.0,0.28,1.35
62,2062-01-01,26911815,4150537.980000005,0.0,11.0,0.15422735255871836,0.35353031459757683,0.0,0.0,0.0,0.1,0.92
63,2063-01-01,26911815,5996849.629999995,0.0,11.01,0.22283334030053326,0.5067070163877425,0.0,0.0,0.0,0.1,1.35
64,2064-01-01,26985546,1956585.4499999983,0.0,9.66,0.07250494209010995,0.20068209077433752,0.0,0.0,0.0,0.03,0.44
65,2065-01-01,26911815,4587935.240000007,0.0,10.700000000000001,0.1704803351241827,0.39921046605850774,0.0,0.0,0.0,0.09,1.04
66,2066-01-01,26911815,4843783.519999976,0.0,10.450000000000001,0.17998724798011492,0.4104911380657529,0.0,0.0,0.0,0.09,1.09
67,2067-01-01,26911815,3339352.360000006,0.0,10.21,0.12408499240946795,0.28495325599552074,0.0,0.0,0.0,0.1,0.72
68,2068-01-01,26985546,7167544.570000003,0.0,11.94,0.2656068018783093,0.5836566726133215,0.0,0.0,0.0,0.2,1.58
69,2069-01-01,26911815,2837164.2599999965,0.0,9.5,0.10542448586243612,0.29201924801657714,0.0,0.0,0.0,0.05,0.64
70,2070-01-01,26911815,8332909.8800000055,0.0,10.5,0.3096376026663384,0.5848206033088269,0.0,0.0,0.0,0.38,1.59
71,2071-01-01,26911815,13595303.510000022,0.0,11.07,0.5051797327679319,0.9521438957580791,0.0,0.0,0.0,0.54,2.65
72,2072-01-01,26985546,6917840.6400000015,0.0,11.71,0.2563535546028975,0.5577336725303084,0.0,0.0,0.0,0.24,1.4000000000000001
73,2073-01-01,26911815,8798392.580000002,0.0,11.83,0.32693419525959144,0.6262810856839769,0.0,0.0,0.0,0.35000000000000003,1.73
74,2074-01-01,26911815,11762955.499999976,0.0,12.950000000000001,0.4370926115536977,0.7441848202206228,0.0,0.0,0.01,0.56,2.07
75,2075-01-01,26911815,5553962.06999999,0.0,12.96,0.2063763469687938,0.4896490243960908,0.0,0.0,0.0,0.13,1.19
76,2076-01-01,26985546,5874070.530000004,0.0,11.84,0.21767469629852973,0.4793633780740078,0.0,0.0,0.0,0.17,1.29
77,2077-01-01,26911815,5719525.70999999,0.0,10.72,0.2125284270124475,0.4602068836214971,0.0,0.0,0.0,0.14,1.29
78,2078-01-01,26911815,3916309.569999996,0.0,10.49,0.14552379949104124,0.3316883115007237,0.0,0.0,0.0,0.1,0.86
79,2079-01-01,26911815,4399798.499999997,0.0,11.03,0.16348947479016177,0.37987479467039237,0.0,0.0,0.0,0.11,0.99
80,2080-01-01,26985546,6581508.400000018,0.0,12.05,0.24389013288817718,0.5475364081658313,0.0,0.0,0.0,0.14,1.45
81,2081-01-01,26911815,5788899.0600000005,0.0,11.27,0.21510622973589855,0.4094297225785907,0.0,0.0,0.0,0.29,1.04
82,2082-01-01,26911815,5117449.989999994,0.0,11.26,0.19015625627628585,0.4333763228666312,0.0,0.0,0.0,0.1,1.19
83,2083-01-01,26911815,6127234.189999995,0.0,10.22,0.22767822200026253,0.4626338168681348,0.0,0.0,0.0,0.2,1.3
84,2084-01-01,26985546,11871452.14999996,0.0,12.450000000000001,0.4399189162227794,0.9500070628479418,0.0,0.0,0.0,0.24,2.74
85,2085-01-01,26911815,5283724.230000008,0.0,10.99,0.19633474107933663,0.3741098833905415,0.0,0.0,0.0,0.25,1.0
86,2086-01-01,26911815,9394489.529999956,0.0,11.34,0.34908420446558347,0.6831147879470967,0.0,0.0,0.0,0.35000000000000003,1.8900000000000001
87,2087-01-01,26911815,5781361.830000013,0.0,11.02,0.21482615832488494,0.4195462674352376,0.0,0.0,0.0,0.23,1.1300000000000001
88,2088-01-01,26985546,3942459.8099999907,0.0,9.85,0.1460952396516265,0.37748901956330727,0.0,0.0,0.0,0.02,0.98
89,2089-01-01,26911815,4472213.329999997,0.0,9.97,0.16618029404557058,0.41311039087797885,0.0,0.0,0.0,0.08,1.1400000000000001
90,2090-01-01,26911815,4928714.72999999,0.0,9.94,0.18314315589639682,0.36680412452731076,0.0,0.0,0.0,0.21,0.97
91,2091-01-01,26911815,5778508.960000019,0.0,10.65,0.2147201502388456,0.4974330841330262,0.0,0.0,0.0,0.17,1.21
92,2092-01-01,26985546,5339153.099999999,0.0,10.17,0.1978523280573978,0.4591516834284361,0.0,0.0,0.0,0.09,1.26
93,2093-01-01,26911815,2146403.3900000025,0.0,9.74,0.07975691680401349,0.23577114855988732,0.0,0.0,0.0,0.01,0.51
94,2094-01-01,26911815,7118701.659999985,0.0,10.58,0.2645195673350157,0.6105079035468973,0.0,0.0,0.0,0.13,1.7
95,2095-01-01,26911815,7881881.069999984,0.0,10.77,0.29287809350651317,0.5935220698166128,0.0,0.0,0.0,0.24,1.68
96,2096-01-01,26985546,9007960.649999974,0.0,12.01,0.3338068701667172,0.6604188911148133,0.0,0.0,0.0,0.34,1.86
97,2097-01-01,26911815,4493321.529999985,0.0,10.83,0.16696464099504196,0.36119742420972256,0.0,0.0,0.0,0.16,0.93
98,2098-01-01,26911815,3643459.119999994,0.0,10.56,0.13538511319284835,0.3238870189350173,0.0,0.0,0.0,0.09,0.81
99,2099-01-01,26911815,7397254.150000026,0.0,10.99,0.27487013231920726,0.6172115772118416,0.0,0.0,0.0,0.11,1.78
100,2100-01-01,26838084,1865186.8000000042,0.0,9.52,0.06949776295506059,0.18512145847175582,0.0,0.0,0.0,0.02,0.43
