{
  "adj_r2": 0.49419314352485477,
  "bias": -0.0007036168696212541,
  "corr": 0.7033590990405062,
  "crmsd": 0.04680095929407088,
  "kge": 0.5944629379019415,
  "mae": 0.030028358434356407,
  "me": -0.00070361686962049,
  "mse": 0.002190824867544499,
  "nse": 0.4941932041329361,
  "pearsonr": 0.7033590990405063,
  "r2": 0.4941932041329361,
  "rmse": 0.046806248167787376,
  "sde": 0.04680095929407089,
  "std": 0.04761709147840163,
  "std_ref": 0.06581297164407715
}