{
  "adj_r2": 0.6572959207806863,
  "bias": 8.90594267721756e-07,
  "corr": 0.8107413613894796,
  "crmsd": 0.031102578981275456,
  "kge": 0.7322965083398632,
  "mae": 0.020826589791426656,
  "me": 8.905942677554223e-07,
  "mse": 0.0009673704200796364,
  "nse": 0.6573015495123944,
  "pearsonr": 0.8107413613894796,
  "r2": 0.6573015495123944,
  "rmse": 0.031102578994026145,
  "sde": 0.03110257898127546,
  "std": 0.0430708811233329,
  "std_ref": 0.053130063061880964
}