{
  "adj_r2": 0.6602574364850715,
  "bias": 1.651530459678696e-05,
  "corr": 0.8125674355137942,
  "crmsd": 0.030967894785319118,
  "kge": 0.7337606823695166,
  "mae": 0.020600224574219343,
  "me": 1.651530459680308e-05,
  "mse": 0.0009590107801898811,
  "nse": 0.6602630165754638,
  "pearsonr": 0.8125674355137942,
  "r2": 0.6602630165754638,
  "rmse": 0.030967899189158456,
  "sde": 0.030967894785319118,
  "std": 0.043084069433434305,
  "std_ref": 0.053130063061880964
}